<!-- This file has been generated by http://www.paraglidingearth.com -->
<kml xmlns="http://earth.google.com/kml/2.0">

   <Document>
   
  <Style id="noIcon">
     <IconStyle>
      <scale>0</scale>
    </IconStyle>
  </Style>
  
    <name> - 10- 2-2041</name>
    
    <Placemark>
            <name>Flight</name>
            <visibility>1</visibility>
            <open>1</open>
            <Style>
              <LineStyle>
                <color>ff00ffff</color>
              </LineStyle>
              <PolyStyle>
                  <color>7f0000ff</color>
              </PolyStyle>
            </Style>
        <LineString>
              <altitudeMode>absolute
              </altitudeMode>
              
          <coordinates>
          
         35.9259,34.3427,1782  

         35.926017,34.342967,0831  

         35.926783,34.343683,0833  

         35.925733,34.342567,0839  

         35.926333,34.342983,0850  

         35.925833,34.341217,0856  

         35.925033,34.340033,0854  

         35.926883,34.337933,0844  

         35.930067,34.335467,0812  

         35.931983,34.332733,0802  

         35.935667,34.331217,0803  

         35.9406,34.330717,0772  

         35.944483,34.330767,0727  

         35.947367,34.330067,0722  

         35.947567,34.330083,0757  

         35.948017,34.330183,0799  

         35.948933,34.330517,0845  

         35.949283,34.3307,0894  

         35.9483,34.3311,0941  

         35.950017,34.331383,0991  

         35.950983,34.330733,1028  

         35.951233,34.330983,1046  

         35.952967,34.330567,1044  

         35.958117,34.331417,1008  

         35.96195,34.33075,1036  

         35.96315,34.330983,1070  

         35.964033,34.331167,1102  

         35.96425,34.331217,1131  

         35.964967,34.33095,1152  

         35.967367,34.330317,1173  

         35.9681,34.329133,1219  

         35.968683,34.329567,1250  

         35.9709,34.32965,1274  

         35.975733,34.328217,1290  

         35.978433,34.327317,1327  

         35.979217,34.326667,1364  

         35.981183,34.32685,1402  

         35.9851,34.324717,1396  

         35.987633,34.323433,1417  

         35.9884,34.323167,1451  

         35.989333,34.322767,1497  

         35.99115,34.321667,1516  

         35.994933,34.319167,1539  

         35.997133,34.316467,1560  

         35.998183,34.314483,1599  

         35.999317,34.31385,1646  

         36.001317,34.314083,1704  

         36.001867,34.314117,1749  

         36.00105,34.3135,1800  

         36.001883,34.313317,1849  

         36.002483,34.31275,1882  

         36.006483,34.311267,1879  

         36.009183,34.308617,1876  

         36.010017,34.306933,1893  

         36.009933,34.306267,1906  

         36.009367,34.30465,1925  

         36.009217,34.302317,1965  

         36.010133,34.301033,2027  

         36.011033,34.300683,2094  

         36.013267,34.299983,2145  

         36.013717,34.299983,2174  

         36.013783,34.299617,2202  

         36.014233,34.299083,2234  

         36.017433,34.297117,2257  

         36.019117,34.294167,2266  

         36.018883,34.291867,2271  

         36.018783,34.291133,2292  

         36.017867,34.291667,2315  

         36.0189,34.289933,2335  

         36.018083,34.288483,2306  

         36.016617,34.28765,2301  

         36.0167,34.287833,2320  

         36.016033,34.286717,2313  

         36.01785,34.288367,2314  

         36.015467,34.2884,2308  

         36.012883,34.288383,2264  

         36.016567,34.290017,2219  

         36.01785,34.291683,2243  

         36.018517,34.292367,2266  

         36.018067,34.290883,2279  

         36.01655,34.288633,2268  

         36.015667,34.288717,2271  

         36.016567,34.289267,2268  

         36.017783,34.2933,2273  

         36.015817,34.295817,2278  

         36.012983,34.2968,2248  

         36.009983,34.297233,2185  

         36.006767,34.297133,2097  

         36.003533,34.29715,2028  

         36.000583,34.297917,1980  

         35.997467,34.2982,1925  

         35.9944,34.297933,1892  

         35.993033,34.297617,1888  

         35.992083,34.298283,1858  

         35.991967,34.302217,1837  

         35.991633,34.305433,1713  

         35.992783,34.309633,1554  

         35.99275,34.313583,1409  

         35.991467,34.315267,1347  

         35.9259,34.3427,1782  

         35.925067,34.342783,0828  

         35.925283,34.342717,0845  

         35.925283,34.342633,0855  

         35.925267,34.342567,0865  

         35.925267,34.342483,0875  

         35.925517,34.342667,0885  

         35.92555,34.342783,0892  

         35.925267,34.342817,0897  

         35.925283,34.343133,0911  

         35.925167,34.343,0926  

         35.925017,34.343,0938  

         35.92515,34.343367,0949  

         35.92625,34.34365,0953  

         35.926417,34.34365,0957  

         35.926883,34.344067,0955  

         35.926367,34.344017,0949  

         35.925767,34.344567,0947  

         35.926217,34.344667,0954  

         35.925933,34.3449,0949  

         35.925617,34.344733,0952  

         35.925733,34.345133,0944  

         35.925783,34.344567,0946  

         35.9256,34.344717,0955  

         35.925633,34.344683,0959  

         35.92565,34.344683,0964  

         35.925717,34.344633,0974  

         35.925733,34.344617,0980  

         35.925767,34.344583,0986  

         35.925783,34.344567,0993  

         35.92585,34.344583,1000  

         35.927317,34.34425,0991  

         35.92895,34.343483,0974  

         35.930517,34.34265,0958  

         35.932133,34.341783,0939  

         35.93255,34.342067,0913  

         35.932833,34.343333,0888  

         35.932167,34.34405,0867  

         35.93135,34.344583,0845  

         35.930583,34.345083,0820  

         35.929883,34.345567,0797  

         35.92925,34.346167,0772  

         35.928683,34.34685,0746  

         35.927967,34.347333,0726  

         35.927217,34.347633,0716  

         35.926383,34.347717,0709  

         35.925583,34.3475,0702  

         35.924817,34.347133,0693  

         35.92405,34.34675,0691  

         35.923467,34.346,0695  

         35.923117,34.345033,0701  

         35.922867,34.344017,0709  

         35.9235,34.34485,0721  

         35.924067,34.344833,0738  

         35.924333,34.344417,0750  

         35.924517,34.344033,0763  

         35.924717,34.343633,0777  

         35.9251,34.34395,0786  

         35.925317,34.343833,0796  

         35.925417,34.343583,0800  

         35.925283,34.343467,0808  

         35.92515,34.343333,0821  

         35.925017,34.343217,0833  

         35.924883,34.343083,0846  

         35.924733,34.342983,0860  

         35.925117,34.343567,0873  

         35.9253,34.343833,0886  

         35.925233,34.343567,0898  

         35.925167,34.343283,0911  

         35.925083,34.343017,0924  

         35.925017,34.34275,0939  

         35.925117,34.342817,0954  

         35.925617,34.343383,0962  

         35.9258,34.343583,0964  

         35.9257,34.343517,0965  

         35.925583,34.3434,0965  

         35.925383,34.3432,0965  

         35.925017,34.343217,0966  

         35.925967,34.34335,0963  

         35.9267,34.343733,0959  

         35.9263,34.343683,0959  

         35.925883,34.343633,0958  

         35.925517,34.343583,0957  

         35.925333,34.343167,0956  

         35.925217,34.343133,0964  

         35.925167,34.343367,0966  

         35.925017,34.343217,0966  

         35.924933,34.343617,0964  

         35.924817,34.343283,0958  

         35.924533,34.343117,0956  

         35.924333,34.343033,0949  

         35.924783,34.342733,0954  

         35.925433,34.343067,0961  

         35.925167,34.343033,0967  

         35.925,34.342967,0969  

         35.924817,34.342833,0968  

         35.925217,34.342817,0970  

         35.925117,34.34305,0973  

         35.925533,34.343117,0975  

         35.9254,34.343133,0975  

         35.925267,34.343017,0976  

         35.925667,34.343033,0978  

         35.925517,34.3431,0977  

         35.925317,34.3431,0977  

         35.925133,34.343117,0978  

         35.925667,34.342967,0977  

         35.925517,34.343,0978  

         35.925367,34.343,0978  

         35.925183,34.343117,0979  

         35.925383,34.342867,0977  

         35.926083,34.342317,0982  

         35.92615,34.342483,0983  

         35.926217,34.342783,0985  

         35.926133,34.342867,0986  

         35.92605,34.343067,0986  

         35.925967,34.343283,0987  

         35.926883,34.343233,0985  

         35.92765,34.342867,0979  

         35.92815,34.342517,0974  

         35.927983,34.342483,0978  

         35.927933,34.342383,0970  

         35.9282,34.341983,0966  

         35.928567,34.341617,0959  

         35.929,34.341167,0950  

         35.9294,34.340733,0940  

         35.929783,34.3403,0927  

         35.930867,34.339983,0914  

         35.9317,34.339633,0912  

         35.931667,34.33965,0920  

         35.931617,34.339667,0927  

         35.931567,34.339667,0935  

         35.931517,34.339667,0942  

         35.93145,34.339683,0948  

         35.931917,34.339683,0958  

         35.931867,34.33965,0964  

         35.9318,34.339617,0972  

         35.931733,34.339567,0981  

         35.931683,34.339533,0991  

         35.931617,34.3395,1000  

         35.93155,34.339467,1009  

         35.931483,34.339417,1016  

         35.931417,34.339383,1021  

         35.931367,34.33935,1026  

         35.931917,34.339283,1027  

         35.932033,34.339533,1031  

         35.931983,34.339633,1037  

         35.931917,34.339733,1044  

         35.931867,34.339833,1051  

         35.931817,34.339933,1055  

         35.931817,34.339867,1057  

         35.931867,34.339617,1063  

         35.931833,34.339633,1071  

         35.931783,34.339683,1078  

         35.931733,34.339733,1085  

         35.931683,34.339767,1092  

         35.931483,34.339967,1112  

         35.9318,34.33955,1121  

         35.931767,34.3397,1129  

         35.93175,34.339833,1135  

         35.931783,34.339717,1141  

         35.9318,34.339517,1149  

         35.931817,34.33955,1157  

         35.931817,34.339683,1164  

         35.931767,34.339583,1173  

         35.931717,34.3395,1183  

         35.931667,34.339417,1192  

         35.9316,34.339317,1199  

         35.93155,34.339233,1204  

         35.932033,34.339167,1194  

         35.931917,34.339133,1185  

         35.931617,34.339133,1179  

         35.931467,34.33935,1173  

         35.931583,34.339617,1180  

         35.931667,34.339483,1188  

         35.931833,34.339683,1194  

         35.931817,34.3396,1201  

         35.931783,34.339583,1208  

         35.931783,34.339567,1216  

         35.9318,34.33955,1223  

         35.931817,34.339533,1230  

         35.931817,34.339567,1237  

         35.931767,34.3396,1244  

         35.931717,34.339617,1252  

         35.931683,34.3396,1261  

         35.931633,34.339583,1271  

         35.931617,34.339583,1281  

         35.931583,34.339583,1291  

         35.931533,34.339567,1300  

         35.931517,34.339567,1308  

         35.931483,34.33955,1316  

         35.931433,34.339533,1323  

         35.93165,34.339583,1333  

         35.931683,34.339633,1342  

         35.931517,34.339567,1388  

         35.931483,34.339533,1397  

         35.931483,34.339617,1405  

         35.931633,34.339733,1412  

         35.9317,34.339483,1420  

         35.931717,34.339617,1429  

         35.931683,34.339533,1438  

         35.931667,34.339467,1447  

         35.931633,34.3394,1454  

         35.931617,34.339333,1460  

         35.931583,34.33925,1465  

         35.931567,34.339183,1466  

         35.931533,34.339117,1461  

         35.931533,34.339117,1452  

         35.931833,34.339483,1455  

         35.93185,34.339617,1462  

         35.931817,34.339617,1469  

         35.931783,34.339583,1477  

         35.93175,34.339583,1485  

         35.931717,34.339567,1494  

         35.931683,34.33955,1503  

         35.93165,34.339533,1513  

         35.931617,34.339517,1521  

         35.931583,34.3395,1530  

         35.931567,34.339483,1538  

         35.931517,34.339467,1545  

         35.931483,34.33945,1552  

         35.931467,34.339433,1559  

         35.931433,34.339417,1565  

         35.9314,34.339417,1570  

         35.931367,34.3394,1576  

         35.931767,34.339567,1585  

         35.93185,34.339667,1594  

         35.931833,34.3396,1601  

         35.9318,34.33955,1609  

         35.931767,34.339483,1616  

         35.931733,34.339433,1624  

         35.931717,34.339383,1631  

         35.931683,34.339333,1637  

         35.93165,34.339283,1642  

         35.931617,34.339233,1646  

         35.9316,34.339167,1645  

         35.931567,34.339117,1640  

         35.931533,34.339067,1632  

         35.931617,34.339167,1623  

         35.931883,34.33955,1628  

         35.931883,34.339633,1634  

         35.931867,34.339667,1640  

         35.931833,34.33965,1647  

         35.931817,34.339567,1654  

         35.931783,34.339583,1661  

         35.93175,34.3396,1670  

         35.931717,34.339617,1679  

         35.931683,34.339633,1688  

         35.93165,34.33965,1697  

         35.931617,34.339667,1706  

         35.931583,34.339683,1715  

         35.931567,34.339683,1723  

         35.931517,34.339717,1731  

         35.931483,34.339733,1738  

         35.931467,34.339733,1745  

         35.931417,34.339767,1751  

         35.931383,34.339767,1757  

         35.931367,34.339783,1762  

         35.931333,34.339817,1766  

         35.931283,34.339817,1768  

         35.931267,34.339833,1768  

         35.931233,34.33985,1765  

         35.9312,34.339867,1761  

         35.9313,34.3397,1755  

         35.932067,34.33885,1754  

         35.932817,34.337633,1735  

         35.933583,34.336433,1716  

         35.934367,34.335217,1697  

         35.935083,34.334067,1679  

         35.935833,34.332883,1661  

         35.936567,34.331717,1643  

         35.9373,34.330567,1625  

         35.938033,34.329383,1607  

         35.938783,34.3282,1588  

         35.939533,34.327017,1570  

         35.940283,34.325817,1551  

         35.941317,34.324567,1531  

         35.9419,34.323567,1512  

         35.9411,34.32415,1498  

         35.941917,34.324483,1480  

         35.941333,34.324067,1470  

         35.942017,34.324333,1452  

         35.942867,34.323467,1430  

         35.944267,34.322533,1413  

         35.945567,34.321533,1394  

         35.946817,34.320567,1377  

         35.948083,34.319583,1359  

         35.949333,34.318617,1342  

         35.9506,34.317633,1324  

         35.951883,34.31665,1306  

         35.9532,34.315633,1292  

         35.9543,34.31485,1289  

         35.954783,34.314683,1302  

         35.954767,34.314783,1306  

         35.954583,34.315067,1304  

         35.95425,34.315933,1295  

         35.953717,34.316617,1286  

         35.953867,34.316883,1279  

         35.95535,34.316383,1277  

         35.956917,34.315833,1272  

         35.958817,34.315283,1249  

         35.960717,34.314933,1204  

         35.962283,34.314733,1199  

         35.963883,34.314833,1192  

         35.965483,34.315133,1190  

         35.966917,34.315783,1190  

         35.96755,34.3167,1202  

         35.96795,34.31745,1220  

         35.96835,34.316683,1239  

         35.968767,34.315933,1259  

         35.96885,34.315267,1279  

         35.968933,34.314583,1298  

         35.969483,34.31535,1313  

         35.9698,34.31605,1323  

         35.9698,34.316617,1335  

         35.969883,34.31695,1348  

         35.969983,34.316967,1367  

         35.9699,34.317017,1379  

         35.969883,34.316983,1397  

         35.969867,34.316967,1414  

         35.969867,34.316933,1430  

         35.969867,34.317,1444  

         35.969883,34.317017,1456  

         35.969883,34.317,1463  

         35.96985,34.317033,1470  

         35.970033,34.316767,1473  

         35.970467,34.315917,1457  

         35.970633,34.315017,1438  

         35.9707,34.31415,1427  

         35.970767,34.313283,1423  

         35.970817,34.312417,1421  

         35.971517,34.311383,1426  

         35.971967,34.310417,1441  

         35.9723,34.310433,1460  

         35.9727,34.31115,1474  

         35.972717,34.310533,1487  

         35.972667,34.309983,1500  

         35.972767,34.309883,1513  

         35.972833,34.310117,1523  

         35.972883,34.310367,1533  

         35.972967,34.310583,1542  

         35.973033,34.310817,1547  

         35.973067,34.310767,1553  

         35.973,34.310717,1560  

         35.972933,34.310683,1567  

         35.972867,34.31065,1574  

         35.972817,34.310617,1582  

         35.97275,34.310567,1590  

         35.972667,34.310533,1602  

         35.972583,34.3105,1612  

         35.972533,34.310467,1617  

         35.9733,34.309583,1619  

         35.9746,34.308467,1594  

         35.97585,34.307467,1570  

         35.977067,34.306483,1555  

         35.978767,34.305833,1531  

         35.9807,34.305783,1526  

         35.982683,34.30585,1510  

         35.984083,34.306767,1502  

         35.985217,34.307533,1514  

         35.985983,34.308,1526  

         35.986583,34.308383,1539  

         35.98665,34.308067,1555  

         35.986667,34.307833,1570  

         35.98665,34.307617,1587  

         35.986667,34.307333,1607  

         35.986683,34.30705,1627  

         35.986667,34.306833,1646  

         35.986633,34.306617,1665  

         35.986617,34.306383,1684  

         35.986633,34.306117,1704  

         35.987,34.30565,1722  

         35.987283,34.305183,1740  

         35.98745,34.304783,1756  

         35.987583,34.304417,1772  

         35.987617,34.304133,1784  

         35.987617,34.303983,1796  

         35.987617,34.303817,1807  

         35.987617,34.30365,1816  

         35.987617,34.303483,1825  

         35.987617,34.303317,1834  

         35.987633,34.30315,1841  

         35.987633,34.302983,1845  

         35.987667,34.302817,1849  

         35.98805,34.302933,1850  

         35.988033,34.302733,1849  

         35.98735,34.302433,1844  

         35.986667,34.302133,1846  

         35.986233,34.301983,1869  

         35.98625,34.302083,1892  

         35.986467,34.302333,1911  

         35.986383,34.3023,1930  

         35.986283,34.302333,1946  

         35.986217,34.302267,1958  

         35.98615,34.30215,1970  

         35.986183,34.30225,1979  

         35.986083,34.3022,1983  

         35.986717,34.301617,1997  

         35.9875,34.30095,1996  

         35.988533,34.300317,1989  

         35.989633,34.29975,1969  

         35.991267,34.29895,1936  

         35.993,34.298417,1930  

         35.994517,34.298133,1931  

         35.996183,34.298117,1928  

         35.997767,34.2983,1926  

         35.999133,34.298517,1921  

         35.999983,34.298967,1915  

         36.000567,34.299867,1912  

         36.0011,34.300833,1913  

         36.002217,34.30135,1915  

         36.0027,34.301867,1900  

         36.001883,34.302233,1880  

         36.000967,34.302217,1868  

         36.000117,34.30205,1857  

         35.999267,34.30175,1851  

         35.9985,34.302333,1846  

         35.99775,34.302883,1834  

         35.996933,34.303467,1812  

         35.996117,34.30405,1795  

         35.995333,34.304633,1784  

         35.994467,34.305233,1785  

         35.993533,34.305617,1789  

         35.992667,34.305983,1773  

         35.99205,34.306783,1733  

         35.991367,34.3076,1684  

         35.990617,34.308317,1642  

         35.989683,34.308633,1619  

         35.988717,34.308567,1609  

         35.9878,34.308083,1608  

         35.98705,34.3072,1617  

         35.986367,34.306333,1628  

         35.986167,34.305633,1647  

         35.986817,34.306,1669  

         35.987983,34.306667,1684  

         35.988133,34.306583,1696  

         35.987833,34.306083,1706  

         35.987633,34.305633,1723  

         35.987517,34.305167,1741  

         35.987433,34.304683,1760  

         35.987383,34.3042,1776  

         35.987283,34.303767,1791  

         35.987167,34.303333,1803  

         35.987017,34.303017,1814  

         35.986867,34.302683,1824  

         35.98675,34.302367,1835  

         35.986417,34.302033,1840  

         35.9859,34.301483,1843  

         35.985467,34.300933,1850  

         35.985117,34.300283,1859  

         35.984817,34.299667,1871  

         35.98475,34.299933,1885  

         35.984733,34.2998,1901  

         35.984617,34.299733,1913  

         35.984517,34.29965,1926  

         35.984383,34.299567,1938  

         35.984267,34.2995,1953  

         35.984383,34.299717,1969  

         35.984333,34.299667,1981  

         35.984617,34.299917,1991  

         35.984633,34.29965,1997  

         35.98455,34.29965,2000  

         35.984633,34.299983,2002  

         35.984917,34.300383,2003  

         35.985383,34.300833,2003  

         35.985933,34.301317,2003  

         35.986517,34.301867,2001  

         35.98745,34.301517,1999  

         35.987283,34.30105,1996  

         35.987083,34.300633,1993  

         35.986833,34.300167,1985  

         35.986483,34.299133,1968  

         35.986267,34.298083,1960  

         35.986017,34.29705,1956  

         35.986033,34.295867,1956  

         35.986683,34.294933,1969  

         35.987283,34.2944,1984  

         35.987317,34.294617,1992  

         35.987467,34.294383,2000  

         35.988083,34.293717,2010  

         35.988583,34.2929,2017  

         35.989117,34.292133,2024  

         35.989633,34.29135,2036  

         35.990133,34.290617,2048  

         35.990633,34.289833,2064  

         35.991133,34.289083,2078  

         35.991667,34.2883,2089  

         35.992167,34.287533,2101  

         35.993367,34.286867,2117  

         35.994083,34.286117,2134  

         35.994817,34.285383,2150  

         35.995583,34.284633,2160  

         35.996367,34.283917,2162  

         35.997167,34.283183,2155  

         35.997933,34.282467,2148  

         35.99905,34.281783,2150  

         36.0003,34.281283,2154  

         36.001633,34.28085,2152  

         36.002933,34.280383,2155  

         36.004167,34.279883,2166  

         36.005433,34.279417,2176  

         36.006717,34.278967,2185  

         36.007917,34.278467,2199  

         36.009067,34.277983,2211  

         36.010367,34.2776,2217  

         36.011783,34.277517,2220  

         36.013117,34.277117,2225  

         36.014067,34.276683,2237  

         36.0149,34.276233,2254  

         36.015683,34.275817,2272  

         36.016483,34.275367,2292  

         36.017267,34.274933,2312  

         36.018067,34.2745,2331  

         36.0189,34.274067,2349  

         36.019833,34.27365,2362  

         36.021133,34.273383,2358  

         36.0224,34.273133,2349  

         36.023633,34.27285,2346  

         36.024883,34.2727,2356  

         36.026117,34.272567,2355  

         36.027367,34.272383,2350  

         36.028633,34.27225,2334  

         36.02985,34.272383,2321  

         36.031083,34.272433,2318  

         36.032367,34.272283,2320  

         36.03355,34.27205,2324  

         36.034733,34.271767,2329  

         36.035867,34.271417,2333  

         36.036933,34.271033,2341  

         36.038017,34.27065,2354  

         36.039017,34.270217,2363  

         36.039983,34.269733,2375  

         36.040833,34.269233,2388  

         36.041683,34.268717,2404  

         36.042533,34.268183,2420  

         36.043383,34.267667,2437  

         36.044167,34.267217,2460  

         36.044867,34.266767,2479  

         36.045467,34.266167,2497  

         36.046233,34.26495,2502  

         36.04715,34.263683,2497  

         36.048033,34.262483,2482  

         36.048933,34.261283,2463  

         36.049833,34.260083,2444  

         36.050733,34.258883,2425  

         36.051783,34.257733,2407  

         36.052817,34.256617,2388  

         36.0539,34.255467,2369  

         36.054983,34.2543,2350  

         36.05605,34.253133,2331  

         36.057133,34.251983,2312  

         36.05815,34.250883,2294  

         35.9259,34.3427,1782  

         35.9252,34.342917,0843  

         35.925117,34.342917,0870  

         35.92505,34.342917,0897  

         35.925017,34.342917,0923  

         35.925017,34.342833,0946  

         35.925533,34.342933,0961  

         35.92535,34.342867,0968  

         35.9246,34.3425,0966  

         35.926583,34.34035,0949  

         35.927217,34.338483,0913  

         35.925833,34.337317,0882  

         35.924567,34.336467,0851  

         35.9236,34.334833,0812  

         35.922883,34.333867,0786  

         35.92135,34.333083,0742  

         35.919767,34.332433,0702  

         35.918133,34.331883,0660  

         35.917217,34.332017,0652  

         35.91675,34.3321,0656  

         35.91665,34.332167,0666  

         35.916533,34.332233,0677  

         35.916417,34.332317,0687  

         35.916283,34.332383,0701  

         35.91615,34.332467,0717  

         35.916017,34.332533,0732  

         35.915883,34.332533,0739  

         35.915617,34.332483,0744  

         35.914067,34.333083,0719  

         35.912933,34.333367,0701  

         35.911967,34.333617,0697  

         35.911717,34.333783,0710  

         35.911583,34.333833,0719  

         35.911617,34.334183,0725  

         35.911483,34.334167,0731  

         35.911333,34.334417,0732  

         35.911367,34.334683,0736  

         35.91105,34.33485,0746  

         35.910733,34.335017,0758  

         35.910517,34.335167,0769  

         35.911333,34.335633,0771  

         35.911967,34.335883,0779  

         35.91225,34.336067,0785  

         35.914167,34.336733,0793  

         35.916233,34.337083,0795  

         35.91745,34.337533,0796  

         35.919583,34.337883,0798  

         35.920567,34.338783,0799  

         35.92125,34.339617,0804  

         35.922033,34.340483,0810  

         35.922883,34.341283,0818  

         35.92305,34.341267,0825  

         35.923517,34.341683,0842  

         35.9235,34.341617,0863  

         35.923483,34.341567,0883  

         35.923467,34.341517,0904  

         35.923467,34.341517,0923  

         35.923717,34.341883,0930  

         35.924733,34.342533,0944  

         35.925333,34.34305,0959  

         35.925483,34.343183,0969  

         35.9265,34.343333,0969  

         35.926033,34.344117,0953  

         35.926717,34.344867,0960  

         35.926683,34.344867,0973  

         35.92645,34.344867,0991  

         35.926217,34.344867,1008  

         35.9263,34.345,1019  

         35.926383,34.345183,1033  

         35.926483,34.345367,1043  

         35.927033,34.345683,1031  

         35.926017,34.346033,1000  

         35.928167,34.346717,0962  

         35.93205,34.347283,0926  

         35.93585,34.347833,0890  

         35.9397,34.3484,0854  

         35.942267,34.348683,0833  

         35.94375,34.348933,0836  

         35.943767,34.348883,0848  

         35.94395,34.349383,0866  

         35.944,34.349567,0891  

         35.944233,34.349817,0920  

         35.944333,34.349933,0930  

         35.943733,34.349983,0944  

         35.9435,34.3502,0956  

         35.9436,34.349717,0963  

         35.943917,34.34915,0964  

         35.946233,34.349233,0958  

         35.946317,34.3498,0969  

         35.946183,34.349867,0981  

         35.94625,34.349867,0984  

         35.946417,34.350083,0987  

         35.946467,34.350583,0998  

         35.946517,34.3511,1006  

         35.947317,34.350067,1016  

         35.947117,34.350333,1026  

         35.947717,34.350033,1031  

         35.947883,34.34995,1039  

         35.947933,34.349683,1042  

         35.948883,34.348733,1044  

         35.950283,34.34765,1034  

         35.95105,34.346667,1035  

         35.951883,34.34645,1042  

         35.9531,34.345667,1039  

         35.954333,34.34475,1035  

         35.9537,34.345067,1023  

         35.953133,34.345667,1019  

         35.952567,34.345967,1014  

         35.952267,34.34615,1015  

         35.952133,34.34545,1018  

         35.952183,34.34515,1035  

         35.952017,34.345517,1051  

         35.951933,34.345567,1059  

         35.9526,34.34545,1063  

         35.9523,34.345583,1058  

         35.9532,34.345767,1052  

         35.952917,34.34535,1042  

         35.953483,34.344383,1051  

         35.954117,34.344283,1052  

         35.9539,34.344117,1054  

         35.953883,34.343767,1053  

         35.95515,34.343183,1041  

         35.955667,34.343767,1022  

         35.95505,34.344117,1015  

         35.954517,34.344317,1012  

         35.954,34.344633,1009  

         35.953483,34.345067,1008  

         35.953333,34.345167,1020  

         35.95315,34.344967,1031  

         35.95295,34.34475,1045  

         35.952767,34.344533,1056  

         35.952767,34.344917,1063  

         35.95275,34.345233,1071  

         35.95365,34.345533,1073  

         35.953167,34.345483,1065  

         35.952633,34.34535,1063  

         35.95235,34.345617,1063  

         35.951917,34.3462,1060  

         35.951717,34.346283,1061  

         35.951583,34.346783,1057  

         35.951283,34.34655,1058  

         35.951383,34.3461,1056  

         35.952117,34.345117,1054  

         35.95335,34.344033,1059  

         35.955433,34.343683,1056  

         35.957883,34.343567,1033  

         35.96035,34.343517,1016  

         35.962217,34.343583,1010  

         35.96235,34.344433,1006  

         35.964767,34.344217,1006  

         35.964383,34.344067,1017  

         35.964233,34.344317,1023  

         35.964083,34.344617,1028  

         35.9645,34.344967,1031  

         35.964617,34.3447,1051  

         35.964683,34.3448,1066  

         35.964917,34.344583,1086  

         35.96485,34.344633,1104  

         35.965417,34.344667,1118  

         35.967233,34.344667,1100  

         35.967617,34.343933,1111  

         35.968417,34.343417,1130  

         35.968833,34.343267,1167  

         35.968967,34.343217,1183  

         35.96945,34.342917,1201  

         35.970367,34.34315,1218  

         35.971033,34.3433,1233  

         35.97305,34.342983,1248  

         35.972883,34.343133,1265  

         35.972717,34.3433,1282  

         35.97255,34.343467,1298  

         35.973583,34.343617,1306  

         35.976017,34.342967,1319  

         35.978467,34.34235,1320  

         35.981067,34.3421,1307  

         35.981583,34.341833,1334  

         35.981183,34.341733,1363  

         35.981333,34.341917,1379  

         35.98145,34.342083,1403  

         35.982517,34.342433,1419  

         35.982317,34.3424,1430  

         35.982733,34.342717,1442  

         35.984283,34.341717,1447  

         35.986433,34.340917,1431  

         35.987317,34.340433,1446  

         35.988083,34.340433,1463  

         35.987883,34.340367,1476  

         35.989667,34.340117,1484  

         35.991167,34.338867,1485  

         35.991983,34.337667,1495  

         35.992617,34.336733,1509  

         35.992383,34.336833,1532  

         35.992183,34.336917,1548  

         35.992,34.336967,1561  

         35.992717,34.33635,1574  

         35.993033,34.335733,1584  

         35.993017,34.335217,1612  

         35.992817,34.334983,1626  

         35.992833,34.334517,1632  

         35.992983,34.334033,1649  

         35.993383,34.33435,1654  

         35.993817,34.333367,1646  

         35.995633,34.332117,1616  

         35.998317,34.331467,1581  

         35.998917,34.331583,1612  

         35.998833,34.331683,1644  

         35.998817,34.331783,1664  

         35.999767,34.331717,1685  

         35.999767,34.331817,1704  

         36.001017,34.331967,1712  

         36.001933,34.330917,1694  

         36.002617,34.329783,1688  

         36.002767,34.329233,1706  

         36.002467,34.329283,1719  

         36.002167,34.329333,1733  

         36.00235,34.328767,1743  

         36.003067,34.328183,1761  

         36.003533,34.327983,1770  

         36.004333,34.3268,1768  

         36.004117,34.32565,1753  

         36.00425,34.324967,1771  

         36.004417,34.3243,1778  

         36.004567,34.323617,1788  

         36.004717,34.322933,1802  

         36.00485,34.322267,1819  

         36.005417,34.321483,1822  

         36.006167,34.320783,1844  

         36.006233,34.320417,1859  

         36.006383,34.31995,1870  

         36.006283,34.319733,1881  

         36.006917,34.318983,1893  

         36.008083,34.317917,1897  

         36.008533,34.316967,1868  

         36.007667,34.316583,1863  

         36.007467,34.316333,1869  

         36.00725,34.316067,1876  

         36.007133,34.315683,1880  

         36.007667,34.3147,1876  

         36.008633,34.313533,1880  

         36.009583,34.312333,1894  

         36.010533,34.311167,1900  

         36.0103,34.311167,1911  

         36.010033,34.311217,1927  

         36.010383,34.310283,1945  

         36.010783,34.30925,1967  

         36.011367,34.30815,1990  

         36.013017,34.30705,2008  

         36.012867,34.307183,2021  

         36.01275,34.307717,2039  

         36.014017,34.306933,2054  

         36.015167,34.305767,2063  

         36.0152,34.305133,2067  

         36.015033,34.30475,2073  

         36.014867,34.304367,2079  

         36.0147,34.303983,2086  

         36.015283,34.304067,2089  

         36.0159,34.30435,2079  

         36.014767,34.304417,2066  

         36.012983,34.304517,2037  

         36.012117,34.304217,2033  

         36.011933,34.303917,2043  

         36.0117,34.303583,2066  

         36.011433,34.303267,2095  

         36.011183,34.302933,2125  

         36.0109,34.302617,2159  

         36.010667,34.3023,2183  

         36.011617,34.301183,2207  

         36.012717,34.299983,2241  

         36.013817,34.298783,2273  

         36.014917,34.297567,2306  

         36.016033,34.296383,2336  

         36.01715,34.295183,2360  

         36.018133,34.294267,2377  

         36.01835,34.294967,2389  

         36.018333,34.295633,2403  

         36.018717,34.296367,2412  

         36.020633,34.295533,2415  

         36.021883,34.294383,2422  

         36.023067,34.293217,2437  

         36.024267,34.292033,2447  

         36.024867,34.291467,2448  

         36.026283,34.290283,2460  

         36.027867,34.289133,2480  

         36.029217,34.287983,2491  

         36.029667,34.287067,2499  

         36.029467,34.286833,2509  

         36.02925,34.286583,2519  

         36.029033,34.28635,2529  

         36.028817,34.286117,2537  

         36.028633,34.285883,2545  

         36.028467,34.28565,2551  

         36.029267,34.284617,2556  

         36.030633,34.283517,2556  

         36.03195,34.283333,2554  

         36.031567,34.283267,2530  

         36.03055,34.282017,2515  

         36.030033,34.281017,2504  

         36.029417,34.280133,2498  

         36.028817,34.27925,2497  

         36.028583,34.278767,2511  

         36.028317,34.27845,2522  

         36.028983,34.2772,2526  

         36.029833,34.275667,2517  

         36.031017,34.274133,2505  

         36.033133,34.272833,2503  

         36.035833,34.27195,2506  

         36.038417,34.271317,2526  

         36.040767,34.270667,2549  

         36.043033,34.26995,2582  

         36.044133,34.2692,2621  

         36.043933,34.268817,2667  

         36.04575,34.2666,2668  

         36.0477,34.264317,2644  

         36.049633,34.262067,2607  

         36.051567,34.259833,2571  

         36.053467,34.257633,2535  

         36.055383,34.2554,2499  

         36.057317,34.253167,2463  

         36.0588,34.251433,2435  

         35.9259,34.3427,1782  

         35.925133,34.342233,0828  

         35.925683,34.342833,0846  

         35.92555,34.341633,0842  

         35.9276,34.344133,0822  

         35.931317,34.345567,0778  

         35.93305,34.346733,0738  

         35.935483,34.349017,0701  

         35.937617,34.351317,0668  

         35.936467,34.353083,0650  

         35.9359,34.352583,0676  

         35.935833,34.3525,0709  

         35.935767,34.3524,0742  

         35.936467,34.353017,0768  

         35.937317,34.352967,0769  

         35.937383,34.353,0754  

         35.935933,34.353367,0751  

         35.935967,34.353633,0775  

         35.935767,34.353867,0788  

         35.93635,34.354433,0794  

         35.940383,34.353967,0782  

         35.9438,34.352133,0776  

         35.943433,34.350717,0807  

         35.943617,34.35065,0857  

         35.9446,34.350567,0902  

         35.944733,34.350433,0926  

         35.9459,34.351217,0948  

         35.945667,34.351783,0968  

         35.946383,34.350267,0978  

         35.946983,34.349317,0988  

         35.947733,34.349467,0988  

         35.94965,34.347617,0978  

         35.95225,34.345467,0976  

         35.955483,34.34365,0958  

         35.9582,34.341633,0919  

         35.95895,34.339967,0907  

         35.9612,34.3406,0905  

         35.960867,34.340783,0907  

         35.962583,34.342233,0914  

         35.961633,34.342283,0918  

         35.961317,34.342533,0941  

         35.961067,34.3427,0964  

         35.960833,34.342867,0981  

         35.961883,34.342383,0999  

         35.961667,34.342533,1017  

         35.962033,34.3423,1037  

         35.962317,34.342533,1048  

         35.9655,34.341467,1033  

         35.966133,34.341233,0992  

         35.964233,34.34095,0967  

         35.9625,34.341267,0959  

         35.96085,34.34225,0948  

         35.962333,34.341667,0931  

         35.960717,34.341817,0923  

         35.96005,34.34145,0903  

         35.959283,34.341933,0883  

         35.960167,34.34125,0868  

         35.958417,34.3414,0851  

         35.957667,34.3411,0871  

         35.957717,34.341717,0894  

         35.95775,34.341717,0917  

         35.957717,34.341067,0945  

         35.957633,34.340683,0972  

         35.958017,34.3407,0986  

         35.958367,34.339783,1019  

         35.958367,34.34015,1046  

         35.959083,34.34,1050  

         35.958917,34.339667,1048  

         35.958117,34.340283,1049  

         35.958733,34.339917,1040  

         35.960067,34.337983,1009  

         35.958567,34.33915,0982  

         35.956917,34.339867,0954  

         35.959233,34.340383,0953  

         35.958833,34.340717,0963  

         35.959633,34.341017,0967  

         35.95905,34.34075,0978  

         35.958033,34.341367,0982  

         35.9596,34.341417,0986  

         35.959617,34.34025,0997  

         35.959433,34.340133,1003  

         35.960033,34.338067,0993  

         35.960033,34.338117,0998  

         35.9612,34.338183,1005  

         35.961067,34.338067,1015  

         35.960983,34.337983,1029  

         35.960917,34.337883,1045  

         35.960833,34.337783,1061  

         35.960767,34.337683,1076  

         35.960683,34.337583,1092  

         35.9606,34.337483,1109  

         35.960517,34.337383,1126  

         35.960433,34.337283,1143  

         35.961083,34.337517,1158  

         35.962233,34.337167,1156  

         35.962567,34.335517,1144  

         35.963,34.334217,1148  

         35.96375,34.333683,1157  

         35.964017,34.3335,1165  

         35.964,34.332867,1177  

         35.96425,34.332867,1193  

         35.964367,34.332983,1206  

         35.964067,34.332917,1221  

         35.96375,34.33295,1237  

         35.963417,34.333,1253  

         35.963667,34.333133,1269  

         35.966167,34.332433,1279  

         35.969033,34.33125,1272  

         35.9709,34.330433,1283  

         35.970567,34.330367,1294  

         35.970567,34.3302,1309  

         35.96975,34.330633,1332  

         35.969217,34.330683,1348  

         35.969233,34.330683,1361  

         35.971667,34.329967,1350  

         35.974933,34.330133,1332  

         35.972867,34.330217,1310  

         35.97085,34.330617,1294  

         35.969467,34.331017,1309  

         35.970183,34.330567,1331  

         35.97035,34.331567,1351  

         35.969267,34.330633,1359  

         35.968983,34.328983,1340  

         35.971317,34.330283,1320  

         35.969867,34.33135,1311  

         35.970867,34.329333,1308  

         35.97325,34.327083,1291  

         35.975767,34.324883,1257  

         35.977817,34.322533,1225  

         35.977867,34.3217,1242  

         35.97825,34.320883,1275  

         35.977917,34.320683,1319  

         35.977817,34.320733,1370  

         35.978717,34.3204,1393  

         35.9782,34.32065,1409  

         35.978867,34.320183,1396  

         35.9784,34.31965,1393  

         35.978433,34.319317,1391  

         35.980583,34.3169,1382  

         35.980883,34.316233,1394  

         35.980767,34.315967,1433  

         35.980833,34.315217,1479  

         35.981183,34.314967,1523  

         35.981283,34.315517,1519  

         35.9814,34.314733,1513  

         35.98265,34.311933,1511  

         35.9821,34.310883,1503  

         35.9813,34.312617,1535  

         35.981967,34.312517,1574  

         35.982383,34.311567,1600  

         35.982183,34.311067,1621  

         35.983833,34.310583,1613  

         35.986433,34.30835,1591  

         35.986867,34.306967,1628  

         35.986883,34.306033,1665  

         35.986883,34.305067,1705  

         35.9873,34.3049,1745  

         35.987633,34.30455,1777  

         35.986767,34.303167,1789  

         35.987333,34.304067,1804  

         35.9863,34.302333,1805  

         35.98475,34.3007,1809  

         35.98435,34.298533,1823  

         35.98435,34.296067,1828  

         35.985417,34.293367,1830  

         35.987817,34.29065,1843  

         35.988917,34.288683,1875  

         35.989533,34.2877,1912  

         35.990267,34.288417,1938  

         35.992067,34.28595,1947  

         35.992483,34.285283,1983  

         35.993083,34.285367,2034  

         35.992983,34.283433,2077  

         35.993367,34.283233,2103  

         35.994067,34.283333,2108  

         35.997483,34.281683,2099  

         36.001683,34.280483,2083  

         36.0054,34.27865,2079  

         36.009117,34.276833,2081  

         36.012967,34.275217,2076  

         36.0157,34.272833,2087  

         36.018567,34.270133,2104  

         36.021883,34.268233,2070  

         36.025017,34.266433,2040  

         36.028483,34.264633,2009  

         36.031617,34.262867,1993  

         36.0346,34.26105,1968  

         36.035767,34.258617,1932  

         36.037233,34.256283,1904  

         36.037117,34.256267,1898  

         35.9259,34.3427,1782  

         35.9252,34.3427,0819  

         35.924867,34.342633,0829  

         35.925317,34.342717,0838  

         35.924983,34.342933,0847  

         35.924583,34.342717,0856  

         35.923867,34.343417,0877  

         35.924233,34.34325,0897  

         35.924083,34.343883,0899  

         35.924933,34.34385,0910  

         35.92435,34.342633,0921  

         35.924567,34.343467,0929  

         35.923967,34.343433,0912  

         35.924767,34.342617,0928  

         35.925267,34.343017,0939  

         35.925567,34.3427,0944  

         35.92775,34.34085,0932  

         35.930417,34.338883,0898  

         35.932917,34.337033,0871  

         35.934317,34.33475,0862  

         35.935767,34.332633,0850  

         35.938017,34.331167,0831  

         35.93875,34.330167,0803  

         35.940883,34.328233,0748  

         35.942067,34.327383,0777  

         35.941767,34.327567,0817  

         35.942283,34.327467,0854  

         35.94255,34.327617,0886  

         35.942483,34.327367,0889  

         35.942167,34.32735,0902  

         35.942267,34.327583,0904  

         35.942017,34.326783,0903  

         35.944633,34.325083,0889  

         35.946633,34.323333,0874  

         35.9469,34.322483,0861  

         35.947083,34.324067,0848  

         35.945867,34.324617,0832  

         35.946283,34.325917,0817  

         35.949367,34.327033,0782  

         35.950017,34.327233,0757  

         35.950017,34.327567,0740  

         35.950733,34.327217,0737  

         35.9259,34.3427,1782  

         35.925167,34.342733,0822  

         35.925833,34.342433,0842  

         35.926367,34.343133,0858  

         35.927117,34.34305,0875  

         35.927083,34.342867,0869  

         35.927033,34.342883,0865  

         35.926483,34.343117,0863  

         35.926033,34.342817,0888  

         35.926433,34.3427,0914  

         35.926917,34.342567,0921  

         35.926317,34.34255,0936  

         35.926917,34.3426,0941  

         35.926483,34.343117,0939  

         35.92695,34.343167,0947  

         35.927217,34.343117,0931  

         35.927783,34.343617,0914  

         35.927617,34.343267,0892  

         35.927183,34.344117,0876  

         35.926967,34.34395,0860  

         35.9265,34.342683,0853  

         35.926883,34.342683,0859  

         35.926233,34.342833,0874  

         35.926367,34.34265,0886  

         35.92705,34.342817,0891  

         35.926317,34.342667,0901  

         35.92695,34.342733,0907  

         35.926283,34.34255,0915  

         35.926433,34.342817,0934  

         35.926133,34.342933,0948  

         35.926367,34.342667,0970  

         35.926717,34.342833,0976  

         35.9268,34.342883,0993  

         35.92625,34.342983,0998  

         35.92665,34.342783,1008  

         35.926783,34.342483,1020  

         35.927583,34.342467,1009  

         35.926733,34.342117,0992  

         35.928617,34.340333,0970  

         35.930683,34.338883,0946  

         35.932583,34.337683,0930  

         35.933433,34.336667,0937  

         35.933483,34.336633,0947  

         35.934217,34.336733,0952  

         35.93445,34.337233,0956  

         35.935567,34.336117,0954  

         35.936483,34.334983,0954  

         35.936933,34.335283,0951  

         35.939083,34.335267,0947  

         35.940583,34.3344,0943  

         35.941367,34.333483,0936  

         35.941283,34.3333,0928  

         35.941717,34.333733,0919  

         35.943833,34.333517,0912  

         35.945667,34.333167,0899  

         35.947433,34.332067,0895  

         35.948483,34.332183,0903  

         35.94935,34.331817,0919  

         35.94955,34.331633,0935  

         35.94985,34.332133,0948  

         35.950017,34.332567,0957  

         35.949617,34.332383,0962  

         35.949833,34.3327,0968  

         35.949483,34.332183,0977  

         35.949833,34.332067,0982  

         35.950367,34.332467,0985  

         35.949933,34.332533,0990  

         35.949833,34.3332,0993  

         35.95005,34.333367,0998  

         35.950367,34.333667,1000  

         35.950533,34.333183,0998  

         35.9497,34.333583,0996  

         35.950983,34.3329,0995  

         35.95035,34.332617,0993  

         35.949733,34.332733,1000  

         35.9498,34.332683,1008  

         35.9502,34.332833,1016  

         35.9508,34.332933,1021  

         35.951033,34.333767,1019  

         35.950917,34.33335,1014  

         35.952517,34.332283,1005  

         35.955167,34.33225,0991  

         35.9569,34.331967,0990  

         35.958133,34.331767,0985  

         35.959183,34.331167,0985  

         35.959233,34.331417,0990  

         35.959367,34.331383,0999  

         35.9597,34.3315,1009  

         35.960583,34.331283,1017  

         35.960667,34.3316,1022  

         35.960383,34.3317,1027  

         35.960467,34.331283,1036  

         35.960167,34.331533,1043  

         35.959817,34.331683,1051  

         35.961117,34.330967,1058  

         35.962083,34.330867,1074  

         35.962367,34.331017,1091  

         35.9627,34.331283,1108  

         35.962983,34.331383,1127  

         35.9634,34.331283,1146  

         35.96385,34.33145,1163  

         35.963817,34.331133,1180  

         35.964283,34.331033,1195  

         35.965033,34.330667,1205  

         35.96605,34.330833,1213  

         35.967083,34.330933,1237  

         35.967933,34.330717,1271  

         35.968217,34.330767,1300  

         35.969217,34.330433,1316  

         35.969717,34.330783,1327  

         35.970483,34.330333,1344  

         35.9711,34.330233,1352  

         35.970533,34.33045,1356  

         35.971167,34.329917,1364  

         35.970367,34.329783,1364  

         35.970033,34.330883,1374  

         35.970983,34.330817,1379  

         35.971533,34.331667,1381  

         35.972583,34.330333,1372  

         35.974217,34.328633,1367  

         35.976683,34.328183,1377  

         35.9776,34.328167,1381  

         35.977067,34.327783,1381  

         35.978317,34.326683,1386  

         35.9795,34.326817,1402  

         35.980017,34.327217,1417  

         35.980533,34.3273,1429  

         35.98115,34.327,1437  

         35.980633,34.326567,1448  

         35.980867,34.326633,1462  

         35.981283,34.326367,1476  

         35.982233,34.3269,1483  

         35.982333,34.326583,1483  

         35.982967,34.326633,1483  

         35.982517,34.326783,1482  

         35.983883,34.326967,1481  

         35.985017,34.326367,1469  

         35.987417,34.326467,1456  

         35.9894,34.326867,1451  

         35.989317,34.327583,1444  

         35.988933,34.3274,1439  

         35.988883,34.326083,1424  

         35.988233,34.324583,1408  

         35.987467,34.323333,1401  

         35.986367,34.323117,1402  

         35.987617,34.323417,1406  

         35.987467,34.32305,1408  

         35.98775,34.323183,1415  

         35.988167,34.323283,1428  

         35.988333,34.322467,1449  

         35.989283,34.323333,1472  

         35.9897,34.322517,1493  

         35.990217,34.322883,1507  

         35.990583,34.322917,1522  

         35.990383,34.322667,1528  

         35.990733,34.322417,1540  

         35.991583,34.322667,1540  

         35.991,34.322717,1532  

         35.99045,34.322483,1531  

         35.990883,34.322517,1534  

         35.990533,34.323133,1529  

         35.990233,34.323283,1531  

         35.989933,34.323467,1531  

         35.989383,34.323517,1540  

         35.989083,34.3235,1544  

         35.98875,34.3235,1552  

         35.988433,34.323483,1557  

         35.989117,34.323367,1572  

         35.988767,34.32345,1581  

         35.988467,34.323517,1585  

         35.9882,34.3236,1586  

         35.987933,34.323683,1584  

         35.987667,34.32375,1582  

         35.9874,34.323833,1578  

         35.987133,34.323917,1574  

         35.987983,34.324133,1568  

         35.989333,34.324883,1567  

         35.989867,34.3245,1562  

         35.989617,34.3243,1564  

         35.98935,34.324117,1565  

         35.989067,34.323883,1570  

         35.98925,34.32375,1579  

         35.98895,34.3238,1585  

         35.988617,34.323867,1589  

         35.989467,34.323883,1594  

         35.99015,34.324233,1591  

         35.9908,34.323867,1581  

         35.991567,34.324317,1575  

         35.99255,34.324583,1570  

         35.992633,34.324117,1549  

         35.992183,34.323383,1524  

         35.991633,34.323517,1513  

         35.9907,34.323717,1492  

         35.9896,34.323033,1486  

         35.989383,34.322917,1496  

         35.990217,34.3232,1505  

         35.98985,34.322617,1509  

         35.99045,34.322883,1519  

         35.990683,34.322783,1522  

         35.989933,34.322933,1519  

         35.990633,34.322733,1521  

         35.990033,34.322283,1524  

         35.989733,34.3224,1527  

         35.989383,34.322517,1532  

         35.989033,34.322633,1539  

         35.988717,34.32275,1546  

         35.988983,34.322867,1559  

         35.989233,34.323433,1569  

         35.990233,34.32285,1573  

         35.9907,34.32225,1576  

         35.991133,34.3217,1577  

         35.991583,34.32115,1578  

         35.992083,34.320517,1581  

         35.9918,34.32075,1586  

         35.9916,34.32105,1588  

         35.9914,34.321383,1590  

         35.991217,34.321683,1590  

         35.991033,34.321983,1591  

         35.990833,34.322283,1592  

         35.990667,34.322583,1591  

         35.990467,34.322883,1592  

         35.99025,34.323217,1595  

         35.990533,34.323467,1587  

         35.990033,34.323183,1589  

         35.989733,34.323017,1591  

         35.989433,34.322867,1596  

         35.98915,34.322717,1602  

         35.989083,34.322867,1612  

         35.989683,34.322783,1625  

         35.9901,34.32305,1633  

         35.989867,34.323267,1638  

         35.989917,34.323483,1635  

         35.989667,34.323267,1638  

         35.989167,34.322933,1639  

         35.98935,34.323717,1636  

         35.989867,34.323767,1638  

         35.990167,34.323467,1635  

         35.9905,34.322633,1643  

         35.991583,34.323,1639  

         35.992817,34.3234,1632  

         35.993133,34.323517,1624  

         35.993067,34.323717,1623  

         35.993017,34.3239,1618  

         35.99295,34.3241,1612  

         35.9929,34.324283,1606  

         35.99285,34.324483,1600  

         35.993367,34.324867,1591  

         35.99405,34.325133,1587  

         35.994717,34.3254,1584  

         35.995383,34.325667,1584  

         35.996067,34.325933,1587  

         35.996767,34.326217,1590  

         35.997433,34.326483,1591  

         35.998133,34.326733,1591  

         35.998867,34.32715,1585  

         35.998667,34.326017,1566  

         35.997083,34.326167,1554  

         35.996383,34.326433,1549  

         35.995383,34.326867,1537  

         35.995183,34.325733,1528  

         35.994317,34.324833,1505  

         35.993467,34.324183,1481  

         35.993017,34.324983,1459  

         35.992667,34.325783,1448  

         35.992217,34.326417,1445  

         35.991483,34.326433,1440  

         35.9909,34.32645,1434  

         35.9906,34.326467,1430  

         35.990117,34.32625,1423  

         35.989683,34.326017,1415  

         35.989233,34.325883,1409  

         35.988733,34.32575,1403  

         35.9876,34.325533,1393  

         35.9869,34.324517,1388  

         35.98615,34.323633,1387  

         35.985483,34.323417,1391  

         35.986567,34.32325,1395  

         35.986967,34.322683,1398  

         35.987233,34.3226,1404  

         35.987667,34.322733,1416  

         35.9877,34.322583,1428  

         35.988483,34.322933,1441  

         35.9886,34.322817,1457  

         35.988467,34.323367,1465  

         35.988383,34.323733,1468  

         35.988283,34.324267,1470  

         35.98835,34.324117,1471  

         35.988967,34.323267,1480  

         35.988933,34.323017,1491  

         35.990333,34.323317,1501  

         35.990083,34.323233,1500  

         35.989783,34.323233,1503  

         35.990367,34.322967,1513  

         35.990317,34.323483,1515  

         35.990317,34.323867,1516  

         35.990317,34.32425,1519  

         35.990317,34.324633,1522  

         35.990267,34.324733,1517  

         35.990367,34.32425,1519  

         35.990917,34.324133,1533  

         35.991067,34.324733,1534  

         35.991217,34.325233,1527  

         35.99095,34.324783,1511  

         35.990483,34.324117,1509  

         35.990083,34.324083,1505  

         35.990083,34.324517,1497  

         35.9906,34.324,1505  

         35.990467,34.324067,1518  

         35.990833,34.324217,1533  

         35.991533,34.323867,1530  

         35.991567,34.323433,1524  

         35.991583,34.323017,1517  

         35.991583,34.322917,1516  

         35.9259,34.3427,0000  

         35.925033,34.3427,0829  

         35.925367,34.342683,0842  

         35.925167,34.342833,0863  

         35.925183,34.3431,0883  

         35.925683,34.343167,0893  

         35.926167,34.34315,0902  

         35.926617,34.343317,0906  

         35.9266,34.343017,0909  

         35.926483,34.343133,0913  

         35.926033,34.3433,0913  

         35.925733,34.343233,0917  

         35.92555,34.343217,0923  

         35.92545,34.343217,0929  

         35.925333,34.343233,0938  

         35.925233,34.343233,0947  

         35.9252,34.343233,0951  

         35.92515,34.343233,0955  

         35.925117,34.34325,0958  

         35.925117,34.343433,0961  

         35.925283,34.34295,0968  

         35.9254,34.34295,0975  

         35.925767,34.342933,0979  

         35.926433,34.342833,0982  

         35.92635,34.342833,0984  

         35.926267,34.342933,0985  

         35.926167,34.342967,0986  

         35.926033,34.342917,0985  

         35.925767,34.342883,0987  

         35.9259,34.342267,0989  

         35.925717,34.342367,0992  

         35.926217,34.3425,0992  

         35.925967,34.342767,0992  

         35.926417,34.342933,0991  

         35.925883,34.342517,0985  

         35.925483,34.342983,0980  

         35.926083,34.342967,0980  

         35.925983,34.342783,0982  

         35.926433,34.3428,0985  

         35.92625,34.342833,0986  

         35.925983,34.342767,0985  

         35.926083,34.341267,0972  

         35.9266,34.339733,0952  

         35.927033,34.338917,0938  

         35.927417,34.338217,0926  

         35.927767,34.337517,0913  

         35.928167,34.336767,0900  

         35.928667,34.335767,0882  

         35.928467,34.334283,0847  

         35.928183,34.332883,0818  

         35.92855,34.331183,0807  

         35.928783,34.32965,0790  

         35.928717,34.328067,0771  

         35.928483,34.326617,0756  

         35.928067,34.325133,0722  

         35.927183,34.324717,0697  

         35.926367,34.32445,0687  

         35.926217,34.324267,0695  

         35.92605,34.32415,0705  

         35.9268,34.324367,0712  

         35.92695,34.3246,0708  

         35.926567,34.324267,0703  

         35.926617,34.323983,0706  

         35.926717,34.324133,0707  

         35.9267,34.323967,0708  

         35.92665,34.324067,0711  

         35.926583,34.324133,0716  

         35.926517,34.3242,0721  

         35.926467,34.324267,0726  

         35.926417,34.324317,0730  

         35.926367,34.324367,0734  

         35.9263,34.324417,0741  

         35.926233,34.324467,0749  

         35.926183,34.324517,0756  

         35.926117,34.324533,0764  

         35.92605,34.324567,0771  

         35.926317,34.324383,0778  

         35.926483,34.324517,0784  

         35.926433,34.32445,0790  

         35.926367,34.324517,0799  

         35.926283,34.3246,0808  

         35.926217,34.324683,0817  

         35.926183,34.32465,0822  

         35.926167,34.324467,0827  

         35.926167,34.324267,0833  

         35.9262,34.324217,0839  

         35.926233,34.324383,0842  

         35.926183,34.324317,0845  

         35.926133,34.324217,0848  
