<!-- This file has been generated by http://www.paraglidingearth.com -->
<kml xmlns="http://earth.google.com/kml/2.0">

   <Document>
   
  <Style id="noIcon">
     <IconStyle>
      <scale>0</scale>
    </IconStyle>
  </Style>
  
    <name> - 00- 2-2041</name>
    
    <Placemark>
            <name>Flight</name>
            <visibility>1</visibility>
            <open>1</open>
            <Style>
              <LineStyle>
                <color>ff00ffff</color>
              </LineStyle>
              <PolyStyle>
                  <color>7f0000ff</color>
              </PolyStyle>
            </Style>
        <LineString>
              <altitudeMode>absolute
              </altitudeMode>
              
          <coordinates>
          
         35.669,33.9946,1834  

         35.668283,33.994617,0689  

         35.667683,33.994633,0689  

         35.667517,33.994883,0683  

         35.668367,33.995733,0675  

         35.668017,33.996483,0664  

         35.667283,33.997067,0654  

         35.6665,33.997583,0646  

         35.665667,33.997367,0637  

         35.66485,33.996767,0629  

         35.664233,33.996017,0622  

         35.663617,33.995283,0618  

         35.662917,33.994583,0613  

         35.662167,33.993967,0601  

         35.6618,33.99315,0584  

         35.661067,33.992533,0567  

         35.660283,33.991933,0550  

         35.659583,33.991317,0536  

         35.659117,33.990917,0534  

         35.658733,33.990517,0530  

         35.658317,33.990033,0526  

         35.657867,33.989533,0520  

         35.6575,33.988933,0513  

         35.657133,33.98835,0514  

         35.65675,33.98775,0516  

         35.656317,33.9873,0520  

         35.655983,33.98725,0523  

         35.655567,33.986817,0527  

         35.65515,33.9863,0525  

         35.654667,33.985867,0520  

         35.654033,33.985517,0512  

         35.653583,33.985117,0511  

         35.65325,33.984583,0513  

         35.652933,33.984017,0518  

         35.652567,33.983467,0520  

         35.652033,33.983067,0521  

         35.6514,33.982767,0517  

         35.650717,33.982383,0515  

         35.650267,33.981867,0517  

         35.64995,33.9813,0521  

         35.649667,33.980733,0524  

         35.649267,33.980283,0527  

         35.648883,33.9798,0527  

         35.648467,33.97935,0527  

         35.648033,33.9789,0527  

         35.647533,33.97855,0525  

         35.646683,33.978367,0518  

         35.645817,33.978183,0512  

         35.64495,33.977833,0506  

         35.643967,33.977633,0499  

         35.643033,33.977383,0492  

         35.642317,33.976783,0487  

         35.641533,33.976233,0480  

         35.64095,33.975517,0474  

         35.641517,33.975567,0468  

         35.641233,33.97465,0461  

         35.6412,33.973617,0452  

         35.641117,33.972583,0443  

         35.6408,33.971617,0434  

         35.640433,33.970667,0424  

         35.640067,33.96985,0414  

         35.639517,33.969417,0406  

         35.638767,33.96945,0401  

         35.638267,33.969517,0400  

         35.63825,33.970033,0399  

         35.637483,33.970333,0394  

         35.636933,33.971,0387  

         35.637083,33.972,0380  

         35.636783,33.972867,0372  

         35.636467,33.973717,0365  

         35.636433,33.974617,0356  

         35.63675,33.975567,0346  

         35.637033,33.97655,0334  

         35.637367,33.977517,0320  

         35.637683,33.978483,0306  

         35.638067,33.979483,0291  

         35.63825,33.9803,0279  

         35.638467,33.980917,0271  

         35.638733,33.981717,0259  

         35.6386,33.981433,0245  

         35.638567,33.980683,0237  

         35.63865,33.979983,0237  

         35.638917,33.98045,0235  

         35.639217,33.980883,0231  

         35.6394,33.981383,0226  

         35.6395,33.982067,0220  

         35.639733,33.982883,0211  

         35.639717,33.983783,0200  

         35.639567,33.984717,0188  

         35.6397,33.985683,0173  

         35.640283,33.986567,0160  

         35.64105,33.9874,0147  

         35.641783,33.988267,0135  

         35.6424,33.989167,0124  

         35.642767,33.990067,0114  

         35.643217,33.99085,0105  

         35.643617,33.991567,0095  

         35.644433,33.99225,0085  

         35.644967,33.993017,0077  

         35.645083,33.993867,0067  

         35.645183,33.994717,0057  

         35.645067,33.995467,0048  

         35.644717,33.996133,0039  

         35.644517,33.996883,0030  

         35.644283,33.997617,0021  

         35.644033,33.998167,0012  

         35.669,33.9946,1834  

         35.665517,33.990967,0663  

         35.662217,33.986533,0647  

         35.658117,33.9877,0570  

         35.669,33.9946,1834  

         35.667933,33.993967,0685  

         35.66695,33.993333,0677  

         35.666017,33.992767,0669  

         35.665067,33.992167,0654  

         35.664083,33.99165,0637  

         35.663117,33.991117,0621  

         35.662117,33.990583,0606  

         35.661117,33.990033,0595  

         35.660117,33.989517,0586  

         35.659133,33.988967,0572  

         35.658217,33.988367,0555  

         35.657333,33.987733,0546  

         35.65675,33.987217,0546  

         35.6561,33.986633,0547  

         35.655417,33.986117,0543  

         35.65465,33.985583,0534  

         35.653883,33.985083,0524  

         35.653383,33.9846,0525  

         35.653133,33.984167,0528  

         35.65285,33.983867,0533  

         35.652433,33.983483,0536  

         35.651917,33.983117,0536  

         35.651517,33.982817,0535  

         35.651117,33.9825,0536  

         35.650767,33.982117,0536  

         35.650433,33.9817,0540  

         35.649967,33.981183,0542  

         35.649483,33.980633,0542  

         35.649033,33.980083,0542  

         35.648617,33.979617,0542  

         35.648183,33.979167,0542  

         35.647683,33.978817,0541  

         35.647233,33.978383,0538  

         35.646917,33.978,0537  

         35.646567,33.977583,0535  

         35.646183,33.977167,0533  

         35.6458,33.97675,0532  

         35.645417,33.976333,0531  

         35.644983,33.975883,0529  

         35.644567,33.975433,0527  

         35.644133,33.974983,0525  

         35.643733,33.974733,0527  

         35.64425,33.974433,0538  

         35.6442,33.974667,0570  

         35.644417,33.97445,0603  

         35.644217,33.974633,0633  

         35.644417,33.9746,0662  

         35.6442,33.974567,0688  

         35.644417,33.974517,0712  

         35.64425,33.974717,0734  

         35.644233,33.974467,0762  

         35.644267,33.97465,0785  

         35.644183,33.974483,0812  

         35.644333,33.974633,0834  

         35.6441,33.974667,0859  

         35.643667,33.9743,0869  

         35.642917,33.973533,0852  

         35.642167,33.972733,0834  

         35.641817,33.973217,0817  

         35.642017,33.974317,0800  

         35.642317,33.975383,0784  

         35.642733,33.976467,0767  

         35.642967,33.977517,0750  

         35.6432,33.978617,0733  

         35.643433,33.979717,0717  

         35.643667,33.980783,0700  

         35.6439,33.981883,0683  

         35.644133,33.982967,0666  

         35.644367,33.984067,0650  

         35.644617,33.985167,0633  

         35.644833,33.986217,0616  

         35.645067,33.9873,0600  

         35.645317,33.988367,0583  

         35.645533,33.989433,0567  

         35.645783,33.990533,0550  

         35.646017,33.99165,0532  

         35.64625,33.992733,0516  

         35.646483,33.993833,0499  

         35.646867,33.994883,0483  

         35.6475,33.995917,0466  

         35.6481,33.996867,0450  

         35.648633,33.997683,0438  

         35.649167,33.998467,0427  

         35.649683,33.99925,0424  

         35.649533,33.999167,0444  

         35.649683,33.99925,0443  

         35.64945,33.999183,0462  

         35.649233,33.999117,0486  

         35.649583,33.999133,0501  

         35.6495,33.999317,0519  

         35.649267,33.999317,0542  

         35.649433,33.999183,0564  

         35.649367,33.999383,0585  

         35.649217,33.999233,0606  

         35.649483,33.999317,0628  

         35.64925,33.999317,0651  

         35.649267,33.9992,0671  

         35.649417,33.999217,0696  

         35.649517,33.999367,0716  

         35.649283,33.99935,0737  

         35.649167,33.999233,0755  

         35.649383,33.999317,0779  

         35.649617,33.999367,0798  

         35.649417,33.9993,0817  

         35.649283,33.999117,0841  

         35.649483,33.999283,0862  

         35.64945,33.999867,0868  

         35.649467,34.00095,0851  

         35.6495,34.002017,0835  

         35.649533,34.003083,0818  

         35.64955,34.004167,0801  

         35.649583,34.005233,0784  

         35.649617,34.006317,0768  

         35.649633,34.007383,0751  

         35.649667,34.008483,0734  

         35.6497,34.009567,0717  

         35.649733,34.01065,0700  

         35.649767,34.011633,0685  

         35.64985,34.012433,0674  

         35.649933,34.013217,0663  

         35.650017,34.014017,0653  

         35.650083,34.0148,0642  

         35.650167,34.015583,0631  

         35.65025,34.016367,0621  

         35.650333,34.01715,0610  

         35.650417,34.017933,0599  

         35.650483,34.018717,0589  

         35.650567,34.019517,0578  

         35.65065,34.0203,0567  

         35.650733,34.0211,0556  

         35.650817,34.021883,0546  

         35.650883,34.022667,0535  

         35.650967,34.023467,0524  

         35.65105,34.024267,0513  

         35.651133,34.02505,0503  

         35.651217,34.025867,0492  

         35.651517,34.026567,0481  

         35.651683,34.025817,0469  

         35.652083,34.02505,0457  

         35.651867,34.024317,0445  

         35.651517,34.023533,0432  

         35.651083,34.022633,0416  

         35.650683,34.02175,0401  

         35.650333,34.020983,0388  

         35.65005,34.020283,0377  

         35.649767,34.019583,0366  

         35.649483,34.018883,0355  

         35.6492,34.018167,0343  

         35.648917,34.017483,0333  

         35.64865,34.016783,0333  

         35.648883,34.016733,0341  

         35.648767,34.016933,0347  

         35.648567,34.016883,0367  

         35.648733,34.016717,0391  

         35.648667,34.016917,0409  

         35.648467,34.016833,0432  

         35.648767,34.01685,0453  

         35.648583,34.016917,0472  

         35.648417,34.016783,0496  

         35.648617,34.01685,0518  

         35.6483,34.016233,0528  

         35.647833,34.015267,0510  

         35.647367,34.014317,0493  

         35.6469,34.013367,0476  

         35.646483,34.012383,0459  

         35.646133,34.011433,0443  

         35.645767,34.01045,0426  

         35.645383,34.00945,0409  

         35.645,34.00845,0399  

         35.644633,34.007467,0382  

         35.64425,34.00645,0365  

         35.643867,34.00545,0348  

         35.6435,34.004467,0330  

         35.643133,34.003483,0314  

         35.64275,34.002483,0296  

         35.642367,34.001467,0279  

         35.642,34.000483,0262  

         35.641617,33.999483,0245  

         35.641233,33.998483,0228  

         35.640783,33.997533,0210  

         35.640483,33.996983,0200  

         35.669,33.9946,1834  

         35.668367,33.994583,0689  

         35.6687,33.994283,0688  

         35.668783,33.9943,0687  

         35.669,33.9946,0000  

         35.668067,33.994633,0689  

         35.667633,33.9952,0690  

         35.668683,33.993483,0693  

         35.669983,33.99195,0697  

         35.671467,33.990683,0692  

         35.67095,33.989233,0688  

         35.669833,33.988217,0686  

         35.6686,33.987583,0675  

         35.667717,33.988583,0650  

         35.666917,33.989567,0622  

         35.665567,33.989767,0605  

         35.66425,33.989017,0603  

         35.663033,33.98825,0599  

         35.661683,33.98775,0597  

         35.6603,33.98785,0578  

         35.658917,33.988133,0551  

         35.657533,33.987983,0541  

         35.656683,33.986483,0555  

         35.656083,33.986433,0563  

         35.657533,33.987883,0576  

         35.657283,33.98725,0581  

         35.656767,33.98565,0595  

         35.657433,33.986883,0606  

         35.657267,33.986467,0617  

         35.656683,33.984983,0626  

         35.655317,33.984733,0613  

         35.653983,33.98415,0604  

         35.6526,33.983433,0610  

         35.651317,33.982733,0611  

         35.650083,33.981717,0618  

         35.6489,33.98055,0628  

         35.649783,33.9817,0631  

         35.651667,33.982717,0637  

         35.651033,33.981533,0632  

         35.649883,33.9805,0636  

         35.648633,33.979567,0639  

         35.647367,33.97865,0670  

         35.648067,33.978817,0662  

         35.647283,33.978983,0690  

         35.64775,33.977967,0688  

         35.64675,33.977,0671  

         35.6458,33.976233,0656  

         35.6448,33.975433,0643  

         35.6438,33.97465,0633  

         35.6428,33.973733,0621  

         35.641833,33.972717,0606  

         35.641117,33.972717,0592  

         35.642333,33.974183,0579  

         35.643617,33.97575,0577  

         35.6449,33.977333,0578  

         35.646217,33.97895,0581  

         35.64755,33.980517,0583  

         35.649217,33.981933,0587  

         35.650967,33.983333,0594  

         35.652833,33.984633,0602  

         35.654783,33.985817,0601  

         35.65665,33.987033,0606  

         35.658683,33.988133,0609  

         35.660267,33.989333,0592  

         35.661617,33.990917,0596  

         35.662617,33.992233,0583  

         35.663633,33.993667,0576  

         35.664733,33.995283,0581  

         35.6663,33.996783,0582  

         35.665833,33.996683,0582  

         35.665167,33.9961,0583  

         35.666817,33.997383,0585  

         35.6682,33.998133,0593  

         35.667733,33.997617,0612  

         35.66845,33.9971,0604  

         35.668883,33.997867,0587  

         35.670167,33.999267,0575  

         35.670967,34.000867,0580  

         35.671717,34.002533,0582  

         35.672117,34.004217,0586  

         35.671833,34.005783,0585  

         35.671433,34.007167,0584  

         35.670867,34.008183,0583  

         35.6702,34.009233,0571  

         35.669517,34.010233,0555  

         35.668767,34.011217,0542  

         35.668017,34.012183,0531  

         35.6676,34.01265,0527  

         35.66695,34.013383,0520  

         35.666183,34.014267,0509  

         35.665417,34.015117,0501  

         35.664617,34.016033,0494  

         35.663833,34.0169,0488  

         35.663083,34.017767,0480  

         35.6622,34.0185,0470  

         35.6612,34.019017,0459  

         35.660133,34.019517,0448  

         35.659383,34.019867,0440  

         35.658283,34.020383,0424  

         35.656667,34.021067,0398  

         35.655017,34.021783,0371  

         35.653417,34.022333,0367  

         35.652083,34.022933,0343  

         35.651267,34.023367,0325  

         35.650483,34.023717,0311  

         35.6498,34.024,0298  

         35.649017,34.0241,0288  

         35.6482,34.024117,0277  

         35.647333,34.024017,0264  

         35.646433,34.0237,0251  

         35.645633,34.023817,0243  

         35.64485,34.024267,0238  

         35.644083,34.024833,0233  

         35.643467,34.025417,0229  

         35.643133,34.026433,0228  

         35.642667,34.027117,0224  

         35.641983,34.027683,0216  

         35.641167,34.028117,0208  

         35.640333,34.028517,0199  

         35.639617,34.028833,0193  

         35.639033,34.029317,0187  

         35.639467,34.030417,0181  

         35.639467,34.0314,0177  

         35.639367,34.0324,0172  

         35.639267,34.0334,0167  

         35.638933,34.034133,0158  

         35.638133,34.034117,0151  

         35.637367,34.034083,0143  

         35.636633,34.034333,0135  

         35.635983,34.03475,0127  

         35.635217,34.034467,0119  

         35.636067,34.033433,0112  

         35.63545,34.033333,0104  

         35.634633,34.033783,0098  

         35.634983,34.033817,0089  

         35.669,33.9946,1834  

         35.66825,33.994033,0690  

         35.66795,33.993317,0690  

         35.666383,33.99245,0682  

         35.66435,33.991367,0645  

         35.662267,33.990417,0607  

         35.660033,33.989633,0582  

         35.65785,33.988867,0548  

         35.655667,33.988033,0524  

         35.653733,33.98675,0518  

         35.652067,33.98535,0497  

         35.650283,33.9839,0477  

         35.648517,33.982433,0456  

         35.646767,33.98095,0433  

         35.645067,33.979533,0408  

         35.643333,33.978133,0386  

         35.641683,33.976633,0365  

         35.640033,33.975117,0341  

         35.638383,33.973583,0313  

         35.637133,33.973033,0296  

         35.637083,33.973833,0296  

         35.637833,33.97475,0296  

         35.638267,33.9766,0286  

         35.63865,33.9789,0262  

         35.639067,33.981217,0232  

         35.639517,33.983667,0198  

         35.63995,33.985983,0162  

         35.640533,33.988033,0130  

         35.640483,33.987733,0111  

         35.641817,33.987133,0098  

         35.643267,33.986917,0088  

         35.643167,33.986783,0078  

         35.642433,33.987433,0069  

         35.642933,33.98845,0064  

         35.643533,33.989533,0056  

         35.64395,33.990617,0049  

         35.644467,33.991767,0040  

         35.64435,33.992367,0030  

         35.644067,33.9927,0023  

         35.669,33.9946,1834  

         35.667367,33.991783,0667  

         35.664283,33.989617,0622  

         35.660817,33.988333,0581  

         35.657133,33.987733,0529  

         35.654233,33.985667,0499  

         35.6513,33.983383,0473  

         35.6483,33.981117,0447  

         35.645267,33.978933,0416  

         35.642567,33.976367,0386  

         35.640117,33.973617,0354  

         35.64,33.975567,0318  

         35.642067,33.979017,0288  

         35.644833,33.982183,0258  

         35.647667,33.985367,0229  

         35.649817,33.988833,0193  

         35.650483,33.992417,0148  

         35.649933,33.99585,0107  

         35.648717,33.997483,0080  

         35.669,33.9946,1834  

         35.666367,33.993083,0675  

         35.663833,33.991867,0636  

         35.662067,33.99135,0610  

         35.659683,33.9904,0581  

         35.657183,33.988933,0545  

         35.655433,33.987467,0537  

         35.654017,33.986017,0527  

         35.6526,33.9844,0521  

         35.651217,33.982983,0518  

         35.649583,33.981283,0510  

         35.647967,33.979633,0499  

         35.6462,33.978067,0483  

         35.644483,33.976633,0469  

         35.642967,33.974733,0451  

         35.641633,33.972717,0433  

         35.641783,33.9747,0416  

         35.642283,33.976483,0416  

         35.642883,33.978483,0410  

         35.644933,33.98005,0408  

         35.6463,33.981717,0406  

         35.646833,33.983517,0404  

         35.647417,33.985383,0394  

         35.647933,33.987217,0373  

         35.648333,33.988883,0353  

         35.648567,33.990533,0333  

         35.6488,33.992183,0314  

         35.649683,33.993767,0295  

         35.651733,33.994717,0286  

         35.652817,33.99615,0277  

         35.654017,33.9975,0266  

         35.654533,33.998983,0257  

         35.6546,34.000417,0248  

         35.654517,34.0015,0283  

         35.654467,34.001567,0322  

         35.654683,34.001317,0391  

         35.654317,34.001217,0444  

         35.654433,34.001367,0500  

         35.654717,34.001417,0571  

         35.654417,34.001383,0649  

         35.65475,34.001283,0719  

         35.654617,34.001483,0796  

         35.654567,34.001117,0867  

         35.654083,34.005333,0813  

         35.6538,34.0092,0752  

         35.653683,34.0117,0714  

         35.653683,34.013383,0693  

         35.65345,34.015317,0666  

         35.6533,34.017033,0643  

         35.653183,34.018667,0622  

         35.6531,34.020267,0603  

         35.653017,34.021817,0583  

         35.652783,34.023383,0563  

         35.652417,34.025017,0541  

         35.651383,34.025567,0501  

         35.650583,34.023617,0469  

         35.649433,34.021117,0425  

         35.648567,34.018517,0381  

         35.647717,34.0164,0342  

         35.64785,34.016383,0371  

         35.647817,34.01455,0334  

         35.647033,34.012333,0298  

         35.646317,34.010817,0275  

         35.645467,34.009167,0248  

         35.644617,34.007517,0221  

         35.6439,34.005683,0192  

         35.642883,34.003283,0151  

         35.642267,34.001517,0125  

         35.641733,33.999883,0103  

         35.641183,33.998267,0080  

         35.640617,33.996933,0058  

         35.669,33.9946,1834  

         35.669817,33.99185,0682  

         35.670667,33.989917,0676  

         35.669667,33.991533,0669  

         35.669017,33.992717,0677  

         35.667567,33.992017,0686  

         35.666133,33.99095,0682  

         35.664783,33.990017,0665  

         35.6632,33.989033,0652  

         35.661417,33.988167,0645  

         35.658983,33.987517,0605  

         35.6577,33.987017,0594  

         35.657533,33.986283,0610  

         35.656183,33.98475,0609  

         35.65445,33.983367,0597  

         35.654717,33.9837,0658  

         35.654583,33.983333,0732  

         35.654283,33.983567,0819  

         35.654633,33.983217,0832  

         35.654017,33.9818,0806  

         35.651983,33.980283,0770  

         35.6499,33.978583,0740  

         35.647767,33.976733,0697  

         35.645717,33.974967,0655  

         35.643617,33.97315,0614  

         35.643317,33.973383,0575  

         35.645583,33.975883,0551  

         35.645917,33.976317,0613  

         35.645633,33.976283,0682  

         35.645983,33.976233,0753  

         35.645267,33.9762,0803  

         35.646817,33.97805,0781  

         35.648883,33.980583,0742  

         35.651733,33.982783,0706  

         35.654567,33.985,0683  

         35.6578,33.987133,0664  

         35.660833,33.989233,0626  

         35.663383,33.991883,0599  

         35.665283,33.994817,0573  

         35.667267,33.997683,0552  

         35.668983,34.000683,0511  

         35.668833,34.004,0479  

         35.670133,34.007033,0465  

         35.6708,34.007467,0477  

         35.670833,34.007983,0456  

         35.668833,34.009917,0421  

         35.666017,34.01035,0381  

         35.663283,34.010817,0351  

         35.662783,34.013367,0322  

         35.661217,34.015583,0297  

         35.660233,34.018067,0279  

         35.658617,34.02015,0259  

         35.656183,34.021083,0235  

         35.6537,34.01995,0183  

         35.651933,34.0174,0119  

         35.650117,34.016433,0089  

         35.648983,34.015767,0068  

         35.669,33.9946,1834  

         35.668067,33.99405,0689  

         35.667333,33.993517,0693  

         35.666533,33.99295,0695  

         35.6657,33.993183,0684  

         35.664483,33.993283,0665  

         35.663567,33.992517,0645  

         35.662817,33.991917,0630  

         35.661933,33.991217,0614  

         35.661067,33.990533,0605  

         35.660183,33.989867,0601  

         35.6593,33.989167,0591  

         35.6584,33.988533,0576  

         35.65745,33.987933,0568  

         35.656483,33.987283,0570  

         35.655567,33.986533,0571  

         35.6547,33.985817,0564  

         35.6538,33.985167,0555  

         35.652867,33.984467,0554  

         35.651983,33.983717,0554  

         35.650817,33.982683,0543  

         35.649683,33.981517,0535  

         35.648817,33.980567,0531  

         35.647967,33.979633,0525  

         35.647117,33.978683,0518  

         35.646267,33.977733,0511  

         35.645433,33.9768,0503  

         35.644567,33.975833,0494  

         35.643733,33.9749,0485  

         35.642883,33.97395,0479  

         35.64305,33.973817,0509  

         35.642867,33.973633,0558  

         35.643283,33.973667,0596  

         35.6429,33.973533,0628  

         35.642733,33.973883,0662  

         35.643067,33.973483,0688  

         35.642983,33.973867,0724  

         35.643317,33.973717,0714  

         35.642983,33.9739,0712  

         35.642683,33.973683,0735  

         35.642717,33.973733,0758  

         35.643133,33.973617,0781  

         35.642767,33.97355,0817  

         35.643117,33.973883,0842  

         35.643067,33.973467,0854  

         35.6429,33.973683,0873  

         35.642017,33.972783,0858  

         35.641767,33.973633,0833  

         35.642083,33.975233,0808  

         35.642417,33.9768,0783  

         35.642767,33.978417,0758  

         35.643083,33.980017,0734  

         35.643417,33.981583,0709  

         35.64375,33.983183,0684  

         35.644083,33.98475,0660  

         35.644417,33.986383,0635  

         35.64475,33.987983,0610  

         35.645083,33.989583,0585  

         35.645417,33.99115,0561  

         35.64575,33.992767,0536  

         35.646083,33.994333,0511  

         35.646567,33.995933,0486  

         35.6471,33.9975,0462  

         35.647633,33.999083,0437  

         35.648183,34.000683,0412  

         35.648733,34.002283,0387  

         35.649267,34.003867,0363  

         35.64965,34.00545,0338  

         35.649717,34.007033,0313  

         35.649433,34.008567,0288  

         35.649067,34.010033,0263  

         35.648333,34.011317,0239  

         35.647233,34.012083,0215  

         35.64645,34.013267,0193  

         35.646183,34.01445,0177  

         35.646733,34.014217,0157  

         35.646133,34.014583,0151  

         35.646667,34.014733,0140  

         35.647367,34.015267,0125  

         35.647433,34.015733,0111  

         35.646817,34.015033,0089  

         35.645833,34.014483,0075  

         35.645267,34.014333,0070  

         35.645267,34.013717,0065  

         35.645383,34.013083,0060  

         35.64565,34.012383,0057  

         35.645617,34.011767,0052  

         35.645717,34.011117,0046  

         35.645667,34.0105,0040  

         35.64535,34.010083,0034  

         35.644933,34.0098,0026  

         35.6446,34.009583,0019  

         35.644317,34.01005,0010  

         35.6442,34.01025,0006  

         35.669,33.9946,1834  

         35.66845,33.993867,0690  

         35.6677,33.99265,0698  

         35.666217,33.99165,0694  

         35.664717,33.990633,0675  

         35.662583,33.989417,0648  

         35.660183,33.988233,0626  

         35.657767,33.987267,0588  

         35.657567,33.986983,0586  

         35.669,33.9946,1834  

         35.6671,33.993367,0680  

         35.665633,33.992083,0662  

         35.664167,33.9908,0637  

         35.66265,33.98945,0608  

         35.660817,33.9887,0590  

         35.65885,33.988183,0555  

         35.6569,33.98735,0535  

         35.6553,33.985983,0525  

         35.6535,33.98505,0502  

         35.651833,33.983617,0492  

         35.650117,33.982417,0478  

         35.64875,33.980883,0467  

         35.647017,33.979733,0452  

         35.645383,33.978433,0436  

         35.644017,33.97695,0421  

         35.6427,33.975417,0404  

         35.6419,33.974567,0424  

         35.641883,33.974867,0470  

         35.641883,33.974733,0532  

         35.641967,33.974533,0585  

         35.6419,33.974617,0623  

         35.641967,33.974517,0667  

         35.642183,33.974583,0711  

         35.642283,33.974583,0753  

         35.642367,33.974633,0794  

         35.642217,33.974567,0834  

         35.642433,33.974583,0865  

         35.641917,33.9748,0873  

         35.641183,33.973017,0845  

         35.641617,33.974367,0813  

         35.642417,33.9762,0787  

         35.642417,33.976267,0787  

         35.642433,33.976217,0831  

         35.6428,33.977483,0834  

         35.643283,33.979567,0800  

         35.643733,33.981483,0769  

         35.644183,33.983467,0737  

         35.644633,33.985433,0705  

         35.645117,33.987467,0672  

         35.645517,33.989567,0638  

         35.64585,33.991533,0606  

         35.646217,33.9937,0571  

         35.64655,33.99565,0539  

         35.6469,33.997733,0505  

         35.647233,33.999733,0473  

         35.647583,34.001717,0441  

         35.647917,34.003733,0408  

         35.648283,34.00585,0373  

         35.648633,34.007883,0340  

         35.648983,34.009983,0306  

         35.649333,34.012,0273  

         35.649667,34.014,0246  

         35.649717,34.014317,0249  

         35.649733,34.014133,0290  

         35.6502,34.014067,0314  

         35.650133,34.014117,0358  

         35.650017,34.014117,0404  

         35.64985,34.014083,0450  

         35.6498,34.014267,0496  

         35.649833,34.014267,0537  

         35.649983,34.014417,0582  

         35.650067,34.014383,0626  

         35.650183,34.014283,0669  

         35.650233,34.014183,0712  

         35.6501,34.014117,0757  

         35.649933,34.014083,0804  

         35.649783,34.014167,0848  

         35.65,34.016283,0822  

         35.6502,34.01835,0788  

         35.650383,34.020333,0759  

         35.650583,34.0224,0725  

         35.650783,34.024433,0692  

         35.651,34.026433,0658  

         35.65135,34.0257,0673  

         35.651267,34.025733,0714  

         35.651167,34.025833,0757  

         35.651167,34.025917,0801  

         35.651067,34.024333,0789  

         35.650433,34.022533,0757  

         35.649817,34.0208,0725  

         35.649167,34.018983,0702  

         35.649067,34.018883,0749  

         35.648733,34.017917,0756  

         35.648133,34.016117,0723  

         35.647517,34.014283,0708  

         35.646917,34.012483,0684  

         35.646317,34.010683,0651  

         35.64565,34.008883,0618  

         35.644967,34.007183,0587  

         35.644267,34.005433,0554  

         35.643533,34.003633,0520  

         35.643067,34.002433,0498  

         35.642633,34.001367,0478  

         35.641833,33.999417,0442  

         35.64105,33.997567,0407  

         35.640733,33.996883,0394  

         35.669,33.9946,1834  

         35.667167,33.99375,0689  

         35.66565,33.992833,0681  

         35.664067,33.99195,0654  

         35.662317,33.990983,0624  

         35.660567,33.990183,0609  

         35.658533,33.988983,0583  

         35.656267,33.987667,0563  

         35.653933,33.98605,0540  

         35.651683,33.984283,0521  

         35.649333,33.982633,0497  

         35.647083,33.980883,0477  

         35.6449,33.979117,0453  

         35.642917,33.9772,0432  

         35.641,33.97515,0410  

         35.63935,33.972967,0384  

         35.639567,33.972483,0373  

         35.637933,33.9703,0347  

         35.637983,33.967733,0321  

         35.6364,33.966467,0288  

         35.634217,33.965817,0260  

         35.632167,33.9645,0227  

         35.6305,33.965633,0198  

         35.630433,33.967933,0176  

         35.6311,33.970367,0156  

         35.631817,33.972717,0131  

         35.63245,33.975167,0101  

         35.633033,33.977667,0068  

         35.633967,33.98005,0035  

         35.633233,33.9813,0013  

         35.669,33.9946,1834  

         35.668117,33.994667,0691  

         35.667083,33.993833,0695  

         35.666067,33.993083,0698  

         35.665733,33.992717,0708  

         35.664967,33.99145,0692  

         35.663167,33.990283,0662  

         35.660733,33.988833,0632  

         35.658,33.987517,0585  

         35.655767,33.985583,0567  

         35.65315,33.984133,0536  

         35.650683,33.982467,0514  

         35.648317,33.980817,0496  

         35.646233,33.978833,0472  

         35.644183,33.976767,0448  

         35.642433,33.974683,0425  

         35.640633,33.972683,0403  

         35.639433,33.971583,0379  

         35.639817,33.972083,0367  

         35.669,33.9946,1834  

         35.668217,33.994567,0689  

         35.668583,33.994267,0691  

         35.668417,33.994517,0690  

         35.66725,33.993733,0683  

         35.665867,33.992817,0671  

         35.664567,33.991933,0647  

         35.663217,33.99105,0624  

         35.661783,33.990183,0601  

         35.660267,33.989317,0589  

         35.659617,33.989083,0585  

         35.6596,33.989533,0578  

         35.6582,33.988567,0554  

         35.656783,33.987617,0540  

         35.655367,33.986683,0531  

         35.653917,33.985683,0513  

         35.65255,33.984783,0503  

         35.651217,33.983667,0493  

         35.649983,33.982567,0481  

         35.648783,33.981383,0471  

         35.647467,33.980333,0457  

         35.646133,33.979267,0443  

         35.644883,33.978117,0430  

         35.643767,33.976917,0416  

         35.642483,33.975717,0400  

         35.64145,33.9745,0387  

         35.640233,33.973417,0371  

         35.639,33.972333,0355  

         35.637933,33.971133,0341  

         35.637467,33.970217,0339  

         35.63755,33.969083,0336  

         35.637267,33.969083,0331  

         35.637267,33.969883,0330  

         35.63775,33.970767,0332  

         35.638233,33.971633,0333  

         35.638467,33.972083,0333  

         35.638817,33.972767,0332  

         35.639367,33.973667,0332  

         35.639983,33.9745,0332  

         35.640467,33.975283,0342  

         35.640933,33.975367,0349  

         35.64025,33.97535,0360  

         35.640383,33.9752,0408  

         35.640433,33.975083,0430  

         35.639833,33.975217,0472  

         35.64015,33.975117,0507  

         35.640983,33.975183,0516  

         35.641233,33.974717,0511  

         35.641983,33.975317,0513  

         35.642117,33.976333,0515  

         35.642583,33.976483,0516  

         35.642267,33.97625,0518  

         35.643017,33.976917,0519  

         35.643433,33.976483,0520  

         35.64295,33.975567,0521  

         35.642983,33.975433,0521  

         35.643117,33.97455,0522  

         35.64215,33.974833,0524  

         35.641567,33.9755,0524  

         35.642267,33.976617,0520  

         35.643233,33.9784,0503  

         35.6436,33.979067,0496  

         35.643833,33.979483,0492  

         35.644083,33.979933,0488  

         35.64445,33.980617,0480  

         35.644733,33.981133,0473  

         35.645083,33.98175,0465  

         35.645367,33.982233,0458  

         35.645733,33.982933,0447  

         35.646017,33.983417,0439  

         35.646283,33.983917,0431  

         35.646567,33.984433,0423  

         35.647017,33.9853,0409  

         35.647517,33.9865,0391  

         35.647917,33.987167,0383  

         35.648317,33.987883,0374  

         35.648717,33.98865,0365  

         35.648917,33.989333,0357  

         35.649017,33.989717,0352  

         35.649117,33.990017,0349  

         35.649333,33.990817,0340  

         35.649567,33.991617,0331  

         35.649783,33.992383,0322  

         35.650017,33.993183,0314  

         35.650233,33.993967,0306  

         35.650367,33.994767,0300  

         35.6505,33.995533,0293  

         35.650633,33.996333,0287  

         35.650767,33.997117,0280  

         35.650917,33.997917,0274  

         35.651,33.9987,0267  

         35.651033,33.999283,0263  

         35.651083,34.000067,0258  

         35.651117,34.000817,0255  

         35.651167,34.001617,0251  

         35.651217,34.002433,0246  

         35.65125,34.003283,0241  

         35.651283,34.004083,0235  

         35.651333,34.0049,0228  

         35.651383,34.005683,0223  

         35.65135,34.0065,0217  

         35.6513,34.007283,0210  

         35.65125,34.008117,0206  

         35.6512,34.0089,0202  

         35.651083,34.00965,0198  

         35.651,34.010367,0197  

         35.650967,34.010983,0195  

         35.650883,34.011617,0191  

         35.650783,34.0122,0187  

         35.650717,34.012833,0183  

         35.650517,34.013383,0178  

         35.6503,34.013933,0173  

         35.650067,34.0145,0169  

         35.649833,34.014967,0166  

         35.6495,34.015367,0165  

         35.649133,34.015767,0161  

         35.648633,34.016067,0149  

         35.648117,34.016267,0136  

         35.647583,34.016433,0126  

         35.64705,34.016633,0118  

         35.646517,34.016833,0113  

         35.645983,34.017083,0110  

         35.645933,34.016883,0104  

         35.646733,34.016317,0100  

         35.647567,34.015817,0092  

         35.648283,34.015267,0082  

         35.648183,34.01465,0079  

         35.647683,34.014483,0074  

         35.647167,34.014533,0067  

         35.646767,34.014733,0060  

         35.669,33.9946,1834  

         35.660833,33.983867,0717  

         35.659533,33.984067,0702  

         35.65855,33.984033,0694  

         35.658017,33.983867,0692  

         35.657367,33.98425,0688  

         35.656217,33.984717,0674  

         35.654933,33.984667,0657  

         35.653683,33.98455,0644  

         35.652533,33.9841,0637  

         35.651483,33.9834,0626  

         35.650433,33.982683,0615  

         35.649317,33.982067,0607  

         35.648233,33.981433,0595  

         35.647183,33.980767,0580  

         35.646167,33.980033,0566  

         35.64525,33.9792,0554  

         35.644517,33.9782,0543  

         35.643883,33.97715,0534  

         35.643117,33.976183,0523  

         35.64235,33.975233,0511  

         35.64145,33.974367,0500  

         35.640633,33.973467,0488  

         35.640117,33.973567,0476  

         35.640283,33.974733,0466  

         35.640483,33.975433,0466  

         35.6407,33.976017,0467  

         35.641033,33.976567,0467  

         35.641533,33.9771,0468  

         35.642017,33.977633,0469  

         35.642517,33.978167,0471  

         35.642683,33.978133,0473  

         35.642083,33.978183,0473  

         35.643017,33.978517,0472  

         35.643983,33.9789,0473  

         35.644933,33.979283,0475  

         35.645833,33.979633,0477  

         35.646683,33.97995,0478  

         35.647467,33.980317,0480  

         35.6482,33.980717,0482  

         35.648883,33.981183,0485  

         35.649583,33.981633,0489  

         35.6497,33.981717,0495  

         35.649583,33.981167,0501  

         35.649567,33.981183,0507  

         35.650033,33.981717,0513  

         35.650467,33.982283,0518  

         35.651133,33.98275,0522  

         35.651583,33.98325,0524  

         35.652,33.983733,0527  

         35.652833,33.98405,0532  

         35.653467,33.984517,0538  

         35.65405,33.985017,0542  

         35.654883,33.985317,0538  

         35.655733,33.985567,0535  

         35.656367,33.986033,0537  

         35.656667,33.986617,0543  

         35.657083,33.9872,0550  

         35.65695,33.987017,0555  

         35.656933,33.986417,0562  

         35.657017,33.985817,0569  

         35.657017,33.985717,0575  

         35.657133,33.9863,0582  

         35.657133,33.986867,0588  

         35.65735,33.987383,0595  

         35.657967,33.987867,0598  

         35.6586,33.988333,0596  

         35.659417,33.988683,0590  

         35.66035,33.988633,0583  

         35.661283,33.988567,0580  

         35.662183,33.988367,0582  

         35.662683,33.988683,0582  

         35.662417,33.98905,0580  

         35.662,33.989283,0582  

         35.661717,33.989617,0584  

         35.661433,33.989967,0587  

         35.661017,33.990167,0590  

         35.66065,33.990483,0593  

         35.660233,33.990633,0593  

         35.660167,33.991,0591  

         35.660533,33.991583,0585  

         35.6609,33.99215,0578  

         35.661633,33.992533,0570  

         35.66225,33.993017,0563  

         35.662867,33.993483,0562  

         35.663783,33.993617,0565  

         35.663683,33.993783,0567  

         35.663417,33.994017,0570  

         35.663383,33.994567,0574  

         35.664333,33.994617,0578  

         35.664933,33.99415,0580  

         35.665433,33.994683,0580  

         35.665417,33.99525,0579  

         35.6658,33.995833,0579  

         35.666233,33.996417,0581  

         35.666867,33.996917,0582  

         35.667317,33.997483,0582  

         35.667317,33.998033,0580  

         35.666983,33.998367,0578  

         35.667517,33.998783,0575  

         35.668333,33.999117,0569  

         35.6692,33.999433,0560  

         35.670133,33.99955,0562  

         35.670417,33.999333,0567  

         35.670017,33.999583,0572  

         35.670667,33.999967,0577  

         35.671583,33.999817,0582  

         35.672117,34.00035,0584  

         35.672583,34.000917,0583  

         35.672717,34.001483,0585  

         35.67255,34.001983,0588  

         35.672333,34.002467,0591  

         35.6723,34.003033,0595  

         35.672417,34.003633,0598  

         35.672767,34.004217,0601  

         35.672867,34.004783,0603  

         35.672433,34.005017,0604  

         35.673017,34.0055,0605  

         35.67275,34.005833,0605  

         35.672283,34.005867,0606  

         35.673083,34.005583,0607  

         35.673767,34.0056,0607  

         35.673333,34.005833,0607  

         35.672917,34.0061,0608  

         35.6725,34.00635,0609  

         35.672033,34.006383,0610  

         35.671533,34.006383,0610  

         35.67105,34.0064,0611  

         35.670567,34.0064,0611  

         35.670083,34.006417,0611  

         35.669617,34.006417,0609  

         35.669133,34.006433,0605  

         35.668617,34.006433,0599  

         35.66745,34.006567,0581  

         35.666217,34.0067,0562  

         35.6651,34.007133,0543  

         35.664033,34.007717,0524  

         35.662967,34.008317,0505  

         35.662017,34.00905,0486  

         35.661283,34.009983,0467  

         35.660667,34.0108,0455  

         35.660667,34.011233,0450  

         35.660217,34.011783,0444  

         35.659567,34.012767,0427  

         35.659133,34.013817,0409  

         35.658267,34.014633,0390  

         35.657383,34.015467,0371  

         35.656517,34.016283,0354  

         35.655667,34.017083,0338  

         35.654917,34.017483,0328  

         35.654733,34.017783,0325  

         35.655,34.018367,0321  

         35.65505,34.018817,0314  

         35.6548,34.018433,0309  

         35.654517,34.0183,0304  

         35.655017,34.018867,0298  

         35.655483,34.0194,0294  

         35.655717,34.019983,0293  

         35.655783,34.020567,0294  

         35.655833,34.021133,0295  

         35.656033,34.021733,0295  

         35.656717,34.022117,0293  

         35.657633,34.022283,0291  

         35.658517,34.022533,0291  

         35.659233,34.022983,0291  

         35.659183,34.023417,0291  

         35.659433,34.023917,0288  

         35.660217,34.024283,0284  

         35.661133,34.024517,0276  

         35.662,34.024833,0267  

         35.66285,34.025133,0262  

         35.663733,34.025417,0259  

         35.66465,34.02555,0257  

         35.665283,34.025867,0257  

         35.665767,34.026433,0257  

         35.665667,34.026367,0257  

         35.665367,34.025967,0257  

         35.665217,34.025433,0257  

         35.665517,34.024833,0258  

         35.6656,34.024567,0258  

         35.665367,34.025033,0258  

         35.665283,34.025533,0259  

         35.665183,34.025333,0259  

         35.665467,34.024833,0260  

         35.66595,34.024267,0260  

         35.665817,34.024267,0260  

         35.665633,34.024733,0260  

         35.665383,34.025183,0261  

         35.665383,34.025733,0261  

         35.665817,34.026283,0262  

         35.666367,34.026833,0261  

         35.666083,34.026567,0260  

         35.665683,34.026267,0259  

         35.6654,34.025833,0259  

         35.665317,34.025283,0260  

         35.665467,34.024967,0261  

         35.665433,34.024783,0261  

         35.6653,34.025117,0262  

         35.665533,34.024817,0263  

         35.665567,34.024967,0263  

         35.665467,34.025217,0264  

         35.665717,34.024733,0265  

         35.665367,34.024967,0265  

         35.665283,34.025317,0266  

         35.665767,34.024817,0267  

         35.665983,34.024433,0268  

         35.665833,34.0249,0269  

         35.665667,34.025067,0270  

         35.666117,34.024533,0271  

         35.666167,34.024417,0271  

         35.666233,34.024367,0272  

         35.666083,34.024667,0273  

         35.665883,34.0249,0274  

         35.666283,34.024383,0275  

         35.666083,34.0248,0276  

         35.665867,34.025233,0276  

         35.665667,34.025633,0277  

         35.6658,34.026,0278  

         35.666483,34.026417,0278  

         35.667017,34.026933,0278  

         35.667433,34.02745,0279  

         35.667167,34.027117,0279  

         35.666867,34.026733,0280  

         35.666517,34.026417,0280  

         35.666183,34.026067,0280  

         35.665883,34.025917,0280  

         35.665433,34.025933,0281  

         35.665367,34.025567,0281  

         35.66595,34.025133,0282  

         35.666267,34.024567,0283  

         35.665967,34.02475,0284  

         35.66615,34.024833,0285  

         35.666017,34.024617,0287  

         35.66605,34.024767,0288  

         35.665817,34.024617,0289  

         35.666217,34.024617,0290  

         35.6658,34.024633,0291  

         35.666317,34.024633,0292  

         35.665917,34.024667,0293  

         35.666383,34.025183,0295  

         35.66665,34.024767,0296  

         35.667133,34.024217,0296  

         35.667683,34.0237,0297  

         35.668133,34.0232,0298  

         35.668283,34.023133,0300  

         35.668583,34.022833,0300  

         35.668283,34.023167,0299  

         35.667983,34.023517,0300  

         35.667633,34.023817,0301  

         35.667283,34.024133,0302  

         35.667067,34.02455,0302  

         35.66675,34.024817,0303  

         35.666333,34.024667,0304  

         35.666017,34.024983,0305  

         35.6663,34.025517,0306  

         35.666883,34.026017,0306  

         35.667483,34.026483,0307  

         35.667983,34.027017,0307  

         35.668567,34.027517,0308  

         35.668233,34.027583,0308  

         35.668067,34.027133,0309  

         35.667783,34.026767,0310  

         35.667417,34.026467,0310  

         35.667083,34.026117,0310  

         35.666867,34.0257,0311  

         35.667017,34.025133,0311  

         35.667,34.024683,0312  

         35.666567,34.024583,0312  

         35.666867,34.024367,0313  

         35.667483,34.023933,0314  

         35.668183,34.023533,0315  

         35.668,34.023467,0316  

         35.667733,34.023867,0317  

         35.667683,34.024367,0318  

         35.667517,34.024083,0320  

         35.667283,34.024017,0321  

         35.668117,34.023783,0322  

         35.66875,34.023333,0323  

         35.669317,34.022833,0323  

         35.670017,34.022433,0324  

         35.669867,34.022633,0324  

         35.669467,34.022867,0324  

         35.669117,34.023117,0325  

         35.669717,34.022717,0326  

         35.67,34.022267,0327  

         35.67025,34.022367,0328  

         35.669,33.9946,1834  

         35.666933,33.993833,0681  

         35.666,33.993133,0708  

         35.665833,33.992867,0739  

         35.6659,33.992867,0803  

         35.665967,33.993017,0859  

         35.665567,33.992367,0868  

         35.664183,33.990233,0826  

         35.662617,33.9882,0784  

         35.660433,33.986583,0739  

         35.658733,33.984333,0702  

         35.6566,33.982517,0666  

         35.654017,33.981417,0628  

         35.65125,33.980433,0589  

         35.64885,33.978933,0559  

         35.64665,33.977167,0523  

         35.644633,33.975283,0484  

         35.642683,33.973267,0456  

         35.641967,33.974167,0427  

         35.643133,33.977017,0402  

         35.644367,33.979833,0381  

         35.645883,33.982433,0361  

         35.646567,33.985067,0342  

         35.647367,33.987683,0311  

         35.64865,33.989883,0280  

         35.650183,33.990467,0261  

         35.649917,33.9908,0298  

         35.649517,33.990483,0335  

         35.649783,33.990483,0378  

         35.649917,33.990767,0429  

         35.649733,33.9909,0476  

         35.649717,33.990517,0491  

         35.650017,33.990867,0534  

         35.649567,33.990633,0576  

         35.649683,33.990833,0639  

         35.6497,33.990783,0697  

         35.65,33.990783,0756  

         35.649683,33.990967,0793  

         35.649733,33.990417,0810  

         35.649767,33.990617,0870  

         35.649717,33.9924,0849  

         35.65065,33.994833,0811  

         35.651017,33.997317,0773  

         35.651317,33.999767,0735  

         35.651433,34.002233,0696  

         35.651467,34.004733,0657  

         35.651483,34.007183,0619  

         35.651517,34.009633,0580  

         35.65155,34.012083,0542  

         35.651967,34.0146,0503  

         35.6525,34.0171,0464  

         35.652383,34.019583,0425  

         35.651933,34.022133,0383  

         35.651117,34.024333,0340  

         35.650533,34.023983,0293  

         35.647817,34.0234,0252  

         35.646267,34.021483,0211  

         35.64635,34.01895,0168  

         35.646567,34.016633,0135  

         35.648617,34.015433,0089  

         35.646617,34.014967,0058  

         35.669,33.9946,1093  

         35.668117,33.99425,0690  

         35.668517,33.994283,0694  

         35.668767,33.993767,0695  

         35.668133,33.993283,0700  

         35.667383,33.99275,0705  

         35.6665,33.992033,0701  

         35.664967,33.9908,0672  

         35.663433,33.989617,0648  

         35.661783,33.988633,0628  

         35.660417,33.988067,0612  

         35.6585,33.987833,0579  

         35.65715,33.987,0571  

         35.656983,33.9865,0581  

         35.657183,33.986117,0591  

         35.656117,33.985383,0590  

         35.654367,33.98455,0566  

         35.652733,33.983367,0549  

         35.650983,33.982417,0531  

         35.649833,33.981183,0525  

         35.649367,33.980533,0532  

         35.648867,33.979867,0536  

         35.648217,33.979233,0538  

         35.646817,33.977867,0518  

         35.645483,33.976467,0498  

         35.644183,33.975083,0479  

         35.643633,33.974367,0478  

         35.643167,33.973833,0478  

         35.6427,33.973317,0479  

         35.642233,33.9728,0478  

         35.642083,33.972967,0477  

         35.642667,33.973983,0476  

         35.643317,33.975017,0477  

         35.643883,33.975933,0478  

         35.64455,33.976933,0478  

         35.645233,33.977717,0481  

         35.6459,33.9785,0483  

         35.646883,33.979133,0487  

         35.647833,33.979817,0490  

         35.64875,33.980717,0492  

         35.649667,33.981733,0497  

         35.650567,33.982633,0504  

         35.649983,33.981783,0511  

         35.649567,33.981083,0520  

         35.649833,33.981167,0529  

         35.649917,33.981433,0538  

         35.649667,33.980683,0546  

         35.650417,33.981367,0554  

         35.650333,33.981433,0562  

         35.650583,33.981433,0570  

         35.650367,33.981883,0576  

         35.6507,33.982167,0584  

         35.651717,33.982767,0586  

         35.652967,33.983417,0585  

         35.65425,33.984283,0585  

         35.65595,33.985367,0569  

         35.656917,33.986067,0571  

         35.657183,33.986817,0581  

         35.657267,33.985967,0592  

         35.657417,33.986417,0601  

         35.65745,33.9863,0611  

         35.657333,33.986633,0621  

         35.657067,33.986233,0631  

         35.657517,33.986583,0642  

         35.657283,33.987267,0651  

         35.657667,33.9872,0659  

         35.657433,33.987833,0667  

         35.65885,33.988533,0660  

         35.661417,33.988533,0634  

         35.663067,33.9885,0632  

         35.664467,33.988667,0631  

         35.664667,33.988633,0634  

         35.665017,33.988783,0637  

         35.66575,33.99005,0629  

         35.66645,33.99195,0603  

         35.667017,33.993317,0600  

         35.666983,33.993667,0605  

         35.667817,33.992967,0611  

         35.667867,33.993017,0615  

         35.667533,33.993583,0620  

         35.6672,33.994133,0624  

         35.667633,33.993717,0628  

         35.667683,33.99315,0633  

         35.667083,33.992883,0639  

         35.667417,33.9929,0646  

         35.667783,33.992833,0653  

         35.667783,33.992783,0661  

         35.667583,33.992383,0667  

         35.66765,33.992417,0675  

         35.667817,33.9921,0683  

         35.668167,33.992083,0691  

         35.6685,33.992067,0698  

         35.668083,33.992483,0705  

         35.667783,33.993067,0710  

         35.66745,33.993667,0715  

         35.667083,33.994333,0720  

         35.66675,33.994967,0723  

         35.666383,33.995617,0726  

         35.666067,33.996233,0727  

         35.6653,33.997617,0704  

         35.664667,33.999183,0676  

         35.664,34.000783,0648  

         35.663367,34.002367,0621  

         35.662667,34.004067,0591  

         35.662017,34.005667,0563  

         35.66135,34.007317,0535  

         35.6608,34.008667,0511  

         35.660133,34.0103,0482  

         35.659483,34.011883,0455  

         35.658817,34.013533,0427  

         35.65815,34.01515,0399  

         35.657483,34.016783,0372  

         35.656867,34.018333,0351  

         35.656667,34.01905,0345  

         35.656383,34.019683,0342  

         35.656117,34.0203,0338  

         35.655833,34.020917,0334  

         35.65555,34.021533,0330  

         35.655183,34.022233,0318  

         35.656183,34.023583,0276  

         35.654967,34.023333,0233  

         35.654617,34.021567,0188  

         35.654333,34.01965,0141  

         35.65385,34.018717,0116  

         35.669,33.9946,0000  

         35.665367,33.992517,0660  

         35.660817,33.989583,0591  

         35.655883,33.9869,0534  

         35.651483,33.983517,0501  

         35.647283,33.980067,0461  

         35.6432,33.976533,0422  

         35.640017,33.973967,0367  

         35.642617,33.979383,0319  

         35.64385,33.984783,0267  

         35.64495,33.990083,0202  

         35.645033,33.991933,0297  

         35.645067,33.992233,0422  

         35.645067,33.99195,0589  

         35.64505,33.992017,0767  

         35.645483,33.993917,0848  

         35.646333,33.999033,0769  

         35.647133,34.004067,0692  

         35.64795,34.009183,0613  

         35.6488,34.014517,0531  

         35.6491,34.0198,0448  

         35.64775,34.024867,0366  

         35.646383,34.028567,0360  

         35.64645,34.028683,0473  

         35.6464,34.028633,0588  

         35.6462,34.02875,0684  

         35.646333,34.028767,0797  

         35.647717,34.02975,0853  

         35.646267,34.025033,0770  

         35.645167,34.020167,0691  

         35.644083,34.015317,0611  

         35.643,34.010433,0531  

         35.642167,34.005467,0462  

         35.64165,34.000333,0380  

         35.641033,33.996767,0322  

         35.669,33.9946,0000  

         35.667383,33.994083,0717  

         35.6663,33.993217,0716  

         35.664317,33.992267,0679  

         35.662233,33.991617,0641  

         35.660467,33.990767,0611  

         35.658733,33.989733,0582  

         35.6574,33.988083,0556  

         35.656517,33.986217,0552  

         35.65465,33.985433,0535  

         35.653083,33.984517,0525  

         35.651667,33.9834,0523  

         35.650417,33.98215,0518  

         35.64955,33.980883,0519  

         35.6481,33.97955,0509  

         35.64635,33.978267,0492  

         35.645233,33.97675,0478  

         35.643667,33.9752,0459  

         35.642317,33.9736,0442  

         35.641383,33.973267,0423  

         35.64235,33.975367,0407  

         35.643283,33.977267,0398  

         35.644583,33.979167,0391  

         35.646333,33.981067,0376  

         35.648217,33.982967,0362  

         35.648467,33.982933,0421  

         35.648517,33.982983,0497  

         35.648483,33.983083,0560  

         35.648583,33.9831,0614  

         35.648533,33.984833,0594  

         35.648583,33.98695,0559  

         35.648667,33.989033,0524  

         35.648817,33.991133,0490  

         35.648983,33.993233,0456  

         35.649217,33.995217,0424  

         35.649433,33.9968,0401  

         35.649667,33.9984,0378  

         35.649883,33.999983,0355  

         35.650067,34.001267,0335  

         35.650233,34.002617,0314  

         35.650217,34.003833,0294  

         35.650217,34.00505,0274  

         35.650217,34.006267,0256  

         35.650217,34.007467,0241  

         35.650167,34.008667,0229  

         35.650117,34.009817,0217  

         35.650033,34.011217,0205  

         35.650067,34.012717,0193  

         35.649533,34.013933,0179  

         35.648667,34.014967,0168  

         35.648583,34.015317,0150  

         35.6476,34.016017,0130  

         35.646383,34.016583,0112  

         35.6453,34.016617,0098  

         35.6447,34.015667,0080  

         35.644333,34.014533,0059  

         35.6455,34.01345,0045  

         35.64505,34.012267,0037  

         35.643867,34.012167,0023  

         35.64355,34.01125,0005  

         35.643533,34.01125,0004  

         35.669,33.9946,1834  

         35.668783,33.993033,0675  

         35.669983,33.990917,0661  

         35.669817,33.989333,0645  

         35.668233,33.989083,0623  

         35.666817,33.990033,0589  

         35.66505,33.990267,0563  

         35.663317,33.99015,0540  

         35.66155,33.989833,0516  

         35.659983,33.989267,0501  

         35.65815,33.989267,0476  

         35.6563,33.988583,0457  

         35.654667,33.987233,0445  

         35.652867,33.98605,0424  

         35.651533,33.984633,0416  

         35.64995,33.983633,0403  

         35.648317,33.982667,0392  

         35.646917,33.981433,0380  

         35.646767,33.981183,0438  

         35.646433,33.980933,0444  

         35.64565,33.9794,0431  

         35.644283,33.978217,0418  

         35.642983,33.9769,0405  

         35.64215,33.975317,0392  

         35.641067,33.973817,0377  

         35.640017,33.973183,0359  

         35.640883,33.975133,0343  

         35.641767,33.977017,0330  

         35.642933,33.97885,0317  

         35.644283,33.980467,0306  

         35.645733,33.982083,0295  

         35.647233,33.983617,0283  

         35.648817,33.98525,0269  

         35.650067,33.9869,0256  

         35.651583,33.988517,0243  

         35.652617,33.990233,0227  

         35.653233,33.992083,0212  

         35.653433,33.993867,0194  

         35.6539,33.995733,0172  

         35.65355,33.997333,0150  

         35.6522,33.9983,0127  

         35.651333,33.99965,0107  

         35.6502,34.000917,0088  

         35.6495,34.0019,0072  

         35.669,33.9946,1834  

         35.66815,33.994717,0689  