<!-- This file has been generated by http://www.paraglidingearth.com -->
<kml xmlns="http://earth.google.com/kml/2.0">

   <Document>
   
  <Style id="noIcon">
     <IconStyle>
      <scale>0</scale>
    </IconStyle>
  </Style>
  
    <name> - 60- 1-2051</name>
    
    <Placemark>
            <name>Flight</name>
            <visibility>1</visibility>
            <open>1</open>
            <Style>
              <LineStyle>
                <color>ff00ffff</color>
              </LineStyle>
              <PolyStyle>
                  <color>7f0000ff</color>
              </PolyStyle>
            </Style>
        <LineString>
              <altitudeMode>absolute
              </altitudeMode>
              
          <coordinates>
          
         6.247,45.8142,0018  

         6.246433,45.814717,1270  

         6.247017,45.815367,1271  

         6.247417,45.815967,1272  

         6.247733,45.816617,1274  

         6.247833,45.817217,1275  

         6.247967,45.817867,1276  

         6.248167,45.818483,1277  

         6.248533,45.818933,1281  

         6.248867,45.819383,1286  

         6.2492,45.819833,1291  

         6.249583,45.8203,1297  

         6.249917,45.820767,1302  

         6.250083,45.821267,1308  

         6.2505,45.8219,1311  

         6.250333,45.822467,1312  

         6.250183,45.822983,1315  

         6.250367,45.823017,1360  

         6.250517,45.823367,1407  

         6.250917,45.823267,1467  

         6.250817,45.823283,1506  

         6.251033,45.823133,1539  

         6.250667,45.8233,1575  

         6.251033,45.8234,1622  

         6.250483,45.823417,1668  

         6.250633,45.823367,1727  

         6.250883,45.823217,1779  

         6.250783,45.823533,1821  

         6.250817,45.823883,1866  

         6.250917,45.82435,1866  

         6.25155,45.825367,1848  

         6.251933,45.826367,1830  

         6.252317,45.827383,1812  

         6.252917,45.8284,1794  

         6.253717,45.829217,1780  

         6.25485,45.829883,1765  

         6.256133,45.830417,1750  

         6.257433,45.830917,1735  

         6.258817,45.831367,1721  

         6.260117,45.831867,1706  

         6.26135,45.832433,1691  

         6.262733,45.8329,1691  

         6.262283,45.833183,1712  

         6.261783,45.832967,1760  

         6.262183,45.833133,1809  

         6.262433,45.833683,1842  

         6.263817,45.834383,1823  

         6.265317,45.83495,1805  

         6.266867,45.835517,1787  

         6.26855,45.835967,1769  

         6.270267,45.836283,1751  

         6.271533,45.836517,1748  

         6.272883,45.8367,1748  

         6.274067,45.837083,1750  

         6.275367,45.837617,1751  

         6.276533,45.838283,1752  

         6.277917,45.838883,1738  

         6.279783,45.838983,1718  

         6.281417,45.838233,1700  

         6.283183,45.837567,1682  

         6.285,45.8371,1664  

         6.286867,45.837017,1650  

         6.288533,45.8373,1649  

         6.289733,45.837683,1652  

         6.29085,45.83825,1656  

         6.291617,45.839117,1657  

         6.29205,45.839983,1662  

         6.292667,45.84075,1666  

         6.293067,45.841467,1671  

         6.293367,45.842183,1674  

         6.293667,45.842967,1677  

         6.293933,45.843767,1679  

         6.294117,45.844633,1687  

         6.2937,45.844683,1730  

         6.293433,45.844467,1788  

         6.293367,45.844383,1837  

         6.2939,45.844433,1871  

         6.294667,45.844983,1866  

         6.295583,45.845883,1865  

         6.29625,45.846833,1865  

         6.296717,45.847783,1864  

         6.297033,45.848583,1863  

         6.297317,45.849417,1862  

         6.297583,45.850283,1856  

         6.298183,45.851467,1870  

         6.298783,45.852633,1866  

         6.299617,45.853817,1862  

         6.300067,45.85505,1860  

         6.300467,45.856183,1855  

         6.301033,45.857333,1846  

         6.301233,45.858417,1831  

         6.301183,45.859417,1814  

         6.3013,45.860517,1795  

         6.301967,45.861567,1776  

         6.3029,45.862483,1757  

         6.304533,45.863133,1737  

         6.30625,45.863483,1719  

         6.307667,45.863767,1705  

         6.309167,45.86405,1689  

         6.311017,45.864417,1670  

         6.312617,45.864733,1653  

         6.314233,45.86505,1636  

         6.316,45.8654,1618  

         6.31765,45.865867,1600  

         6.319317,45.866333,1581  

         6.320967,45.866817,1563  

         6.322633,45.867283,1545  

         6.323667,45.867783,1535  

         6.32275,45.867367,1562  

         6.323467,45.867133,1603  

         6.322967,45.867433,1646  

         6.323333,45.867267,1691  

         6.323417,45.867183,1741  

         6.323033,45.86715,1789  

         6.3231,45.867383,1835  

         6.323933,45.867333,1871  

         6.325467,45.8679,1854  

         6.3271,45.868367,1836  

         6.328733,45.86885,1817  

         6.3304,45.869283,1799  

         6.332067,45.869783,1781  

         6.333767,45.870183,1762  

         6.335467,45.8706,1744  

         6.336983,45.871183,1729  

         6.338783,45.871483,1711  

         6.34115,45.87185,1687  

         6.343033,45.872083,1668  

         6.34495,45.872467,1648  

         6.346933,45.872883,1627  

         6.34865,45.873267,1609  

         6.3505,45.8738,1588  

         6.352267,45.874233,1569  

         6.354017,45.874533,1551  

         6.355783,45.874833,1536  

         6.35715,45.874917,1535  

         6.358333,45.875017,1537  

         6.359467,45.875133,1537  

         6.360433,45.875433,1538  

         6.361267,45.875883,1539  

         6.362533,45.876017,1540  

         6.363383,45.876283,1542  

         6.364267,45.876483,1544  

         6.36515,45.876667,1547  

         6.365833,45.87695,1549  

         6.366233,45.877583,1551  

         6.366433,45.878333,1546  

         6.366683,45.879333,1529  

         6.366983,45.880417,1512  

         6.367383,45.881183,1501  

         6.36775,45.8817,1496  

         6.367583,45.88185,1499  

         6.367317,45.881633,1540  

         6.367917,45.8817,1580  

         6.367783,45.881267,1627  

         6.367683,45.881433,1674  

         6.367883,45.881283,1721  

         6.36805,45.881567,1766  

         6.368817,45.881933,1775  

         6.3699,45.882617,1760  

         6.370867,45.88315,1748  

         6.371783,45.8837,1737  

         6.372767,45.88415,1734  

         6.3736,45.884517,1737  

         6.374183,45.884983,1742  

         6.3747,45.885483,1748  

         6.375117,45.886,1753  

         6.375567,45.8866,1754  

         6.376483,45.887383,1741  

         6.377783,45.888067,1724  

         6.37935,45.888533,1707  

         6.38095,45.888917,1690  

         6.38215,45.889533,1676  

         6.383267,45.890133,1664  

         6.382633,45.889767,1667  

         6.382767,45.889517,1721  

         6.383017,45.889417,1767  

         6.383067,45.889367,1815  

         6.383183,45.889117,1859  

         6.384633,45.889483,1849  

         6.38605,45.890167,1830  

         6.387483,45.89085,1812  

         6.38885,45.891567,1794  

         6.390217,45.892267,1776  

         6.391417,45.892867,1763  

         6.392767,45.8933,1749  

         6.394267,45.893717,1735  

         6.395783,45.893767,1725  

         6.397317,45.893917,1716  

         6.39905,45.894167,1705  

         6.400783,45.894267,1700  

         6.402083,45.894333,1698  

         6.403183,45.894667,1695  

         6.40435,45.894983,1693  

         6.405583,45.895117,1690  

         6.406567,45.895117,1689  

         6.40755,45.895117,1687  

         6.408467,45.895117,1685  

         6.409817,45.895183,1679  

         6.411417,45.8954,1665  

         6.413333,45.895433,1645  

         6.415167,45.895383,1627  

         6.416933,45.895283,1611  

         6.41855,45.895183,1596  

         6.420533,45.895217,1577  

         6.422483,45.895283,1559  

         6.423917,45.895517,1545  

         6.425883,45.895667,1526  

         6.427367,45.895833,1511  

         6.428883,45.896017,1497  

         6.430217,45.896533,1481  

         6.432,45.896717,1464  

         6.433833,45.896483,1447  

         6.434933,45.8965,1444  

         6.436017,45.89665,1444  

         6.436917,45.896783,1444  

         6.437267,45.89715,1445  

         6.4369,45.897433,1446  

         6.435967,45.897967,1438  

         6.434917,45.898633,1427  

         6.434517,45.898667,1432  

         6.434633,45.899283,1444  

         6.433833,45.899317,1477  

         6.434033,45.899317,1521  

         6.434133,45.89915,1565  

         6.434017,45.899067,1607  

         6.433467,45.899383,1650  

         6.433833,45.899017,1698  

         6.433633,45.8992,1744  

         6.43385,45.899483,1789  

         6.4335,45.9003,1792  

         6.432867,45.901217,1773  

         6.43265,45.902217,1755  

         6.432433,45.903217,1736  

         6.432333,45.904233,1718  

         6.432517,45.905267,1700  

         6.432683,45.9063,1682  

         6.432833,45.907367,1663  

         6.432817,45.908383,1646  

         6.432417,45.90935,1633  

         6.432883,45.90925,1628  

         6.432817,45.910133,1660  

         6.432467,45.911117,1659  

         6.432767,45.911083,1696  

         6.432767,45.9121,1704  

         6.432517,45.913083,1686  

         6.432083,45.914033,1668  

         6.432167,45.915083,1668  

         6.432533,45.9161,1650  

         6.43305,45.91715,1631  

         6.433217,45.918183,1613  

         6.433317,45.919233,1607  

         6.432983,45.9202,1589  

         6.433183,45.921233,1570  

         6.433333,45.922283,1552  

         6.432967,45.9233,1533  

         6.432217,45.923833,1530  

         6.431433,45.924333,1522  

         6.431117,45.925283,1504  

         6.430433,45.92615,1485  

         6.42955,45.926917,1466  

         6.428233,45.927417,1450  

         6.428,45.928417,1438  

         6.428383,45.929467,1430  

         6.4283,45.930483,1422  

         6.427933,45.931483,1414  

         6.427317,45.932367,1414  

         6.427017,45.933333,1395  

         6.42675,45.934317,1378  

         6.426317,45.935267,1360  

         6.425867,45.936183,1342  

         6.425417,45.937117,1324  

         6.424967,45.93805,1306  

         6.4246,45.939017,1288  

         6.424383,45.93945,1280  

  
</coordinates>
</LineString>
</Placemark>

<Placemark>
  <name>Take off : 22h38
  </name>
  
      <Style>
        <IconStyle>
          <Icon>
            <href>root://icons/palette-5.png</href>
            <x>160</x>
            <y>192</y>
            <w>32</w>
            <h>32</h>
          </Icon>
        </IconStyle>
      </Style>
  <Point>
    <altitudeMode>absolute
    </altitudeMode>
    <coordinates>       6.247,45.8142,0018  

    </coordinates>
  </Point>
</Placemark>

<Placemark>
  <name>Landing : 23h13
  </name>
      <Style>
        <IconStyle>
          <Icon>
            <href>root://icons/palette-5.png</href>
            <x>160</x>
            <y>192</y>
            <w>32</w>
            <h>32</h>
          </Icon>
        </IconStyle>
      </Style>
  <Point>
    <altitudeMode>absolute
    </altitudeMode>
    <coordinates>       6.424383,45.93945,1280  

    </coordinates>
  </Point>
</Placemark>


  <Placemark>
  <name>Altitude max : 1871m.
  </name>
      <Style>
        <IconStyle>
          <Icon>
            <href>root://icons/palette-4.png</href>
            <x>64</x>
            <y>64</y>
            <w>32</w>
            <h>32</h>
          </Icon>
        </IconStyle>
        <LabelStyle>
          <color>ff0000ff</color>
        </LabelStyle>
      </Style>
     <Point>
        <altitudeMode>absolute
        </altitudeMode>
        <coordinates>  6.323933,45.867333,1871
        </coordinates>
     </Point>
  </Placemark>


  <Placemark>
  <name>Vz max : 7.25 m/s
  </name>
      <Style>
        <IconStyle>
          <Icon>
            <href>http://www.paraglidingearth.com/en-html/images/palette-6.png</href>
            <x>32</x>
            <y>0</y>
            <w>32</w>
            <h>32</h>
          </Icon>
        </IconStyle>
        <LabelStyle>
          <color>ff0000ff</color>
        </LabelStyle>
      </Style>
     <Point>
        <altitudeMode>absolute
        </altitudeMode>
        <coordinates>  6.293433,45.844467,1788
        </coordinates>
     </Point>
  </Placemark>

</Document>
</kml>