<!-- This file has been generated by http://www.paraglidingearth.com -->
<kml xmlns="http://earth.google.com/kml/2.0">

   <Document>
   
  <Style id="noIcon">
     <IconStyle>
      <scale>0</scale>
    </IconStyle>
  </Style>
  
    <name> - 70- 1-2041</name>
    
    <Placemark>
            <name>Flight</name>
            <visibility>1</visibility>
            <open>1</open>
            <Style>
              <LineStyle>
                <color>ff00ffff</color>
              </LineStyle>
              <PolyStyle>
                  <color>7f0000ff</color>
              </PolyStyle>
            </Style>
        <LineString>
              <altitudeMode>absolute
              </altitudeMode>
              
          <coordinates>
          
         36.0793,34.2342,0000  

         36.078017,34.233333,2663  

         36.076067,34.231783,2655  

         36.074117,34.230283,2651  

         36.072017,34.229183,2645  

         36.0697,34.228217,2634  

         36.067483,34.226983,2619  

         36.06595,34.225983,2632  

         36.065017,34.2256,2700  

         36.063367,34.224017,2680  

         36.061367,34.222733,2644  

         36.059367,34.221517,2632  

         36.059417,34.221383,2701  

         36.058033,34.2206,2679  

         36.055817,34.219983,2642  

         36.053617,34.219367,2605  

         36.051283,34.218717,2566  

         36.049033,34.2181,2528  

         36.04705,34.217667,2495  

         36.044617,34.217333,2456  

         36.042517,34.217117,2426  

         36.040467,34.217133,2401  

         36.038517,34.217183,2382  

         36.039333,34.216983,2363  

         36.037367,34.217317,2341  

         36.035333,34.217667,2319  

         36.033817,34.218217,2301  

         36.033533,34.218067,2286  

         36.031483,34.218467,2266  

         36.029467,34.218783,2244  

         36.027333,34.219133,2224  

         36.025317,34.219417,2208  

         36.023217,34.219467,2192  

         36.0211,34.219083,2183  

         36.019167,34.21775,2181  

         36.017,34.216517,2181  

         36.014767,34.215433,2182  

         36.012583,34.21465,2181  

         36.01045,34.213883,2168  

         36.008267,34.213167,2166  

         36.006033,34.212283,2163  

         36.00445,34.210933,2163  

         36.002733,34.211533,2150  

         36.001083,34.212183,2130  

         35.9994,34.21285,2121  

         35.99775,34.21345,2103  

         35.996017,34.21405,2084  

         35.994217,34.21475,2068  

         35.992417,34.2154,2059  

         35.990683,34.215933,2039  

         35.988917,34.2165,2018  

         35.987083,34.217067,2001  

         35.98535,34.217617,1983  

         35.983683,34.218317,1962  

         35.981767,34.218517,1951  

         35.979717,34.217783,1948  

         35.977617,34.216817,1944  

         35.975567,34.216083,1937  

         35.9734,34.215717,1929  

         35.971583,34.215933,1915  

         35.970317,34.21695,1890  

         35.9689,34.217833,1870  

         35.9674,34.218783,1846  

         35.968117,34.220233,1810  

         35.968217,34.221833,1775  

         35.968117,34.223317,1745  

         35.969417,34.224783,1712  

         35.970317,34.226367,1680  

         35.97105,34.227883,1651  

         35.971183,34.229533,1614  

         35.974033,34.22925,1584  

         35.974517,34.227983,1595  

         35.974883,34.227883,1663  

         35.974967,34.227417,1765  

         35.974317,34.227667,1850  

         35.974367,34.227633,1940  

         35.97435,34.227667,2030  

         35.9744,34.227633,2118  

         35.974383,34.227667,2207  

         35.974517,34.227567,2298  

         35.974367,34.227683,2387  

         35.97435,34.227617,2477  

         35.974267,34.2276,2562  

         35.974417,34.22775,2646  

         35.973933,34.2267,2694  

         35.972667,34.2247,2659  

         35.971483,34.222817,2626  

         35.970317,34.220933,2593  

         35.969117,34.21905,2560  

         35.968217,34.21695,2527  

         35.967433,34.216067,2584  

         35.967333,34.215967,2675  

         35.966883,34.214383,2684  

         35.965767,34.212467,2651  

         35.964683,34.2106,2619  

         35.963517,34.208683,2586  

         35.963533,34.208567,2665  

         35.96335,34.207433,2693  

         35.9621,34.205683,2661  

         35.960667,34.203833,2660  

         35.959783,34.202567,2686  

         35.958333,34.200833,2652  

         35.956883,34.199233,2620  

         35.95535,34.197717,2587  

         35.953833,34.196183,2555  

         35.952283,34.194633,2522  

         35.950717,34.193083,2489  

         35.949133,34.191633,2456  

         35.94755,34.190183,2423  

         35.945983,34.188733,2394  

         35.94535,34.188617,2484  

         35.945383,34.18865,2575  

         35.945267,34.188617,2668  

         35.944033,34.187283,2684  

         35.942483,34.1858,2651  

         35.940867,34.184067,2615  

         35.939333,34.182467,2582  

         35.938433,34.182083,2653  

         35.937533,34.181583,2697  

         35.93585,34.18025,2664  

         35.934167,34.178667,2629  

         35.932617,34.177117,2596  

         35.931083,34.175567,2563  

         35.929417,34.1739,2527  

         35.928917,34.174217,2554  

         35.929333,34.174417,2659  

         35.928083,34.173067,2683  

         35.926683,34.171267,2649  

         35.925133,34.169417,2613  

         35.9237,34.167683,2579  

         35.922267,34.1661,2547  

         35.920733,34.164433,2513  

         35.919233,34.162783,2480  

         35.91755,34.160917,2445  

         35.917483,34.160667,2531  

         35.91725,34.160683,2622  

         35.91695,34.160167,2703  

         35.915367,34.158733,2672  

         35.914067,34.156883,2639  

         35.9128,34.155033,2605  

         35.911483,34.153083,2570  

         35.910233,34.151267,2538  

         35.908933,34.149367,2503  

         35.907517,34.147283,2466  

         35.906167,34.145283,2456  

         35.9049,34.143433,2423  

         35.90365,34.141583,2390  

         35.902317,34.139617,2354  

         35.901017,34.137717,2320  

         35.899717,34.1358,2286  

         35.898467,34.133967,2253  

         35.898117,34.133233,2325  

         35.898117,34.133133,2416  

         35.898283,34.133083,2503  

         35.898183,34.133033,2594  

         35.898167,34.13305,2686  

         35.898383,34.131467,2679  

         35.897383,34.129517,2647  

         35.897733,34.1288,2669  

         35.8963,34.127367,2671  

         35.89505,34.125567,2638  

         35.893717,34.12365,2604  

         35.892483,34.121867,2571  

         35.89125,34.1201,2539  

         35.89,34.118317,2507  

         35.888817,34.116333,2473  

         35.88885,34.115183,2528  

         35.888883,34.11535,2617  

         35.888867,34.115233,2701  

         35.888083,34.11315,2668  

         35.88715,34.111133,2636  

         35.88615,34.109,2601  

         35.8852,34.106967,2568  

         35.885417,34.106283,2625  

         35.884783,34.105667,2692  

         35.883917,34.10365,2660  

         35.88305,34.101633,2628  

         35.882167,34.099633,2596  

         35.8819,34.0989,2615  

         35.881417,34.098433,2701  

         35.880433,34.096467,2673  

         35.879483,34.094433,2640  

         35.87845,34.092317,2605  

         35.877517,34.090333,2574  

         35.876517,34.088267,2544  

         35.8769,34.088033,2592  

         35.876983,34.087933,2676  

         35.875617,34.086167,2662  

         35.874333,34.084433,2658  

         35.873633,34.083733,2686  

         35.872733,34.081683,2653  

         35.871783,34.079467,2665  

         35.8709,34.077433,2632  

         35.869833,34.075467,2599  

         35.868783,34.07355,2567  

         35.867733,34.071633,2535  

         35.866667,34.069733,2503  

         35.86545,34.067917,2470  

         35.864167,34.066367,2443  

         35.865183,34.065967,2511  

         35.865283,34.066017,2600  

         35.865217,34.066083,2690  

         35.863933,34.064117,2699  

         35.8628,34.06225,2667  

         35.861633,34.060333,2634  

         35.8605,34.058483,2601  

         35.860617,34.057067,2607  

         35.859967,34.057133,2697  

         35.858483,34.055417,2667  

         35.857267,34.053533,2633  

         35.856167,34.051667,2601  

         35.85505,34.049767,2569  

         35.853733,34.048367,2562  

         35.853817,34.048883,2613  

         35.852883,34.048133,2677  

         35.851817,34.046217,2645  

         35.851133,34.043833,2609  

         35.850533,34.041717,2577  

         35.850767,34.040733,2643  

         35.85025,34.03985,2703  

         35.849483,34.03755,2680  

         35.848783,34.035417,2648  

         35.848083,34.033283,2616  

         35.847417,34.031183,2584  

         35.8467,34.029033,2551  

         35.845967,34.026783,2517  

         35.845267,34.024667,2484  

         35.844533,34.022467,2467  

         35.843767,34.020133,2450  

         35.842983,34.017733,2414  

         35.84225,34.015517,2380  

         35.841533,34.013117,2344  

         35.840983,34.010783,2310  

         35.84105,34.008917,2327  

         35.840833,34.008783,2415  

         35.840667,34.009217,2503  

         35.840983,34.009367,2589  

         35.840867,34.008967,2662  

         35.840317,34.0078,2689  

         35.8398,34.0056,2657  

         35.83925,34.003283,2623  

         35.838733,34.0011,2591  

         35.838183,33.998783,2557  

         35.837633,33.996483,2523  

         35.837117,33.994333,2491  

         35.836583,33.9921,2458  

         35.836033,33.989833,2428  

         35.83655,33.989867,2468  

         35.836567,33.989733,2557  

         35.835833,33.987483,2543  

         35.835117,33.9851,2550  

         35.834433,33.98285,2516  

         35.83375,33.980567,2481  

         35.8331,33.978433,2449  

         35.832433,33.976233,2416  

         35.831783,33.973983,2382  

         35.831217,33.971767,2349  

         35.830633,33.96955,2320  

         35.830033,33.967283,2306  

         35.829533,33.96505,2272  

         35.829167,33.962967,2242  

  
</coordinates>
</LineString>
</Placemark>

<Placemark>
  <name>Take off : 14h03
  </name>
  
      <Style>
        <IconStyle>
          <Icon>
            <href>root://icons/palette-5.png</href>
            <x>160</x>
            <y>192</y>
            <w>32</w>
            <h>32</h>
          </Icon>
        </IconStyle>
      </Style>
  <Point>
    <altitudeMode>absolute
    </altitudeMode>
    <coordinates>       36.0793,34.2342,0000  

    </coordinates>
  </Point>
</Placemark>

<Placemark>
  <name>Landing : 15h16
  </name>
      <Style>
        <IconStyle>
          <Icon>
            <href>root://icons/palette-5.png</href>
            <x>160</x>
            <y>192</y>
            <w>32</w>
            <h>32</h>
          </Icon>
        </IconStyle>
      </Style>
  <Point>
    <altitudeMode>absolute
    </altitudeMode>
    <coordinates>       35.829167,33.962967,2242  

    </coordinates>
  </Point>
</Placemark>


  <Placemark>
  <name>Altitude max : 2703m.
  </name>
      <Style>
        <IconStyle>
          <Icon>
            <href>root://icons/palette-4.png</href>
            <x>64</x>
            <y>64</y>
            <w>32</w>
            <h>32</h>
          </Icon>
        </IconStyle>
        <LabelStyle>
          <color>ff0000ff</color>
        </LabelStyle>
      </Style>
     <Point>
        <altitudeMode>absolute
        </altitudeMode>
        <coordinates>  35.85025,34.03985,2703
        </coordinates>
     </Point>
  </Placemark>


  <Placemark>
  <name>Vz max : 5.67 m/s
  </name>
      <Style>
        <IconStyle>
          <Icon>
            <href>http://www.paraglidingearth.com/en-html/images/palette-6.png</href>
            <x>32</x>
            <y>0</y>
            <w>32</w>
            <h>32</h>
          </Icon>
        </IconStyle>
        <LabelStyle>
          <color>ff0000ff</color>
        </LabelStyle>
      </Style>
     <Point>
        <altitudeMode>absolute
        </altitudeMode>
        <coordinates>  35.974967,34.227417,1765
        </coordinates>
     </Point>
  </Placemark>

</Document>
</kml>