{
"site" : "Sra da Paz, Vila Franca do Campo - Sao Miguel",
"id" : 10025,
"orientations" : "00112200",
"forecasts" : { 
	"2019-04-05T03:00:00Z" : {
		"windSpeed" : 7.7,
		"windDir" : 341,
		"rain" : 0,
		"cloudbase" : 1253.98,
		"flyability" : 0,
		"reason" : "windSpeed, windDir",
		"timestamp" :1554433200
		},
	"2019-04-05T06:00:00Z" : {
		"windSpeed" : 7.4,
		"windDir" : 336,
		"rain" : 1,
		"cloudbase" : 1266.68,
		"flyability" : 0,
		"reason" : "windSpeed, windDir, rain",
		"timestamp" :1554444000
		},
	"2019-04-05T09:00:00Z" : {
		"windSpeed" : 6.9,
		"windDir" : 335,
		"rain" : 1,
		"cloudbase" : 1217,
		"flyability" : 0,
		"reason" : "windSpeed, windDir, rain",
		"timestamp" :1554454800
		},
	"2019-04-05T12:00:00Z" : {
		"windSpeed" : 5.8,
		"windDir" : 324,
		"rain" : 0,
		"cloudbase" : 1121.34,
		"flyability" : 0,
		"reason" : "windSpeed, windDir",
		"timestamp" :1554465600
		},
	"2019-04-05T15:00:00Z" : {
		"windSpeed" : 6.7,
		"windDir" : 315,
		"rain" : 0,
		"cloudbase" : null,
		"flyability" : 0,
		"reason" : "windSpeed, windDir",
		"timestamp" :1554476400
		},
	"2019-04-05T18:00:00Z" : {
		"windSpeed" : 6.3,
		"windDir" : 304,
		"rain" : 0,
		"cloudbase" : 977.53200000002,
		"flyability" : 0,
		"reason" : "windSpeed, windDir",
		"timestamp" :1554487200
		},
	"2019-04-05T21:00:00Z" : {
		"windSpeed" : 5.4,
		"windDir" : 298,
		"rain" : 0,
		"cloudbase" : null,
		"flyability" : 0,
		"reason" : "windSpeed, windDir",
		"timestamp" :1554498000
		},
	"2019-04-06T00:00:00Z" : {
		"windSpeed" : 4.8,
		"windDir" : 286,
		"rain" : 0,
		"cloudbase" : null,
		"flyability" : 0,
		"reason" : "windDir",
		"timestamp" :1554508800
		},
	"2019-04-06T03:00:00Z" : {
		"windSpeed" : 4.8,
		"windDir" : 292,
		"rain" : 0,
		"cloudbase" : null,
		"flyability" : 0,
		"reason" : "windDir",
		"timestamp" :1554519600
		},
	"2019-04-06T06:00:00Z" : {
		"windSpeed" : 5.6,
		"windDir" : 282,
		"rain" : 0,
		"cloudbase" : null,
		"flyability" : 0,
		"reason" : "windSpeed, windDir",
		"timestamp" :1554530400
		},
	"2019-04-06T09:00:00Z" : {
		"windSpeed" : 7.2,
		"windDir" : 275,
		"rain" : 0,
		"cloudbase" : 980,
		"flyability" : 0,
		"reason" : "windSpeed, windDir",
		"timestamp" :1554541200
		},
	"2019-04-06T12:00:00Z" : {
		"windSpeed" : 7.9,
		"windDir" : 262,
		"rain" : 0,
		"cloudbase" : null,
		"flyability" : 0,
		"reason" : "windSpeed, windDir",
		"timestamp" :1554552000
		},
	"2019-04-06T15:00:00Z" : {
		"windSpeed" : 8.5,
		"windDir" : 255,
		"rain" : 1,
		"cloudbase" : null,
		"flyability" : 0,
		"reason" : "windSpeed, windDir, rain",
		"timestamp" :1554562800
		},
	"2019-04-06T18:00:00Z" : {
		"windSpeed" : 10,
		"windDir" : 256,
		"rain" : 1,
		"cloudbase" : null,
		"flyability" : 0,
		"reason" : "windSpeed, windDir, rain",
		"timestamp" :1554573600
		},
	"2019-04-06T21:00:00Z" : {
		"windSpeed" : 8.8,
		"windDir" : 251,
		"rain" : 1,
		"cloudbase" : 6438.96,
		"flyability" : 0,
		"reason" : "windSpeed, windDir, rain",
		"timestamp" :1554584400
		},
	"2019-04-07T00:00:00Z" : {
		"windSpeed" : 10,
		"windDir" : 266,
		"rain" : 1,
		"cloudbase" : 372.97199999999,
		"flyability" : 0,
		"reason" : "windSpeed, windDir, rain",
		"timestamp" :1554595200
		},
	"2019-04-07T03:00:00Z" : {
		"windSpeed" : 8,
		"windDir" : 317,
		"rain" : 1,
		"cloudbase" : 4969.1999999997,
		"flyability" : 0,
		"reason" : "windSpeed, windDir, rain",
		"timestamp" :1554606000
		},
	"2019-04-07T06:00:00Z" : {
		"windSpeed" : 7.3,
		"windDir" : 317,
		"rain" : 1,
		"cloudbase" : 7764.68,
		"flyability" : 0,
		"reason" : "windSpeed, windDir, rain",
		"timestamp" :1554616800
		},
	"2019-04-07T09:00:00Z" : {
		"windSpeed" : 7.5,
		"windDir" : 308,
		"rain" : 0,
		"cloudbase" : null,
		"flyability" : 0,
		"reason" : "windSpeed, windDir",
		"timestamp" :1554627600
		},
	"2019-04-07T12:00:00Z" : {
		"windSpeed" : 7.5,
		"windDir" : 307,
		"rain" : 0,
		"cloudbase" : 1389.68,
		"flyability" : 0,
		"reason" : "windSpeed, windDir",
		"timestamp" :1554638400
		},
	"2019-04-07T15:00:00Z" : {
		"windSpeed" : 7.2,
		"windDir" : 299,
		"rain" : 0,
		"cloudbase" : 1508.36,
		"flyability" : 0,
		"reason" : "windSpeed, windDir",
		"timestamp" :1554649200
		},
	"2019-04-07T18:00:00Z" : {
		"windSpeed" : 7.4,
		"windDir" : 293,
		"rain" : 1,
		"cloudbase" : null,
		"flyability" : 0,
		"reason" : "windSpeed, windDir, rain",
		"timestamp" :1554660000
		},
	"2019-04-07T21:00:00Z" : {
		"windSpeed" : 6.4,
		"windDir" : 293,
		"rain" : 1,
		"cloudbase" : 2050,
		"flyability" : 0,
		"reason" : "windSpeed, windDir, rain",
		"timestamp" :1554670800
		},
	"2019-04-08T00:00:00Z" : {
		"windSpeed" : 5.6,
		"windDir" : 296,
		"rain" : 0,
		"cloudbase" : null,
		"flyability" : 0,
		"reason" : "windSpeed, windDir",
		"timestamp" :1554681600
		},
	"2019-04-08T03:00:00Z" : {
		"windSpeed" : 5.3,
		"windDir" : 304,
		"rain" : 1,
		"cloudbase" : 7079.8399999999,
		"flyability" : 0,
		"reason" : "windSpeed, windDir, rain",
		"timestamp" :1554692400
		},
	"2019-04-08T06:00:00Z" : {
		"windSpeed" : 4.7,
		"windDir" : 310,
		"rain" : 0,
		"cloudbase" : 7080.68,
		"flyability" : 0,
		"reason" : "windDir",
		"timestamp" :1554703200
		},
	"2019-04-08T09:00:00Z" : {
		"windSpeed" : 5,
		"windDir" : 311,
		"rain" : 0,
		"cloudbase" : null,
		"flyability" : 0,
		"reason" : "windDir",
		"timestamp" :1554714000
		},
	"2019-04-08T12:00:00Z" : {
		"windSpeed" : 4.2,
		"windDir" : 316,
		"rain" : 1,
		"cloudbase" : 1622,
		"flyability" : 0,
		"reason" : "windDir, rain",
		"timestamp" :1554724800
		},
	"2019-04-08T15:00:00Z" : {
		"windSpeed" : 4.1,
		"windDir" : 296,
		"rain" : 1,
		"cloudbase" : 1482.5,
		"flyability" : 0,
		"reason" : "windDir, rain",
		"timestamp" :1554735600
		},
	"2019-04-08T18:00:00Z" : {
		"windSpeed" : 4.2,
		"windDir" : 278,
		"rain" : 0,
		"cloudbase" : 1318.5,
		"flyability" : 0,
		"reason" : "windDir",
		"timestamp" :1554746400
		},
	"2019-04-08T21:00:00Z" : {
		"windSpeed" : 2.4,
		"windDir" : 273,
		"rain" : 0,
		"cloudbase" : null,
		"flyability" : 0,
		"reason" : "windDir",
		"timestamp" :1554757200
		},
	"2019-04-09T00:00:00Z" : {
		"windSpeed" : 2.7,
		"windDir" : 245,
		"rain" : 0,
		"cloudbase" : 1300,
		"flyability" : 100,
		"reason" : "",
		"timestamp" :1554768000
		},
	"2019-04-09T03:00:00Z" : {
		"windSpeed" : 4.1,
		"windDir" : 217,
		"rain" : 0,
		"cloudbase" : 1316.68,
		"flyability" : 100,
		"reason" : "",
		"timestamp" :1554778800
		},
	"2019-04-09T06:00:00Z" : {
		"windSpeed" : 4.8,
		"windDir" : 225,
		"rain" : 0,
		"cloudbase" : 1440.34,
		"flyability" : 100,
		"reason" : "",
		"timestamp" :1554789600
		},
	"2019-04-09T09:00:00Z" : {
		"windSpeed" : 5.9,
		"windDir" : 233,
		"rain" : 0,
		"cloudbase" : 1492.16,
		"flyability" : 0,
		"reason" : "windSpeed",
		"timestamp" :1554800400
		},
	"2019-04-09T12:00:00Z" : {
		"windSpeed" : 6.8,
		"windDir" : 214,
		"rain" : 0,
		"cloudbase" : null,
		"flyability" : 0,
		"reason" : "windSpeed",
		"timestamp" :1554811200
		},
	"2019-04-09T15:00:00Z" : {
		"windSpeed" : 7,
		"windDir" : 222,
		"rain" : 0,
		"cloudbase" : 6798.6599999994,
		"flyability" : 0,
		"reason" : "windSpeed",
		"timestamp" :1554822000
		},
	"2019-04-09T18:00:00Z" : {
		"windSpeed" : 7.3,
		"windDir" : 224,
		"rain" : 1,
		"cloudbase" : null,
		"flyability" : 0,
		"reason" : "windSpeed, rain",
		"timestamp" :1554832800
		},
	"2019-04-09T21:00:00Z" : {
		"windSpeed" : 6.4,
		"windDir" : 215,
		"rain" : 1,
		"cloudbase" : null,
		"flyability" : 0,
		"reason" : "windSpeed, rain",
		"timestamp" :1554843600
		},
	"2019-04-10T00:00:00Z" : {
		"windSpeed" : 7,
		"windDir" : 205,
		"rain" : 0,
		"cloudbase" : 10748.4,
		"flyability" : 0,
		"reason" : "windSpeed",
		"timestamp" :1554854400
		},
	"2019-04-10T03:00:00Z" : {
		"windSpeed" : 7.9,
		"windDir" : 209,
		"rain" : 1,
		"cloudbase" : 1650,
		"flyability" : 0,
		"reason" : "windSpeed, rain",
		"timestamp" :1554865200
		},
	"2019-04-10T06:00:00Z" : {
		"windSpeed" : 7.9,
		"windDir" : 207,
		"rain" : 1,
		"cloudbase" : 682.05999999999,
		"flyability" : 0,
		"reason" : "windSpeed, rain",
		"timestamp" :1554876000
		},
	"2019-04-10T09:00:00Z" : {
		"windSpeed" : 6.5,
		"windDir" : 257,
		"rain" : 1,
		"cloudbase" : 401.12400000007,
		"flyability" : 0,
		"reason" : "windSpeed, windDir, rain",
		"timestamp" :1554886800
		},
	"2019-04-10T12:00:00Z" : {
		"windSpeed" : 5.8,
		"windDir" : 250,
		"rain" : 1,
		"cloudbase" : 1453.42,
		"flyability" : 0,
		"reason" : "windSpeed, windDir, rain",
		"timestamp" :1554897600
		},
	"2019-04-10T15:00:00Z" : {
		"windSpeed" : 5.3,
		"windDir" : 239,
		"rain" : 1,
		"cloudbase" : 1213.02,
		"flyability" : 0,
		"reason" : "windSpeed, rain",
		"timestamp" :1554908400
		},
	"2019-04-10T18:00:00Z" : {
		"windSpeed" : 3.1,
		"windDir" : 226,
		"rain" : 1,
		"cloudbase" : 776.54000000004,
		"flyability" : 0,
		"reason" : "rain",
		"timestamp" :1554919200
		},
	"2019-04-10T21:00:00Z" : {
		"windSpeed" : 3,
		"windDir" : 249,
		"rain" : 1,
		"cloudbase" : 4142.2600000008,
		"flyability" : 0,
		"reason" : "windDir, rain",
		"timestamp" :1554930000
		},
	"2019-04-11T00:00:00Z" : {
		"windSpeed" : 5.7,
		"windDir" : 245,
		"rain" : 0,
		"cloudbase" : 898.7000000001,
		"flyability" : 0,
		"reason" : "windSpeed",
		"timestamp" :1554940800
		}
	}
}