{
"site" : "Salto do Cavalo, Furnas- Sao Miguel",
"id" : 10027,
"orientations" : "00122210",
"forecasts" : { 
	"2019-04-05T03:00:00Z" : {
		"windSpeed" : 6.5,
		"windDir" : 338,
		"rain" : 0,
		"cloudbase" : 1450,
		"flyability" : 0,
		"reason" : "windSpeed, windDir",
		"timestamp" :1554433200
		},
	"2019-04-05T06:00:00Z" : {
		"windSpeed" : 6.3,
		"windDir" : 341,
		"rain" : 1,
		"cloudbase" : 1067.35,
		"flyability" : 0,
		"reason" : "windSpeed, windDir, rain",
		"timestamp" :1554444000
		},
	"2019-04-05T09:00:00Z" : {
		"windSpeed" : 5.9,
		"windDir" : 340,
		"rain" : 1,
		"cloudbase" : 1110.43275,
		"flyability" : 0,
		"reason" : "windSpeed, windDir, rain",
		"timestamp" :1554454800
		},
	"2019-04-05T12:00:00Z" : {
		"windSpeed" : 5.7,
		"windDir" : 322,
		"rain" : 1,
		"cloudbase" : 1057.68275,
		"flyability" : 0,
		"reason" : "windSpeed, windDir, rain",
		"timestamp" :1554465600
		},
	"2019-04-05T15:00:00Z" : {
		"windSpeed" : 6.4,
		"windDir" : 315,
		"rain" : 0,
		"cloudbase" : 1050,
		"flyability" : 0,
		"reason" : "windSpeed, windDir",
		"timestamp" :1554476400
		},
	"2019-04-05T18:00:00Z" : {
		"windSpeed" : 5.7,
		"windDir" : 307,
		"rain" : 0,
		"cloudbase" : 838.0117,
		"flyability" : 0,
		"reason" : "windSpeed, windDir",
		"timestamp" :1554487200
		},
	"2019-04-05T21:00:00Z" : {
		"windSpeed" : 3.9,
		"windDir" : 293,
		"rain" : 0,
		"cloudbase" : null,
		"flyability" : 0,
		"reason" : "windDir",
		"timestamp" :1554498000
		},
	"2019-04-06T00:00:00Z" : {
		"windSpeed" : 3.2,
		"windDir" : 280,
		"rain" : 0,
		"cloudbase" : null,
		"flyability" : 100,
		"reason" : "",
		"timestamp" :1554508800
		},
	"2019-04-06T03:00:00Z" : {
		"windSpeed" : 3.1,
		"windDir" : 273,
		"rain" : 0,
		"cloudbase" : null,
		"flyability" : 100,
		"reason" : "",
		"timestamp" :1554519600
		},
	"2019-04-06T06:00:00Z" : {
		"windSpeed" : 3.2,
		"windDir" : 272,
		"rain" : 0,
		"cloudbase" : null,
		"flyability" : 100,
		"reason" : "",
		"timestamp" :1554530400
		},
	"2019-04-06T09:00:00Z" : {
		"windSpeed" : 5.2,
		"windDir" : 271,
		"rain" : 0,
		"cloudbase" : null,
		"flyability" : 0,
		"reason" : "windSpeed",
		"timestamp" :1554541200
		},
	"2019-04-06T12:00:00Z" : {
		"windSpeed" : 6.3,
		"windDir" : 260,
		"rain" : 0,
		"cloudbase" : 780,
		"flyability" : 0,
		"reason" : "windSpeed",
		"timestamp" :1554552000
		},
	"2019-04-06T15:00:00Z" : {
		"windSpeed" : 7,
		"windDir" : 253,
		"rain" : 1,
		"cloudbase" : 800,
		"flyability" : 0,
		"reason" : "windSpeed, rain",
		"timestamp" :1554562800
		},
	"2019-04-06T18:00:00Z" : {
		"windSpeed" : 7.3,
		"windDir" : 250,
		"rain" : 1,
		"cloudbase" : 980,
		"flyability" : 0,
		"reason" : "windSpeed, rain",
		"timestamp" :1554573600
		},
	"2019-04-06T21:00:00Z" : {
		"windSpeed" : 6.8,
		"windDir" : 248,
		"rain" : 1,
		"cloudbase" : 6307.9,
		"flyability" : 0,
		"reason" : "windSpeed, rain",
		"timestamp" :1554584400
		},
	"2019-04-07T00:00:00Z" : {
		"windSpeed" : 7.6,
		"windDir" : 255,
		"rain" : 1,
		"cloudbase" : 234.50344999999,
		"flyability" : 0,
		"reason" : "windSpeed, rain, cloudbase",
		"timestamp" :1554595200
		},
	"2019-04-07T03:00:00Z" : {
		"windSpeed" : 7.4,
		"windDir" : 313,
		"rain" : 1,
		"cloudbase" : 1714.8172499998,
		"flyability" : 0,
		"reason" : "windSpeed, windDir, rain",
		"timestamp" :1554606000
		},
	"2019-04-07T06:00:00Z" : {
		"windSpeed" : 6.4,
		"windDir" : 310,
		"rain" : 1,
		"cloudbase" : 7702.6655,
		"flyability" : 0,
		"reason" : "windSpeed, windDir, rain",
		"timestamp" :1554616800
		},
	"2019-04-07T09:00:00Z" : {
		"windSpeed" : 6.8,
		"windDir" : 306,
		"rain" : 0,
		"cloudbase" : null,
		"flyability" : 0,
		"reason" : "windSpeed, windDir",
		"timestamp" :1554627600
		},
	"2019-04-07T12:00:00Z" : {
		"windSpeed" : 6.8,
		"windDir" : 306,
		"rain" : 0,
		"cloudbase" : 1262.9655,
		"flyability" : 0,
		"reason" : "windSpeed, windDir",
		"timestamp" :1554638400
		},
	"2019-04-07T15:00:00Z" : {
		"windSpeed" : 6.5,
		"windDir" : 302,
		"rain" : 0,
		"cloudbase" : 1544.9345,
		"flyability" : 0,
		"reason" : "windSpeed, windDir",
		"timestamp" :1554649200
		},
	"2019-04-07T18:00:00Z" : {
		"windSpeed" : 6.1,
		"windDir" : 294,
		"rain" : 0,
		"cloudbase" : 1700,
		"flyability" : 0,
		"reason" : "windSpeed, windDir",
		"timestamp" :1554660000
		},
	"2019-04-07T21:00:00Z" : {
		"windSpeed" : 5,
		"windDir" : 294,
		"rain" : 1,
		"cloudbase" : 2050,
		"flyability" : 0,
		"reason" : "windDir, rain",
		"timestamp" :1554670800
		},
	"2019-04-08T00:00:00Z" : {
		"windSpeed" : 4.3,
		"windDir" : 291,
		"rain" : 0,
		"cloudbase" : null,
		"flyability" : 100,
		"reason" : "",
		"timestamp" :1554681600
		},
	"2019-04-08T03:00:00Z" : {
		"windSpeed" : 4.5,
		"windDir" : 297,
		"rain" : 1,
		"cloudbase" : 7376.3,
		"flyability" : 0,
		"reason" : "windDir, rain",
		"timestamp" :1554692400
		},
	"2019-04-08T06:00:00Z" : {
		"windSpeed" : 4.1,
		"windDir" : 301,
		"rain" : 0,
		"cloudbase" : 6746.7965,
		"flyability" : 0,
		"reason" : "windDir",
		"timestamp" :1554703200
		},
	"2019-04-08T09:00:00Z" : {
		"windSpeed" : 4.9,
		"windDir" : 314,
		"rain" : 0,
		"cloudbase" : 1750,
		"flyability" : 0,
		"reason" : "windDir",
		"timestamp" :1554714000
		},
	"2019-04-08T12:00:00Z" : {
		"windSpeed" : 4.2,
		"windDir" : 315,
		"rain" : 1,
		"cloudbase" : 1750,
		"flyability" : 0,
		"reason" : "windDir, rain",
		"timestamp" :1554724800
		},
	"2019-04-08T15:00:00Z" : {
		"windSpeed" : 3.5,
		"windDir" : 313,
		"rain" : 1,
		"cloudbase" : 1313.18275,
		"flyability" : 0,
		"reason" : "windDir, rain",
		"timestamp" :1554735600
		},
	"2019-04-08T18:00:00Z" : {
		"windSpeed" : 2.9,
		"windDir" : 310,
		"rain" : 0,
		"cloudbase" : 1302.4,
		"flyability" : 0,
		"reason" : "windDir",
		"timestamp" :1554746400
		},
	"2019-04-08T21:00:00Z" : {
		"windSpeed" : 1.6,
		"windDir" : 271,
		"rain" : 0,
		"cloudbase" : null,
		"flyability" : 100,
		"reason" : "",
		"timestamp" :1554757200
		},
	"2019-04-09T00:00:00Z" : {
		"windSpeed" : 1.3,
		"windDir" : 246,
		"rain" : 0,
		"cloudbase" : null,
		"flyability" : 100,
		"reason" : "",
		"timestamp" :1554768000
		},
	"2019-04-09T03:00:00Z" : {
		"windSpeed" : 2,
		"windDir" : 215,
		"rain" : 0,
		"cloudbase" : 1200,
		"flyability" : 100,
		"reason" : "",
		"timestamp" :1554778800
		},
	"2019-04-09T06:00:00Z" : {
		"windSpeed" : 2.1,
		"windDir" : 216,
		"rain" : 0,
		"cloudbase" : 1316.9155,
		"flyability" : 100,
		"reason" : "",
		"timestamp" :1554789600
		},
	"2019-04-09T09:00:00Z" : {
		"windSpeed" : 3.5,
		"windDir" : 232,
		"rain" : 0,
		"cloudbase" : 1359.23275,
		"flyability" : 100,
		"reason" : "",
		"timestamp" :1554800400
		},
	"2019-04-09T12:00:00Z" : {
		"windSpeed" : 5.5,
		"windDir" : 221,
		"rain" : 0,
		"cloudbase" : 1450,
		"flyability" : 0,
		"reason" : "windSpeed",
		"timestamp" :1554811200
		},
	"2019-04-09T15:00:00Z" : {
		"windSpeed" : 6.1,
		"windDir" : 222,
		"rain" : 0,
		"cloudbase" : 1987.4344999996,
		"flyability" : 0,
		"reason" : "windSpeed",
		"timestamp" :1554822000
		},
	"2019-04-09T18:00:00Z" : {
		"windSpeed" : 6.5,
		"windDir" : 220,
		"rain" : 0,
		"cloudbase" : null,
		"flyability" : 0,
		"reason" : "windSpeed",
		"timestamp" :1554832800
		},
	"2019-04-09T21:00:00Z" : {
		"windSpeed" : 4.9,
		"windDir" : 212,
		"rain" : 0,
		"cloudbase" : null,
		"flyability" : 100,
		"reason" : "",
		"timestamp" :1554843600
		},
	"2019-04-10T00:00:00Z" : {
		"windSpeed" : 5.5,
		"windDir" : 203,
		"rain" : 0,
		"cloudbase" : 10974.6725,
		"flyability" : 0,
		"reason" : "windSpeed",
		"timestamp" :1554854400
		},
	"2019-04-10T03:00:00Z" : {
		"windSpeed" : 6.4,
		"windDir" : 209,
		"rain" : 0,
		"cloudbase" : 2050,
		"flyability" : 0,
		"reason" : "windSpeed",
		"timestamp" :1554865200
		},
	"2019-04-10T06:00:00Z" : {
		"windSpeed" : 5.4,
		"windDir" : 209,
		"rain" : 1,
		"cloudbase" : 669.11659999999,
		"flyability" : 0,
		"reason" : "windSpeed, rain",
		"timestamp" :1554876000
		},
	"2019-04-10T09:00:00Z" : {
		"windSpeed" : 4.7,
		"windDir" : 244,
		"rain" : 1,
		"cloudbase" : 181.80654999999,
		"flyability" : 0,
		"reason" : "rain, cloudbase",
		"timestamp" :1554886800
		},
	"2019-04-10T12:00:00Z" : {
		"windSpeed" : 4.3,
		"windDir" : 255,
		"rain" : 1,
		"cloudbase" : 2669.9892499999,
		"flyability" : 0,
		"reason" : "rain",
		"timestamp" :1554897600
		},
	"2019-04-10T15:00:00Z" : {
		"windSpeed" : 4.8,
		"windDir" : 239,
		"rain" : 1,
		"cloudbase" : 1294.5,
		"flyability" : 0,
		"reason" : "rain",
		"timestamp" :1554908400
		},
	"2019-04-10T18:00:00Z" : {
		"windSpeed" : 3.2,
		"windDir" : 231,
		"rain" : 1,
		"cloudbase" : 1859.2971000001,
		"flyability" : 0,
		"reason" : "rain",
		"timestamp" :1554919200
		},
	"2019-04-10T21:00:00Z" : {
		"windSpeed" : 2.3,
		"windDir" : 245,
		"rain" : 1,
		"cloudbase" : 2166.01725,
		"flyability" : 0,
		"reason" : "rain",
		"timestamp" :1554930000
		},
	"2019-04-11T00:00:00Z" : {
		"windSpeed" : 4.5,
		"windDir" : 236,
		"rain" : 0,
		"cloudbase" : 6319.30675,
		"flyability" : 100,
		"reason" : "",
		"timestamp" :1554940800
		}
	}
}