{
"site" : "Stauf",
"id" : 10043,
"orientations" : "01221010",
"forecasts" : { 
	"2019-04-22T05:00:00+02:00" : {
		"windSpeed" : 1.5,
		"windDir" : 88,
		"rain" : 0,
		"cloudbase" : null,
		"flyability" : 100,
		"reason" : "",
		"timestamp" :1555905600
		},
	"2019-04-22T08:00:00+02:00" : {
		"windSpeed" : 2.3,
		"windDir" : 50,
		"rain" : 0,
		"cloudbase" : null,
		"flyability" : 100,
		"reason" : "",
		"timestamp" :1555916400
		},
	"2019-04-22T11:00:00+02:00" : {
		"windSpeed" : 4.1,
		"windDir" : 83,
		"rain" : 0,
		"cloudbase" : null,
		"flyability" : 100,
		"reason" : "",
		"timestamp" :1555927200
		},
	"2019-04-22T14:00:00+02:00" : {
		"windSpeed" : 5.5,
		"windDir" : 85,
		"rain" : 0,
		"cloudbase" : 9700,
		"flyability" : 0,
		"reason" : "windSpeed",
		"timestamp" :1555938000
		},
	"2019-04-22T17:00:00+02:00" : {
		"windSpeed" : 5.6,
		"windDir" : 80,
		"rain" : 0,
		"cloudbase" : 9660.3673,
		"flyability" : 0,
		"reason" : "windSpeed",
		"timestamp" :1555948800
		},
	"2019-04-22T20:00:00+02:00" : {
		"windSpeed" : 4.9,
		"windDir" : 72,
		"rain" : 0,
		"cloudbase" : 8563.3673,
		"flyability" : 100,
		"reason" : "",
		"timestamp" :1555959600
		},
	"2019-04-22T23:00:00+02:00" : {
		"windSpeed" : 4.7,
		"windDir" : 69,
		"rain" : 0,
		"cloudbase" : 8148.5,
		"flyability" : 100,
		"reason" : "",
		"timestamp" :1555970400
		},
	"2019-04-23T02:00:00+02:00" : {
		"windSpeed" : 4,
		"windDir" : 59,
		"rain" : 0,
		"cloudbase" : null,
		"flyability" : 100,
		"reason" : "",
		"timestamp" :1555981200
		},
	"2019-04-23T05:00:00+02:00" : {
		"windSpeed" : 3.6,
		"windDir" : 39,
		"rain" : 0,
		"cloudbase" : 10500,
		"flyability" : 100,
		"reason" : "",
		"timestamp" :1555992000
		},
	"2019-04-23T08:00:00+02:00" : {
		"windSpeed" : 4.2,
		"windDir" : 48,
		"rain" : 0,
		"cloudbase" : null,
		"flyability" : 100,
		"reason" : "",
		"timestamp" :1556002800
		},
	"2019-04-23T11:00:00+02:00" : {
		"windSpeed" : 4,
		"windDir" : 83,
		"rain" : 0,
		"cloudbase" : null,
		"flyability" : 100,
		"reason" : "",
		"timestamp" :1556013600
		},
	"2019-04-23T14:00:00+02:00" : {
		"windSpeed" : 3.9,
		"windDir" : 109,
		"rain" : 0,
		"cloudbase" : 9785.1327,
		"flyability" : 100,
		"reason" : "",
		"timestamp" :1556024400
		},
	"2019-04-23T17:00:00+02:00" : {
		"windSpeed" : 3.4,
		"windDir" : 138,
		"rain" : 0,
		"cloudbase" : 7818.2051,
		"flyability" : 100,
		"reason" : "",
		"timestamp" :1556035200
		},
	"2019-04-23T20:00:00+02:00" : {
		"windSpeed" : 1.6,
		"windDir" : 163,
		"rain" : 0,
		"cloudbase" : 5836.0049,
		"flyability" : 100,
		"reason" : "",
		"timestamp" :1556046000
		},
	"2019-04-23T23:00:00+02:00" : {
		"windSpeed" : 2.1,
		"windDir" : 165,
		"rain" : 0,
		"cloudbase" : 5060.00635,
		"flyability" : 100,
		"reason" : "",
		"timestamp" :1556056800
		},
	"2019-04-24T02:00:00+02:00" : {
		"windSpeed" : 1.1,
		"windDir" : 152,
		"rain" : 0,
		"cloudbase" : 8466.3673,
		"flyability" : 100,
		"reason" : "",
		"timestamp" :1556067600
		},
	"2019-04-24T05:00:00+02:00" : {
		"windSpeed" : 1.2,
		"windDir" : 245,
		"rain" : 0,
		"cloudbase" : null,
		"flyability" : 0,
		"reason" : "windDir",
		"timestamp" :1556078400
		},
	"2019-04-24T08:00:00+02:00" : {
		"windSpeed" : 3.5,
		"windDir" : 244,
		"rain" : 0,
		"cloudbase" : 4200,
		"flyability" : 0,
		"reason" : "windDir",
		"timestamp" :1556089200
		},
	"2019-04-24T11:00:00+02:00" : {
		"windSpeed" : 3.8,
		"windDir" : 264,
		"rain" : 0,
		"cloudbase" : null,
		"flyability" : 100,
		"reason" : "",
		"timestamp" :1556100000
		},
	"2019-04-24T14:00:00+02:00" : {
		"windSpeed" : 1.2,
		"windDir" : 147,
		"rain" : 0,
		"cloudbase" : null,
		"flyability" : 100,
		"reason" : "",
		"timestamp" :1556110800
		},
	"2019-04-24T17:00:00+02:00" : {
		"windSpeed" : 4.1,
		"windDir" : 111,
		"rain" : 0,
		"cloudbase" : 8326.46,
		"flyability" : 100,
		"reason" : "",
		"timestamp" :1556121600
		},
	"2019-04-24T20:00:00+02:00" : {
		"windSpeed" : 6.2,
		"windDir" : 249,
		"rain" : 0,
		"cloudbase" : 1706.4574499995,
		"flyability" : 0,
		"reason" : "windSpeed",
		"timestamp" :1556132400
		},
	"2019-04-24T23:00:00+02:00" : {
		"windSpeed" : 6.7,
		"windDir" : 254,
		"rain" : 0,
		"cloudbase" : 2769.9749500001,
		"flyability" : 0,
		"reason" : "windSpeed",
		"timestamp" :1556143200
		},
	"2019-04-25T02:00:00+02:00" : {
		"windSpeed" : 4.4,
		"windDir" : 233,
		"rain" : 1,
		"cloudbase" : 1863.73,
		"flyability" : 0,
		"reason" : "windDir, rain",
		"timestamp" :1556154000
		},
	"2019-04-25T05:00:00+02:00" : {
		"windSpeed" : 2.6,
		"windDir" : 146,
		"rain" : 1,
		"cloudbase" : 3054.58635,
		"flyability" : 0,
		"reason" : "rain",
		"timestamp" :1556164800
		},
	"2019-04-25T08:00:00+02:00" : {
		"windSpeed" : 3.1,
		"windDir" : 143,
		"rain" : 0,
		"cloudbase" : null,
		"flyability" : 100,
		"reason" : "",
		"timestamp" :1556175600
		},
	"2019-04-25T11:00:00+02:00" : {
		"windSpeed" : 4.8,
		"windDir" : 129,
		"rain" : 0,
		"cloudbase" : null,
		"flyability" : 100,
		"reason" : "",
		"timestamp" :1556186400
		},
	"2019-04-25T14:00:00+02:00" : {
		"windSpeed" : 4.7,
		"windDir" : 122,
		"rain" : 0,
		"cloudbase" : 9400,
		"flyability" : 100,
		"reason" : "",
		"timestamp" :1556197200
		},
	"2019-04-25T17:00:00+02:00" : {
		"windSpeed" : 3.6,
		"windDir" : 124,
		"rain" : 0,
		"cloudbase" : null,
		"flyability" : 100,
		"reason" : "",
		"timestamp" :1556208000
		},
	"2019-04-25T20:00:00+02:00" : {
		"windSpeed" : 1.5,
		"windDir" : 287,
		"rain" : 0,
		"cloudbase" : null,
		"flyability" : 100,
		"reason" : "",
		"timestamp" :1556218800
		},
	"2019-04-25T23:00:00+02:00" : {
		"windSpeed" : 6.2,
		"windDir" : 275,
		"rain" : 1,
		"cloudbase" : 9000,
		"flyability" : 0,
		"reason" : "windSpeed, rain",
		"timestamp" :1556229600
		},
	"2019-04-26T02:00:00+02:00" : {
		"windSpeed" : 6.3,
		"windDir" : 262,
		"rain" : 0,
		"cloudbase" : null,
		"flyability" : 0,
		"reason" : "windSpeed",
		"timestamp" :1556240400
		},
	"2019-04-26T05:00:00+02:00" : {
		"windSpeed" : 5.2,
		"windDir" : 260,
		"rain" : 1,
		"cloudbase" : 1808.81,
		"flyability" : 0,
		"reason" : "windSpeed, rain",
		"timestamp" :1556251200
		},
	"2019-04-26T08:00:00+02:00" : {
		"windSpeed" : 5.1,
		"windDir" : 259,
		"rain" : 0,
		"cloudbase" : 3274.3700000004,
		"flyability" : 0,
		"reason" : "windSpeed",
		"timestamp" :1556262000
		},
	"2019-04-26T11:00:00+02:00" : {
		"windSpeed" : 4.5,
		"windDir" : 264,
		"rain" : 0,
		"cloudbase" : 992.14326999999,
		"flyability" : 100,
		"reason" : "",
		"timestamp" :1556272800
		},
	"2019-04-26T14:00:00+02:00" : {
		"windSpeed" : 4.7,
		"windDir" : 254,
		"rain" : 1,
		"cloudbase" : 1851.17145,
		"flyability" : 0,
		"reason" : "rain",
		"timestamp" :1556283600
		},
	"2019-04-26T17:00:00+02:00" : {
		"windSpeed" : 4.7,
		"windDir" : 256,
		"rain" : 1,
		"cloudbase" : 3275.7171499998,
		"flyability" : 0,
		"reason" : "rain",
		"timestamp" :1556294400
		},
	"2019-04-26T20:00:00+02:00" : {
		"windSpeed" : 3.1,
		"windDir" : 246,
		"rain" : 0,
		"cloudbase" : 4859.1727,
		"flyability" : 0,
		"reason" : "windDir",
		"timestamp" :1556305200
		},
	"2019-04-26T23:00:00+02:00" : {
		"windSpeed" : 3.1,
		"windDir" : 219,
		"rain" : 0,
		"cloudbase" : 5527.46,
		"flyability" : 0,
		"reason" : "windDir",
		"timestamp" :1556316000
		},
	"2019-04-27T02:00:00+02:00" : {
		"windSpeed" : 3.9,
		"windDir" : 239,
		"rain" : 0,
		"cloudbase" : 6400,
		"flyability" : 0,
		"reason" : "windDir",
		"timestamp" :1556326800
		},
	"2019-04-27T05:00:00+02:00" : {
		"windSpeed" : 3.5,
		"windDir" : 238,
		"rain" : 0,
		"cloudbase" : null,
		"flyability" : 0,
		"reason" : "windDir",
		"timestamp" :1556337600
		},
	"2019-04-27T08:00:00+02:00" : {
		"windSpeed" : 3.8,
		"windDir" : 232,
		"rain" : 0,
		"cloudbase" : null,
		"flyability" : 0,
		"reason" : "windDir",
		"timestamp" :1556348400
		},
	"2019-04-27T11:00:00+02:00" : {
		"windSpeed" : 4.9,
		"windDir" : 232,
		"rain" : 0,
		"cloudbase" : 1245.77635,
		"flyability" : 0,
		"reason" : "windDir",
		"timestamp" :1556359200
		},
	"2019-04-27T14:00:00+02:00" : {
		"windSpeed" : 7.3,
		"windDir" : 237,
		"rain" : 1,
		"cloudbase" : 1805.2826999999,
		"flyability" : 0,
		"reason" : "windSpeed, windDir, rain",
		"timestamp" :1556370000
		},
	"2019-04-27T17:00:00+02:00" : {
		"windSpeed" : 7.8,
		"windDir" : 219,
		"rain" : 1,
		"cloudbase" : null,
		"flyability" : 0,
		"reason" : "windSpeed, windDir, rain",
		"timestamp" :1556380800
		},
	"2019-04-27T20:00:00+02:00" : {
		"windSpeed" : 6.5,
		"windDir" : 241,
		"rain" : 1,
		"cloudbase" : 3200,
		"flyability" : 0,
		"reason" : "windSpeed, windDir, rain",
		"timestamp" :1556391600
		},
	"2019-04-27T23:00:00+02:00" : {
		"windSpeed" : 7.2,
		"windDir" : 229,
		"rain" : 1,
		"cloudbase" : 543.85745999999,
		"flyability" : 0,
		"reason" : "windSpeed, windDir, rain",
		"timestamp" :1556402400
		},
	"2019-04-28T02:00:00+02:00" : {
		"windSpeed" : 8.2,
		"windDir" : 249,
		"rain" : 1,
		"cloudbase" : 569.01038999989,
		"flyability" : 0,
		"reason" : "windSpeed, rain",
		"timestamp" :1556413200
		}
	}
}