{
"site" : "Bica da Cana",
"id" : 10054,
"orientations" : "22110012",
"forecasts" : { 
	"2019-04-08T04:00:00+01:00" : {
		"windSpeed" : 1.6,
		"windDir" : 252,
		"rain" : 0,
		"cloudbase" : null,
		"flyability" : 100,
		"reason" : "",
		"timestamp" :1554688800
		},
	"2019-04-08T07:00:00+01:00" : {
		"windSpeed" : 2.3,
		"windDir" : 264,
		"rain" : 1,
		"cloudbase" : 294.79999999999,
		"flyability" : 0,
		"reason" : "rain, cloudbase",
		"timestamp" :1554699600
		},
	"2019-04-08T10:00:00+01:00" : {
		"windSpeed" : 2.5,
		"windDir" : 336,
		"rain" : 1,
		"cloudbase" : 290.59999999999,
		"flyability" : 0,
		"reason" : "rain, cloudbase",
		"timestamp" :1554710400
		},
	"2019-04-08T13:00:00+01:00" : {
		"windSpeed" : 1.6,
		"windDir" : 359,
		"rain" : 1,
		"cloudbase" : 1000,
		"flyability" : 0,
		"reason" : "rain, cloudbase",
		"timestamp" :1554721200
		},
	"2019-04-08T16:00:00+01:00" : {
		"windSpeed" : 0.8,
		"windDir" : 333,
		"rain" : 1,
		"cloudbase" : 6120.4000000002,
		"flyability" : 0,
		"reason" : "rain",
		"timestamp" :1554732000
		},
	"2019-04-08T19:00:00+01:00" : {
		"windSpeed" : 1.1,
		"windDir" : 348,
		"rain" : 1,
		"cloudbase" : 6592.0000000001,
		"flyability" : 0,
		"reason" : "rain",
		"timestamp" :1554742800
		},
	"2019-04-08T22:00:00+01:00" : {
		"windSpeed" : 0.7,
		"windDir" : 15,
		"rain" : 0,
		"cloudbase" : 4735.2000000002,
		"flyability" : 100,
		"reason" : "",
		"timestamp" :1554753600
		},
	"2019-04-09T01:00:00+01:00" : {
		"windSpeed" : 0.7,
		"windDir" : 48,
		"rain" : 1,
		"cloudbase" : 4857.6000000001,
		"flyability" : 0,
		"reason" : "rain",
		"timestamp" :1554764400
		},
	"2019-04-09T04:00:00+01:00" : {
		"windSpeed" : 0.7,
		"windDir" : 33,
		"rain" : 0,
		"cloudbase" : 6826,
		"flyability" : 100,
		"reason" : "",
		"timestamp" :1554775200
		},
	"2019-04-09T07:00:00+01:00" : {
		"windSpeed" : 0.8,
		"windDir" : 20,
		"rain" : 0,
		"cloudbase" : 6048,
		"flyability" : 100,
		"reason" : "",
		"timestamp" :1554786000
		},
	"2019-04-09T10:00:00+01:00" : {
		"windSpeed" : 1.2,
		"windDir" : 45,
		"rain" : 1,
		"cloudbase" : null,
		"flyability" : 0,
		"reason" : "rain",
		"timestamp" :1554796800
		},
	"2019-04-09T13:00:00+01:00" : {
		"windSpeed" : 0.5,
		"windDir" : 112,
		"rain" : 0,
		"cloudbase" : 1101,
		"flyability" : 0,
		"reason" : "cloudbase",
		"timestamp" :1554807600
		},
	"2019-04-09T16:00:00+01:00" : {
		"windSpeed" : 0.4,
		"windDir" : 136,
		"rain" : 0,
		"cloudbase" : 908,
		"flyability" : 0,
		"reason" : "cloudbase",
		"timestamp" :1554818400
		},
	"2019-04-09T19:00:00+01:00" : {
		"windSpeed" : 0.6,
		"windDir" : 48,
		"rain" : 1,
		"cloudbase" : 520,
		"flyability" : 0,
		"reason" : "rain, cloudbase",
		"timestamp" :1554829200
		},
	"2019-04-09T22:00:00+01:00" : {
		"windSpeed" : 1.2,
		"windDir" : 52,
		"rain" : 1,
		"cloudbase" : 620,
		"flyability" : 0,
		"reason" : "rain, cloudbase",
		"timestamp" :1554840000
		},
	"2019-04-10T01:00:00+01:00" : {
		"windSpeed" : 1.1,
		"windDir" : 26,
		"rain" : 1,
		"cloudbase" : 420,
		"flyability" : 0,
		"reason" : "rain, cloudbase",
		"timestamp" :1554850800
		},
	"2019-04-10T04:00:00+01:00" : {
		"windSpeed" : 1.5,
		"windDir" : 41,
		"rain" : 1,
		"cloudbase" : 643.00000000002,
		"flyability" : 0,
		"reason" : "rain, cloudbase",
		"timestamp" :1554861600
		},
	"2019-04-10T07:00:00+01:00" : {
		"windSpeed" : 1.2,
		"windDir" : 35,
		"rain" : 1,
		"cloudbase" : null,
		"flyability" : 0,
		"reason" : "rain",
		"timestamp" :1554872400
		},
	"2019-04-10T10:00:00+01:00" : {
		"windSpeed" : 1.8,
		"windDir" : 52,
		"rain" : 0,
		"cloudbase" : 800,
		"flyability" : 0,
		"reason" : "cloudbase",
		"timestamp" :1554883200
		},
	"2019-04-10T13:00:00+01:00" : {
		"windSpeed" : 1,
		"windDir" : 56,
		"rain" : 1,
		"cloudbase" : 1050.4,
		"flyability" : 0,
		"reason" : "rain, cloudbase",
		"timestamp" :1554894000
		},
	"2019-04-10T16:00:00+01:00" : {
		"windSpeed" : 0.8,
		"windDir" : 72,
		"rain" : 0,
		"cloudbase" : 744.8,
		"flyability" : 0,
		"reason" : "cloudbase",
		"timestamp" :1554904800
		},
	"2019-04-10T19:00:00+01:00" : {
		"windSpeed" : 1.1,
		"windDir" : 56,
		"rain" : 1,
		"cloudbase" : 7906.0000000001,
		"flyability" : 0,
		"reason" : "rain",
		"timestamp" :1554915600
		},
	"2019-04-10T22:00:00+01:00" : {
		"windSpeed" : 0.7,
		"windDir" : 83,
		"rain" : 0,
		"cloudbase" : 8858,
		"flyability" : 100,
		"reason" : "",
		"timestamp" :1554926400
		},
	"2019-04-11T01:00:00+01:00" : {
		"windSpeed" : 0.7,
		"windDir" : 23,
		"rain" : 0,
		"cloudbase" : null,
		"flyability" : 100,
		"reason" : "",
		"timestamp" :1554937200
		},
	"2019-04-11T04:00:00+01:00" : {
		"windSpeed" : 0.8,
		"windDir" : 53,
		"rain" : 0,
		"cloudbase" : null,
		"flyability" : 100,
		"reason" : "",
		"timestamp" :1554948000
		},
	"2019-04-11T07:00:00+01:00" : {
		"windSpeed" : 0.6,
		"windDir" : 41,
		"rain" : 0,
		"cloudbase" : null,
		"flyability" : 100,
		"reason" : "",
		"timestamp" :1554958800
		},
	"2019-04-11T10:00:00+01:00" : {
		"windSpeed" : 0.8,
		"windDir" : 19,
		"rain" : 1,
		"cloudbase" : 3996,
		"flyability" : 0,
		"reason" : "rain",
		"timestamp" :1554969600
		},
	"2019-04-11T13:00:00+01:00" : {
		"windSpeed" : 0.4,
		"windDir" : 50,
		"rain" : 1,
		"cloudbase" : 900,
		"flyability" : 0,
		"reason" : "rain, cloudbase",
		"timestamp" :1554980400
		},
	"2019-04-11T16:00:00+01:00" : {
		"windSpeed" : 0.6,
		"windDir" : 64,
		"rain" : 0,
		"cloudbase" : 760,
		"flyability" : 0,
		"reason" : "cloudbase",
		"timestamp" :1554991200
		},
	"2019-04-11T19:00:00+01:00" : {
		"windSpeed" : 1,
		"windDir" : 18,
		"rain" : 0,
		"cloudbase" : 480,
		"flyability" : 0,
		"reason" : "cloudbase",
		"timestamp" :1555002000
		},
	"2019-04-11T22:00:00+01:00" : {
		"windSpeed" : 1,
		"windDir" : 34,
		"rain" : 0,
		"cloudbase" : null,
		"flyability" : 100,
		"reason" : "",
		"timestamp" :1555012800
		},
	"2019-04-12T01:00:00+01:00" : {
		"windSpeed" : 1.3,
		"windDir" : 31,
		"rain" : 0,
		"cloudbase" : null,
		"flyability" : 100,
		"reason" : "",
		"timestamp" :1555023600
		},
	"2019-04-12T04:00:00+01:00" : {
		"windSpeed" : 1,
		"windDir" : 49,
		"rain" : 0,
		"cloudbase" : null,
		"flyability" : 100,
		"reason" : "",
		"timestamp" :1555034400
		},
	"2019-04-12T07:00:00+01:00" : {
		"windSpeed" : 0.8,
		"windDir" : 45,
		"rain" : 0,
		"cloudbase" : null,
		"flyability" : 100,
		"reason" : "",
		"timestamp" :1555045200
		},
	"2019-04-12T10:00:00+01:00" : {
		"windSpeed" : 0.9,
		"windDir" : 45,
		"rain" : 0,
		"cloudbase" : null,
		"flyability" : 100,
		"reason" : "",
		"timestamp" :1555056000
		},
	"2019-04-12T13:00:00+01:00" : {
		"windSpeed" : 1,
		"windDir" : 47,
		"rain" : 0,
		"cloudbase" : 12850,
		"flyability" : 100,
		"reason" : "",
		"timestamp" :1555066800
		},
	"2019-04-12T16:00:00+01:00" : {
		"windSpeed" : 0.9,
		"windDir" : 66,
		"rain" : 0,
		"cloudbase" : 1150,
		"flyability" : 0,
		"reason" : "cloudbase",
		"timestamp" :1555077600
		},
	"2019-04-12T19:00:00+01:00" : {
		"windSpeed" : 0.7,
		"windDir" : 53,
		"rain" : 0,
		"cloudbase" : null,
		"flyability" : 100,
		"reason" : "",
		"timestamp" :1555088400
		},
	"2019-04-12T22:00:00+01:00" : {
		"windSpeed" : 0.8,
		"windDir" : 34,
		"rain" : 0,
		"cloudbase" : 10000,
		"flyability" : 100,
		"reason" : "",
		"timestamp" :1555099200
		},
	"2019-04-13T01:00:00+01:00" : {
		"windSpeed" : 0.6,
		"windDir" : 51,
		"rain" : 1,
		"cloudbase" : 11500,
		"flyability" : 0,
		"reason" : "rain",
		"timestamp" :1555110000
		},
	"2019-04-13T04:00:00+01:00" : {
		"windSpeed" : 0.6,
		"windDir" : 51,
		"rain" : 0,
		"cloudbase" : null,
		"flyability" : 100,
		"reason" : "",
		"timestamp" :1555120800
		},
	"2019-04-13T07:00:00+01:00" : {
		"windSpeed" : 0.4,
		"windDir" : 49,
		"rain" : 0,
		"cloudbase" : null,
		"flyability" : 100,
		"reason" : "",
		"timestamp" :1555131600
		},
	"2019-04-13T10:00:00+01:00" : {
		"windSpeed" : 0.3,
		"windDir" : 69,
		"rain" : 0,
		"cloudbase" : null,
		"flyability" : 100,
		"reason" : "",
		"timestamp" :1555142400
		},
	"2019-04-13T13:00:00+01:00" : {
		"windSpeed" : 0.2,
		"windDir" : 198,
		"rain" : 0,
		"cloudbase" : 3560.9999999998,
		"flyability" : 0,
		"reason" : "windDir",
		"timestamp" :1555153200
		},
	"2019-04-13T16:00:00+01:00" : {
		"windSpeed" : 0.6,
		"windDir" : 80,
		"rain" : 0,
		"cloudbase" : 578,
		"flyability" : 0,
		"reason" : "cloudbase",
		"timestamp" :1555164000
		},
	"2019-04-13T19:00:00+01:00" : {
		"windSpeed" : 0.7,
		"windDir" : 319,
		"rain" : 0,
		"cloudbase" : 518.4,
		"flyability" : 0,
		"reason" : "cloudbase",
		"timestamp" :1555174800
		},
	"2019-04-13T22:00:00+01:00" : {
		"windSpeed" : 0.1,
		"windDir" : 84,
		"rain" : 0,
		"cloudbase" : 244,
		"flyability" : 0,
		"reason" : "cloudbase",
		"timestamp" :1555185600
		},
	"2019-04-14T01:00:00+01:00" : {
		"windSpeed" : 0.7,
		"windDir" : 229,
		"rain" : 0,
		"cloudbase" : 150,
		"flyability" : 0,
		"reason" : "windDir, cloudbase",
		"timestamp" :1555196400
		}
	}
}