{
"site" : "Compton Whites",
"id" : 10059,
"orientations" : "00002200",
"forecasts" : { 
	"2019-04-22T04:00:00+01:00" : {
		"windSpeed" : 4.7,
		"windDir" : 90,
		"rain" : 0,
		"cloudbase" : null,
		"flyability" : 0,
		"reason" : "windDir",
		"timestamp" :1555898400
		},
	"2019-04-22T07:00:00+01:00" : {
		"windSpeed" : 5,
		"windDir" : 84,
		"rain" : 0,
		"cloudbase" : 9007.7616,
		"flyability" : 0,
		"reason" : "windDir",
		"timestamp" :1555909200
		},
	"2019-04-22T10:00:00+01:00" : {
		"windSpeed" : 4.8,
		"windDir" : 102,
		"rain" : 0,
		"cloudbase" : null,
		"flyability" : 0,
		"reason" : "windDir",
		"timestamp" :1555920000
		},
	"2019-04-22T13:00:00+01:00" : {
		"windSpeed" : 4.1,
		"windDir" : 140,
		"rain" : 0,
		"cloudbase" : null,
		"flyability" : 0,
		"reason" : "windDir",
		"timestamp" :1555930800
		},
	"2019-04-22T16:00:00+01:00" : {
		"windSpeed" : 1.8,
		"windDir" : 159,
		"rain" : 0,
		"cloudbase" : 8400,
		"flyability" : 100,
		"reason" : "",
		"timestamp" :1555941600
		},
	"2019-04-22T19:00:00+01:00" : {
		"windSpeed" : 3.1,
		"windDir" : 108,
		"rain" : 0,
		"cloudbase" : 3173.6595999999,
		"flyability" : 0,
		"reason" : "windDir",
		"timestamp" :1555952400
		},
	"2019-04-22T22:00:00+01:00" : {
		"windSpeed" : 4.1,
		"windDir" : 66,
		"rain" : 0,
		"cloudbase" : 3550,
		"flyability" : 0,
		"reason" : "windDir",
		"timestamp" :1555963200
		},
	"2019-04-23T01:00:00+01:00" : {
		"windSpeed" : 4.1,
		"windDir" : 66,
		"rain" : 1,
		"cloudbase" : 8381.7616000002,
		"flyability" : 0,
		"reason" : "windDir, rain",
		"timestamp" :1555974000
		},
	"2019-04-23T04:00:00+01:00" : {
		"windSpeed" : 4.7,
		"windDir" : 57,
		"rain" : 0,
		"cloudbase" : 7200,
		"flyability" : 0,
		"reason" : "windDir",
		"timestamp" :1555984800
		},
	"2019-04-23T07:00:00+01:00" : {
		"windSpeed" : 5.2,
		"windDir" : 74,
		"rain" : 1,
		"cloudbase" : 9517.4384,
		"flyability" : 0,
		"reason" : "windSpeed, windDir, rain",
		"timestamp" :1555995600
		},
	"2019-04-23T10:00:00+01:00" : {
		"windSpeed" : 5.2,
		"windDir" : 94,
		"rain" : 0,
		"cloudbase" : 9560.4808,
		"flyability" : 0,
		"reason" : "windSpeed, windDir",
		"timestamp" :1556006400
		},
	"2019-04-23T13:00:00+01:00" : {
		"windSpeed" : 4.9,
		"windDir" : 107,
		"rain" : 0,
		"cloudbase" : 9191.2808,
		"flyability" : 0,
		"reason" : "windDir",
		"timestamp" :1556017200
		},
	"2019-04-23T16:00:00+01:00" : {
		"windSpeed" : 3.3,
		"windDir" : 120,
		"rain" : 0,
		"cloudbase" : 6714.3192,
		"flyability" : 0,
		"reason" : "windDir",
		"timestamp" :1556028000
		},
	"2019-04-23T19:00:00+01:00" : {
		"windSpeed" : 3.7,
		"windDir" : 100,
		"rain" : 0,
		"cloudbase" : 5577.9192,
		"flyability" : 0,
		"reason" : "windDir",
		"timestamp" :1556038800
		},
	"2019-04-23T22:00:00+01:00" : {
		"windSpeed" : 2.4,
		"windDir" : 118,
		"rain" : 0,
		"cloudbase" : 4143.7596,
		"flyability" : 0,
		"reason" : "windDir",
		"timestamp" :1556049600
		},
	"2019-04-24T01:00:00+01:00" : {
		"windSpeed" : 1.1,
		"windDir" : 116,
		"rain" : 0,
		"cloudbase" : 2654.3596,
		"flyability" : 0,
		"reason" : "windDir",
		"timestamp" :1556060400
		},
	"2019-04-24T04:00:00+01:00" : {
		"windSpeed" : 2.2,
		"windDir" : 112,
		"rain" : 0,
		"cloudbase" : 8969.2,
		"flyability" : 0,
		"reason" : "windDir",
		"timestamp" :1556071200
		},
	"2019-04-24T07:00:00+01:00" : {
		"windSpeed" : 4,
		"windDir" : 111,
		"rain" : 1,
		"cloudbase" : 880,
		"flyability" : 0,
		"reason" : "windDir, rain",
		"timestamp" :1556082000
		},
	"2019-04-24T10:00:00+01:00" : {
		"windSpeed" : 6.2,
		"windDir" : 158,
		"rain" : 1,
		"cloudbase" : 342.32,
		"flyability" : 0,
		"reason" : "windSpeed, rain",
		"timestamp" :1556092800
		},
	"2019-04-24T13:00:00+01:00" : {
		"windSpeed" : 6.6,
		"windDir" : 221,
		"rain" : 1,
		"cloudbase" : 1607.1596,
		"flyability" : 0,
		"reason" : "windSpeed, rain",
		"timestamp" :1556103600
		},
	"2019-04-24T16:00:00+01:00" : {
		"windSpeed" : 4.9,
		"windDir" : 189,
		"rain" : 0,
		"cloudbase" : null,
		"flyability" : 100,
		"reason" : "",
		"timestamp" :1556114400
		},
	"2019-04-24T19:00:00+01:00" : {
		"windSpeed" : 6.7,
		"windDir" : 140,
		"rain" : 1,
		"cloudbase" : 4333.002,
		"flyability" : 0,
		"reason" : "windSpeed, windDir, rain",
		"timestamp" :1556125200
		},
	"2019-04-24T22:00:00+01:00" : {
		"windSpeed" : 7.7,
		"windDir" : 152,
		"rain" : 1,
		"cloudbase" : null,
		"flyability" : 0,
		"reason" : "windSpeed, windDir, rain",
		"timestamp" :1556136000
		},
	"2019-04-25T01:00:00+01:00" : {
		"windSpeed" : 8.6,
		"windDir" : 148,
		"rain" : 1,
		"cloudbase" : 2526.5384,
		"flyability" : 0,
		"reason" : "windSpeed, windDir, rain",
		"timestamp" :1556146800
		},
	"2019-04-25T04:00:00+01:00" : {
		"windSpeed" : 9.3,
		"windDir" : 146,
		"rain" : 1,
		"cloudbase" : 2544.1404,
		"flyability" : 0,
		"reason" : "windSpeed, windDir, rain",
		"timestamp" :1556157600
		},
	"2019-04-25T07:00:00+01:00" : {
		"windSpeed" : 9.6,
		"windDir" : 147,
		"rain" : 1,
		"cloudbase" : 1054.3596,
		"flyability" : 0,
		"reason" : "windSpeed, windDir, rain",
		"timestamp" :1556168400
		},
	"2019-04-25T10:00:00+01:00" : {
		"windSpeed" : 8.7,
		"windDir" : 172,
		"rain" : 1,
		"cloudbase" : 6400,
		"flyability" : 0,
		"reason" : "windSpeed, rain",
		"timestamp" :1556179200
		},
	"2019-04-25T13:00:00+01:00" : {
		"windSpeed" : 7.4,
		"windDir" : 174,
		"rain" : 1,
		"cloudbase" : 7000,
		"flyability" : 0,
		"reason" : "windSpeed, rain",
		"timestamp" :1556190000
		},
	"2019-04-25T16:00:00+01:00" : {
		"windSpeed" : 6.3,
		"windDir" : 183,
		"rain" : 1,
		"cloudbase" : 7600,
		"flyability" : 0,
		"reason" : "windSpeed, rain",
		"timestamp" :1556200800
		},
	"2019-04-25T19:00:00+01:00" : {
		"windSpeed" : 5.7,
		"windDir" : 192,
		"rain" : 1,
		"cloudbase" : 6400,
		"flyability" : 0,
		"reason" : "windSpeed, rain",
		"timestamp" :1556211600
		},
	"2019-04-25T22:00:00+01:00" : {
		"windSpeed" : 5.9,
		"windDir" : 194,
		"rain" : 0,
		"cloudbase" : null,
		"flyability" : 0,
		"reason" : "windSpeed",
		"timestamp" :1556222400
		},
	"2019-04-26T01:00:00+01:00" : {
		"windSpeed" : 5.2,
		"windDir" : 187,
		"rain" : 1,
		"cloudbase" : null,
		"flyability" : 0,
		"reason" : "windSpeed, rain",
		"timestamp" :1556233200
		},
	"2019-04-26T04:00:00+01:00" : {
		"windSpeed" : 5.9,
		"windDir" : 186,
		"rain" : 0,
		"cloudbase" : null,
		"flyability" : 0,
		"reason" : "windSpeed",
		"timestamp" :1556244000
		},
	"2019-04-26T07:00:00+01:00" : {
		"windSpeed" : 4.8,
		"windDir" : 187,
		"rain" : 1,
		"cloudbase" : 3265.4300000003,
		"flyability" : 0,
		"reason" : "rain",
		"timestamp" :1556254800
		},
	"2019-04-26T10:00:00+01:00" : {
		"windSpeed" : 5.7,
		"windDir" : 188,
		"rain" : 1,
		"cloudbase" : 4250,
		"flyability" : 0,
		"reason" : "windSpeed, rain",
		"timestamp" :1556265600
		},
	"2019-04-26T13:00:00+01:00" : {
		"windSpeed" : 7.5,
		"windDir" : 211,
		"rain" : 1,
		"cloudbase" : 470,
		"flyability" : 0,
		"reason" : "windSpeed, rain",
		"timestamp" :1556276400
		},
	"2019-04-26T16:00:00+01:00" : {
		"windSpeed" : 7.4,
		"windDir" : 228,
		"rain" : 0,
		"cloudbase" : 7100,
		"flyability" : 0,
		"reason" : "windSpeed",
		"timestamp" :1556287200
		},
	"2019-04-26T19:00:00+01:00" : {
		"windSpeed" : 7.3,
		"windDir" : 244,
		"rain" : 0,
		"cloudbase" : null,
		"flyability" : 0,
		"reason" : "windSpeed",
		"timestamp" :1556298000
		},
	"2019-04-26T22:00:00+01:00" : {
		"windSpeed" : 7.8,
		"windDir" : 254,
		"rain" : 0,
		"cloudbase" : 4972.9556000001,
		"flyability" : 0,
		"reason" : "windSpeed, windDir",
		"timestamp" :1556308800
		},
	"2019-04-27T01:00:00+01:00" : {
		"windSpeed" : 6.5,
		"windDir" : 221,
		"rain" : 1,
		"cloudbase" : 970.76768,
		"flyability" : 0,
		"reason" : "windSpeed, rain",
		"timestamp" :1556319600
		},
	"2019-04-27T04:00:00+01:00" : {
		"windSpeed" : 11.4,
		"windDir" : 191,
		"rain" : 1,
		"cloudbase" : 519.27232,
		"flyability" : 0,
		"reason" : "windSpeed, rain",
		"timestamp" :1556330400
		},
	"2019-04-27T07:00:00+01:00" : {
		"windSpeed" : 10.3,
		"windDir" : 245,
		"rain" : 1,
		"cloudbase" : null,
		"flyability" : 0,
		"reason" : "windSpeed, rain",
		"timestamp" :1556341200
		},
	"2019-04-27T10:00:00+01:00" : {
		"windSpeed" : 13.1,
		"windDir" : 303,
		"rain" : 1,
		"cloudbase" : 1019.8188000002,
		"flyability" : 0,
		"reason" : "windSpeed, windDir, rain",
		"timestamp" :1556352000
		},
	"2019-04-27T13:00:00+01:00" : {
		"windSpeed" : 10.1,
		"windDir" : 301,
		"rain" : 1,
		"cloudbase" : 2050,
		"flyability" : 0,
		"reason" : "windSpeed, windDir, rain",
		"timestamp" :1556362800
		},
	"2019-04-27T16:00:00+01:00" : {
		"windSpeed" : 10.7,
		"windDir" : 299,
		"rain" : 1,
		"cloudbase" : null,
		"flyability" : 0,
		"reason" : "windSpeed, windDir, rain",
		"timestamp" :1556373600
		},
	"2019-04-27T19:00:00+01:00" : {
		"windSpeed" : 9.2,
		"windDir" : 288,
		"rain" : 1,
		"cloudbase" : null,
		"flyability" : 0,
		"reason" : "windSpeed, windDir, rain",
		"timestamp" :1556384400
		},
	"2019-04-27T22:00:00+01:00" : {
		"windSpeed" : 6.7,
		"windDir" : 286,
		"rain" : 0,
		"cloudbase" : 7277.9192,
		"flyability" : 0,
		"reason" : "windSpeed, windDir",
		"timestamp" :1556395200
		},
	"2019-04-28T01:00:00+01:00" : {
		"windSpeed" : 6.5,
		"windDir" : 273,
		"rain" : 0,
		"cloudbase" : 6299.2383999999,
		"flyability" : 0,
		"reason" : "windSpeed, windDir",
		"timestamp" :1556406000
		}
	}
}