{
"site" : "Timbis Bukit",
"id" : 10121,
"orientations" : "00021100",
"forecasts" : { 
	"2019-04-07T23:00:00+08:00" : {
		"windSpeed" : 2.7,
		"windDir" : 235,
		"rain" : 0,
		"cloudbase" : 11500,
		"flyability" : 100,
		"reason" : "",
		"timestamp" :1554652800
		},
	"2019-04-08T02:00:00+08:00" : {
		"windSpeed" : 3.9,
		"windDir" : 271,
		"rain" : 1,
		"cloudbase" : 14500,
		"flyability" : 0,
		"reason" : "windDir, rain",
		"timestamp" :1554663600
		},
	"2019-04-08T05:00:00+08:00" : {
		"windSpeed" : 3.3,
		"windDir" : 285,
		"rain" : 1,
		"cloudbase" : null,
		"flyability" : 0,
		"reason" : "windDir, rain",
		"timestamp" :1554674400
		},
	"2019-04-08T08:00:00+08:00" : {
		"windSpeed" : 2.8,
		"windDir" : 298,
		"rain" : 0,
		"cloudbase" : 12291.76,
		"flyability" : 0,
		"reason" : "windDir",
		"timestamp" :1554685200
		},
	"2019-04-08T11:00:00+08:00" : {
		"windSpeed" : 3.3,
		"windDir" : 283,
		"rain" : 0,
		"cloudbase" : 14546.4,
		"flyability" : 0,
		"reason" : "windDir",
		"timestamp" :1554696000
		},
	"2019-04-08T14:00:00+08:00" : {
		"windSpeed" : 2.6,
		"windDir" : 279,
		"rain" : 0,
		"cloudbase" : 11500,
		"flyability" : 0,
		"reason" : "windDir",
		"timestamp" :1554706800
		},
	"2019-04-08T17:00:00+08:00" : {
		"windSpeed" : 3.6,
		"windDir" : 258,
		"rain" : 1,
		"cloudbase" : 11233.2,
		"flyability" : 0,
		"reason" : "windDir, rain",
		"timestamp" :1554717600
		},
	"2019-04-08T20:00:00+08:00" : {
		"windSpeed" : 3.9,
		"windDir" : 286,
		"rain" : 1,
		"cloudbase" : 13000,
		"flyability" : 0,
		"reason" : "windDir, rain",
		"timestamp" :1554728400
		},
	"2019-04-08T23:00:00+08:00" : {
		"windSpeed" : 2.7,
		"windDir" : 293,
		"rain" : 1,
		"cloudbase" : 15000,
		"flyability" : 0,
		"reason" : "windDir, rain",
		"timestamp" :1554739200
		},
	"2019-04-09T02:00:00+08:00" : {
		"windSpeed" : 3.8,
		"windDir" : 302,
		"rain" : 1,
		"cloudbase" : 12500,
		"flyability" : 0,
		"reason" : "windDir, rain",
		"timestamp" :1554750000
		},
	"2019-04-09T05:00:00+08:00" : {
		"windSpeed" : 2.9,
		"windDir" : 301,
		"rain" : 0,
		"cloudbase" : 11534,
		"flyability" : 0,
		"reason" : "windDir",
		"timestamp" :1554760800
		},
	"2019-04-09T08:00:00+08:00" : {
		"windSpeed" : 2.1,
		"windDir" : 315,
		"rain" : 1,
		"cloudbase" : 12323.68,
		"flyability" : 0,
		"reason" : "windDir, rain",
		"timestamp" :1554771600
		},
	"2019-04-09T11:00:00+08:00" : {
		"windSpeed" : 0.3,
		"windDir" : 294,
		"rain" : 1,
		"cloudbase" : 5600,
		"flyability" : 0,
		"reason" : "windDir, rain",
		"timestamp" :1554782400
		},
	"2019-04-09T14:00:00+08:00" : {
		"windSpeed" : 1.8,
		"windDir" : 272,
		"rain" : 1,
		"cloudbase" : 6623.4799999992,
		"flyability" : 0,
		"reason" : "windDir, rain",
		"timestamp" :1554793200
		},
	"2019-04-09T17:00:00+08:00" : {
		"windSpeed" : 2.9,
		"windDir" : 322,
		"rain" : 1,
		"cloudbase" : 8900.2800000005,
		"flyability" : 0,
		"reason" : "windDir, rain",
		"timestamp" :1554804000
		},
	"2019-04-09T20:00:00+08:00" : {
		"windSpeed" : 0.3,
		"windDir" : 321,
		"rain" : 1,
		"cloudbase" : 11693.2,
		"flyability" : 0,
		"reason" : "windDir, rain",
		"timestamp" :1554814800
		},
	"2019-04-09T23:00:00+08:00" : {
		"windSpeed" : 1.2,
		"windDir" : 24,
		"rain" : 1,
		"cloudbase" : 12976.8,
		"flyability" : 0,
		"reason" : "windDir, rain",
		"timestamp" :1554825600
		},
	"2019-04-10T02:00:00+08:00" : {
		"windSpeed" : 1.6,
		"windDir" : 291,
		"rain" : 1,
		"cloudbase" : 12244,
		"flyability" : 0,
		"reason" : "windDir, rain",
		"timestamp" :1554836400
		},
	"2019-04-10T05:00:00+08:00" : {
		"windSpeed" : 1.9,
		"windDir" : 247,
		"rain" : 1,
		"cloudbase" : 600,
		"flyability" : 0,
		"reason" : "rain",
		"timestamp" :1554847200
		},
	"2019-04-10T08:00:00+08:00" : {
		"windSpeed" : 2,
		"windDir" : 300,
		"rain" : 0,
		"cloudbase" : 14460,
		"flyability" : 0,
		"reason" : "windDir",
		"timestamp" :1554858000
		},
	"2019-04-10T11:00:00+08:00" : {
		"windSpeed" : 1.4,
		"windDir" : 311,
		"rain" : 1,
		"cloudbase" : 16500,
		"flyability" : 0,
		"reason" : "windDir, rain",
		"timestamp" :1554868800
		},
	"2019-04-10T14:00:00+08:00" : {
		"windSpeed" : 1.3,
		"windDir" : 293,
		"rain" : 1,
		"cloudbase" : 10855.2,
		"flyability" : 0,
		"reason" : "windDir, rain",
		"timestamp" :1554879600
		},
	"2019-04-10T17:00:00+08:00" : {
		"windSpeed" : 2.2,
		"windDir" : 220,
		"rain" : 0,
		"cloudbase" : 10188.52,
		"flyability" : 100,
		"reason" : "",
		"timestamp" :1554890400
		},
	"2019-04-10T20:00:00+08:00" : {
		"windSpeed" : 0.5,
		"windDir" : 169,
		"rain" : 1,
		"cloudbase" : 10885.36,
		"flyability" : 0,
		"reason" : "rain",
		"timestamp" :1554901200
		},
	"2019-04-10T23:00:00+08:00" : {
		"windSpeed" : 2.5,
		"windDir" : 25,
		"rain" : 0,
		"cloudbase" : 13000,
		"flyability" : 0,
		"reason" : "windDir",
		"timestamp" :1554912000
		},
	"2019-04-11T02:00:00+08:00" : {
		"windSpeed" : 1,
		"windDir" : 351,
		"rain" : 0,
		"cloudbase" : 9709.28,
		"flyability" : 0,
		"reason" : "windDir",
		"timestamp" :1554922800
		},
	"2019-04-11T05:00:00+08:00" : {
		"windSpeed" : 1.1,
		"windDir" : 25,
		"rain" : 0,
		"cloudbase" : 13296,
		"flyability" : 0,
		"reason" : "windDir",
		"timestamp" :1554933600
		},
	"2019-04-11T08:00:00+08:00" : {
		"windSpeed" : 1.6,
		"windDir" : 19,
		"rain" : 1,
		"cloudbase" : 12067.2,
		"flyability" : 0,
		"reason" : "windDir, rain",
		"timestamp" :1554944400
		},
	"2019-04-11T11:00:00+08:00" : {
		"windSpeed" : 2.3,
		"windDir" : 78,
		"rain" : 1,
		"cloudbase" : 12693.2,
		"flyability" : 0,
		"reason" : "windDir, rain",
		"timestamp" :1554955200
		},
	"2019-04-11T14:00:00+08:00" : {
		"windSpeed" : 1.7,
		"windDir" : 141,
		"rain" : 1,
		"cloudbase" : 7320.4960000001,
		"flyability" : 0,
		"reason" : "rain",
		"timestamp" :1554966000
		},
	"2019-04-11T17:00:00+08:00" : {
		"windSpeed" : 1.9,
		"windDir" : 73,
		"rain" : 1,
		"cloudbase" : 11201.36,
		"flyability" : 0,
		"reason" : "windDir, rain",
		"timestamp" :1554976800
		},
	"2019-04-11T20:00:00+08:00" : {
		"windSpeed" : 1,
		"windDir" : 74,
		"rain" : 1,
		"cloudbase" : 8744.6720000001,
		"flyability" : 0,
		"reason" : "windDir, rain",
		"timestamp" :1554987600
		},
	"2019-04-11T23:00:00+08:00" : {
		"windSpeed" : 1.8,
		"windDir" : 81,
		"rain" : 1,
		"cloudbase" : 11000,
		"flyability" : 0,
		"reason" : "windDir, rain",
		"timestamp" :1554998400
		},
	"2019-04-12T02:00:00+08:00" : {
		"windSpeed" : 1.9,
		"windDir" : 66,
		"rain" : 1,
		"cloudbase" : 11766.8,
		"flyability" : 0,
		"reason" : "windDir, rain",
		"timestamp" :1555009200
		},
	"2019-04-12T05:00:00+08:00" : {
		"windSpeed" : 1.8,
		"windDir" : 100,
		"rain" : 1,
		"cloudbase" : 11040,
		"flyability" : 0,
		"reason" : "windDir, rain",
		"timestamp" :1555020000
		},
	"2019-04-12T08:00:00+08:00" : {
		"windSpeed" : 2.5,
		"windDir" : 62,
		"rain" : 1,
		"cloudbase" : 11870,
		"flyability" : 0,
		"reason" : "windDir, rain",
		"timestamp" :1555030800
		},
	"2019-04-12T11:00:00+08:00" : {
		"windSpeed" : 3,
		"windDir" : 57,
		"rain" : 1,
		"cloudbase" : 15000,
		"flyability" : 0,
		"reason" : "windDir, rain",
		"timestamp" :1555041600
		},
	"2019-04-12T14:00:00+08:00" : {
		"windSpeed" : 2.6,
		"windDir" : 90,
		"rain" : 1,
		"cloudbase" : 11500,
		"flyability" : 0,
		"reason" : "windDir, rain",
		"timestamp" :1555052400
		},
	"2019-04-12T17:00:00+08:00" : {
		"windSpeed" : 1.5,
		"windDir" : 201,
		"rain" : 0,
		"cloudbase" : 11500,
		"flyability" : 100,
		"reason" : "",
		"timestamp" :1555063200
		},
	"2019-04-12T20:00:00+08:00" : {
		"windSpeed" : 0.6,
		"windDir" : 216,
		"rain" : 1,
		"cloudbase" : 10630.400000001,
		"flyability" : 0,
		"reason" : "rain",
		"timestamp" :1555074000
		},
	"2019-04-12T23:00:00+08:00" : {
		"windSpeed" : 2.1,
		"windDir" : 342,
		"rain" : 1,
		"cloudbase" : 11606.16,
		"flyability" : 0,
		"reason" : "windDir, rain",
		"timestamp" :1555084800
		},
	"2019-04-13T02:00:00+08:00" : {
		"windSpeed" : 2.6,
		"windDir" : 20,
		"rain" : 1,
		"cloudbase" : 12110.912,
		"flyability" : 0,
		"reason" : "windDir, rain",
		"timestamp" :1555095600
		},
	"2019-04-13T05:00:00+08:00" : {
		"windSpeed" : 1.2,
		"windDir" : 30,
		"rain" : 1,
		"cloudbase" : 7241.8560000001,
		"flyability" : 0,
		"reason" : "windDir, rain",
		"timestamp" :1555106400
		},
	"2019-04-13T08:00:00+08:00" : {
		"windSpeed" : 2.7,
		"windDir" : 86,
		"rain" : 0,
		"cloudbase" : 11773.2,
		"flyability" : 0,
		"reason" : "windDir",
		"timestamp" :1555117200
		},
	"2019-04-13T11:00:00+08:00" : {
		"windSpeed" : 3.3,
		"windDir" : 78,
		"rain" : 1,
		"cloudbase" : 12128.8,
		"flyability" : 0,
		"reason" : "windDir, rain",
		"timestamp" :1555128000
		},
	"2019-04-13T14:00:00+08:00" : {
		"windSpeed" : 2.7,
		"windDir" : 93,
		"rain" : 1,
		"cloudbase" : 11803.52,
		"flyability" : 0,
		"reason" : "windDir, rain",
		"timestamp" :1555138800
		},
	"2019-04-13T17:00:00+08:00" : {
		"windSpeed" : 3.8,
		"windDir" : 105,
		"rain" : 1,
		"cloudbase" : 12500,
		"flyability" : 0,
		"reason" : "windDir, rain",
		"timestamp" :1555149600
		},
	"2019-04-13T20:00:00+08:00" : {
		"windSpeed" : 4.8,
		"windDir" : 78,
		"rain" : 1,
		"cloudbase" : 14023.2,
		"flyability" : 0,
		"reason" : "windDir, rain",
		"timestamp" :1555160400
		}
	}
}