{
"site" : "Paul da Serra",
"id" : 10147,
"orientations" : "22222222",
"forecasts" : { 
	"2019-04-08T04:00:00+01:00" : {
		"windSpeed" : 1.8,
		"windDir" : 260,
		"rain" : 0,
		"cloudbase" : null,
		"flyability" : 100,
		"reason" : "",
		"timestamp" :1554688800
		},
	"2019-04-08T07:00:00+01:00" : {
		"windSpeed" : 2.7,
		"windDir" : 269,
		"rain" : 1,
		"cloudbase" : 291.93599999997,
		"flyability" : 0,
		"reason" : "rain, cloudbase",
		"timestamp" :1554699600
		},
	"2019-04-08T10:00:00+01:00" : {
		"windSpeed" : 2.5,
		"windDir" : 336,
		"rain" : 1,
		"cloudbase" : 396.15199999998,
		"flyability" : 0,
		"reason" : "rain, cloudbase",
		"timestamp" :1554710400
		},
	"2019-04-08T13:00:00+01:00" : {
		"windSpeed" : 1.5,
		"windDir" : 0,
		"rain" : 1,
		"cloudbase" : 1000,
		"flyability" : 0,
		"reason" : "rain, cloudbase",
		"timestamp" :1554721200
		},
	"2019-04-08T16:00:00+01:00" : {
		"windSpeed" : 0.6,
		"windDir" : 336,
		"rain" : 1,
		"cloudbase" : 6515.8480000009,
		"flyability" : 0,
		"reason" : "rain",
		"timestamp" :1554732000
		},
	"2019-04-08T19:00:00+01:00" : {
		"windSpeed" : 1.3,
		"windDir" : 349,
		"rain" : 1,
		"cloudbase" : 6661.4400000005,
		"flyability" : 0,
		"reason" : "rain",
		"timestamp" :1554742800
		},
	"2019-04-08T22:00:00+01:00" : {
		"windSpeed" : 0.6,
		"windDir" : 25,
		"rain" : 0,
		"cloudbase" : 4272.2240000007,
		"flyability" : 100,
		"reason" : "",
		"timestamp" :1554753600
		},
	"2019-04-09T01:00:00+01:00" : {
		"windSpeed" : 0.6,
		"windDir" : 61,
		"rain" : 1,
		"cloudbase" : 4437.1120000006,
		"flyability" : 0,
		"reason" : "rain",
		"timestamp" :1554764400
		},
	"2019-04-09T04:00:00+01:00" : {
		"windSpeed" : 0.6,
		"windDir" : 28,
		"rain" : 0,
		"cloudbase" : 6844.12,
		"flyability" : 100,
		"reason" : "",
		"timestamp" :1554775200
		},
	"2019-04-09T07:00:00+01:00" : {
		"windSpeed" : 0.5,
		"windDir" : 5,
		"rain" : 0,
		"cloudbase" : 5671.36,
		"flyability" : 100,
		"reason" : "",
		"timestamp" :1554786000
		},
	"2019-04-09T10:00:00+01:00" : {
		"windSpeed" : 1,
		"windDir" : 54,
		"rain" : 1,
		"cloudbase" : null,
		"flyability" : 0,
		"reason" : "rain",
		"timestamp" :1554796800
		},
	"2019-04-09T13:00:00+01:00" : {
		"windSpeed" : 0.9,
		"windDir" : 175,
		"rain" : 0,
		"cloudbase" : 1121.22,
		"flyability" : 0,
		"reason" : "cloudbase",
		"timestamp" :1554807600
		},
	"2019-04-09T16:00:00+01:00" : {
		"windSpeed" : 0.7,
		"windDir" : 194,
		"rain" : 0,
		"cloudbase" : 990.04,
		"flyability" : 0,
		"reason" : "cloudbase",
		"timestamp" :1554818400
		},
	"2019-04-09T19:00:00+01:00" : {
		"windSpeed" : 0.2,
		"windDir" : 152,
		"rain" : 1,
		"cloudbase" : 520,
		"flyability" : 0,
		"reason" : "rain, cloudbase",
		"timestamp" :1554829200
		},
	"2019-04-09T22:00:00+01:00" : {
		"windSpeed" : 1,
		"windDir" : 56,
		"rain" : 1,
		"cloudbase" : 620,
		"flyability" : 0,
		"reason" : "rain, cloudbase",
		"timestamp" :1554840000
		},
	"2019-04-10T01:00:00+01:00" : {
		"windSpeed" : 0.8,
		"windDir" : 21,
		"rain" : 1,
		"cloudbase" : 420,
		"flyability" : 0,
		"reason" : "rain, cloudbase",
		"timestamp" :1554850800
		},
	"2019-04-10T04:00:00+01:00" : {
		"windSpeed" : 1.1,
		"windDir" : 44,
		"rain" : 0,
		"cloudbase" : 747.9400000001,
		"flyability" : 0,
		"reason" : "cloudbase",
		"timestamp" :1554861600
		},
	"2019-04-10T07:00:00+01:00" : {
		"windSpeed" : 1,
		"windDir" : 34,
		"rain" : 1,
		"cloudbase" : null,
		"flyability" : 0,
		"reason" : "rain",
		"timestamp" :1554872400
		},
	"2019-04-10T10:00:00+01:00" : {
		"windSpeed" : 1.4,
		"windDir" : 53,
		"rain" : 0,
		"cloudbase" : 800,
		"flyability" : 0,
		"reason" : "cloudbase",
		"timestamp" :1554883200
		},
	"2019-04-10T13:00:00+01:00" : {
		"windSpeed" : 0.4,
		"windDir" : 74,
		"rain" : 1,
		"cloudbase" : 1128.008,
		"flyability" : 0,
		"reason" : "rain, cloudbase",
		"timestamp" :1554894000
		},
	"2019-04-10T16:00:00+01:00" : {
		"windSpeed" : 0.5,
		"windDir" : 137,
		"rain" : 0,
		"cloudbase" : 808.89600000001,
		"flyability" : 0,
		"reason" : "cloudbase",
		"timestamp" :1554904800
		},
	"2019-04-10T19:00:00+01:00" : {
		"windSpeed" : 0.9,
		"windDir" : 68,
		"rain" : 0,
		"cloudbase" : 7700.1200000002,
		"flyability" : 100,
		"reason" : "",
		"timestamp" :1554915600
		},
	"2019-04-10T22:00:00+01:00" : {
		"windSpeed" : 0.6,
		"windDir" : 110,
		"rain" : 0,
		"cloudbase" : 8849.56,
		"flyability" : 100,
		"reason" : "",
		"timestamp" :1554926400
		},
	"2019-04-11T01:00:00+01:00" : {
		"windSpeed" : 0.5,
		"windDir" : 7,
		"rain" : 0,
		"cloudbase" : null,
		"flyability" : 100,
		"reason" : "",
		"timestamp" :1554937200
		},
	"2019-04-11T04:00:00+01:00" : {
		"windSpeed" : 0.6,
		"windDir" : 62,
		"rain" : 0,
		"cloudbase" : null,
		"flyability" : 100,
		"reason" : "",
		"timestamp" :1554948000
		},
	"2019-04-11T07:00:00+01:00" : {
		"windSpeed" : 0.4,
		"windDir" : 44,
		"rain" : 0,
		"cloudbase" : null,
		"flyability" : 100,
		"reason" : "",
		"timestamp" :1554958800
		},
	"2019-04-11T10:00:00+01:00" : {
		"windSpeed" : 0.5,
		"windDir" : 5,
		"rain" : 1,
		"cloudbase" : 4008.3200000001,
		"flyability" : 0,
		"reason" : "rain",
		"timestamp" :1554969600
		},
	"2019-04-11T13:00:00+01:00" : {
		"windSpeed" : 0.2,
		"windDir" : 155,
		"rain" : 1,
		"cloudbase" : 900,
		"flyability" : 0,
		"reason" : "rain, cloudbase",
		"timestamp" :1554980400
		},
	"2019-04-11T16:00:00+01:00" : {
		"windSpeed" : 0.5,
		"windDir" : 105,
		"rain" : 0,
		"cloudbase" : 760,
		"flyability" : 0,
		"reason" : "cloudbase",
		"timestamp" :1554991200
		},
	"2019-04-11T19:00:00+01:00" : {
		"windSpeed" : 0.8,
		"windDir" : 19,
		"rain" : 0,
		"cloudbase" : 480,
		"flyability" : 0,
		"reason" : "cloudbase",
		"timestamp" :1555002000
		},
	"2019-04-11T22:00:00+01:00" : {
		"windSpeed" : 1.1,
		"windDir" : 44,
		"rain" : 0,
		"cloudbase" : null,
		"flyability" : 100,
		"reason" : "",
		"timestamp" :1555012800
		},
	"2019-04-12T01:00:00+01:00" : {
		"windSpeed" : 1.3,
		"windDir" : 37,
		"rain" : 0,
		"cloudbase" : null,
		"flyability" : 100,
		"reason" : "",
		"timestamp" :1555023600
		},
	"2019-04-12T04:00:00+01:00" : {
		"windSpeed" : 0.9,
		"windDir" : 55,
		"rain" : 0,
		"cloudbase" : null,
		"flyability" : 100,
		"reason" : "",
		"timestamp" :1555034400
		},
	"2019-04-12T07:00:00+01:00" : {
		"windSpeed" : 0.9,
		"windDir" : 55,
		"rain" : 0,
		"cloudbase" : null,
		"flyability" : 100,
		"reason" : "",
		"timestamp" :1555045200
		},
	"2019-04-12T10:00:00+01:00" : {
		"windSpeed" : 0.6,
		"windDir" : 60,
		"rain" : 0,
		"cloudbase" : null,
		"flyability" : 100,
		"reason" : "",
		"timestamp" :1555056000
		},
	"2019-04-12T13:00:00+01:00" : {
		"windSpeed" : 0.6,
		"windDir" : 59,
		"rain" : 0,
		"cloudbase" : 12985,
		"flyability" : 100,
		"reason" : "",
		"timestamp" :1555066800
		},
	"2019-04-12T16:00:00+01:00" : {
		"windSpeed" : 0.8,
		"windDir" : 100,
		"rain" : 1,
		"cloudbase" : 1150,
		"flyability" : 0,
		"reason" : "rain, cloudbase",
		"timestamp" :1555077600
		},
	"2019-04-12T19:00:00+01:00" : {
		"windSpeed" : 0.5,
		"windDir" : 82,
		"rain" : 0,
		"cloudbase" : null,
		"flyability" : 100,
		"reason" : "",
		"timestamp" :1555088400
		},
	"2019-04-12T22:00:00+01:00" : {
		"windSpeed" : 0.7,
		"windDir" : 44,
		"rain" : 0,
		"cloudbase" : 10000,
		"flyability" : 100,
		"reason" : "",
		"timestamp" :1555099200
		},
	"2019-04-13T01:00:00+01:00" : {
		"windSpeed" : 0.6,
		"windDir" : 62,
		"rain" : 1,
		"cloudbase" : 11500,
		"flyability" : 0,
		"reason" : "rain",
		"timestamp" :1555110000
		},
	"2019-04-13T04:00:00+01:00" : {
		"windSpeed" : 0.6,
		"windDir" : 62,
		"rain" : 0,
		"cloudbase" : null,
		"flyability" : 100,
		"reason" : "",
		"timestamp" :1555120800
		},
	"2019-04-13T07:00:00+01:00" : {
		"windSpeed" : 0.4,
		"windDir" : 46,
		"rain" : 0,
		"cloudbase" : null,
		"flyability" : 100,
		"reason" : "",
		"timestamp" :1555131600
		},
	"2019-04-13T10:00:00+01:00" : {
		"windSpeed" : 0.1,
		"windDir" : 67,
		"rain" : 0,
		"cloudbase" : null,
		"flyability" : 100,
		"reason" : "",
		"timestamp" :1555142400
		},
	"2019-04-13T13:00:00+01:00" : {
		"windSpeed" : 0.6,
		"windDir" : 226,
		"rain" : 0,
		"cloudbase" : 2893.019999999,
		"flyability" : 100,
		"reason" : "",
		"timestamp" :1555153200
		},
	"2019-04-13T16:00:00+01:00" : {
		"windSpeed" : 0.3,
		"windDir" : 121,
		"rain" : 0,
		"cloudbase" : 561.79999999998,
		"flyability" : 0,
		"reason" : "cloudbase",
		"timestamp" :1555164000
		},
	"2019-04-13T19:00:00+01:00" : {
		"windSpeed" : 0.8,
		"windDir" : 294,
		"rain" : 0,
		"cloudbase" : 528.928,
		"flyability" : 0,
		"reason" : "cloudbase",
		"timestamp" :1555174800
		},
	"2019-04-13T22:00:00+01:00" : {
		"windSpeed" : 0,
		"windDir" : 59,
		"rain" : 0,
		"cloudbase" : 278.72000000001,
		"flyability" : 0,
		"reason" : "cloudbase",
		"timestamp" :1555185600
		},
	"2019-04-14T01:00:00+01:00" : {
		"windSpeed" : 0.7,
		"windDir" : 225,
		"rain" : 0,
		"cloudbase" : 150,
		"flyability" : 0,
		"reason" : "cloudbase",
		"timestamp" :1555196400
		}
	}
}