{
"site" : "Faraya - Mzar",
"id" : 10166,
"orientations" : "00000121",
"forecasts" : { 
	"2019-04-04T06:00:00+03:00" : {
		"windSpeed" : 1,
		"windDir" : 91,
		"rain" : 0,
		"cloudbase" : null,
		"flyability" : 0,
		"reason" : "windDir",
		"timestamp" :1554346800
		},
	"2019-04-04T09:00:00+03:00" : {
		"windSpeed" : 1.6,
		"windDir" : 166,
		"rain" : 0,
		"cloudbase" : null,
		"flyability" : 0,
		"reason" : "windDir",
		"timestamp" :1554357600
		},
	"2019-04-04T12:00:00+03:00" : {
		"windSpeed" : 2.1,
		"windDir" : 222,
		"rain" : 0,
		"cloudbase" : null,
		"flyability" : 100,
		"reason" : "",
		"timestamp" :1554368400
		},
	"2019-04-04T15:00:00+03:00" : {
		"windSpeed" : 2.1,
		"windDir" : 242,
		"rain" : 1,
		"cloudbase" : null,
		"flyability" : 0,
		"reason" : "rain",
		"timestamp" :1554379200
		},
	"2019-04-04T18:00:00+03:00" : {
		"windSpeed" : 0.8,
		"windDir" : 252,
		"rain" : 0,
		"cloudbase" : 6974.3632,
		"flyability" : 100,
		"reason" : "",
		"timestamp" :1554390000
		},
	"2019-04-04T21:00:00+03:00" : {
		"windSpeed" : 1.1,
		"windDir" : 70,
		"rain" : 0,
		"cloudbase" : 7400,
		"flyability" : 0,
		"reason" : "windDir",
		"timestamp" :1554400800
		},
	"2019-04-05T00:00:00+03:00" : {
		"windSpeed" : 1,
		"windDir" : 63,
		"rain" : 0,
		"cloudbase" : 4131.4264,
		"flyability" : 0,
		"reason" : "windDir",
		"timestamp" :1554411600
		},
	"2019-04-05T03:00:00+03:00" : {
		"windSpeed" : 0.7,
		"windDir" : 68,
		"rain" : 0,
		"cloudbase" : null,
		"flyability" : 0,
		"reason" : "windDir",
		"timestamp" :1554422400
		},
	"2019-04-05T06:00:00+03:00" : {
		"windSpeed" : 0.9,
		"windDir" : 69,
		"rain" : 0,
		"cloudbase" : null,
		"flyability" : 0,
		"reason" : "windDir",
		"timestamp" :1554433200
		},
	"2019-04-05T09:00:00+03:00" : {
		"windSpeed" : 0.6,
		"windDir" : 210,
		"rain" : 0,
		"cloudbase" : null,
		"flyability" : 100,
		"reason" : "",
		"timestamp" :1554444000
		},
	"2019-04-05T12:00:00+03:00" : {
		"windSpeed" : 1.8,
		"windDir" : 265,
		"rain" : 1,
		"cloudbase" : null,
		"flyability" : 0,
		"reason" : "rain",
		"timestamp" :1554454800
		},
	"2019-04-05T15:00:00+03:00" : {
		"windSpeed" : 2.2,
		"windDir" : 284,
		"rain" : 1,
		"cloudbase" : null,
		"flyability" : 0,
		"reason" : "rain",
		"timestamp" :1554465600
		},
	"2019-04-05T18:00:00+03:00" : {
		"windSpeed" : 1.1,
		"windDir" : 311,
		"rain" : 1,
		"cloudbase" : 50,
		"flyability" : 0,
		"reason" : "rain, cloudbase",
		"timestamp" :1554476400
		},
	"2019-04-05T21:00:00+03:00" : {
		"windSpeed" : 1,
		"windDir" : 51,
		"rain" : 0,
		"cloudbase" : 410,
		"flyability" : 0,
		"reason" : "windDir, cloudbase",
		"timestamp" :1554487200
		},
	"2019-04-06T00:00:00+03:00" : {
		"windSpeed" : 0.4,
		"windDir" : 67,
		"rain" : 0,
		"cloudbase" : 6414.1264,
		"flyability" : 0,
		"reason" : "windDir",
		"timestamp" :1554498000
		},
	"2019-04-06T03:00:00+03:00" : {
		"windSpeed" : 0.4,
		"windDir" : 45,
		"rain" : 0,
		"cloudbase" : 6395.4,
		"flyability" : 0,
		"reason" : "windDir",
		"timestamp" :1554508800
		},
	"2019-04-06T06:00:00+03:00" : {
		"windSpeed" : 0.3,
		"windDir" : 30,
		"rain" : 1,
		"cloudbase" : 4518.976,
		"flyability" : 0,
		"reason" : "windDir, rain",
		"timestamp" :1554519600
		},
	"2019-04-06T09:00:00+03:00" : {
		"windSpeed" : 1,
		"windDir" : 181,
		"rain" : 1,
		"cloudbase" : 2902.1816,
		"flyability" : 0,
		"reason" : "windDir, rain",
		"timestamp" :1554530400
		},
	"2019-04-06T12:00:00+03:00" : {
		"windSpeed" : 1.9,
		"windDir" : 196,
		"rain" : 0,
		"cloudbase" : 4137.008,
		"flyability" : 0,
		"reason" : "windDir",
		"timestamp" :1554541200
		},
	"2019-04-06T15:00:00+03:00" : {
		"windSpeed" : 1.1,
		"windDir" : 202,
		"rain" : 1,
		"cloudbase" : 2257.3448,
		"flyability" : 0,
		"reason" : "windDir, rain, cloudbase",
		"timestamp" :1554552000
		},
	"2019-04-06T18:00:00+03:00" : {
		"windSpeed" : 1.1,
		"windDir" : 173,
		"rain" : 0,
		"cloudbase" : 2500,
		"flyability" : 0,
		"reason" : "windDir",
		"timestamp" :1554562800
		},
	"2019-04-06T21:00:00+03:00" : {
		"windSpeed" : 0.8,
		"windDir" : 144,
		"rain" : 1,
		"cloudbase" : 5500,
		"flyability" : 0,
		"reason" : "windDir, rain",
		"timestamp" :1554573600
		},
	"2019-04-07T00:00:00+03:00" : {
		"windSpeed" : 0.8,
		"windDir" : 146,
		"rain" : 1,
		"cloudbase" : 2465.6632000001,
		"flyability" : 0,
		"reason" : "windDir, rain",
		"timestamp" :1554584400
		},
	"2019-04-07T03:00:00+03:00" : {
		"windSpeed" : 0.7,
		"windDir" : 76,
		"rain" : 1,
		"cloudbase" : 2181.1040000002,
		"flyability" : 0,
		"reason" : "windDir, rain, cloudbase",
		"timestamp" :1554595200
		},
	"2019-04-07T06:00:00+03:00" : {
		"windSpeed" : 0.3,
		"windDir" : 8,
		"rain" : 0,
		"cloudbase" : null,
		"flyability" : 0,
		"reason" : "windDir",
		"timestamp" :1554606000
		},
	"2019-04-07T09:00:00+03:00" : {
		"windSpeed" : 1.3,
		"windDir" : 247,
		"rain" : 0,
		"cloudbase" : null,
		"flyability" : 100,
		"reason" : "",
		"timestamp" :1554616800
		},
	"2019-04-07T12:00:00+03:00" : {
		"windSpeed" : 3.2,
		"windDir" : 268,
		"rain" : 1,
		"cloudbase" : null,
		"flyability" : 0,
		"reason" : "rain",
		"timestamp" :1554627600
		},
	"2019-04-07T15:00:00+03:00" : {
		"windSpeed" : 2.5,
		"windDir" : 271,
		"rain" : 0,
		"cloudbase" : null,
		"flyability" : 100,
		"reason" : "",
		"timestamp" :1554638400
		},
	"2019-04-07T18:00:00+03:00" : {
		"windSpeed" : 1.2,
		"windDir" : 281,
		"rain" : 0,
		"cloudbase" : null,
		"flyability" : 100,
		"reason" : "",
		"timestamp" :1554649200
		},
	"2019-04-07T21:00:00+03:00" : {
		"windSpeed" : 0.9,
		"windDir" : 7,
		"rain" : 0,
		"cloudbase" : null,
		"flyability" : 0,
		"reason" : "windDir",
		"timestamp" :1554660000
		},
	"2019-04-08T00:00:00+03:00" : {
		"windSpeed" : 0.8,
		"windDir" : 329,
		"rain" : 0,
		"cloudbase" : null,
		"flyability" : 100,
		"reason" : "",
		"timestamp" :1554670800
		},
	"2019-04-08T03:00:00+03:00" : {
		"windSpeed" : 1.8,
		"windDir" : 300,
		"rain" : 0,
		"cloudbase" : null,
		"flyability" : 100,
		"reason" : "",
		"timestamp" :1554681600
		},
	"2019-04-08T06:00:00+03:00" : {
		"windSpeed" : 1.8,
		"windDir" : 293,
		"rain" : 0,
		"cloudbase" : null,
		"flyability" : 100,
		"reason" : "",
		"timestamp" :1554692400
		},
	"2019-04-08T09:00:00+03:00" : {
		"windSpeed" : 2.3,
		"windDir" : 256,
		"rain" : 0,
		"cloudbase" : null,
		"flyability" : 100,
		"reason" : "",
		"timestamp" :1554703200
		},
	"2019-04-08T12:00:00+03:00" : {
		"windSpeed" : 3.4,
		"windDir" : 251,
		"rain" : 0,
		"cloudbase" : null,
		"flyability" : 100,
		"reason" : "",
		"timestamp" :1554714000
		},
	"2019-04-08T15:00:00+03:00" : {
		"windSpeed" : 3.4,
		"windDir" : 248,
		"rain" : 1,
		"cloudbase" : null,
		"flyability" : 0,
		"reason" : "rain",
		"timestamp" :1554724800
		},
	"2019-04-08T18:00:00+03:00" : {
		"windSpeed" : 1.5,
		"windDir" : 234,
		"rain" : 0,
		"cloudbase" : null,
		"flyability" : 100,
		"reason" : "",
		"timestamp" :1554735600
		},
	"2019-04-08T21:00:00+03:00" : {
		"windSpeed" : 1.3,
		"windDir" : 193,
		"rain" : 0,
		"cloudbase" : null,
		"flyability" : 0,
		"reason" : "windDir",
		"timestamp" :1554746400
		},
	"2019-04-09T00:00:00+03:00" : {
		"windSpeed" : 0.6,
		"windDir" : 320,
		"rain" : 0,
		"cloudbase" : null,
		"flyability" : 100,
		"reason" : "",
		"timestamp" :1554757200
		},
	"2019-04-09T03:00:00+03:00" : {
		"windSpeed" : 0.9,
		"windDir" : 329,
		"rain" : 0,
		"cloudbase" : null,
		"flyability" : 100,
		"reason" : "",
		"timestamp" :1554768000
		},
	"2019-04-09T06:00:00+03:00" : {
		"windSpeed" : 2.3,
		"windDir" : 323,
		"rain" : 0,
		"cloudbase" : null,
		"flyability" : 100,
		"reason" : "",
		"timestamp" :1554778800
		},
	"2019-04-09T09:00:00+03:00" : {
		"windSpeed" : 1.2,
		"windDir" : 267,
		"rain" : 0,
		"cloudbase" : null,
		"flyability" : 100,
		"reason" : "",
		"timestamp" :1554789600
		},
	"2019-04-09T12:00:00+03:00" : {
		"windSpeed" : 2.6,
		"windDir" : 248,
		"rain" : 0,
		"cloudbase" : null,
		"flyability" : 100,
		"reason" : "",
		"timestamp" :1554800400
		},
	"2019-04-09T15:00:00+03:00" : {
		"windSpeed" : 2.4,
		"windDir" : 260,
		"rain" : 1,
		"cloudbase" : null,
		"flyability" : 0,
		"reason" : "rain",
		"timestamp" :1554811200
		},
	"2019-04-09T18:00:00+03:00" : {
		"windSpeed" : 2.4,
		"windDir" : 239,
		"rain" : 0,
		"cloudbase" : null,
		"flyability" : 100,
		"reason" : "",
		"timestamp" :1554822000
		},
	"2019-04-09T21:00:00+03:00" : {
		"windSpeed" : 1.5,
		"windDir" : 247,
		"rain" : 0,
		"cloudbase" : null,
		"flyability" : 100,
		"reason" : "",
		"timestamp" :1554832800
		},
	"2019-04-10T00:00:00+03:00" : {
		"windSpeed" : 0.9,
		"windDir" : 304,
		"rain" : 0,
		"cloudbase" : null,
		"flyability" : 100,
		"reason" : "",
		"timestamp" :1554843600
		},
	"2019-04-10T03:00:00+03:00" : {
		"windSpeed" : 0.3,
		"windDir" : 8,
		"rain" : 0,
		"cloudbase" : 30,
		"flyability" : 0,
		"reason" : "windDir, cloudbase",
		"timestamp" :1554854400
		}
	}
}