{
"site" : "Pico San Martin",
"id" : 10238,
"orientations" : "21000001",
"forecasts" : { 
	"2019-04-22T05:00:00+02:00" : {
		"windSpeed" : 1.7,
		"windDir" : 175,
		"rain" : 0,
		"cloudbase" : null,
		"flyability" : 0,
		"reason" : "windDir",
		"timestamp" :1555905600
		},
	"2019-04-22T08:00:00+02:00" : {
		"windSpeed" : 1.8,
		"windDir" : 187,
		"rain" : 0,
		"cloudbase" : null,
		"flyability" : 0,
		"reason" : "windDir",
		"timestamp" :1555916400
		},
	"2019-04-22T11:00:00+02:00" : {
		"windSpeed" : 1.1,
		"windDir" : 127,
		"rain" : 0,
		"cloudbase" : null,
		"flyability" : 0,
		"reason" : "windDir",
		"timestamp" :1555927200
		},
	"2019-04-22T14:00:00+02:00" : {
		"windSpeed" : 2.7,
		"windDir" : 33,
		"rain" : 0,
		"cloudbase" : null,
		"flyability" : 100,
		"reason" : "",
		"timestamp" :1555938000
		},
	"2019-04-22T17:00:00+02:00" : {
		"windSpeed" : 3.4,
		"windDir" : 57,
		"rain" : 1,
		"cloudbase" : 9241.3983999999,
		"flyability" : 0,
		"reason" : "rain",
		"timestamp" :1555948800
		},
	"2019-04-22T20:00:00+02:00" : {
		"windSpeed" : 2,
		"windDir" : 79,
		"rain" : 1,
		"cloudbase" : 7913.8992,
		"flyability" : 0,
		"reason" : "windDir, rain",
		"timestamp" :1555959600
		},
	"2019-04-22T23:00:00+02:00" : {
		"windSpeed" : 2,
		"windDir" : 260,
		"rain" : 0,
		"cloudbase" : 4955.0992,
		"flyability" : 0,
		"reason" : "windDir",
		"timestamp" :1555970400
		},
	"2019-04-23T02:00:00+02:00" : {
		"windSpeed" : 1,
		"windDir" : 209,
		"rain" : 1,
		"cloudbase" : 3703.2015999998,
		"flyability" : 0,
		"reason" : "windDir, rain",
		"timestamp" :1555981200
		},
	"2019-04-23T05:00:00+02:00" : {
		"windSpeed" : 3.4,
		"windDir" : 321,
		"rain" : 1,
		"cloudbase" : 376.01200000006,
		"flyability" : 0,
		"reason" : "rain, cloudbase",
		"timestamp" :1555992000
		},
	"2019-04-23T08:00:00+02:00" : {
		"windSpeed" : 1.9,
		"windDir" : 2,
		"rain" : 1,
		"cloudbase" : 914.50960000005,
		"flyability" : 0,
		"reason" : "rain",
		"timestamp" :1556002800
		},
	"2019-04-23T11:00:00+02:00" : {
		"windSpeed" : 1.4,
		"windDir" : 359,
		"rain" : 1,
		"cloudbase" : 1245.6992,
		"flyability" : 0,
		"reason" : "rain",
		"timestamp" :1556013600
		},
	"2019-04-23T14:00:00+02:00" : {
		"windSpeed" : 1.9,
		"windDir" : 337,
		"rain" : 1,
		"cloudbase" : 1464.9361599998,
		"flyability" : 0,
		"reason" : "rain",
		"timestamp" :1556024400
		},
	"2019-04-23T17:00:00+02:00" : {
		"windSpeed" : 1.5,
		"windDir" : 358,
		"rain" : 1,
		"cloudbase" : 700,
		"flyability" : 0,
		"reason" : "rain",
		"timestamp" :1556035200
		},
	"2019-04-23T20:00:00+02:00" : {
		"windSpeed" : 1.7,
		"windDir" : 292,
		"rain" : 1,
		"cloudbase" : 1813.5952,
		"flyability" : 0,
		"reason" : "windDir, rain",
		"timestamp" :1556046000
		},
	"2019-04-23T23:00:00+02:00" : {
		"windSpeed" : 2.2,
		"windDir" : 171,
		"rain" : 1,
		"cloudbase" : null,
		"flyability" : 0,
		"reason" : "windDir, rain",
		"timestamp" :1556056800
		},
	"2019-04-24T02:00:00+02:00" : {
		"windSpeed" : 1.9,
		"windDir" : 176,
		"rain" : 1,
		"cloudbase" : null,
		"flyability" : 0,
		"reason" : "windDir, rain",
		"timestamp" :1556067600
		},
	"2019-04-24T05:00:00+02:00" : {
		"windSpeed" : 3.2,
		"windDir" : 168,
		"rain" : 0,
		"cloudbase" : null,
		"flyability" : 0,
		"reason" : "windDir",
		"timestamp" :1556078400
		},
	"2019-04-24T08:00:00+02:00" : {
		"windSpeed" : 4.5,
		"windDir" : 176,
		"rain" : 0,
		"cloudbase" : null,
		"flyability" : 0,
		"reason" : "windDir",
		"timestamp" :1556089200
		},
	"2019-04-24T11:00:00+02:00" : {
		"windSpeed" : 4.4,
		"windDir" : 165,
		"rain" : 0,
		"cloudbase" : 3575.0016,
		"flyability" : 0,
		"reason" : "windDir",
		"timestamp" :1556100000
		},
	"2019-04-24T14:00:00+02:00" : {
		"windSpeed" : 5.3,
		"windDir" : 172,
		"rain" : 1,
		"cloudbase" : null,
		"flyability" : 0,
		"reason" : "windSpeed, windDir, rain",
		"timestamp" :1556110800
		},
	"2019-04-24T17:00:00+02:00" : {
		"windSpeed" : 5.1,
		"windDir" : 196,
		"rain" : 0,
		"cloudbase" : null,
		"flyability" : 0,
		"reason" : "windSpeed, windDir",
		"timestamp" :1556121600
		},
	"2019-04-24T20:00:00+02:00" : {
		"windSpeed" : 3.1,
		"windDir" : 312,
		"rain" : 1,
		"cloudbase" : 1691.6016,
		"flyability" : 0,
		"reason" : "rain",
		"timestamp" :1556132400
		},
	"2019-04-24T23:00:00+02:00" : {
		"windSpeed" : 1.6,
		"windDir" : 232,
		"rain" : 1,
		"cloudbase" : 3600,
		"flyability" : 0,
		"reason" : "windDir, rain",
		"timestamp" :1556143200
		},
	"2019-04-25T02:00:00+02:00" : {
		"windSpeed" : 1.7,
		"windDir" : 205,
		"rain" : 0,
		"cloudbase" : 5700,
		"flyability" : 0,
		"reason" : "windDir",
		"timestamp" :1556154000
		},
	"2019-04-25T05:00:00+02:00" : {
		"windSpeed" : 2.6,
		"windDir" : 186,
		"rain" : 1,
		"cloudbase" : null,
		"flyability" : 0,
		"reason" : "windDir, rain",
		"timestamp" :1556164800
		},
	"2019-04-25T08:00:00+02:00" : {
		"windSpeed" : 3.8,
		"windDir" : 181,
		"rain" : 0,
		"cloudbase" : 5959.8016000001,
		"flyability" : 0,
		"reason" : "windDir",
		"timestamp" :1556175600
		},
	"2019-04-25T11:00:00+02:00" : {
		"windSpeed" : 4.9,
		"windDir" : 221,
		"rain" : 0,
		"cloudbase" : null,
		"flyability" : 0,
		"reason" : "windDir",
		"timestamp" :1556186400
		},
	"2019-04-25T14:00:00+02:00" : {
		"windSpeed" : 6.2,
		"windDir" : 244,
		"rain" : 1,
		"cloudbase" : null,
		"flyability" : 0,
		"reason" : "windSpeed, windDir, rain",
		"timestamp" :1556197200
		},
	"2019-04-25T17:00:00+02:00" : {
		"windSpeed" : 6.9,
		"windDir" : 253,
		"rain" : 1,
		"cloudbase" : 5642.2992,
		"flyability" : 0,
		"reason" : "windSpeed, windDir, rain",
		"timestamp" :1556208000
		},
	"2019-04-25T20:00:00+02:00" : {
		"windSpeed" : 5.8,
		"windDir" : 248,
		"rain" : 0,
		"cloudbase" : 6277.4992000001,
		"flyability" : 0,
		"reason" : "windSpeed, windDir",
		"timestamp" :1556218800
		},
	"2019-04-25T23:00:00+02:00" : {
		"windSpeed" : 4.8,
		"windDir" : 228,
		"rain" : 0,
		"cloudbase" : 6996.1008,
		"flyability" : 0,
		"reason" : "windDir",
		"timestamp" :1556229600
		},
	"2019-04-26T02:00:00+02:00" : {
		"windSpeed" : 3.4,
		"windDir" : 250,
		"rain" : 1,
		"cloudbase" : 3191.2472,
		"flyability" : 0,
		"reason" : "windDir, rain",
		"timestamp" :1556240400
		},
	"2019-04-26T05:00:00+02:00" : {
		"windSpeed" : 4.1,
		"windDir" : 232,
		"rain" : 0,
		"cloudbase" : null,
		"flyability" : 0,
		"reason" : "windDir",
		"timestamp" :1556251200
		},
	"2019-04-26T08:00:00+02:00" : {
		"windSpeed" : 4.6,
		"windDir" : 231,
		"rain" : 0,
		"cloudbase" : null,
		"flyability" : 0,
		"reason" : "windDir",
		"timestamp" :1556262000
		},
	"2019-04-26T11:00:00+02:00" : {
		"windSpeed" : 7.4,
		"windDir" : 262,
		"rain" : 0,
		"cloudbase" : 1157.4,
		"flyability" : 0,
		"reason" : "windSpeed, windDir",
		"timestamp" :1556272800
		},
	"2019-04-26T14:00:00+02:00" : {
		"windSpeed" : 4.5,
		"windDir" : 277,
		"rain" : 0,
		"cloudbase" : 1075.56064,
		"flyability" : 0,
		"reason" : "windDir",
		"timestamp" :1556283600
		},
	"2019-04-26T17:00:00+02:00" : {
		"windSpeed" : 4.5,
		"windDir" : 297,
		"rain" : 1,
		"cloudbase" : 1200,
		"flyability" : 0,
		"reason" : "rain",
		"timestamp" :1556294400
		},
	"2019-04-26T20:00:00+02:00" : {
		"windSpeed" : 3.1,
		"windDir" : 306,
		"rain" : 0,
		"cloudbase" : 1256.8504,
		"flyability" : 100,
		"reason" : "",
		"timestamp" :1556305200
		},
	"2019-04-26T23:00:00+02:00" : {
		"windSpeed" : 2.1,
		"windDir" : 174,
		"rain" : 0,
		"cloudbase" : null,
		"flyability" : 0,
		"reason" : "windDir",
		"timestamp" :1556316000
		},
	"2019-04-27T02:00:00+02:00" : {
		"windSpeed" : 2.3,
		"windDir" : 234,
		"rain" : 0,
		"cloudbase" : null,
		"flyability" : 0,
		"reason" : "windDir",
		"timestamp" :1556326800
		},
	"2019-04-27T05:00:00+02:00" : {
		"windSpeed" : 2.4,
		"windDir" : 220,
		"rain" : 0,
		"cloudbase" : 1079.9496,
		"flyability" : 0,
		"reason" : "windDir",
		"timestamp" :1556337600
		},
	"2019-04-27T08:00:00+02:00" : {
		"windSpeed" : 2.9,
		"windDir" : 243,
		"rain" : 0,
		"cloudbase" : 1069.9304,
		"flyability" : 0,
		"reason" : "windDir",
		"timestamp" :1556348400
		},
	"2019-04-27T11:00:00+02:00" : {
		"windSpeed" : 4.7,
		"windDir" : 278,
		"rain" : 0,
		"cloudbase" : 1214.2,
		"flyability" : 0,
		"reason" : "windDir",
		"timestamp" :1556359200
		},
	"2019-04-27T14:00:00+02:00" : {
		"windSpeed" : 3.9,
		"windDir" : 321,
		"rain" : 1,
		"cloudbase" : 766.70111999996,
		"flyability" : 0,
		"reason" : "rain",
		"timestamp" :1556370000
		},
	"2019-04-27T17:00:00+02:00" : {
		"windSpeed" : 3.1,
		"windDir" : 353,
		"rain" : 0,
		"cloudbase" : 670.05984000002,
		"flyability" : 100,
		"reason" : "",
		"timestamp" :1556380800
		},
	"2019-04-27T20:00:00+02:00" : {
		"windSpeed" : 1.9,
		"windDir" : 16,
		"rain" : 1,
		"cloudbase" : 698.51968000002,
		"flyability" : 0,
		"reason" : "rain",
		"timestamp" :1556391600
		},
	"2019-04-27T23:00:00+02:00" : {
		"windSpeed" : 1.6,
		"windDir" : 72,
		"rain" : 0,
		"cloudbase" : 781.25984000002,
		"flyability" : 0,
		"reason" : "windDir",
		"timestamp" :1556402400
		},
	"2019-04-28T02:00:00+02:00" : {
		"windSpeed" : 2,
		"windDir" : 80,
		"rain" : 0,
		"cloudbase" : 709.49984000002,
		"flyability" : 0,
		"reason" : "windDir",
		"timestamp" :1556413200
		}
	}
}