{
"site" : "Pajares",
"id" : 10243,
"orientations" : "21000001",
"forecasts" : { 
	"2019-04-05T05:00:00+02:00" : {
		"windSpeed" : 3,
		"windDir" : 173,
		"rain" : 0,
		"cloudbase" : 69.576480000004,
		"flyability" : 0,
		"reason" : "windDir, cloudbase",
		"timestamp" :1554436800
		},
	"2019-04-05T08:00:00+02:00" : {
		"windSpeed" : 1.8,
		"windDir" : 180,
		"rain" : 0,
		"cloudbase" : 30,
		"flyability" : 0,
		"reason" : "windDir, cloudbase",
		"timestamp" :1554447600
		},
	"2019-04-05T11:00:00+02:00" : {
		"windSpeed" : 3.4,
		"windDir" : 209,
		"rain" : 0,
		"cloudbase" : 4650,
		"flyability" : 0,
		"reason" : "windDir",
		"timestamp" :1554458400
		},
	"2019-04-05T14:00:00+02:00" : {
		"windSpeed" : 3.5,
		"windDir" : 221,
		"rain" : 0,
		"cloudbase" : null,
		"flyability" : 0,
		"reason" : "windDir",
		"timestamp" :1554469200
		},
	"2019-04-05T17:00:00+02:00" : {
		"windSpeed" : 3.5,
		"windDir" : 253,
		"rain" : 0,
		"cloudbase" : null,
		"flyability" : 0,
		"reason" : "windDir",
		"timestamp" :1554480000
		},
	"2019-04-05T20:00:00+02:00" : {
		"windSpeed" : 1.9,
		"windDir" : 276,
		"rain" : 0,
		"cloudbase" : null,
		"flyability" : 0,
		"reason" : "windDir",
		"timestamp" :1554490800
		},
	"2019-04-05T23:00:00+02:00" : {
		"windSpeed" : 1.6,
		"windDir" : 233,
		"rain" : 1,
		"cloudbase" : null,
		"flyability" : 0,
		"reason" : "windDir, rain",
		"timestamp" :1554501600
		},
	"2019-04-06T02:00:00+02:00" : {
		"windSpeed" : 2.4,
		"windDir" : 205,
		"rain" : 0,
		"cloudbase" : 68.15352,
		"flyability" : 0,
		"reason" : "windDir, cloudbase",
		"timestamp" :1554512400
		},
	"2019-04-06T05:00:00+02:00" : {
		"windSpeed" : 2.8,
		"windDir" : 173,
		"rain" : 0,
		"cloudbase" : 30,
		"flyability" : 0,
		"reason" : "windDir, cloudbase",
		"timestamp" :1554523200
		},
	"2019-04-06T08:00:00+02:00" : {
		"windSpeed" : 3.2,
		"windDir" : 165,
		"rain" : 0,
		"cloudbase" : 30,
		"flyability" : 0,
		"reason" : "windDir, cloudbase",
		"timestamp" :1554534000
		},
	"2019-04-06T11:00:00+02:00" : {
		"windSpeed" : 4.8,
		"windDir" : 178,
		"rain" : 0,
		"cloudbase" : 357.8352,
		"flyability" : 0,
		"reason" : "windDir, cloudbase",
		"timestamp" :1554544800
		},
	"2019-04-06T14:00:00+02:00" : {
		"windSpeed" : 2.4,
		"windDir" : 169,
		"rain" : 0,
		"cloudbase" : 441.05632000002,
		"flyability" : 0,
		"reason" : "windDir, cloudbase",
		"timestamp" :1554555600
		},
	"2019-04-06T17:00:00+02:00" : {
		"windSpeed" : 3.6,
		"windDir" : 327,
		"rain" : 0,
		"cloudbase" : 2510.3591999998,
		"flyability" : 100,
		"reason" : "",
		"timestamp" :1554566400
		},
	"2019-04-06T20:00:00+02:00" : {
		"windSpeed" : 2.4,
		"windDir" : 321,
		"rain" : 0,
		"cloudbase" : 2923.9452799997,
		"flyability" : 100,
		"reason" : "",
		"timestamp" :1554577200
		},
	"2019-04-06T23:00:00+02:00" : {
		"windSpeed" : 1.7,
		"windDir" : 299,
		"rain" : 0,
		"cloudbase" : null,
		"flyability" : 100,
		"reason" : "",
		"timestamp" :1554588000
		},
	"2019-04-07T02:00:00+02:00" : {
		"windSpeed" : 0.9,
		"windDir" : 203,
		"rain" : 0,
		"cloudbase" : 190,
		"flyability" : 0,
		"reason" : "windDir, cloudbase",
		"timestamp" :1554598800
		},
	"2019-04-07T05:00:00+02:00" : {
		"windSpeed" : 1.6,
		"windDir" : 180,
		"rain" : 0,
		"cloudbase" : 55.603519999999,
		"flyability" : 0,
		"reason" : "windDir, cloudbase",
		"timestamp" :1554609600
		},
	"2019-04-07T08:00:00+02:00" : {
		"windSpeed" : 0.9,
		"windDir" : 157,
		"rain" : 0,
		"cloudbase" : 126.41647999999,
		"flyability" : 0,
		"reason" : "windDir, cloudbase",
		"timestamp" :1554620400
		},
	"2019-04-07T11:00:00+02:00" : {
		"windSpeed" : 2.2,
		"windDir" : 212,
		"rain" : 0,
		"cloudbase" : 640,
		"flyability" : 0,
		"reason" : "windDir, cloudbase",
		"timestamp" :1554631200
		},
	"2019-04-07T14:00:00+02:00" : {
		"windSpeed" : 3.9,
		"windDir" : 206,
		"rain" : 0,
		"cloudbase" : 814.59632000004,
		"flyability" : 0,
		"reason" : "windDir, cloudbase",
		"timestamp" :1554642000
		},
	"2019-04-07T17:00:00+02:00" : {
		"windSpeed" : 4,
		"windDir" : 187,
		"rain" : 0,
		"cloudbase" : 593.01712000001,
		"flyability" : 0,
		"reason" : "windDir, cloudbase",
		"timestamp" :1554652800
		},
	"2019-04-07T20:00:00+02:00" : {
		"windSpeed" : 4.3,
		"windDir" : 175,
		"rain" : 0,
		"cloudbase" : 385.60448000003,
		"flyability" : 0,
		"reason" : "windDir, cloudbase",
		"timestamp" :1554663600
		},
	"2019-04-07T23:00:00+02:00" : {
		"windSpeed" : 4.3,
		"windDir" : 164,
		"rain" : 0,
		"cloudbase" : 56.476160000012,
		"flyability" : 0,
		"reason" : "windDir, cloudbase",
		"timestamp" :1554674400
		},
	"2019-04-08T02:00:00+02:00" : {
		"windSpeed" : 2.6,
		"windDir" : 153,
		"rain" : 1,
		"cloudbase" : 49.680000000002,
		"flyability" : 0,
		"reason" : "windDir, rain, cloudbase",
		"timestamp" :1554685200
		},
	"2019-04-08T05:00:00+02:00" : {
		"windSpeed" : 3.3,
		"windDir" : 204,
		"rain" : 0,
		"cloudbase" : 106.93576,
		"flyability" : 0,
		"reason" : "windDir, cloudbase",
		"timestamp" :1554696000
		},
	"2019-04-08T08:00:00+02:00" : {
		"windSpeed" : 3.2,
		"windDir" : 204,
		"rain" : 0,
		"cloudbase" : 216.91888000001,
		"flyability" : 0,
		"reason" : "windDir, cloudbase",
		"timestamp" :1554706800
		},
	"2019-04-08T11:00:00+02:00" : {
		"windSpeed" : 4.9,
		"windDir" : 224,
		"rain" : 0,
		"cloudbase" : null,
		"flyability" : 0,
		"reason" : "windDir",
		"timestamp" :1554717600
		},
	"2019-04-08T14:00:00+02:00" : {
		"windSpeed" : 5.4,
		"windDir" : 216,
		"rain" : 0,
		"cloudbase" : 893.84224000001,
		"flyability" : 0,
		"reason" : "windSpeed, windDir, cloudbase",
		"timestamp" :1554728400
		},
	"2019-04-08T17:00:00+02:00" : {
		"windSpeed" : 4.8,
		"windDir" : 218,
		"rain" : 1,
		"cloudbase" : null,
		"flyability" : 0,
		"reason" : "windDir, rain",
		"timestamp" :1554739200
		},
	"2019-04-08T20:00:00+02:00" : {
		"windSpeed" : 3.8,
		"windDir" : 198,
		"rain" : 1,
		"cloudbase" : 5200,
		"flyability" : 0,
		"reason" : "windDir, rain",
		"timestamp" :1554750000
		},
	"2019-04-08T23:00:00+02:00" : {
		"windSpeed" : 4.5,
		"windDir" : 174,
		"rain" : 0,
		"cloudbase" : 117.04816,
		"flyability" : 0,
		"reason" : "windDir, cloudbase",
		"timestamp" :1554760800
		},
	"2019-04-09T02:00:00+02:00" : {
		"windSpeed" : 5.3,
		"windDir" : 167,
		"rain" : 0,
		"cloudbase" : 33.06352,
		"flyability" : 0,
		"reason" : "windSpeed, windDir, cloudbase",
		"timestamp" :1554771600
		},
	"2019-04-09T05:00:00+02:00" : {
		"windSpeed" : 5.6,
		"windDir" : 170,
		"rain" : 0,
		"cloudbase" : 30,
		"flyability" : 0,
		"reason" : "windSpeed, windDir, cloudbase",
		"timestamp" :1554782400
		},
	"2019-04-09T08:00:00+02:00" : {
		"windSpeed" : 6.5,
		"windDir" : 176,
		"rain" : 0,
		"cloudbase" : 33.06352,
		"flyability" : 0,
		"reason" : "windSpeed, windDir, cloudbase",
		"timestamp" :1554793200
		},
	"2019-04-09T11:00:00+02:00" : {
		"windSpeed" : 5.9,
		"windDir" : 185,
		"rain" : 0,
		"cloudbase" : 235.49296,
		"flyability" : 0,
		"reason" : "windSpeed, windDir, cloudbase",
		"timestamp" :1554804000
		},
	"2019-04-09T14:00:00+02:00" : {
		"windSpeed" : 2.7,
		"windDir" : 248,
		"rain" : 1,
		"cloudbase" : 5234.8112,
		"flyability" : 0,
		"reason" : "windDir, rain",
		"timestamp" :1554814800
		},
	"2019-04-09T17:00:00+02:00" : {
		"windSpeed" : 4.7,
		"windDir" : 260,
		"rain" : 1,
		"cloudbase" : null,
		"flyability" : 0,
		"reason" : "windDir, rain",
		"timestamp" :1554825600
		},
	"2019-04-09T20:00:00+02:00" : {
		"windSpeed" : 2.1,
		"windDir" : 225,
		"rain" : 1,
		"cloudbase" : 4856.1352,
		"flyability" : 0,
		"reason" : "windDir, rain",
		"timestamp" :1554836400
		},
	"2019-04-09T23:00:00+02:00" : {
		"windSpeed" : 1.7,
		"windDir" : 203,
		"rain" : 0,
		"cloudbase" : 2368.6344000002,
		"flyability" : 0,
		"reason" : "windDir",
		"timestamp" :1554847200
		},
	"2019-04-10T02:00:00+02:00" : {
		"windSpeed" : 2.3,
		"windDir" : 287,
		"rain" : 0,
		"cloudbase" : 223.06496000001,
		"flyability" : 0,
		"reason" : "windDir, cloudbase",
		"timestamp" :1554858000
		},
	"2019-04-10T05:00:00+02:00" : {
		"windSpeed" : 2.2,
		"windDir" : 293,
		"rain" : 0,
		"cloudbase" : 248.64928,
		"flyability" : 0,
		"reason" : "cloudbase",
		"timestamp" :1554868800
		},
	"2019-04-10T08:00:00+02:00" : {
		"windSpeed" : 2.7,
		"windDir" : 305,
		"rain" : 0,
		"cloudbase" : 95.808159999995,
		"flyability" : 0,
		"reason" : "cloudbase",
		"timestamp" :1554879600
		},
	"2019-04-10T11:00:00+02:00" : {
		"windSpeed" : 5,
		"windDir" : 310,
		"rain" : 0,
		"cloudbase" : null,
		"flyability" : 100,
		"reason" : "",
		"timestamp" :1554890400
		},
	"2019-04-10T14:00:00+02:00" : {
		"windSpeed" : 6,
		"windDir" : 322,
		"rain" : 0,
		"cloudbase" : 4299.7072,
		"flyability" : 0,
		"reason" : "windSpeed",
		"timestamp" :1554901200
		},
	"2019-04-10T17:00:00+02:00" : {
		"windSpeed" : 4,
		"windDir" : 324,
		"rain" : 1,
		"cloudbase" : 590.31519999995,
		"flyability" : 0,
		"reason" : "rain, cloudbase",
		"timestamp" :1554912000
		},
	"2019-04-10T20:00:00+02:00" : {
		"windSpeed" : 2.9,
		"windDir" : 315,
		"rain" : 1,
		"cloudbase" : 886.25551999986,
		"flyability" : 0,
		"reason" : "rain, cloudbase",
		"timestamp" :1554922800
		},
	"2019-04-10T23:00:00+02:00" : {
		"windSpeed" : 2,
		"windDir" : 329,
		"rain" : 0,
		"cloudbase" : 200.63152,
		"flyability" : 0,
		"reason" : "cloudbase",
		"timestamp" :1554933600
		},
	"2019-04-11T02:00:00+02:00" : {
		"windSpeed" : 1.2,
		"windDir" : 306,
		"rain" : 0,
		"cloudbase" : null,
		"flyability" : 100,
		"reason" : "",
		"timestamp" :1554944400
		}
	}
}