{
"site" : "Mt.Edna (Marysvale- Richfield)",
"id" : 10317,
"orientations" : "22222211",
"forecasts" : { 
	"2019-04-09T09:00:00-06:00" : {
		"windSpeed" : 2.8,
		"windDir" : 223,
		"rain" : 0,
		"cloudbase" : 6827.856,
		"flyability" : 100,
		"reason" : "",
		"timestamp" :1554822000
		},
	"2019-04-09T12:00:00-06:00" : {
		"windSpeed" : 3.5,
		"windDir" : 216,
		"rain" : 0,
		"cloudbase" : 7824.496,
		"flyability" : 100,
		"reason" : "",
		"timestamp" :1554832800
		},
	"2019-04-09T15:00:00-06:00" : {
		"windSpeed" : 4.5,
		"windDir" : 223,
		"rain" : 1,
		"cloudbase" : null,
		"flyability" : 0,
		"reason" : "rain",
		"timestamp" :1554843600
		},
	"2019-04-09T18:00:00-06:00" : {
		"windSpeed" : 3.6,
		"windDir" : 357,
		"rain" : 0,
		"cloudbase" : 1014.8728,
		"flyability" : 0,
		"reason" : "cloudbase",
		"timestamp" :1554854400
		},
	"2019-04-09T21:00:00-06:00" : {
		"windSpeed" : 3.7,
		"windDir" : 347,
		"rain" : 0,
		"cloudbase" : 180,
		"flyability" : 0,
		"reason" : "cloudbase",
		"timestamp" :1554865200
		},
	"2019-04-10T00:00:00-06:00" : {
		"windSpeed" : 4.7,
		"windDir" : 353,
		"rain" : 0,
		"cloudbase" : 292.47399999999,
		"flyability" : 0,
		"reason" : "cloudbase",
		"timestamp" :1554876000
		},
	"2019-04-10T03:00:00-06:00" : {
		"windSpeed" : 4.7,
		"windDir" : 352,
		"rain" : 0,
		"cloudbase" : 109.7136,
		"flyability" : 0,
		"reason" : "cloudbase",
		"timestamp" :1554886800
		},
	"2019-04-10T06:00:00-06:00" : {
		"windSpeed" : 5.4,
		"windDir" : 339,
		"rain" : 0,
		"cloudbase" : 77.899999999998,
		"flyability" : 0,
		"reason" : "windSpeed, cloudbase",
		"timestamp" :1554897600
		},
	"2019-04-10T09:00:00-06:00" : {
		"windSpeed" : 5.4,
		"windDir" : 335,
		"rain" : 0,
		"cloudbase" : 120.5832,
		"flyability" : 0,
		"reason" : "windSpeed, cloudbase",
		"timestamp" :1554908400
		},
	"2019-04-10T12:00:00-06:00" : {
		"windSpeed" : 5.2,
		"windDir" : 335,
		"rain" : 0,
		"cloudbase" : 215.0336,
		"flyability" : 0,
		"reason" : "windSpeed, cloudbase",
		"timestamp" :1554919200
		},
	"2019-04-10T15:00:00-06:00" : {
		"windSpeed" : 4.6,
		"windDir" : 336,
		"rain" : 0,
		"cloudbase" : 625.56079999999,
		"flyability" : 0,
		"reason" : "cloudbase",
		"timestamp" :1554930000
		},
	"2019-04-10T18:00:00-06:00" : {
		"windSpeed" : 4.4,
		"windDir" : 336,
		"rain" : 0,
		"cloudbase" : 609.85679999999,
		"flyability" : 0,
		"reason" : "cloudbase",
		"timestamp" :1554940800
		},
	"2019-04-10T21:00:00-06:00" : {
		"windSpeed" : 3.9,
		"windDir" : 338,
		"rain" : 0,
		"cloudbase" : 237.7016,
		"flyability" : 0,
		"reason" : "cloudbase",
		"timestamp" :1554951600
		},
	"2019-04-11T00:00:00-06:00" : {
		"windSpeed" : 3.5,
		"windDir" : 342,
		"rain" : 0,
		"cloudbase" : 224.3864,
		"flyability" : 0,
		"reason" : "cloudbase",
		"timestamp" :1554962400
		},
	"2019-04-11T03:00:00-06:00" : {
		"windSpeed" : 3.2,
		"windDir" : 340,
		"rain" : 0,
		"cloudbase" : 365.53759999999,
		"flyability" : 0,
		"reason" : "cloudbase",
		"timestamp" :1554973200
		},
	"2019-04-11T06:00:00-06:00" : {
		"windSpeed" : 3.3,
		"windDir" : 337,
		"rain" : 0,
		"cloudbase" : 142.8152,
		"flyability" : 0,
		"reason" : "cloudbase",
		"timestamp" :1554984000
		},
	"2019-04-11T09:00:00-06:00" : {
		"windSpeed" : 2.9,
		"windDir" : 350,
		"rain" : 0,
		"cloudbase" : 148.29,
		"flyability" : 0,
		"reason" : "cloudbase",
		"timestamp" :1554994800
		},
	"2019-04-11T12:00:00-06:00" : {
		"windSpeed" : 3.4,
		"windDir" : 345,
		"rain" : 0,
		"cloudbase" : 340.44479999999,
		"flyability" : 0,
		"reason" : "cloudbase",
		"timestamp" :1555005600
		},
	"2019-04-11T15:00:00-06:00" : {
		"windSpeed" : 2.6,
		"windDir" : 329,
		"rain" : 0,
		"cloudbase" : 5500,
		"flyability" : 100,
		"reason" : "",
		"timestamp" :1555016400
		},
	"2019-04-11T18:00:00-06:00" : {
		"windSpeed" : 1.6,
		"windDir" : 322,
		"rain" : 0,
		"cloudbase" : 4362.9919999999,
		"flyability" : 100,
		"reason" : "",
		"timestamp" :1555027200
		},
	"2019-04-11T21:00:00-06:00" : {
		"windSpeed" : 0.8,
		"windDir" : 265,
		"rain" : 0,
		"cloudbase" : 4073.464,
		"flyability" : 100,
		"reason" : "",
		"timestamp" :1555038000
		},
	"2019-04-12T00:00:00-06:00" : {
		"windSpeed" : 0.1,
		"windDir" : 326,
		"rain" : 0,
		"cloudbase" : 1800,
		"flyability" : 0,
		"reason" : "cloudbase",
		"timestamp" :1555048800
		},
	"2019-04-12T03:00:00-06:00" : {
		"windSpeed" : 0.9,
		"windDir" : 323,
		"rain" : 0,
		"cloudbase" : 4932.9719999999,
		"flyability" : 100,
		"reason" : "",
		"timestamp" :1555059600
		},
	"2019-04-12T06:00:00-06:00" : {
		"windSpeed" : 1.4,
		"windDir" : 341,
		"rain" : 0,
		"cloudbase" : 543.88640000001,
		"flyability" : 0,
		"reason" : "cloudbase",
		"timestamp" :1555070400
		},
	"2019-04-12T09:00:00-06:00" : {
		"windSpeed" : 2,
		"windDir" : 16,
		"rain" : 0,
		"cloudbase" : 94.151599999998,
		"flyability" : 0,
		"reason" : "cloudbase",
		"timestamp" :1555081200
		},
	"2019-04-12T12:00:00-06:00" : {
		"windSpeed" : 2.1,
		"windDir" : 30,
		"rain" : 0,
		"cloudbase" : null,
		"flyability" : 100,
		"reason" : "",
		"timestamp" :1555092000
		},
	"2019-04-12T15:00:00-06:00" : {
		"windSpeed" : 2.8,
		"windDir" : 12,
		"rain" : 0,
		"cloudbase" : null,
		"flyability" : 100,
		"reason" : "",
		"timestamp" :1555102800
		},
	"2019-04-12T18:00:00-06:00" : {
		"windSpeed" : 2.6,
		"windDir" : 2,
		"rain" : 0,
		"cloudbase" : null,
		"flyability" : 100,
		"reason" : "",
		"timestamp" :1555113600
		},
	"2019-04-12T21:00:00-06:00" : {
		"windSpeed" : 1.6,
		"windDir" : 349,
		"rain" : 0,
		"cloudbase" : null,
		"flyability" : 100,
		"reason" : "",
		"timestamp" :1555124400
		},
	"2019-04-13T00:00:00-06:00" : {
		"windSpeed" : 1.6,
		"windDir" : 341,
		"rain" : 0,
		"cloudbase" : null,
		"flyability" : 100,
		"reason" : "",
		"timestamp" :1555135200
		},
	"2019-04-13T03:00:00-06:00" : {
		"windSpeed" : 1.5,
		"windDir" : 321,
		"rain" : 0,
		"cloudbase" : null,
		"flyability" : 100,
		"reason" : "",
		"timestamp" :1555146000
		},
	"2019-04-13T06:00:00-06:00" : {
		"windSpeed" : 1.5,
		"windDir" : 320,
		"rain" : 0,
		"cloudbase" : null,
		"flyability" : 100,
		"reason" : "",
		"timestamp" :1555156800
		},
	"2019-04-13T09:00:00-06:00" : {
		"windSpeed" : 1.1,
		"windDir" : 356,
		"rain" : 0,
		"cloudbase" : null,
		"flyability" : 100,
		"reason" : "",
		"timestamp" :1555167600
		},
	"2019-04-13T12:00:00-06:00" : {
		"windSpeed" : 1.3,
		"windDir" : 17,
		"rain" : 0,
		"cloudbase" : null,
		"flyability" : 100,
		"reason" : "",
		"timestamp" :1555178400
		},
	"2019-04-13T15:00:00-06:00" : {
		"windSpeed" : 1.4,
		"windDir" : 30,
		"rain" : 0,
		"cloudbase" : null,
		"flyability" : 100,
		"reason" : "",
		"timestamp" :1555189200
		},
	"2019-04-13T18:00:00-06:00" : {
		"windSpeed" : 0.8,
		"windDir" : 10,
		"rain" : 0,
		"cloudbase" : null,
		"flyability" : 100,
		"reason" : "",
		"timestamp" :1555200000
		},
	"2019-04-13T21:00:00-06:00" : {
		"windSpeed" : 0.8,
		"windDir" : 240,
		"rain" : 0,
		"cloudbase" : 6200,
		"flyability" : 100,
		"reason" : "",
		"timestamp" :1555210800
		},
	"2019-04-14T00:00:00-06:00" : {
		"windSpeed" : 1.6,
		"windDir" : 253,
		"rain" : 0,
		"cloudbase" : null,
		"flyability" : 100,
		"reason" : "",
		"timestamp" :1555221600
		},
	"2019-04-14T03:00:00-06:00" : {
		"windSpeed" : 2,
		"windDir" : 255,
		"rain" : 0,
		"cloudbase" : 6000,
		"flyability" : 100,
		"reason" : "",
		"timestamp" :1555232400
		},
	"2019-04-14T06:00:00-06:00" : {
		"windSpeed" : 2.3,
		"windDir" : 243,
		"rain" : 0,
		"cloudbase" : 8300,
		"flyability" : 100,
		"reason" : "",
		"timestamp" :1555243200
		},
	"2019-04-14T09:00:00-06:00" : {
		"windSpeed" : 1.8,
		"windDir" : 231,
		"rain" : 0,
		"cloudbase" : null,
		"flyability" : 100,
		"reason" : "",
		"timestamp" :1555254000
		},
	"2019-04-14T12:00:00-06:00" : {
		"windSpeed" : 2.5,
		"windDir" : 226,
		"rain" : 0,
		"cloudbase" : 6100,
		"flyability" : 100,
		"reason" : "",
		"timestamp" :1555264800
		},
	"2019-04-14T15:00:00-06:00" : {
		"windSpeed" : 3,
		"windDir" : 234,
		"rain" : 0,
		"cloudbase" : 5100,
		"flyability" : 100,
		"reason" : "",
		"timestamp" :1555275600
		},
	"2019-04-14T18:00:00-06:00" : {
		"windSpeed" : 2.6,
		"windDir" : 229,
		"rain" : 0,
		"cloudbase" : null,
		"flyability" : 100,
		"reason" : "",
		"timestamp" :1555286400
		},
	"2019-04-14T21:00:00-06:00" : {
		"windSpeed" : 2.1,
		"windDir" : 244,
		"rain" : 0,
		"cloudbase" : null,
		"flyability" : 100,
		"reason" : "",
		"timestamp" :1555297200
		},
	"2019-04-15T00:00:00-06:00" : {
		"windSpeed" : 2.6,
		"windDir" : 234,
		"rain" : 0,
		"cloudbase" : null,
		"flyability" : 100,
		"reason" : "",
		"timestamp" :1555308000
		},
	"2019-04-15T03:00:00-06:00" : {
		"windSpeed" : 2.6,
		"windDir" : 233,
		"rain" : 0,
		"cloudbase" : null,
		"flyability" : 100,
		"reason" : "",
		"timestamp" :1555318800
		},
	"2019-04-15T06:00:00-06:00" : {
		"windSpeed" : 2.7,
		"windDir" : 230,
		"rain" : 0,
		"cloudbase" : 7077.504,
		"flyability" : 100,
		"reason" : "",
		"timestamp" :1555329600
		}
	}
}