{
"site" : "Knock Hill",
"id" : 10390,
"orientations" : "00111222",
"forecasts" : { 
	"2019-04-22T04:00:00+01:00" : {
		"windSpeed" : 5.7,
		"windDir" : 170,
		"rain" : 0,
		"cloudbase" : null,
		"flyability" : 0,
		"reason" : "windSpeed",
		"timestamp" :1555898400
		},
	"2019-04-22T07:00:00+01:00" : {
		"windSpeed" : 5,
		"windDir" : 168,
		"rain" : 0,
		"cloudbase" : null,
		"flyability" : 100,
		"reason" : "",
		"timestamp" :1555909200
		},
	"2019-04-22T10:00:00+01:00" : {
		"windSpeed" : 5,
		"windDir" : 155,
		"rain" : 0,
		"cloudbase" : null,
		"flyability" : 100,
		"reason" : "",
		"timestamp" :1555920000
		},
	"2019-04-22T13:00:00+01:00" : {
		"windSpeed" : 6.7,
		"windDir" : 156,
		"rain" : 0,
		"cloudbase" : null,
		"flyability" : 0,
		"reason" : "windSpeed",
		"timestamp" :1555930800
		},
	"2019-04-22T16:00:00+01:00" : {
		"windSpeed" : 6.9,
		"windDir" : 150,
		"rain" : 0,
		"cloudbase" : null,
		"flyability" : 0,
		"reason" : "windSpeed",
		"timestamp" :1555941600
		},
	"2019-04-22T19:00:00+01:00" : {
		"windSpeed" : 5.3,
		"windDir" : 139,
		"rain" : 0,
		"cloudbase" : null,
		"flyability" : 0,
		"reason" : "windSpeed",
		"timestamp" :1555952400
		},
	"2019-04-22T22:00:00+01:00" : {
		"windSpeed" : 5.2,
		"windDir" : 146,
		"rain" : 0,
		"cloudbase" : 6300,
		"flyability" : 0,
		"reason" : "windSpeed",
		"timestamp" :1555963200
		},
	"2019-04-23T01:00:00+01:00" : {
		"windSpeed" : 4.7,
		"windDir" : 148,
		"rain" : 0,
		"cloudbase" : 8990.88067,
		"flyability" : 100,
		"reason" : "",
		"timestamp" :1555974000
		},
	"2019-04-23T04:00:00+01:00" : {
		"windSpeed" : 5.6,
		"windDir" : 150,
		"rain" : 0,
		"cloudbase" : 5733.53861,
		"flyability" : 0,
		"reason" : "windSpeed",
		"timestamp" :1555984800
		},
	"2019-04-23T07:00:00+01:00" : {
		"windSpeed" : 6.2,
		"windDir" : 148,
		"rain" : 0,
		"cloudbase" : 5402.56134,
		"flyability" : 0,
		"reason" : "windSpeed",
		"timestamp" :1555995600
		},
	"2019-04-23T10:00:00+01:00" : {
		"windSpeed" : 7.5,
		"windDir" : 143,
		"rain" : 0,
		"cloudbase" : 9234.45732,
		"flyability" : 0,
		"reason" : "windSpeed",
		"timestamp" :1556006400
		},
	"2019-04-23T13:00:00+01:00" : {
		"windSpeed" : 8.9,
		"windDir" : 146,
		"rain" : 0,
		"cloudbase" : 9711.35067,
		"flyability" : 0,
		"reason" : "windSpeed",
		"timestamp" :1556017200
		},
	"2019-04-23T16:00:00+01:00" : {
		"windSpeed" : 7.5,
		"windDir" : 142,
		"rain" : 0,
		"cloudbase" : 7388.64933,
		"flyability" : 0,
		"reason" : "windSpeed",
		"timestamp" :1556028000
		},
	"2019-04-23T19:00:00+01:00" : {
		"windSpeed" : 6.3,
		"windDir" : 135,
		"rain" : 0,
		"cloudbase" : 8592.39866,
		"flyability" : 0,
		"reason" : "windSpeed",
		"timestamp" :1556038800
		},
	"2019-04-23T22:00:00+01:00" : {
		"windSpeed" : 5.4,
		"windDir" : 132,
		"rain" : 0,
		"cloudbase" : 8400,
		"flyability" : 0,
		"reason" : "windSpeed",
		"timestamp" :1556049600
		},
	"2019-04-24T01:00:00+01:00" : {
		"windSpeed" : 5.4,
		"windDir" : 132,
		"rain" : 0,
		"cloudbase" : null,
		"flyability" : 0,
		"reason" : "windSpeed",
		"timestamp" :1556060400
		},
	"2019-04-24T04:00:00+01:00" : {
		"windSpeed" : 5,
		"windDir" : 128,
		"rain" : 0,
		"cloudbase" : null,
		"flyability" : 100,
		"reason" : "",
		"timestamp" :1556071200
		},
	"2019-04-24T07:00:00+01:00" : {
		"windSpeed" : 5.6,
		"windDir" : 127,
		"rain" : 0,
		"cloudbase" : null,
		"flyability" : 0,
		"reason" : "windSpeed",
		"timestamp" :1556082000
		},
	"2019-04-24T10:00:00+01:00" : {
		"windSpeed" : 6.8,
		"windDir" : 126,
		"rain" : 0,
		"cloudbase" : null,
		"flyability" : 0,
		"reason" : "windSpeed",
		"timestamp" :1556092800
		},
	"2019-04-24T13:00:00+01:00" : {
		"windSpeed" : 8.2,
		"windDir" : 127,
		"rain" : 0,
		"cloudbase" : 620,
		"flyability" : 0,
		"reason" : "windSpeed",
		"timestamp" :1556103600
		},
	"2019-04-24T16:00:00+01:00" : {
		"windSpeed" : 7.1,
		"windDir" : 123,
		"rain" : 0,
		"cloudbase" : 490,
		"flyability" : 0,
		"reason" : "windSpeed",
		"timestamp" :1556114400
		},
	"2019-04-24T19:00:00+01:00" : {
		"windSpeed" : 6,
		"windDir" : 114,
		"rain" : 0,
		"cloudbase" : null,
		"flyability" : 0,
		"reason" : "windSpeed",
		"timestamp" :1556125200
		},
	"2019-04-24T22:00:00+01:00" : {
		"windSpeed" : 4.5,
		"windDir" : 116,
		"rain" : 1,
		"cloudbase" : 350.777933,
		"flyability" : 0,
		"reason" : "rain, cloudbase",
		"timestamp" :1556136000
		},
	"2019-04-25T01:00:00+01:00" : {
		"windSpeed" : 4.3,
		"windDir" : 125,
		"rain" : 1,
		"cloudbase" : 101.096933,
		"flyability" : 0,
		"reason" : "rain, cloudbase",
		"timestamp" :1556146800
		},
	"2019-04-25T04:00:00+01:00" : {
		"windSpeed" : 4.1,
		"windDir" : 134,
		"rain" : 0,
		"cloudbase" : 40.626933,
		"flyability" : 0,
		"reason" : "cloudbase",
		"timestamp" :1556157600
		},
	"2019-04-25T07:00:00+01:00" : {
		"windSpeed" : 4.5,
		"windDir" : 153,
		"rain" : 0,
		"cloudbase" : 118.439201,
		"flyability" : 0,
		"reason" : "cloudbase",
		"timestamp" :1556168400
		},
	"2019-04-25T10:00:00+01:00" : {
		"windSpeed" : 5.2,
		"windDir" : 151,
		"rain" : 0,
		"cloudbase" : 620,
		"flyability" : 0,
		"reason" : "windSpeed",
		"timestamp" :1556179200
		},
	"2019-04-25T13:00:00+01:00" : {
		"windSpeed" : 6.4,
		"windDir" : 150,
		"rain" : 0,
		"cloudbase" : 6605.98067,
		"flyability" : 0,
		"reason" : "windSpeed",
		"timestamp" :1556190000
		},
	"2019-04-25T16:00:00+01:00" : {
		"windSpeed" : 6.4,
		"windDir" : 129,
		"rain" : 0,
		"cloudbase" : 7438.98933,
		"flyability" : 0,
		"reason" : "windSpeed",
		"timestamp" :1556200800
		},
	"2019-04-25T19:00:00+01:00" : {
		"windSpeed" : 5.8,
		"windDir" : 128,
		"rain" : 0,
		"cloudbase" : 6695.22789,
		"flyability" : 0,
		"reason" : "windSpeed",
		"timestamp" :1556211600
		},
	"2019-04-25T22:00:00+01:00" : {
		"windSpeed" : 5.1,
		"windDir" : 135,
		"rain" : 1,
		"cloudbase" : 375.05400999999,
		"flyability" : 0,
		"reason" : "windSpeed, rain, cloudbase",
		"timestamp" :1556222400
		},
	"2019-04-26T01:00:00+01:00" : {
		"windSpeed" : 3.9,
		"windDir" : 139,
		"rain" : 1,
		"cloudbase" : 150.554799,
		"flyability" : 0,
		"reason" : "rain, cloudbase",
		"timestamp" :1556233200
		},
	"2019-04-26T04:00:00+01:00" : {
		"windSpeed" : 3.6,
		"windDir" : 145,
		"rain" : 1,
		"cloudbase" : 1439.589464,
		"flyability" : 0,
		"reason" : "rain",
		"timestamp" :1556244000
		},
	"2019-04-26T07:00:00+01:00" : {
		"windSpeed" : 3.3,
		"windDir" : 153,
		"rain" : 1,
		"cloudbase" : 625.05164000001,
		"flyability" : 0,
		"reason" : "rain",
		"timestamp" :1556254800
		},
	"2019-04-26T10:00:00+01:00" : {
		"windSpeed" : 4.4,
		"windDir" : 153,
		"rain" : 0,
		"cloudbase" : 647.027464,
		"flyability" : 100,
		"reason" : "",
		"timestamp" :1556265600
		},
	"2019-04-26T13:00:00+01:00" : {
		"windSpeed" : 5.1,
		"windDir" : 151,
		"rain" : 1,
		"cloudbase" : 6676.79067,
		"flyability" : 0,
		"reason" : "windSpeed, rain",
		"timestamp" :1556276400
		},
	"2019-04-26T16:00:00+01:00" : {
		"windSpeed" : 5.5,
		"windDir" : 147,
		"rain" : 0,
		"cloudbase" : null,
		"flyability" : 0,
		"reason" : "windSpeed",
		"timestamp" :1556287200
		},
	"2019-04-26T19:00:00+01:00" : {
		"windSpeed" : 4.6,
		"windDir" : 148,
		"rain" : 0,
		"cloudbase" : null,
		"flyability" : 100,
		"reason" : "",
		"timestamp" :1556298000
		},
	"2019-04-26T22:00:00+01:00" : {
		"windSpeed" : 4,
		"windDir" : 150,
		"rain" : 0,
		"cloudbase" : null,
		"flyability" : 100,
		"reason" : "",
		"timestamp" :1556308800
		},
	"2019-04-27T01:00:00+01:00" : {
		"windSpeed" : 3.7,
		"windDir" : 156,
		"rain" : 0,
		"cloudbase" : null,
		"flyability" : 100,
		"reason" : "",
		"timestamp" :1556319600
		},
	"2019-04-27T04:00:00+01:00" : {
		"windSpeed" : 3.2,
		"windDir" : 154,
		"rain" : 0,
		"cloudbase" : null,
		"flyability" : 100,
		"reason" : "",
		"timestamp" :1556330400
		},
	"2019-04-27T07:00:00+01:00" : {
		"windSpeed" : 2.4,
		"windDir" : 142,
		"rain" : 0,
		"cloudbase" : 50.1709665,
		"flyability" : 0,
		"reason" : "cloudbase",
		"timestamp" :1556341200
		},
	"2019-04-27T10:00:00+01:00" : {
		"windSpeed" : 1.5,
		"windDir" : 130,
		"rain" : 0,
		"cloudbase" : 480,
		"flyability" : 100,
		"reason" : "",
		"timestamp" :1556352000
		},
	"2019-04-27T13:00:00+01:00" : {
		"windSpeed" : 4,
		"windDir" : 354,
		"rain" : 1,
		"cloudbase" : 146.24946400001,
		"flyability" : 0,
		"reason" : "windDir, rain, cloudbase",
		"timestamp" :1556362800
		},
	"2019-04-27T16:00:00+01:00" : {
		"windSpeed" : 3.6,
		"windDir" : 343,
		"rain" : 1,
		"cloudbase" : 1825.0245210001,
		"flyability" : 0,
		"reason" : "windDir, rain",
		"timestamp" :1556373600
		},
	"2019-04-27T19:00:00+01:00" : {
		"windSpeed" : 6.7,
		"windDir" : 284,
		"rain" : 1,
		"cloudbase" : 445.241933,
		"flyability" : 0,
		"reason" : "windSpeed, rain",
		"timestamp" :1556384400
		},
	"2019-04-27T22:00:00+01:00" : {
		"windSpeed" : 5.9,
		"windDir" : 291,
		"rain" : 1,
		"cloudbase" : 1017.011665,
		"flyability" : 0,
		"reason" : "windSpeed, rain",
		"timestamp" :1556395200
		},
	"2019-04-28T01:00:00+01:00" : {
		"windSpeed" : 4.7,
		"windDir" : 286,
		"rain" : 0,
		"cloudbase" : 1431.909665,
		"flyability" : 100,
		"reason" : "",
		"timestamp" :1556406000
		}
	}
}