{
"site" : "Meall Reamhar - Corrymucklock",
"id" : 10399,
"orientations" : "02000000",
"forecasts" : { 
	"2019-04-20T04:00:00+01:00" : {
		"windSpeed" : 2,
		"windDir" : 257,
		"rain" : 0,
		"cloudbase" : 8193,
		"flyability" : 0,
		"reason" : "windDir",
		"timestamp" :1555725600
		},
	"2019-04-20T07:00:00+01:00" : {
		"windSpeed" : 2,
		"windDir" : 254,
		"rain" : 0,
		"cloudbase" : 8959.41,
		"flyability" : 0,
		"reason" : "windDir",
		"timestamp" :1555736400
		},
	"2019-04-20T10:00:00+01:00" : {
		"windSpeed" : 2.1,
		"windDir" : 238,
		"rain" : 0,
		"cloudbase" : 7929.18,
		"flyability" : 0,
		"reason" : "windDir",
		"timestamp" :1555747200
		},
	"2019-04-20T13:00:00+01:00" : {
		"windSpeed" : 3,
		"windDir" : 226,
		"rain" : 0,
		"cloudbase" : 7722.18,
		"flyability" : 0,
		"reason" : "windDir",
		"timestamp" :1555758000
		},
	"2019-04-20T16:00:00+01:00" : {
		"windSpeed" : 3.6,
		"windDir" : 227,
		"rain" : 0,
		"cloudbase" : 2679.2049999999,
		"flyability" : 0,
		"reason" : "windDir",
		"timestamp" :1555768800
		},
	"2019-04-20T19:00:00+01:00" : {
		"windSpeed" : 2.4,
		"windDir" : 208,
		"rain" : 0,
		"cloudbase" : 6059.41,
		"flyability" : 0,
		"reason" : "windDir",
		"timestamp" :1555779600
		},
	"2019-04-20T22:00:00+01:00" : {
		"windSpeed" : 1.7,
		"windDir" : 249,
		"rain" : 0,
		"cloudbase" : 5312.18,
		"flyability" : 0,
		"reason" : "windDir",
		"timestamp" :1555790400
		},
	"2019-04-21T01:00:00+01:00" : {
		"windSpeed" : 1.8,
		"windDir" : 235,
		"rain" : 0,
		"cloudbase" : 3242,
		"flyability" : 0,
		"reason" : "windDir",
		"timestamp" :1555801200
		},
	"2019-04-21T04:00:00+01:00" : {
		"windSpeed" : 2.1,
		"windDir" : 230,
		"rain" : 0,
		"cloudbase" : 2890.91,
		"flyability" : 0,
		"reason" : "windDir",
		"timestamp" :1555812000
		},
	"2019-04-21T07:00:00+01:00" : {
		"windSpeed" : 2.2,
		"windDir" : 228,
		"rain" : 0,
		"cloudbase" : 6777.0499999999,
		"flyability" : 0,
		"reason" : "windDir",
		"timestamp" :1555822800
		},
	"2019-04-21T10:00:00+01:00" : {
		"windSpeed" : 3.2,
		"windDir" : 218,
		"rain" : 0,
		"cloudbase" : 8859.41,
		"flyability" : 0,
		"reason" : "windDir",
		"timestamp" :1555833600
		},
	"2019-04-21T13:00:00+01:00" : {
		"windSpeed" : 5.8,
		"windDir" : 213,
		"rain" : 0,
		"cloudbase" : 897.88699999999,
		"flyability" : 0,
		"reason" : "windSpeed, windDir",
		"timestamp" :1555844400
		},
	"2019-04-21T16:00:00+01:00" : {
		"windSpeed" : 5.8,
		"windDir" : 213,
		"rain" : 1,
		"cloudbase" : 10635,
		"flyability" : 0,
		"reason" : "windSpeed, windDir, rain",
		"timestamp" :1555855200
		},
	"2019-04-21T19:00:00+01:00" : {
		"windSpeed" : 3.7,
		"windDir" : 215,
		"rain" : 0,
		"cloudbase" : null,
		"flyability" : 0,
		"reason" : "windDir",
		"timestamp" :1555866000
		},
	"2019-04-21T22:00:00+01:00" : {
		"windSpeed" : 2.4,
		"windDir" : 192,
		"rain" : 0,
		"cloudbase" : null,
		"flyability" : 0,
		"reason" : "windDir",
		"timestamp" :1555876800
		},
	"2019-04-22T01:00:00+01:00" : {
		"windSpeed" : 1.9,
		"windDir" : 187,
		"rain" : 0,
		"cloudbase" : null,
		"flyability" : 0,
		"reason" : "windDir",
		"timestamp" :1555887600
		},
	"2019-04-22T04:00:00+01:00" : {
		"windSpeed" : 1.5,
		"windDir" : 130,
		"rain" : 0,
		"cloudbase" : null,
		"flyability" : 0,
		"reason" : "windDir",
		"timestamp" :1555898400
		},
	"2019-04-22T07:00:00+01:00" : {
		"windSpeed" : 1.1,
		"windDir" : 127,
		"rain" : 0,
		"cloudbase" : null,
		"flyability" : 0,
		"reason" : "windDir",
		"timestamp" :1555909200
		},
	"2019-04-22T10:00:00+01:00" : {
		"windSpeed" : 2.9,
		"windDir" : 149,
		"rain" : 0,
		"cloudbase" : null,
		"flyability" : 0,
		"reason" : "windDir",
		"timestamp" :1555920000
		},
	"2019-04-22T13:00:00+01:00" : {
		"windSpeed" : 4.6,
		"windDir" : 163,
		"rain" : 0,
		"cloudbase" : null,
		"flyability" : 0,
		"reason" : "windDir",
		"timestamp" :1555930800
		},
	"2019-04-22T16:00:00+01:00" : {
		"windSpeed" : 4.7,
		"windDir" : 150,
		"rain" : 0,
		"cloudbase" : 1850,
		"flyability" : 0,
		"reason" : "windDir",
		"timestamp" :1555941600
		},
	"2019-04-22T19:00:00+01:00" : {
		"windSpeed" : 3.6,
		"windDir" : 81,
		"rain" : 0,
		"cloudbase" : null,
		"flyability" : 0,
		"reason" : "windDir",
		"timestamp" :1555952400
		},
	"2019-04-22T22:00:00+01:00" : {
		"windSpeed" : 2.9,
		"windDir" : 57,
		"rain" : 0,
		"cloudbase" : 6300,
		"flyability" : 100,
		"reason" : "",
		"timestamp" :1555963200
		},
	"2019-04-23T01:00:00+01:00" : {
		"windSpeed" : 2.5,
		"windDir" : 54,
		"rain" : 0,
		"cloudbase" : null,
		"flyability" : 100,
		"reason" : "",
		"timestamp" :1555974000
		},
	"2019-04-23T04:00:00+01:00" : {
		"windSpeed" : 2.3,
		"windDir" : 47,
		"rain" : 0,
		"cloudbase" : null,
		"flyability" : 100,
		"reason" : "",
		"timestamp" :1555984800
		},
	"2019-04-23T07:00:00+01:00" : {
		"windSpeed" : 3,
		"windDir" : 56,
		"rain" : 0,
		"cloudbase" : 840,
		"flyability" : 100,
		"reason" : "",
		"timestamp" :1555995600
		},
	"2019-04-23T10:00:00+01:00" : {
		"windSpeed" : 4.2,
		"windDir" : 84,
		"rain" : 0,
		"cloudbase" : 1975.5370000001,
		"flyability" : 0,
		"reason" : "windDir",
		"timestamp" :1556006400
		},
	"2019-04-23T13:00:00+01:00" : {
		"windSpeed" : 4.8,
		"windDir" : 90,
		"rain" : 0,
		"cloudbase" : null,
		"flyability" : 0,
		"reason" : "windDir",
		"timestamp" :1556017200
		},
	"2019-04-23T16:00:00+01:00" : {
		"windSpeed" : 5.1,
		"windDir" : 79,
		"rain" : 0,
		"cloudbase" : null,
		"flyability" : 0,
		"reason" : "windSpeed, windDir",
		"timestamp" :1556028000
		},
	"2019-04-23T19:00:00+01:00" : {
		"windSpeed" : 5.1,
		"windDir" : 74,
		"rain" : 0,
		"cloudbase" : null,
		"flyability" : 0,
		"reason" : "windSpeed, windDir",
		"timestamp" :1556038800
		},
	"2019-04-23T22:00:00+01:00" : {
		"windSpeed" : 4.2,
		"windDir" : 64,
		"rain" : 0,
		"cloudbase" : null,
		"flyability" : 100,
		"reason" : "",
		"timestamp" :1556049600
		},
	"2019-04-24T01:00:00+01:00" : {
		"windSpeed" : 4,
		"windDir" : 63,
		"rain" : 0,
		"cloudbase" : 73.875499999996,
		"flyability" : 0,
		"reason" : "cloudbase",
		"timestamp" :1556060400
		},
	"2019-04-24T04:00:00+01:00" : {
		"windSpeed" : 3.9,
		"windDir" : 63,
		"rain" : 0,
		"cloudbase" : null,
		"flyability" : 100,
		"reason" : "",
		"timestamp" :1556071200
		},
	"2019-04-24T07:00:00+01:00" : {
		"windSpeed" : 4.3,
		"windDir" : 72,
		"rain" : 0,
		"cloudbase" : null,
		"flyability" : 0,
		"reason" : "windDir",
		"timestamp" :1556082000
		},
	"2019-04-24T10:00:00+01:00" : {
		"windSpeed" : 6.5,
		"windDir" : 95,
		"rain" : 0,
		"cloudbase" : null,
		"flyability" : 0,
		"reason" : "windSpeed, windDir",
		"timestamp" :1556092800
		},
	"2019-04-24T13:00:00+01:00" : {
		"windSpeed" : 6.5,
		"windDir" : 90,
		"rain" : 0,
		"cloudbase" : null,
		"flyability" : 0,
		"reason" : "windSpeed, windDir",
		"timestamp" :1556103600
		},
	"2019-04-24T16:00:00+01:00" : {
		"windSpeed" : 6.7,
		"windDir" : 83,
		"rain" : 0,
		"cloudbase" : 460,
		"flyability" : 0,
		"reason" : "windSpeed, windDir, cloudbase",
		"timestamp" :1556114400
		},
	"2019-04-24T19:00:00+01:00" : {
		"windSpeed" : 5.4,
		"windDir" : 76,
		"rain" : 1,
		"cloudbase" : 239.15899999999,
		"flyability" : 0,
		"reason" : "windSpeed, windDir, rain, cloudbase",
		"timestamp" :1556125200
		},
	"2019-04-24T22:00:00+01:00" : {
		"windSpeed" : 5.3,
		"windDir" : 75,
		"rain" : 1,
		"cloudbase" : 79.734499999995,
		"flyability" : 0,
		"reason" : "windSpeed, windDir, rain, cloudbase",
		"timestamp" :1556136000
		},
	"2019-04-25T01:00:00+01:00" : {
		"windSpeed" : 3.9,
		"windDir" : 63,
		"rain" : 1,
		"cloudbase" : 46.170499999999,
		"flyability" : 0,
		"reason" : "rain, cloudbase",
		"timestamp" :1556146800
		},
	"2019-04-25T04:00:00+01:00" : {
		"windSpeed" : 3.1,
		"windDir" : 74,
		"rain" : 1,
		"cloudbase" : 30,
		"flyability" : 0,
		"reason" : "windDir, rain, cloudbase",
		"timestamp" :1556157600
		},
	"2019-04-25T07:00:00+01:00" : {
		"windSpeed" : 1.1,
		"windDir" : 113,
		"rain" : 1,
		"cloudbase" : 3242.205,
		"flyability" : 0,
		"reason" : "windDir, rain",
		"timestamp" :1556168400
		},
	"2019-04-25T10:00:00+01:00" : {
		"windSpeed" : 5.9,
		"windDir" : 144,
		"rain" : 1,
		"cloudbase" : null,
		"flyability" : 0,
		"reason" : "windSpeed, windDir, rain",
		"timestamp" :1556179200
		},
	"2019-04-25T13:00:00+01:00" : {
		"windSpeed" : 6.6,
		"windDir" : 131,
		"rain" : 1,
		"cloudbase" : 1656.705,
		"flyability" : 0,
		"reason" : "windSpeed, windDir, rain",
		"timestamp" :1556190000
		},
	"2019-04-25T16:00:00+01:00" : {
		"windSpeed" : 6.4,
		"windDir" : 120,
		"rain" : 1,
		"cloudbase" : null,
		"flyability" : 0,
		"reason" : "windSpeed, windDir, rain",
		"timestamp" :1556200800
		},
	"2019-04-25T19:00:00+01:00" : {
		"windSpeed" : 4.9,
		"windDir" : 123,
		"rain" : 1,
		"cloudbase" : 1166.935,
		"flyability" : 0,
		"reason" : "windDir, rain",
		"timestamp" :1556211600
		},
	"2019-04-25T22:00:00+01:00" : {
		"windSpeed" : 2.4,
		"windDir" : 183,
		"rain" : 1,
		"cloudbase" : 1221.91,
		"flyability" : 0,
		"reason" : "windDir, rain",
		"timestamp" :1556222400
		},
	"2019-04-26T01:00:00+01:00" : {
		"windSpeed" : 1.9,
		"windDir" : 183,
		"rain" : 1,
		"cloudbase" : 7700,
		"flyability" : 0,
		"reason" : "windDir, rain",
		"timestamp" :1556233200
		}
	}
}