{
"site" : "St Cyrus",
"id" : 10391,
"orientations" : "00020000",
"forecasts" : { 
	"2019-04-14T16:00:00+01:00" : {
		"windSpeed" : 6.7,
		"windDir" : 133,
		"rain" : 1,
		"cloudbase" : 2857.8800000002,
		"flyability" : 0,
		"reason" : "windSpeed, rain",
		"timestamp" :1555250400
		},
	"2019-04-14T19:00:00+01:00" : {
		"windSpeed" : 6.1,
		"windDir" : 134,
		"rain" : 1,
		"cloudbase" : 6976.1599999998,
		"flyability" : 0,
		"reason" : "windSpeed, rain",
		"timestamp" :1555261200
		},
	"2019-04-14T22:00:00+01:00" : {
		"windSpeed" : 7,
		"windDir" : 132,
		"rain" : 1,
		"cloudbase" : 2335.02,
		"flyability" : 0,
		"reason" : "windSpeed, rain",
		"timestamp" :1555272000
		},
	"2019-04-15T01:00:00+01:00" : {
		"windSpeed" : 6.9,
		"windDir" : 135,
		"rain" : 1,
		"cloudbase" : 2087.5,
		"flyability" : 0,
		"reason" : "windSpeed, rain",
		"timestamp" :1555282800
		},
	"2019-04-15T04:00:00+01:00" : {
		"windSpeed" : 7,
		"windDir" : 148,
		"rain" : 1,
		"cloudbase" : 6929.6000000002,
		"flyability" : 0,
		"reason" : "windSpeed, rain",
		"timestamp" :1555293600
		},
	"2019-04-15T07:00:00+01:00" : {
		"windSpeed" : 7.6,
		"windDir" : 139,
		"rain" : 1,
		"cloudbase" : 3623.5800000002,
		"flyability" : 0,
		"reason" : "windSpeed, rain",
		"timestamp" :1555304400
		},
	"2019-04-15T10:00:00+01:00" : {
		"windSpeed" : 8.1,
		"windDir" : 138,
		"rain" : 0,
		"cloudbase" : 7792.4000000003,
		"flyability" : 0,
		"reason" : "windSpeed",
		"timestamp" :1555315200
		},
	"2019-04-15T13:00:00+01:00" : {
		"windSpeed" : 7.4,
		"windDir" : 127,
		"rain" : 0,
		"cloudbase" : 5226.1199999999,
		"flyability" : 0,
		"reason" : "windSpeed",
		"timestamp" :1555326000
		},
	"2019-04-15T16:00:00+01:00" : {
		"windSpeed" : 8.9,
		"windDir" : 131,
		"rain" : 1,
		"cloudbase" : 1407.72,
		"flyability" : 0,
		"reason" : "windSpeed, rain",
		"timestamp" :1555336800
		},
	"2019-04-15T19:00:00+01:00" : {
		"windSpeed" : 8,
		"windDir" : 127,
		"rain" : 1,
		"cloudbase" : 900,
		"flyability" : 0,
		"reason" : "windSpeed, rain",
		"timestamp" :1555347600
		},
	"2019-04-15T22:00:00+01:00" : {
		"windSpeed" : 9.2,
		"windDir" : 132,
		"rain" : 1,
		"cloudbase" : 666.808,
		"flyability" : 0,
		"reason" : "windSpeed, rain",
		"timestamp" :1555358400
		},
	"2019-04-16T01:00:00+01:00" : {
		"windSpeed" : 7.3,
		"windDir" : 119,
		"rain" : 1,
		"cloudbase" : 801.304,
		"flyability" : 0,
		"reason" : "windSpeed, rain",
		"timestamp" :1555369200
		},
	"2019-04-16T04:00:00+01:00" : {
		"windSpeed" : 6.9,
		"windDir" : 122,
		"rain" : 1,
		"cloudbase" : 1582.28,
		"flyability" : 0,
		"reason" : "windSpeed, rain",
		"timestamp" :1555380000
		},
	"2019-04-16T07:00:00+01:00" : {
		"windSpeed" : 6,
		"windDir" : 117,
		"rain" : 1,
		"cloudbase" : 1999.78,
		"flyability" : 0,
		"reason" : "windSpeed, rain",
		"timestamp" :1555390800
		},
	"2019-04-16T10:00:00+01:00" : {
		"windSpeed" : 7.4,
		"windDir" : 115,
		"rain" : 0,
		"cloudbase" : 1653.56,
		"flyability" : 0,
		"reason" : "windSpeed",
		"timestamp" :1555401600
		},
	"2019-04-16T13:00:00+01:00" : {
		"windSpeed" : 7.4,
		"windDir" : 114,
		"rain" : 0,
		"cloudbase" : 580,
		"flyability" : 0,
		"reason" : "windSpeed",
		"timestamp" :1555412400
		},
	"2019-04-16T16:00:00+01:00" : {
		"windSpeed" : 6.9,
		"windDir" : 112,
		"rain" : 1,
		"cloudbase" : 680,
		"flyability" : 0,
		"reason" : "windSpeed, windDir, rain",
		"timestamp" :1555423200
		},
	"2019-04-16T19:00:00+01:00" : {
		"windSpeed" : 6.4,
		"windDir" : 109,
		"rain" : 0,
		"cloudbase" : 7531.3200000001,
		"flyability" : 0,
		"reason" : "windSpeed, windDir",
		"timestamp" :1555434000
		},
	"2019-04-16T22:00:00+01:00" : {
		"windSpeed" : 5.3,
		"windDir" : 109,
		"rain" : 0,
		"cloudbase" : null,
		"flyability" : 0,
		"reason" : "windSpeed, windDir",
		"timestamp" :1555444800
		},
	"2019-04-17T01:00:00+01:00" : {
		"windSpeed" : 5.2,
		"windDir" : 113,
		"rain" : 0,
		"cloudbase" : 860,
		"flyability" : 0,
		"reason" : "windSpeed",
		"timestamp" :1555455600
		},
	"2019-04-17T04:00:00+01:00" : {
		"windSpeed" : 4.6,
		"windDir" : 110,
		"rain" : 0,
		"cloudbase" : 2200,
		"flyability" : 0,
		"reason" : "windDir",
		"timestamp" :1555466400
		},
	"2019-04-17T07:00:00+01:00" : {
		"windSpeed" : 4.4,
		"windDir" : 92,
		"rain" : 0,
		"cloudbase" : null,
		"flyability" : 0,
		"reason" : "windDir",
		"timestamp" :1555477200
		},
	"2019-04-17T10:00:00+01:00" : {
		"windSpeed" : 4.6,
		"windDir" : 89,
		"rain" : 0,
		"cloudbase" : 560,
		"flyability" : 0,
		"reason" : "windDir",
		"timestamp" :1555488000
		},
	"2019-04-17T13:00:00+01:00" : {
		"windSpeed" : 3.7,
		"windDir" : 78,
		"rain" : 0,
		"cloudbase" : null,
		"flyability" : 0,
		"reason" : "windDir",
		"timestamp" :1555498800
		},
	"2019-04-17T16:00:00+01:00" : {
		"windSpeed" : 3.3,
		"windDir" : 77,
		"rain" : 0,
		"cloudbase" : null,
		"flyability" : 0,
		"reason" : "windDir",
		"timestamp" :1555509600
		},
	"2019-04-17T19:00:00+01:00" : {
		"windSpeed" : 2.8,
		"windDir" : 74,
		"rain" : 0,
		"cloudbase" : null,
		"flyability" : 0,
		"reason" : "windDir",
		"timestamp" :1555520400
		},
	"2019-04-17T22:00:00+01:00" : {
		"windSpeed" : 1.8,
		"windDir" : 103,
		"rain" : 0,
		"cloudbase" : null,
		"flyability" : 0,
		"reason" : "windDir",
		"timestamp" :1555531200
		},
	"2019-04-18T01:00:00+01:00" : {
		"windSpeed" : 2.8,
		"windDir" : 82,
		"rain" : 0,
		"cloudbase" : null,
		"flyability" : 0,
		"reason" : "windDir",
		"timestamp" :1555542000
		},
	"2019-04-18T04:00:00+01:00" : {
		"windSpeed" : 2.3,
		"windDir" : 80,
		"rain" : 0,
		"cloudbase" : 10360,
		"flyability" : 0,
		"reason" : "windDir",
		"timestamp" :1555552800
		},
	"2019-04-18T07:00:00+01:00" : {
		"windSpeed" : 1.8,
		"windDir" : 73,
		"rain" : 0,
		"cloudbase" : 9697.48,
		"flyability" : 0,
		"reason" : "windDir",
		"timestamp" :1555563600
		},
	"2019-04-18T10:00:00+01:00" : {
		"windSpeed" : 3.2,
		"windDir" : 85,
		"rain" : 0,
		"cloudbase" : 8725.48,
		"flyability" : 0,
		"reason" : "windDir",
		"timestamp" :1555574400
		},
	"2019-04-18T13:00:00+01:00" : {
		"windSpeed" : 3.2,
		"windDir" : 103,
		"rain" : 0,
		"cloudbase" : 3050,
		"flyability" : 0,
		"reason" : "windDir",
		"timestamp" :1555585200
		},
	"2019-04-18T16:00:00+01:00" : {
		"windSpeed" : 3.2,
		"windDir" : 95,
		"rain" : 0,
		"cloudbase" : 10455,
		"flyability" : 0,
		"reason" : "windDir",
		"timestamp" :1555596000
		},
	"2019-04-18T19:00:00+01:00" : {
		"windSpeed" : 2.1,
		"windDir" : 90,
		"rain" : 0,
		"cloudbase" : 9403.52,
		"flyability" : 0,
		"reason" : "windDir",
		"timestamp" :1555606800
		},
	"2019-04-18T22:00:00+01:00" : {
		"windSpeed" : 1.3,
		"windDir" : 72,
		"rain" : 0,
		"cloudbase" : 8121.52,
		"flyability" : 0,
		"reason" : "windDir",
		"timestamp" :1555617600
		},
	"2019-04-19T01:00:00+01:00" : {
		"windSpeed" : 2.2,
		"windDir" : 92,
		"rain" : 0,
		"cloudbase" : 7900,
		"flyability" : 0,
		"reason" : "windDir",
		"timestamp" :1555628400
		},
	"2019-04-19T04:00:00+01:00" : {
		"windSpeed" : 1.6,
		"windDir" : 70,
		"rain" : 0,
		"cloudbase" : 10000,
		"flyability" : 0,
		"reason" : "windDir",
		"timestamp" :1555639200
		},
	"2019-04-19T07:00:00+01:00" : {
		"windSpeed" : 1.2,
		"windDir" : 64,
		"rain" : 0,
		"cloudbase" : 10360,
		"flyability" : 0,
		"reason" : "windDir",
		"timestamp" :1555650000
		},
	"2019-04-19T10:00:00+01:00" : {
		"windSpeed" : 1.5,
		"windDir" : 120,
		"rain" : 0,
		"cloudbase" : null,
		"flyability" : 100,
		"reason" : "",
		"timestamp" :1555660800
		},
	"2019-04-19T13:00:00+01:00" : {
		"windSpeed" : 2.2,
		"windDir" : 124,
		"rain" : 0,
		"cloudbase" : 8135,
		"flyability" : 100,
		"reason" : "",
		"timestamp" :1555671600
		},
	"2019-04-19T16:00:00+01:00" : {
		"windSpeed" : 2,
		"windDir" : 116,
		"rain" : 0,
		"cloudbase" : 8060.48,
		"flyability" : 100,
		"reason" : "",
		"timestamp" :1555682400
		},
	"2019-04-19T19:00:00+01:00" : {
		"windSpeed" : 1.3,
		"windDir" : 89,
		"rain" : 0,
		"cloudbase" : 7625.48,
		"flyability" : 0,
		"reason" : "windDir",
		"timestamp" :1555693200
		},
	"2019-04-19T22:00:00+01:00" : {
		"windSpeed" : 1.1,
		"windDir" : 88,
		"rain" : 0,
		"cloudbase" : 7321.52,
		"flyability" : 0,
		"reason" : "windDir",
		"timestamp" :1555704000
		},
	"2019-04-20T01:00:00+01:00" : {
		"windSpeed" : 0.6,
		"windDir" : 95,
		"rain" : 0,
		"cloudbase" : null,
		"flyability" : 0,
		"reason" : "windDir",
		"timestamp" :1555714800
		},
	"2019-04-20T04:00:00+01:00" : {
		"windSpeed" : 0.5,
		"windDir" : 96,
		"rain" : 0,
		"cloudbase" : null,
		"flyability" : 0,
		"reason" : "windDir",
		"timestamp" :1555725600
		},
	"2019-04-20T07:00:00+01:00" : {
		"windSpeed" : 1,
		"windDir" : 273,
		"rain" : 0,
		"cloudbase" : null,
		"flyability" : 0,
		"reason" : "windDir",
		"timestamp" :1555736400
		},
	"2019-04-20T10:00:00+01:00" : {
		"windSpeed" : 2,
		"windDir" : 176,
		"rain" : 0,
		"cloudbase" : null,
		"flyability" : 0,
		"reason" : "windDir",
		"timestamp" :1555747200
		},
	"2019-04-20T13:00:00+01:00" : {
		"windSpeed" : 3.3,
		"windDir" : 159,
		"rain" : 0,
		"cloudbase" : null,
		"flyability" : 0,
		"reason" : "windDir",
		"timestamp" :1555758000
		}
	}
}