{
"site" : "Hakuba -Happo One",
"id" : 10404,
"orientations" : "00222000",
"forecasts" : { 
	"2019-04-13T12:00:00+09:00" : {
		"windSpeed" : 1.6,
		"windDir" : 158,
		"rain" : 0,
		"cloudbase" : null,
		"flyability" : 100,
		"reason" : "",
		"timestamp" :1555124400
		},
	"2019-04-13T15:00:00+09:00" : {
		"windSpeed" : 1.5,
		"windDir" : 136,
		"rain" : 0,
		"cloudbase" : null,
		"flyability" : 100,
		"reason" : "",
		"timestamp" :1555135200
		},
	"2019-04-13T18:00:00+09:00" : {
		"windSpeed" : 0.6,
		"windDir" : 328,
		"rain" : 0,
		"cloudbase" : 6770.0000000001,
		"flyability" : 0,
		"reason" : "windDir",
		"timestamp" :1555146000
		},
	"2019-04-13T21:00:00+09:00" : {
		"windSpeed" : 1.1,
		"windDir" : 228,
		"rain" : 0,
		"cloudbase" : 7474.4400000001,
		"flyability" : 0,
		"reason" : "windDir",
		"timestamp" :1555156800
		},
	"2019-04-14T00:00:00+09:00" : {
		"windSpeed" : 1,
		"windDir" : 240,
		"rain" : 0,
		"cloudbase" : null,
		"flyability" : 0,
		"reason" : "windDir",
		"timestamp" :1555167600
		},
	"2019-04-14T03:00:00+09:00" : {
		"windSpeed" : 1,
		"windDir" : 240,
		"rain" : 0,
		"cloudbase" : 6141.8000000002,
		"flyability" : 0,
		"reason" : "windDir",
		"timestamp" :1555178400
		},
	"2019-04-14T06:00:00+09:00" : {
		"windSpeed" : 0.9,
		"windDir" : 244,
		"rain" : 0,
		"cloudbase" : 3214.2000000009,
		"flyability" : 0,
		"reason" : "windDir",
		"timestamp" :1555189200
		},
	"2019-04-14T09:00:00+09:00" : {
		"windSpeed" : 1,
		"windDir" : 175,
		"rain" : 0,
		"cloudbase" : 4746.8999999996,
		"flyability" : 100,
		"reason" : "",
		"timestamp" :1555200000
		},
	"2019-04-14T12:00:00+09:00" : {
		"windSpeed" : 1.7,
		"windDir" : 191,
		"rain" : 0,
		"cloudbase" : 1606.2800000001,
		"flyability" : 100,
		"reason" : "",
		"timestamp" :1555210800
		},
	"2019-04-14T15:00:00+09:00" : {
		"windSpeed" : 0.9,
		"windDir" : 137,
		"rain" : 1,
		"cloudbase" : 945.3840000004,
		"flyability" : 0,
		"reason" : "rain, cloudbase",
		"timestamp" :1555221600
		},
	"2019-04-14T18:00:00+09:00" : {
		"windSpeed" : 0.9,
		"windDir" : 136,
		"rain" : 1,
		"cloudbase" : 171.6720000001,
		"flyability" : 0,
		"reason" : "rain, cloudbase",
		"timestamp" :1555232400
		},
	"2019-04-14T21:00:00+09:00" : {
		"windSpeed" : 1.5,
		"windDir" : 170,
		"rain" : 1,
		"cloudbase" : 400.90400000062,
		"flyability" : 0,
		"reason" : "rain, cloudbase",
		"timestamp" :1555243200
		},
	"2019-04-15T00:00:00+09:00" : {
		"windSpeed" : 0.5,
		"windDir" : 161,
		"rain" : 1,
		"cloudbase" : 361.69200000028,
		"flyability" : 0,
		"reason" : "rain, cloudbase",
		"timestamp" :1555254000
		},
	"2019-04-15T03:00:00+09:00" : {
		"windSpeed" : 0.5,
		"windDir" : 296,
		"rain" : 1,
		"cloudbase" : 1055.7160000009,
		"flyability" : 0,
		"reason" : "windDir, rain, cloudbase",
		"timestamp" :1555264800
		},
	"2019-04-15T06:00:00+09:00" : {
		"windSpeed" : 1.4,
		"windDir" : 278,
		"rain" : 1,
		"cloudbase" : 190,
		"flyability" : 0,
		"reason" : "windDir, rain, cloudbase",
		"timestamp" :1555275600
		},
	"2019-04-15T09:00:00+09:00" : {
		"windSpeed" : 2.2,
		"windDir" : 270,
		"rain" : 0,
		"cloudbase" : 270,
		"flyability" : 0,
		"reason" : "windDir, cloudbase",
		"timestamp" :1555286400
		},
	"2019-04-15T12:00:00+09:00" : {
		"windSpeed" : 3.1,
		"windDir" : 279,
		"rain" : 0,
		"cloudbase" : 479.8240000001,
		"flyability" : 0,
		"reason" : "windDir, cloudbase",
		"timestamp" :1555297200
		},
	"2019-04-15T15:00:00+09:00" : {
		"windSpeed" : 3.2,
		"windDir" : 298,
		"rain" : 0,
		"cloudbase" : 270,
		"flyability" : 0,
		"reason" : "windDir, cloudbase",
		"timestamp" :1555308000
		},
	"2019-04-15T18:00:00+09:00" : {
		"windSpeed" : 1.2,
		"windDir" : 323,
		"rain" : 0,
		"cloudbase" : null,
		"flyability" : 0,
		"reason" : "windDir",
		"timestamp" :1555318800
		},
	"2019-04-15T21:00:00+09:00" : {
		"windSpeed" : 1.6,
		"windDir" : 295,
		"rain" : 0,
		"cloudbase" : null,
		"flyability" : 0,
		"reason" : "windDir",
		"timestamp" :1555329600
		},
	"2019-04-16T00:00:00+09:00" : {
		"windSpeed" : 1.6,
		"windDir" : 295,
		"rain" : 0,
		"cloudbase" : null,
		"flyability" : 0,
		"reason" : "windDir",
		"timestamp" :1555340400
		},
	"2019-04-16T03:00:00+09:00" : {
		"windSpeed" : 1.1,
		"windDir" : 302,
		"rain" : 0,
		"cloudbase" : null,
		"flyability" : 0,
		"reason" : "windDir",
		"timestamp" :1555351200
		},
	"2019-04-16T06:00:00+09:00" : {
		"windSpeed" : 0.9,
		"windDir" : 275,
		"rain" : 0,
		"cloudbase" : null,
		"flyability" : 0,
		"reason" : "windDir",
		"timestamp" :1555362000
		},
	"2019-04-16T09:00:00+09:00" : {
		"windSpeed" : 0.6,
		"windDir" : 171,
		"rain" : 0,
		"cloudbase" : null,
		"flyability" : 100,
		"reason" : "",
		"timestamp" :1555372800
		},
	"2019-04-16T12:00:00+09:00" : {
		"windSpeed" : 0.8,
		"windDir" : 258,
		"rain" : 0,
		"cloudbase" : null,
		"flyability" : 0,
		"reason" : "windDir",
		"timestamp" :1555383600
		},
	"2019-04-16T15:00:00+09:00" : {
		"windSpeed" : 0.8,
		"windDir" : 299,
		"rain" : 0,
		"cloudbase" : null,
		"flyability" : 0,
		"reason" : "windDir",
		"timestamp" :1555394400
		},
	"2019-04-16T18:00:00+09:00" : {
		"windSpeed" : 1.5,
		"windDir" : 295,
		"rain" : 0,
		"cloudbase" : 8900,
		"flyability" : 0,
		"reason" : "windDir",
		"timestamp" :1555405200
		},
	"2019-04-16T21:00:00+09:00" : {
		"windSpeed" : 1,
		"windDir" : 250,
		"rain" : 0,
		"cloudbase" : 7629.9600000001,
		"flyability" : 0,
		"reason" : "windDir",
		"timestamp" :1555416000
		},
	"2019-04-17T00:00:00+09:00" : {
		"windSpeed" : 1.1,
		"windDir" : 238,
		"rain" : 0,
		"cloudbase" : 6570.4800000001,
		"flyability" : 0,
		"reason" : "windDir",
		"timestamp" :1555426800
		},
	"2019-04-17T03:00:00+09:00" : {
		"windSpeed" : 0.9,
		"windDir" : 245,
		"rain" : 0,
		"cloudbase" : 5900,
		"flyability" : 0,
		"reason" : "windDir",
		"timestamp" :1555437600
		},
	"2019-04-17T06:00:00+09:00" : {
		"windSpeed" : 0.9,
		"windDir" : 270,
		"rain" : 0,
		"cloudbase" : 4284.0200000001,
		"flyability" : 0,
		"reason" : "windDir",
		"timestamp" :1555448400
		},
	"2019-04-17T09:00:00+09:00" : {
		"windSpeed" : 0.6,
		"windDir" : 178,
		"rain" : 0,
		"cloudbase" : 3896.0000000001,
		"flyability" : 100,
		"reason" : "",
		"timestamp" :1555459200
		},
	"2019-04-17T12:00:00+09:00" : {
		"windSpeed" : 1.4,
		"windDir" : 134,
		"rain" : 0,
		"cloudbase" : 4450,
		"flyability" : 100,
		"reason" : "",
		"timestamp" :1555470000
		},
	"2019-04-17T15:00:00+09:00" : {
		"windSpeed" : 0.7,
		"windDir" : 60,
		"rain" : 0,
		"cloudbase" : 3054.8199999997,
		"flyability" : 0,
		"reason" : "windDir",
		"timestamp" :1555480800
		},
	"2019-04-17T18:00:00+09:00" : {
		"windSpeed" : 1.4,
		"windDir" : 184,
		"rain" : 0,
		"cloudbase" : 1637.7600000001,
		"flyability" : 100,
		"reason" : "",
		"timestamp" :1555491600
		},
	"2019-04-17T21:00:00+09:00" : {
		"windSpeed" : 1.1,
		"windDir" : 208,
		"rain" : 1,
		"cloudbase" : 4697.4799999994,
		"flyability" : 0,
		"reason" : "windDir, rain",
		"timestamp" :1555502400
		},
	"2019-04-18T00:00:00+09:00" : {
		"windSpeed" : 0.9,
		"windDir" : 280,
		"rain" : 0,
		"cloudbase" : 3100,
		"flyability" : 0,
		"reason" : "windDir",
		"timestamp" :1555513200
		},
	"2019-04-18T03:00:00+09:00" : {
		"windSpeed" : 0.9,
		"windDir" : 275,
		"rain" : 0,
		"cloudbase" : null,
		"flyability" : 0,
		"reason" : "windDir",
		"timestamp" :1555524000
		},
	"2019-04-18T06:00:00+09:00" : {
		"windSpeed" : 0.9,
		"windDir" : 275,
		"rain" : 1,
		"cloudbase" : null,
		"flyability" : 0,
		"reason" : "windDir, rain",
		"timestamp" :1555534800
		},
	"2019-04-18T09:00:00+09:00" : {
		"windSpeed" : 0.4,
		"windDir" : 248,
		"rain" : 0,
		"cloudbase" : null,
		"flyability" : 0,
		"reason" : "windDir",
		"timestamp" :1555545600
		},
	"2019-04-18T12:00:00+09:00" : {
		"windSpeed" : 1.2,
		"windDir" : 265,
		"rain" : 1,
		"cloudbase" : 8300,
		"flyability" : 0,
		"reason" : "windDir, rain",
		"timestamp" :1555556400
		},
	"2019-04-18T15:00:00+09:00" : {
		"windSpeed" : 1.5,
		"windDir" : 270,
		"rain" : 1,
		"cloudbase" : 7213.8400000003,
		"flyability" : 0,
		"reason" : "windDir, rain",
		"timestamp" :1555567200
		},
	"2019-04-18T18:00:00+09:00" : {
		"windSpeed" : 1.5,
		"windDir" : 292,
		"rain" : 1,
		"cloudbase" : null,
		"flyability" : 0,
		"reason" : "windDir, rain",
		"timestamp" :1555578000
		},
	"2019-04-18T21:00:00+09:00" : {
		"windSpeed" : 1,
		"windDir" : 301,
		"rain" : 0,
		"cloudbase" : null,
		"flyability" : 0,
		"reason" : "windDir",
		"timestamp" :1555588800
		},
	"2019-04-19T00:00:00+09:00" : {
		"windSpeed" : 1,
		"windDir" : 303,
		"rain" : 0,
		"cloudbase" : 1550,
		"flyability" : 0,
		"reason" : "windDir",
		"timestamp" :1555599600
		},
	"2019-04-19T03:00:00+09:00" : {
		"windSpeed" : 0.3,
		"windDir" : 275,
		"rain" : 1,
		"cloudbase" : 407.62400000018,
		"flyability" : 0,
		"reason" : "windDir, rain, cloudbase",
		"timestamp" :1555610400
		},
	"2019-04-19T06:00:00+09:00" : {
		"windSpeed" : 1.2,
		"windDir" : 323,
		"rain" : 1,
		"cloudbase" : 373.87000000049,
		"flyability" : 0,
		"reason" : "windDir, rain, cloudbase",
		"timestamp" :1555621200
		},
	"2019-04-19T09:00:00+09:00" : {
		"windSpeed" : 0.9,
		"windDir" : 302,
		"rain" : 1,
		"cloudbase" : 499.33200000006,
		"flyability" : 0,
		"reason" : "windDir, rain, cloudbase",
		"timestamp" :1555632000
		}
	}
}