{
"site" : "El Fraile - Santa Cruz del Norte",
"id" : 10528,
"orientations" : "22000000",
"forecasts" : { 
	"2019-04-11T11:00:00-04:00" : {
		"windSpeed" : 1.2,
		"windDir" : 74,
		"rain" : 0,
		"cloudbase" : null,
		"flyability" : 0,
		"reason" : "windDir",
		"timestamp" :1554998400
		},
	"2019-04-11T14:00:00-04:00" : {
		"windSpeed" : 4.6,
		"windDir" : 31,
		"rain" : 0,
		"cloudbase" : null,
		"flyability" : 100,
		"reason" : "",
		"timestamp" :1555009200
		},
	"2019-04-11T17:00:00-04:00" : {
		"windSpeed" : 5.3,
		"windDir" : 56,
		"rain" : 0,
		"cloudbase" : null,
		"flyability" : 0,
		"reason" : "windSpeed",
		"timestamp" :1555020000
		},
	"2019-04-11T20:00:00-04:00" : {
		"windSpeed" : 5.5,
		"windDir" : 72,
		"rain" : 0,
		"cloudbase" : null,
		"flyability" : 0,
		"reason" : "windSpeed, windDir",
		"timestamp" :1555030800
		},
	"2019-04-11T23:00:00-04:00" : {
		"windSpeed" : 5.3,
		"windDir" : 102,
		"rain" : 1,
		"cloudbase" : null,
		"flyability" : 0,
		"reason" : "windSpeed, windDir, rain",
		"timestamp" :1555041600
		},
	"2019-04-12T02:00:00-04:00" : {
		"windSpeed" : 3.7,
		"windDir" : 148,
		"rain" : 0,
		"cloudbase" : null,
		"flyability" : 0,
		"reason" : "windDir",
		"timestamp" :1555052400
		},
	"2019-04-12T05:00:00-04:00" : {
		"windSpeed" : 3.3,
		"windDir" : 141,
		"rain" : 0,
		"cloudbase" : null,
		"flyability" : 0,
		"reason" : "windDir",
		"timestamp" :1555063200
		},
	"2019-04-12T08:00:00-04:00" : {
		"windSpeed" : 4.2,
		"windDir" : 139,
		"rain" : 0,
		"cloudbase" : null,
		"flyability" : 0,
		"reason" : "windDir",
		"timestamp" :1555074000
		},
	"2019-04-12T11:00:00-04:00" : {
		"windSpeed" : 4.3,
		"windDir" : 125,
		"rain" : 0,
		"cloudbase" : null,
		"flyability" : 0,
		"reason" : "windDir",
		"timestamp" :1555084800
		},
	"2019-04-12T14:00:00-04:00" : {
		"windSpeed" : 3.2,
		"windDir" : 91,
		"rain" : 1,
		"cloudbase" : 3200,
		"flyability" : 0,
		"reason" : "windDir, rain",
		"timestamp" :1555095600
		},
	"2019-04-12T17:00:00-04:00" : {
		"windSpeed" : 4.4,
		"windDir" : 80,
		"rain" : 1,
		"cloudbase" : 1442.4290999999,
		"flyability" : 0,
		"reason" : "windDir, rain",
		"timestamp" :1555106400
		},
	"2019-04-12T20:00:00-04:00" : {
		"windSpeed" : 3.8,
		"windDir" : 83,
		"rain" : 1,
		"cloudbase" : 940,
		"flyability" : 0,
		"reason" : "windDir, rain",
		"timestamp" :1555117200
		},
	"2019-04-12T23:00:00-04:00" : {
		"windSpeed" : 4.5,
		"windDir" : 117,
		"rain" : 1,
		"cloudbase" : null,
		"flyability" : 0,
		"reason" : "windDir, rain",
		"timestamp" :1555128000
		},
	"2019-04-13T02:00:00-04:00" : {
		"windSpeed" : 3.8,
		"windDir" : 122,
		"rain" : 0,
		"cloudbase" : null,
		"flyability" : 0,
		"reason" : "windDir",
		"timestamp" :1555138800
		},
	"2019-04-13T05:00:00-04:00" : {
		"windSpeed" : 3.8,
		"windDir" : 127,
		"rain" : 0,
		"cloudbase" : null,
		"flyability" : 0,
		"reason" : "windDir",
		"timestamp" :1555149600
		},
	"2019-04-13T08:00:00-04:00" : {
		"windSpeed" : 4.4,
		"windDir" : 137,
		"rain" : 0,
		"cloudbase" : null,
		"flyability" : 0,
		"reason" : "windDir",
		"timestamp" :1555160400
		},
	"2019-04-13T11:00:00-04:00" : {
		"windSpeed" : 4.3,
		"windDir" : 121,
		"rain" : 0,
		"cloudbase" : null,
		"flyability" : 0,
		"reason" : "windDir",
		"timestamp" :1555171200
		},
	"2019-04-13T14:00:00-04:00" : {
		"windSpeed" : 4.5,
		"windDir" : 77,
		"rain" : 1,
		"cloudbase" : 3250,
		"flyability" : 0,
		"reason" : "windDir, rain",
		"timestamp" :1555182000
		},
	"2019-04-13T17:00:00-04:00" : {
		"windSpeed" : 5.4,
		"windDir" : 72,
		"rain" : 1,
		"cloudbase" : null,
		"flyability" : 0,
		"reason" : "windSpeed, windDir, rain",
		"timestamp" :1555192800
		},
	"2019-04-13T20:00:00-04:00" : {
		"windSpeed" : 5.7,
		"windDir" : 94,
		"rain" : 1,
		"cloudbase" : null,
		"flyability" : 0,
		"reason" : "windSpeed, windDir, rain",
		"timestamp" :1555203600
		},
	"2019-04-13T23:00:00-04:00" : {
		"windSpeed" : 3.5,
		"windDir" : 125,
		"rain" : 0,
		"cloudbase" : null,
		"flyability" : 0,
		"reason" : "windDir",
		"timestamp" :1555214400
		},
	"2019-04-14T02:00:00-04:00" : {
		"windSpeed" : 3.6,
		"windDir" : 146,
		"rain" : 0,
		"cloudbase" : null,
		"flyability" : 0,
		"reason" : "windDir",
		"timestamp" :1555225200
		},
	"2019-04-14T05:00:00-04:00" : {
		"windSpeed" : 3.9,
		"windDir" : 147,
		"rain" : 0,
		"cloudbase" : null,
		"flyability" : 0,
		"reason" : "windDir",
		"timestamp" :1555236000
		},
	"2019-04-14T08:00:00-04:00" : {
		"windSpeed" : 3.9,
		"windDir" : 154,
		"rain" : 0,
		"cloudbase" : null,
		"flyability" : 0,
		"reason" : "windDir",
		"timestamp" :1555246800
		},
	"2019-04-14T11:00:00-04:00" : {
		"windSpeed" : 4.2,
		"windDir" : 156,
		"rain" : 0,
		"cloudbase" : null,
		"flyability" : 0,
		"reason" : "windDir",
		"timestamp" :1555257600
		},
	"2019-04-14T14:00:00-04:00" : {
		"windSpeed" : 3.2,
		"windDir" : 143,
		"rain" : 1,
		"cloudbase" : 4250,
		"flyability" : 0,
		"reason" : "windDir, rain",
		"timestamp" :1555268400
		},
	"2019-04-14T17:00:00-04:00" : {
		"windSpeed" : 3.8,
		"windDir" : 151,
		"rain" : 1,
		"cloudbase" : null,
		"flyability" : 0,
		"reason" : "windDir, rain",
		"timestamp" :1555279200
		},
	"2019-04-14T20:00:00-04:00" : {
		"windSpeed" : 2.4,
		"windDir" : 186,
		"rain" : 1,
		"cloudbase" : null,
		"flyability" : 0,
		"reason" : "windDir, rain",
		"timestamp" :1555290000
		},
	"2019-04-14T23:00:00-04:00" : {
		"windSpeed" : 2.2,
		"windDir" : 189,
		"rain" : 0,
		"cloudbase" : null,
		"flyability" : 0,
		"reason" : "windDir",
		"timestamp" :1555300800
		},
	"2019-04-15T02:00:00-04:00" : {
		"windSpeed" : 2.5,
		"windDir" : 175,
		"rain" : 0,
		"cloudbase" : null,
		"flyability" : 0,
		"reason" : "windDir",
		"timestamp" :1555311600
		},
	"2019-04-15T05:00:00-04:00" : {
		"windSpeed" : 1.6,
		"windDir" : 188,
		"rain" : 0,
		"cloudbase" : null,
		"flyability" : 0,
		"reason" : "windDir",
		"timestamp" :1555322400
		},
	"2019-04-15T08:00:00-04:00" : {
		"windSpeed" : 2.8,
		"windDir" : 175,
		"rain" : 0,
		"cloudbase" : null,
		"flyability" : 0,
		"reason" : "windDir",
		"timestamp" :1555333200
		},
	"2019-04-15T11:00:00-04:00" : {
		"windSpeed" : 1,
		"windDir" : 110,
		"rain" : 1,
		"cloudbase" : null,
		"flyability" : 0,
		"reason" : "windDir, rain",
		"timestamp" :1555344000
		},
	"2019-04-15T14:00:00-04:00" : {
		"windSpeed" : 3.3,
		"windDir" : 22,
		"rain" : 1,
		"cloudbase" : null,
		"flyability" : 0,
		"reason" : "rain",
		"timestamp" :1555354800
		},
	"2019-04-15T17:00:00-04:00" : {
		"windSpeed" : 3.8,
		"windDir" : 22,
		"rain" : 1,
		"cloudbase" : null,
		"flyability" : 0,
		"reason" : "rain",
		"timestamp" :1555365600
		},
	"2019-04-15T20:00:00-04:00" : {
		"windSpeed" : 3.5,
		"windDir" : 53,
		"rain" : 0,
		"cloudbase" : null,
		"flyability" : 100,
		"reason" : "",
		"timestamp" :1555376400
		},
	"2019-04-15T23:00:00-04:00" : {
		"windSpeed" : 2.9,
		"windDir" : 85,
		"rain" : 1,
		"cloudbase" : null,
		"flyability" : 0,
		"reason" : "windDir, rain",
		"timestamp" :1555387200
		},
	"2019-04-16T02:00:00-04:00" : {
		"windSpeed" : 2.4,
		"windDir" : 96,
		"rain" : 1,
		"cloudbase" : null,
		"flyability" : 0,
		"reason" : "windDir, rain",
		"timestamp" :1555398000
		},
	"2019-04-16T05:00:00-04:00" : {
		"windSpeed" : 2.3,
		"windDir" : 81,
		"rain" : 1,
		"cloudbase" : null,
		"flyability" : 0,
		"reason" : "windDir, rain",
		"timestamp" :1555408800
		},
	"2019-04-16T08:00:00-04:00" : {
		"windSpeed" : 4.2,
		"windDir" : 87,
		"rain" : 1,
		"cloudbase" : null,
		"flyability" : 0,
		"reason" : "windDir, rain",
		"timestamp" :1555419600
		},
	"2019-04-16T11:00:00-04:00" : {
		"windSpeed" : 4.1,
		"windDir" : 65,
		"rain" : 1,
		"cloudbase" : null,
		"flyability" : 0,
		"reason" : "rain",
		"timestamp" :1555430400
		},
	"2019-04-16T14:00:00-04:00" : {
		"windSpeed" : 5.2,
		"windDir" : 55,
		"rain" : 0,
		"cloudbase" : null,
		"flyability" : 0,
		"reason" : "windSpeed",
		"timestamp" :1555441200
		},
	"2019-04-16T17:00:00-04:00" : {
		"windSpeed" : 5.6,
		"windDir" : 49,
		"rain" : 1,
		"cloudbase" : null,
		"flyability" : 0,
		"reason" : "windSpeed, rain",
		"timestamp" :1555452000
		},
	"2019-04-16T20:00:00-04:00" : {
		"windSpeed" : 5,
		"windDir" : 70,
		"rain" : 0,
		"cloudbase" : 520,
		"flyability" : 0,
		"reason" : "windDir",
		"timestamp" :1555462800
		},
	"2019-04-16T23:00:00-04:00" : {
		"windSpeed" : 5,
		"windDir" : 84,
		"rain" : 0,
		"cloudbase" : null,
		"flyability" : 0,
		"reason" : "windDir",
		"timestamp" :1555473600
		},
	"2019-04-17T02:00:00-04:00" : {
		"windSpeed" : 4.5,
		"windDir" : 107,
		"rain" : 0,
		"cloudbase" : null,
		"flyability" : 0,
		"reason" : "windDir",
		"timestamp" :1555484400
		},
	"2019-04-17T05:00:00-04:00" : {
		"windSpeed" : 4.7,
		"windDir" : 123,
		"rain" : 0,
		"cloudbase" : null,
		"flyability" : 0,
		"reason" : "windDir",
		"timestamp" :1555495200
		},
	"2019-04-17T08:00:00-04:00" : {
		"windSpeed" : 5,
		"windDir" : 126,
		"rain" : 1,
		"cloudbase" : null,
		"flyability" : 0,
		"reason" : "windDir, rain",
		"timestamp" :1555506000
		}
	}
}