{
"site" : "Tia Nena",
"id" : 10531,
"orientations" : "12210000",
"forecasts" : { 
	"2019-04-04T23:00:00-04:00" : {
		"windSpeed" : 2.4,
		"windDir" : 96,
		"rain" : 0,
		"cloudbase" : 9797.6,
		"flyability" : 100,
		"reason" : "",
		"timestamp" :1554436800
		},
	"2019-04-05T02:00:00-04:00" : {
		"windSpeed" : 2.4,
		"windDir" : 126,
		"rain" : 0,
		"cloudbase" : 9197.0240000001,
		"flyability" : 100,
		"reason" : "",
		"timestamp" :1554447600
		},
	"2019-04-05T05:00:00-04:00" : {
		"windSpeed" : 1.9,
		"windDir" : 133,
		"rain" : 0,
		"cloudbase" : 9746.4,
		"flyability" : 100,
		"reason" : "",
		"timestamp" :1554458400
		},
	"2019-04-05T08:00:00-04:00" : {
		"windSpeed" : 1.8,
		"windDir" : 122,
		"rain" : 0,
		"cloudbase" : 9746.4,
		"flyability" : 100,
		"reason" : "",
		"timestamp" :1554469200
		},
	"2019-04-05T11:00:00-04:00" : {
		"windSpeed" : 2.8,
		"windDir" : 88,
		"rain" : 0,
		"cloudbase" : 9797.6,
		"flyability" : 100,
		"reason" : "",
		"timestamp" :1554480000
		},
	"2019-04-05T14:00:00-04:00" : {
		"windSpeed" : 3.1,
		"windDir" : 96,
		"rain" : 0,
		"cloudbase" : 9746.4,
		"flyability" : 100,
		"reason" : "",
		"timestamp" :1554490800
		},
	"2019-04-05T17:00:00-04:00" : {
		"windSpeed" : 2.9,
		"windDir" : 153,
		"rain" : 0,
		"cloudbase" : 9157.0384,
		"flyability" : 100,
		"reason" : "",
		"timestamp" :1554501600
		},
	"2019-04-05T20:00:00-04:00" : {
		"windSpeed" : 2.8,
		"windDir" : 152,
		"rain" : 0,
		"cloudbase" : 9197.6,
		"flyability" : 100,
		"reason" : "",
		"timestamp" :1554512400
		},
	"2019-04-05T23:00:00-04:00" : {
		"windSpeed" : 2.7,
		"windDir" : 144,
		"rain" : 0,
		"cloudbase" : 8897.6,
		"flyability" : 100,
		"reason" : "",
		"timestamp" :1554523200
		},
	"2019-04-06T02:00:00-04:00" : {
		"windSpeed" : 2,
		"windDir" : 153,
		"rain" : 0,
		"cloudbase" : 9026.4768,
		"flyability" : 100,
		"reason" : "",
		"timestamp" :1554534000
		},
	"2019-04-06T05:00:00-04:00" : {
		"windSpeed" : 1.3,
		"windDir" : 164,
		"rain" : 0,
		"cloudbase" : 9202.8928,
		"flyability" : 0,
		"reason" : "windDir",
		"timestamp" :1554544800
		},
	"2019-04-06T08:00:00-04:00" : {
		"windSpeed" : 1.2,
		"windDir" : 151,
		"rain" : 0,
		"cloudbase" : 8546.4,
		"flyability" : 100,
		"reason" : "",
		"timestamp" :1554555600
		},
	"2019-04-06T11:00:00-04:00" : {
		"windSpeed" : 2.7,
		"windDir" : 93,
		"rain" : 0,
		"cloudbase" : 8297.6,
		"flyability" : 100,
		"reason" : "",
		"timestamp" :1554566400
		},
	"2019-04-06T14:00:00-04:00" : {
		"windSpeed" : 2.5,
		"windDir" : 92,
		"rain" : 0,
		"cloudbase" : 8716.5456,
		"flyability" : 100,
		"reason" : "",
		"timestamp" :1554577200
		},
	"2019-04-06T17:00:00-04:00" : {
		"windSpeed" : 1.6,
		"windDir" : 126,
		"rain" : 1,
		"cloudbase" : null,
		"flyability" : 0,
		"reason" : "rain",
		"timestamp" :1554588000
		},
	"2019-04-06T20:00:00-04:00" : {
		"windSpeed" : 1.8,
		"windDir" : 128,
		"rain" : 0,
		"cloudbase" : null,
		"flyability" : 100,
		"reason" : "",
		"timestamp" :1554598800
		},
	"2019-04-06T23:00:00-04:00" : {
		"windSpeed" : 2,
		"windDir" : 138,
		"rain" : 0,
		"cloudbase" : null,
		"flyability" : 100,
		"reason" : "",
		"timestamp" :1554609600
		},
	"2019-04-07T02:00:00-04:00" : {
		"windSpeed" : 1.3,
		"windDir" : 144,
		"rain" : 0,
		"cloudbase" : null,
		"flyability" : 100,
		"reason" : "",
		"timestamp" :1554620400
		},
	"2019-04-07T05:00:00-04:00" : {
		"windSpeed" : 1.1,
		"windDir" : 150,
		"rain" : 0,
		"cloudbase" : null,
		"flyability" : 100,
		"reason" : "",
		"timestamp" :1554631200
		},
	"2019-04-07T08:00:00-04:00" : {
		"windSpeed" : 1.4,
		"windDir" : 136,
		"rain" : 0,
		"cloudbase" : null,
		"flyability" : 100,
		"reason" : "",
		"timestamp" :1554642000
		},
	"2019-04-07T11:00:00-04:00" : {
		"windSpeed" : 2.4,
		"windDir" : 92,
		"rain" : 0,
		"cloudbase" : null,
		"flyability" : 100,
		"reason" : "",
		"timestamp" :1554652800
		},
	"2019-04-07T14:00:00-04:00" : {
		"windSpeed" : 2.7,
		"windDir" : 112,
		"rain" : 1,
		"cloudbase" : null,
		"flyability" : 0,
		"reason" : "rain",
		"timestamp" :1554663600
		},
	"2019-04-07T17:00:00-04:00" : {
		"windSpeed" : 3.6,
		"windDir" : 86,
		"rain" : 1,
		"cloudbase" : 2700,
		"flyability" : 0,
		"reason" : "rain",
		"timestamp" :1554674400
		},
	"2019-04-07T20:00:00-04:00" : {
		"windSpeed" : 2,
		"windDir" : 126,
		"rain" : 1,
		"cloudbase" : 2476.3808,
		"flyability" : 0,
		"reason" : "rain",
		"timestamp" :1554685200
		},
	"2019-04-07T23:00:00-04:00" : {
		"windSpeed" : 1.8,
		"windDir" : 131,
		"rain" : 0,
		"cloudbase" : 2813.7,
		"flyability" : 100,
		"reason" : "",
		"timestamp" :1554696000
		},
	"2019-04-08T02:00:00-04:00" : {
		"windSpeed" : 2,
		"windDir" : 118,
		"rain" : 0,
		"cloudbase" : null,
		"flyability" : 100,
		"reason" : "",
		"timestamp" :1554706800
		},
	"2019-04-08T05:00:00-04:00" : {
		"windSpeed" : 2.7,
		"windDir" : 129,
		"rain" : 0,
		"cloudbase" : null,
		"flyability" : 100,
		"reason" : "",
		"timestamp" :1554717600
		},
	"2019-04-08T08:00:00-04:00" : {
		"windSpeed" : 2.9,
		"windDir" : 126,
		"rain" : 0,
		"cloudbase" : null,
		"flyability" : 100,
		"reason" : "",
		"timestamp" :1554728400
		},
	"2019-04-08T11:00:00-04:00" : {
		"windSpeed" : 3.9,
		"windDir" : 115,
		"rain" : 0,
		"cloudbase" : null,
		"flyability" : 100,
		"reason" : "",
		"timestamp" :1554739200
		},
	"2019-04-08T14:00:00-04:00" : {
		"windSpeed" : 3.8,
		"windDir" : 138,
		"rain" : 1,
		"cloudbase" : null,
		"flyability" : 0,
		"reason" : "rain",
		"timestamp" :1554750000
		},
	"2019-04-08T17:00:00-04:00" : {
		"windSpeed" : 2.3,
		"windDir" : 150,
		"rain" : 1,
		"cloudbase" : null,
		"flyability" : 0,
		"reason" : "rain",
		"timestamp" :1554760800
		},
	"2019-04-08T20:00:00-04:00" : {
		"windSpeed" : 2.3,
		"windDir" : 168,
		"rain" : 0,
		"cloudbase" : null,
		"flyability" : 0,
		"reason" : "windDir",
		"timestamp" :1554771600
		},
	"2019-04-08T23:00:00-04:00" : {
		"windSpeed" : 2.4,
		"windDir" : 170,
		"rain" : 0,
		"cloudbase" : null,
		"flyability" : 0,
		"reason" : "windDir",
		"timestamp" :1554782400
		},
	"2019-04-09T02:00:00-04:00" : {
		"windSpeed" : 1.1,
		"windDir" : 190,
		"rain" : 0,
		"cloudbase" : null,
		"flyability" : 0,
		"reason" : "windDir",
		"timestamp" :1554793200
		},
	"2019-04-09T05:00:00-04:00" : {
		"windSpeed" : 1.2,
		"windDir" : 187,
		"rain" : 0,
		"cloudbase" : null,
		"flyability" : 0,
		"reason" : "windDir",
		"timestamp" :1554804000
		},
	"2019-04-09T08:00:00-04:00" : {
		"windSpeed" : 1.7,
		"windDir" : 170,
		"rain" : 0,
		"cloudbase" : null,
		"flyability" : 0,
		"reason" : "windDir",
		"timestamp" :1554814800
		},
	"2019-04-09T11:00:00-04:00" : {
		"windSpeed" : 2,
		"windDir" : 146,
		"rain" : 1,
		"cloudbase" : 11744,
		"flyability" : 0,
		"reason" : "rain",
		"timestamp" :1554825600
		},
	"2019-04-09T14:00:00-04:00" : {
		"windSpeed" : 3.5,
		"windDir" : 181,
		"rain" : 1,
		"cloudbase" : 9983.7303999996,
		"flyability" : 0,
		"reason" : "windDir, rain",
		"timestamp" :1554836400
		},
	"2019-04-09T17:00:00-04:00" : {
		"windSpeed" : 3.4,
		"windDir" : 184,
		"rain" : 1,
		"cloudbase" : 10675.4752,
		"flyability" : 0,
		"reason" : "windDir, rain",
		"timestamp" :1554847200
		},
	"2019-04-09T20:00:00-04:00" : {
		"windSpeed" : 3.2,
		"windDir" : 184,
		"rain" : 0,
		"cloudbase" : null,
		"flyability" : 0,
		"reason" : "windDir",
		"timestamp" :1554858000
		},
	"2019-04-09T23:00:00-04:00" : {
		"windSpeed" : 2.3,
		"windDir" : 194,
		"rain" : 0,
		"cloudbase" : null,
		"flyability" : 0,
		"reason" : "windDir",
		"timestamp" :1554868800
		},
	"2019-04-10T02:00:00-04:00" : {
		"windSpeed" : 2.2,
		"windDir" : 195,
		"rain" : 0,
		"cloudbase" : null,
		"flyability" : 0,
		"reason" : "windDir",
		"timestamp" :1554879600
		},
	"2019-04-10T05:00:00-04:00" : {
		"windSpeed" : 2.2,
		"windDir" : 194,
		"rain" : 0,
		"cloudbase" : null,
		"flyability" : 0,
		"reason" : "windDir",
		"timestamp" :1554890400
		},
	"2019-04-10T08:00:00-04:00" : {
		"windSpeed" : 2.2,
		"windDir" : 189,
		"rain" : 0,
		"cloudbase" : null,
		"flyability" : 0,
		"reason" : "windDir",
		"timestamp" :1554901200
		},
	"2019-04-10T11:00:00-04:00" : {
		"windSpeed" : 2.8,
		"windDir" : 195,
		"rain" : 1,
		"cloudbase" : null,
		"flyability" : 0,
		"reason" : "windDir, rain",
		"timestamp" :1554912000
		},
	"2019-04-10T14:00:00-04:00" : {
		"windSpeed" : 3.3,
		"windDir" : 190,
		"rain" : 1,
		"cloudbase" : null,
		"flyability" : 0,
		"reason" : "windDir, rain",
		"timestamp" :1554922800
		},
	"2019-04-10T17:00:00-04:00" : {
		"windSpeed" : 0,
		"windDir" : 180,
		"rain" : 1,
		"cloudbase" : 3050,
		"flyability" : 0,
		"reason" : "windDir, rain",
		"timestamp" :1554933600
		},
	"2019-04-10T20:00:00-04:00" : {
		"windSpeed" : 2.7,
		"windDir" : 2,
		"rain" : 1,
		"cloudbase" : 2650,
		"flyability" : 0,
		"reason" : "rain",
		"timestamp" :1554944400
		}
	}
}