{
"site" : "Angelina",
"id" : 10545,
"orientations" : "02222000",
"forecasts" : { 
	"2019-04-04T09:00:00-06:00" : {
		"windSpeed" : 2.2,
		"windDir" : 98,
		"rain" : 0,
		"cloudbase" : null,
		"flyability" : 100,
		"reason" : "",
		"timestamp" :1554390000
		},
	"2019-04-04T12:00:00-06:00" : {
		"windSpeed" : 2.9,
		"windDir" : 84,
		"rain" : 1,
		"cloudbase" : 9700,
		"flyability" : 0,
		"reason" : "rain",
		"timestamp" :1554400800
		},
	"2019-04-04T15:00:00-06:00" : {
		"windSpeed" : 2.7,
		"windDir" : 77,
		"rain" : 1,
		"cloudbase" : null,
		"flyability" : 0,
		"reason" : "rain",
		"timestamp" :1554411600
		},
	"2019-04-04T18:00:00-06:00" : {
		"windSpeed" : 1,
		"windDir" : 75,
		"rain" : 1,
		"cloudbase" : 9781.7819999999,
		"flyability" : 0,
		"reason" : "rain",
		"timestamp" :1554422400
		},
	"2019-04-04T21:00:00-06:00" : {
		"windSpeed" : 0.7,
		"windDir" : 39,
		"rain" : 1,
		"cloudbase" : 9200,
		"flyability" : 0,
		"reason" : "rain",
		"timestamp" :1554433200
		},
	"2019-04-05T00:00:00-06:00" : {
		"windSpeed" : 0.6,
		"windDir" : 41,
		"rain" : 0,
		"cloudbase" : 8200,
		"flyability" : 100,
		"reason" : "",
		"timestamp" :1554444000
		},
	"2019-04-05T03:00:00-06:00" : {
		"windSpeed" : 0.6,
		"windDir" : 16,
		"rain" : 0,
		"cloudbase" : null,
		"flyability" : 0,
		"reason" : "windDir",
		"timestamp" :1554454800
		},
	"2019-04-05T06:00:00-06:00" : {
		"windSpeed" : 0.6,
		"windDir" : 12,
		"rain" : 0,
		"cloudbase" : 10465.25,
		"flyability" : 0,
		"reason" : "windDir",
		"timestamp" :1554465600
		},
	"2019-04-05T09:00:00-06:00" : {
		"windSpeed" : 1.5,
		"windDir" : 97,
		"rain" : 0,
		"cloudbase" : 10229.6618,
		"flyability" : 100,
		"reason" : "",
		"timestamp" :1554476400
		},
	"2019-04-05T12:00:00-06:00" : {
		"windSpeed" : 2.3,
		"windDir" : 98,
		"rain" : 0,
		"cloudbase" : 6283.0809999998,
		"flyability" : 100,
		"reason" : "",
		"timestamp" :1554487200
		},
	"2019-04-05T15:00:00-06:00" : {
		"windSpeed" : 1.9,
		"windDir" : 78,
		"rain" : 1,
		"cloudbase" : 1416.4646599998,
		"flyability" : 0,
		"reason" : "rain, cloudbase",
		"timestamp" :1554498000
		},
	"2019-04-05T18:00:00-06:00" : {
		"windSpeed" : 1,
		"windDir" : 111,
		"rain" : 1,
		"cloudbase" : 427.02058999996,
		"flyability" : 0,
		"reason" : "rain, cloudbase",
		"timestamp" :1554508800
		},
	"2019-04-05T21:00:00-06:00" : {
		"windSpeed" : 0.2,
		"windDir" : 25,
		"rain" : 1,
		"cloudbase" : 1200,
		"flyability" : 0,
		"reason" : "rain, cloudbase",
		"timestamp" :1554519600
		},
	"2019-04-06T00:00:00-06:00" : {
		"windSpeed" : 0.2,
		"windDir" : 339,
		"rain" : 1,
		"cloudbase" : 1050,
		"flyability" : 0,
		"reason" : "windDir, rain, cloudbase",
		"timestamp" :1554530400
		},
	"2019-04-06T03:00:00-06:00" : {
		"windSpeed" : 0.4,
		"windDir" : 342,
		"rain" : 1,
		"cloudbase" : 1450,
		"flyability" : 0,
		"reason" : "windDir, rain, cloudbase",
		"timestamp" :1554541200
		},
	"2019-04-06T06:00:00-06:00" : {
		"windSpeed" : 0.3,
		"windDir" : 313,
		"rain" : 1,
		"cloudbase" : null,
		"flyability" : 0,
		"reason" : "windDir, rain",
		"timestamp" :1554552000
		},
	"2019-04-06T09:00:00-06:00" : {
		"windSpeed" : 1.1,
		"windDir" : 120,
		"rain" : 0,
		"cloudbase" : 7950.6331999999,
		"flyability" : 100,
		"reason" : "",
		"timestamp" :1554562800
		},
	"2019-04-06T12:00:00-06:00" : {
		"windSpeed" : 1.9,
		"windDir" : 86,
		"rain" : 1,
		"cloudbase" : 3805.6282199997,
		"flyability" : 0,
		"reason" : "rain",
		"timestamp" :1554573600
		},
	"2019-04-06T15:00:00-06:00" : {
		"windSpeed" : 1.7,
		"windDir" : 96,
		"rain" : 1,
		"cloudbase" : 3485.0932799997,
		"flyability" : 0,
		"reason" : "rain",
		"timestamp" :1554584400
		},
	"2019-04-06T18:00:00-06:00" : {
		"windSpeed" : 0.6,
		"windDir" : 107,
		"rain" : 1,
		"cloudbase" : 2592.4043999999,
		"flyability" : 0,
		"reason" : "rain",
		"timestamp" :1554595200
		},
	"2019-04-06T21:00:00-06:00" : {
		"windSpeed" : 0.3,
		"windDir" : 206,
		"rain" : 1,
		"cloudbase" : 2918.4260599999,
		"flyability" : 0,
		"reason" : "windDir, rain",
		"timestamp" :1554606000
		},
	"2019-04-07T00:00:00-06:00" : {
		"windSpeed" : 0.2,
		"windDir" : 50,
		"rain" : 1,
		"cloudbase" : null,
		"flyability" : 0,
		"reason" : "rain",
		"timestamp" :1554616800
		},
	"2019-04-07T03:00:00-06:00" : {
		"windSpeed" : 0.2,
		"windDir" : 261,
		"rain" : 0,
		"cloudbase" : 1800,
		"flyability" : 0,
		"reason" : "windDir",
		"timestamp" :1554627600
		},
	"2019-04-07T06:00:00-06:00" : {
		"windSpeed" : 0.1,
		"windDir" : 299,
		"rain" : 1,
		"cloudbase" : 240,
		"flyability" : 0,
		"reason" : "windDir, rain, cloudbase",
		"timestamp" :1554638400
		},
	"2019-04-07T09:00:00-06:00" : {
		"windSpeed" : 1.5,
		"windDir" : 111,
		"rain" : 1,
		"cloudbase" : null,
		"flyability" : 0,
		"reason" : "rain",
		"timestamp" :1554649200
		},
	"2019-04-07T12:00:00-06:00" : {
		"windSpeed" : 2,
		"windDir" : 85,
		"rain" : 1,
		"cloudbase" : 3233.4417599999,
		"flyability" : 0,
		"reason" : "rain",
		"timestamp" :1554660000
		},
	"2019-04-07T15:00:00-06:00" : {
		"windSpeed" : 1.5,
		"windDir" : 98,
		"rain" : 1,
		"cloudbase" : 1496.1082199998,
		"flyability" : 0,
		"reason" : "rain, cloudbase",
		"timestamp" :1554670800
		},
	"2019-04-07T18:00:00-06:00" : {
		"windSpeed" : 0.8,
		"windDir" : 87,
		"rain" : 1,
		"cloudbase" : 1612.1075999999,
		"flyability" : 0,
		"reason" : "rain",
		"timestamp" :1554681600
		},
	"2019-04-07T21:00:00-06:00" : {
		"windSpeed" : 0.3,
		"windDir" : 81,
		"rain" : 1,
		"cloudbase" : 3750,
		"flyability" : 0,
		"reason" : "rain",
		"timestamp" :1554692400
		},
	"2019-04-08T00:00:00-06:00" : {
		"windSpeed" : 0.3,
		"windDir" : 255,
		"rain" : 1,
		"cloudbase" : null,
		"flyability" : 0,
		"reason" : "windDir, rain",
		"timestamp" :1554703200
		},
	"2019-04-08T03:00:00-06:00" : {
		"windSpeed" : 0.1,
		"windDir" : 360,
		"rain" : 1,
		"cloudbase" : null,
		"flyability" : 0,
		"reason" : "windDir, rain",
		"timestamp" :1554714000
		},
	"2019-04-08T06:00:00-06:00" : {
		"windSpeed" : 0.2,
		"windDir" : 331,
		"rain" : 1,
		"cloudbase" : 8493.4747999999,
		"flyability" : 0,
		"reason" : "windDir, rain",
		"timestamp" :1554724800
		},
	"2019-04-08T09:00:00-06:00" : {
		"windSpeed" : 1.4,
		"windDir" : 103,
		"rain" : 0,
		"cloudbase" : 2950,
		"flyability" : 100,
		"reason" : "",
		"timestamp" :1554735600
		},
	"2019-04-08T12:00:00-06:00" : {
		"windSpeed" : 1.6,
		"windDir" : 87,
		"rain" : 1,
		"cloudbase" : 420,
		"flyability" : 0,
		"reason" : "rain, cloudbase",
		"timestamp" :1554746400
		},
	"2019-04-08T15:00:00-06:00" : {
		"windSpeed" : 1.4,
		"windDir" : 95,
		"rain" : 1,
		"cloudbase" : 961.01071999993,
		"flyability" : 0,
		"reason" : "rain, cloudbase",
		"timestamp" :1554757200
		},
	"2019-04-08T18:00:00-06:00" : {
		"windSpeed" : 0.8,
		"windDir" : 83,
		"rain" : 0,
		"cloudbase" : 148.75156999999,
		"flyability" : 0,
		"reason" : "cloudbase",
		"timestamp" :1554768000
		},
	"2019-04-08T21:00:00-06:00" : {
		"windSpeed" : 0.1,
		"windDir" : 73,
		"rain" : 1,
		"cloudbase" : 57.430559999997,
		"flyability" : 0,
		"reason" : "rain, cloudbase",
		"timestamp" :1554778800
		},
	"2019-04-09T00:00:00-06:00" : {
		"windSpeed" : 0.6,
		"windDir" : 280,
		"rain" : 1,
		"cloudbase" : null,
		"flyability" : 0,
		"reason" : "windDir, rain",
		"timestamp" :1554789600
		},
	"2019-04-09T03:00:00-06:00" : {
		"windSpeed" : 0.3,
		"windDir" : 336,
		"rain" : 1,
		"cloudbase" : 2800,
		"flyability" : 0,
		"reason" : "windDir, rain",
		"timestamp" :1554800400
		},
	"2019-04-09T06:00:00-06:00" : {
		"windSpeed" : 0.3,
		"windDir" : 335,
		"rain" : 1,
		"cloudbase" : 800,
		"flyability" : 0,
		"reason" : "windDir, rain, cloudbase",
		"timestamp" :1554811200
		},
	"2019-04-09T09:00:00-06:00" : {
		"windSpeed" : 1.3,
		"windDir" : 90,
		"rain" : 1,
		"cloudbase" : 659.45465999999,
		"flyability" : 0,
		"reason" : "rain, cloudbase",
		"timestamp" :1554822000
		},
	"2019-04-09T12:00:00-06:00" : {
		"windSpeed" : 1.4,
		"windDir" : 84,
		"rain" : 1,
		"cloudbase" : null,
		"flyability" : 0,
		"reason" : "rain",
		"timestamp" :1554832800
		},
	"2019-04-09T15:00:00-06:00" : {
		"windSpeed" : 0.7,
		"windDir" : 92,
		"rain" : 1,
		"cloudbase" : 508.74537999998,
		"flyability" : 0,
		"reason" : "rain, cloudbase",
		"timestamp" :1554843600
		},
	"2019-04-09T18:00:00-06:00" : {
		"windSpeed" : 0.1,
		"windDir" : 206,
		"rain" : 0,
		"cloudbase" : 3150,
		"flyability" : 0,
		"reason" : "windDir",
		"timestamp" :1554854400
		},
	"2019-04-09T21:00:00-06:00" : {
		"windSpeed" : 0.2,
		"windDir" : 55,
		"rain" : 0,
		"cloudbase" : 30,
		"flyability" : 0,
		"reason" : "cloudbase",
		"timestamp" :1554865200
		},
	"2019-04-10T00:00:00-06:00" : {
		"windSpeed" : 0.6,
		"windDir" : 324,
		"rain" : 1,
		"cloudbase" : 6783.8146999998,
		"flyability" : 0,
		"reason" : "windDir, rain",
		"timestamp" :1554876000
		},
	"2019-04-10T03:00:00-06:00" : {
		"windSpeed" : 0.5,
		"windDir" : 294,
		"rain" : 1,
		"cloudbase" : 6174.7982999997,
		"flyability" : 0,
		"reason" : "windDir, rain",
		"timestamp" :1554886800
		},
	"2019-04-10T06:00:00-06:00" : {
		"windSpeed" : 0.4,
		"windDir" : 324,
		"rain" : 1,
		"cloudbase" : 6903.0852,
		"flyability" : 0,
		"reason" : "windDir, rain",
		"timestamp" :1554897600
		}
	}
}