{
"site" : "Lake Isabella",
"id" : 10582,
"orientations" : "00012100",
"forecasts" : { 
	"2019-04-02T20:00:00-07:00" : {
		"windSpeed" : 3.7,
		"windDir" : 285,
		"rain" : 1,
		"cloudbase" : null,
		"flyability" : 0,
		"reason" : "windDir, rain",
		"timestamp" :1554264000
		},
	"2019-04-02T23:00:00-07:00" : {
		"windSpeed" : 2.2,
		"windDir" : 257,
		"rain" : 1,
		"cloudbase" : 366.836,
		"flyability" : 0,
		"reason" : "windDir, rain, cloudbase",
		"timestamp" :1554274800
		},
	"2019-04-03T02:00:00-07:00" : {
		"windSpeed" : 2.1,
		"windDir" : 254,
		"rain" : 0,
		"cloudbase" : 312.77,
		"flyability" : 0,
		"reason" : "windDir, cloudbase",
		"timestamp" :1554285600
		},
	"2019-04-03T05:00:00-07:00" : {
		"windSpeed" : 2,
		"windDir" : 258,
		"rain" : 0,
		"cloudbase" : 438.488,
		"flyability" : 0,
		"reason" : "windDir, cloudbase",
		"timestamp" :1554296400
		},
	"2019-04-03T08:00:00-07:00" : {
		"windSpeed" : 1.4,
		"windDir" : 237,
		"rain" : 0,
		"cloudbase" : 5253.6200000003,
		"flyability" : 100,
		"reason" : "",
		"timestamp" :1554307200
		},
	"2019-04-03T11:00:00-07:00" : {
		"windSpeed" : 1.4,
		"windDir" : 262,
		"rain" : 0,
		"cloudbase" : 9911.1799999999,
		"flyability" : 0,
		"reason" : "windDir",
		"timestamp" :1554318000
		},
	"2019-04-03T14:00:00-07:00" : {
		"windSpeed" : 0.8,
		"windDir" : 282,
		"rain" : 0,
		"cloudbase" : 8277.1,
		"flyability" : 0,
		"reason" : "windDir",
		"timestamp" :1554328800
		},
	"2019-04-03T17:00:00-07:00" : {
		"windSpeed" : 3.1,
		"windDir" : 256,
		"rain" : 0,
		"cloudbase" : 8868.24,
		"flyability" : 0,
		"reason" : "windDir",
		"timestamp" :1554339600
		},
	"2019-04-03T20:00:00-07:00" : {
		"windSpeed" : 1.6,
		"windDir" : 249,
		"rain" : 0,
		"cloudbase" : 9868.24,
		"flyability" : 0,
		"reason" : "windDir",
		"timestamp" :1554350400
		},
	"2019-04-03T23:00:00-07:00" : {
		"windSpeed" : 1.1,
		"windDir" : 220,
		"rain" : 0,
		"cloudbase" : null,
		"flyability" : 100,
		"reason" : "",
		"timestamp" :1554361200
		},
	"2019-04-04T02:00:00-07:00" : {
		"windSpeed" : 0.1,
		"windDir" : 238,
		"rain" : 0,
		"cloudbase" : 7418.8800000001,
		"flyability" : 100,
		"reason" : "",
		"timestamp" :1554372000
		},
	"2019-04-04T05:00:00-07:00" : {
		"windSpeed" : 0.7,
		"windDir" : 227,
		"rain" : 0,
		"cloudbase" : 6927.08,
		"flyability" : 100,
		"reason" : "",
		"timestamp" :1554382800
		},
	"2019-04-04T08:00:00-07:00" : {
		"windSpeed" : 0.9,
		"windDir" : 237,
		"rain" : 0,
		"cloudbase" : 7118.22,
		"flyability" : 100,
		"reason" : "",
		"timestamp" :1554393600
		},
	"2019-04-04T11:00:00-07:00" : {
		"windSpeed" : 1.7,
		"windDir" : 257,
		"rain" : 0,
		"cloudbase" : 6385.1500000002,
		"flyability" : 0,
		"reason" : "windDir",
		"timestamp" :1554404400
		},
	"2019-04-04T14:00:00-07:00" : {
		"windSpeed" : 3.6,
		"windDir" : 257,
		"rain" : 0,
		"cloudbase" : 6686.1899999999,
		"flyability" : 0,
		"reason" : "windDir",
		"timestamp" :1554415200
		},
	"2019-04-04T17:00:00-07:00" : {
		"windSpeed" : 4.4,
		"windDir" : 278,
		"rain" : 0,
		"cloudbase" : 3526.19,
		"flyability" : 0,
		"reason" : "windDir",
		"timestamp" :1554426000
		},
	"2019-04-04T20:00:00-07:00" : {
		"windSpeed" : 2.1,
		"windDir" : 255,
		"rain" : 1,
		"cloudbase" : 4521.1600000001,
		"flyability" : 0,
		"reason" : "windDir, rain",
		"timestamp" :1554436800
		},
	"2019-04-04T23:00:00-07:00" : {
		"windSpeed" : 2.1,
		"windDir" : 258,
		"rain" : 0,
		"cloudbase" : 6054.6380000002,
		"flyability" : 0,
		"reason" : "windDir",
		"timestamp" :1554447600
		},
	"2019-04-05T02:00:00-07:00" : {
		"windSpeed" : 2.7,
		"windDir" : 262,
		"rain" : 0,
		"cloudbase" : 490,
		"flyability" : 0,
		"reason" : "windDir, cloudbase",
		"timestamp" :1554458400
		},
	"2019-04-05T05:00:00-07:00" : {
		"windSpeed" : 1.7,
		"windDir" : 253,
		"rain" : 0,
		"cloudbase" : null,
		"flyability" : 0,
		"reason" : "windDir",
		"timestamp" :1554469200
		},
	"2019-04-05T08:00:00-07:00" : {
		"windSpeed" : 2.3,
		"windDir" : 247,
		"rain" : 0,
		"cloudbase" : 8198.22,
		"flyability" : 100,
		"reason" : "",
		"timestamp" :1554480000
		},
	"2019-04-05T11:00:00-07:00" : {
		"windSpeed" : 4.5,
		"windDir" : 278,
		"rain" : 0,
		"cloudbase" : 4524.2359999999,
		"flyability" : 0,
		"reason" : "windDir",
		"timestamp" :1554490800
		},
	"2019-04-05T14:00:00-07:00" : {
		"windSpeed" : 5.3,
		"windDir" : 283,
		"rain" : 0,
		"cloudbase" : 5579.8500000002,
		"flyability" : 0,
		"reason" : "windSpeed, windDir",
		"timestamp" :1554501600
		},
	"2019-04-05T17:00:00-07:00" : {
		"windSpeed" : 4.5,
		"windDir" : 282,
		"rain" : 1,
		"cloudbase" : 2173.25,
		"flyability" : 0,
		"reason" : "windDir, rain",
		"timestamp" :1554512400
		},
	"2019-04-05T20:00:00-07:00" : {
		"windSpeed" : 2.6,
		"windDir" : 261,
		"rain" : 1,
		"cloudbase" : 1350,
		"flyability" : 0,
		"reason" : "windDir, rain",
		"timestamp" :1554523200
		},
	"2019-04-05T23:00:00-07:00" : {
		"windSpeed" : 1.9,
		"windDir" : 266,
		"rain" : 0,
		"cloudbase" : null,
		"flyability" : 0,
		"reason" : "windDir",
		"timestamp" :1554534000
		},
	"2019-04-06T02:00:00-07:00" : {
		"windSpeed" : 1.4,
		"windDir" : 265,
		"rain" : 0,
		"cloudbase" : 7571.7599999999,
		"flyability" : 0,
		"reason" : "windDir",
		"timestamp" :1554544800
		},
	"2019-04-06T05:00:00-07:00" : {
		"windSpeed" : 1.2,
		"windDir" : 242,
		"rain" : 0,
		"cloudbase" : 8421.78,
		"flyability" : 100,
		"reason" : "",
		"timestamp" :1554555600
		},
	"2019-04-06T08:00:00-07:00" : {
		"windSpeed" : 1.4,
		"windDir" : 249,
		"rain" : 0,
		"cloudbase" : 8245.3,
		"flyability" : 0,
		"reason" : "windDir",
		"timestamp" :1554566400
		},
	"2019-04-06T11:00:00-07:00" : {
		"windSpeed" : 4,
		"windDir" : 266,
		"rain" : 0,
		"cloudbase" : null,
		"flyability" : 0,
		"reason" : "windDir",
		"timestamp" :1554577200
		},
	"2019-04-06T14:00:00-07:00" : {
		"windSpeed" : 5.7,
		"windDir" : 285,
		"rain" : 0,
		"cloudbase" : 3144.2600000004,
		"flyability" : 0,
		"reason" : "windSpeed, windDir",
		"timestamp" :1554588000
		},
	"2019-04-06T17:00:00-07:00" : {
		"windSpeed" : 4.5,
		"windDir" : 278,
		"rain" : 0,
		"cloudbase" : 6974.8260000002,
		"flyability" : 0,
		"reason" : "windDir",
		"timestamp" :1554598800
		},
	"2019-04-06T20:00:00-07:00" : {
		"windSpeed" : 2,
		"windDir" : 256,
		"rain" : 0,
		"cloudbase" : 9718.84,
		"flyability" : 0,
		"reason" : "windDir",
		"timestamp" :1554609600
		},
	"2019-04-06T23:00:00-07:00" : {
		"windSpeed" : 1.5,
		"windDir" : 264,
		"rain" : 0,
		"cloudbase" : 9680,
		"flyability" : 0,
		"reason" : "windDir",
		"timestamp" :1554620400
		},
	"2019-04-07T02:00:00-07:00" : {
		"windSpeed" : 2,
		"windDir" : 256,
		"rain" : 0,
		"cloudbase" : 9604.72,
		"flyability" : 0,
		"reason" : "windDir",
		"timestamp" :1554631200
		},
	"2019-04-07T05:00:00-07:00" : {
		"windSpeed" : 2,
		"windDir" : 267,
		"rain" : 0,
		"cloudbase" : null,
		"flyability" : 0,
		"reason" : "windDir",
		"timestamp" :1554642000
		},
	"2019-04-07T08:00:00-07:00" : {
		"windSpeed" : 1.6,
		"windDir" : 254,
		"rain" : 0,
		"cloudbase" : null,
		"flyability" : 0,
		"reason" : "windDir",
		"timestamp" :1554652800
		},
	"2019-04-07T11:00:00-07:00" : {
		"windSpeed" : 2.3,
		"windDir" : 254,
		"rain" : 0,
		"cloudbase" : 6768.24,
		"flyability" : 0,
		"reason" : "windDir",
		"timestamp" :1554663600
		},
	"2019-04-07T14:00:00-07:00" : {
		"windSpeed" : 5.4,
		"windDir" : 267,
		"rain" : 0,
		"cloudbase" : 8335.9,
		"flyability" : 0,
		"reason" : "windSpeed, windDir",
		"timestamp" :1554674400
		},
	"2019-04-07T17:00:00-07:00" : {
		"windSpeed" : 4.5,
		"windDir" : 266,
		"rain" : 0,
		"cloudbase" : 8668.24,
		"flyability" : 0,
		"reason" : "windDir",
		"timestamp" :1554685200
		},
	"2019-04-07T20:00:00-07:00" : {
		"windSpeed" : 1.9,
		"windDir" : 239,
		"rain" : 0,
		"cloudbase" : 8668.24,
		"flyability" : 100,
		"reason" : "",
		"timestamp" :1554696000
		},
	"2019-04-07T23:00:00-07:00" : {
		"windSpeed" : 1.5,
		"windDir" : 265,
		"rain" : 0,
		"cloudbase" : 8618.84,
		"flyability" : 0,
		"reason" : "windDir",
		"timestamp" :1554706800
		},
	"2019-04-08T02:00:00-07:00" : {
		"windSpeed" : 1.5,
		"windDir" : 262,
		"rain" : 0,
		"cloudbase" : 8069.44,
		"flyability" : 0,
		"reason" : "windDir",
		"timestamp" :1554717600
		},
	"2019-04-08T05:00:00-07:00" : {
		"windSpeed" : 1.1,
		"windDir" : 264,
		"rain" : 0,
		"cloudbase" : 8347.7400000001,
		"flyability" : 0,
		"reason" : "windDir",
		"timestamp" :1554728400
		},
	"2019-04-08T08:00:00-07:00" : {
		"windSpeed" : 1.2,
		"windDir" : 267,
		"rain" : 0,
		"cloudbase" : 6256.48,
		"flyability" : 0,
		"reason" : "windDir",
		"timestamp" :1554739200
		},
	"2019-04-08T11:00:00-07:00" : {
		"windSpeed" : 3.7,
		"windDir" : 258,
		"rain" : 0,
		"cloudbase" : 6565.3,
		"flyability" : 0,
		"reason" : "windDir",
		"timestamp" :1554750000
		},
	"2019-04-08T14:00:00-07:00" : {
		"windSpeed" : 4.9,
		"windDir" : 265,
		"rain" : 0,
		"cloudbase" : 6438.84,
		"flyability" : 0,
		"reason" : "windDir",
		"timestamp" :1554760800
		},
	"2019-04-08T17:00:00-07:00" : {
		"windSpeed" : 4.7,
		"windDir" : 259,
		"rain" : 0,
		"cloudbase" : 6336.48,
		"flyability" : 0,
		"reason" : "windDir",
		"timestamp" :1554771600
		}
	}
}