{
"site" : "New Jack City - West Ridge",
"id" : 10580,
"orientations" : "02202200",
"forecasts" : { 
	"2019-04-09T20:00:00-07:00" : {
		"windSpeed" : 7.4,
		"windDir" : 275,
		"rain" : 0,
		"cloudbase" : null,
		"flyability" : 0,
		"reason" : "windSpeed, windDir",
		"timestamp" :1554868800
		},
	"2019-04-09T23:00:00-07:00" : {
		"windSpeed" : 6.1,
		"windDir" : 280,
		"rain" : 0,
		"cloudbase" : null,
		"flyability" : 0,
		"reason" : "windSpeed, windDir",
		"timestamp" :1554879600
		},
	"2019-04-10T02:00:00-07:00" : {
		"windSpeed" : 4.5,
		"windDir" : 287,
		"rain" : 0,
		"cloudbase" : null,
		"flyability" : 0,
		"reason" : "windDir",
		"timestamp" :1554890400
		},
	"2019-04-10T05:00:00-07:00" : {
		"windSpeed" : 3.4,
		"windDir" : 282,
		"rain" : 0,
		"cloudbase" : null,
		"flyability" : 0,
		"reason" : "windDir",
		"timestamp" :1554901200
		},
	"2019-04-10T08:00:00-07:00" : {
		"windSpeed" : 3.4,
		"windDir" : 279,
		"rain" : 0,
		"cloudbase" : null,
		"flyability" : 0,
		"reason" : "windDir",
		"timestamp" :1554912000
		},
	"2019-04-10T11:00:00-07:00" : {
		"windSpeed" : 5,
		"windDir" : 315,
		"rain" : 0,
		"cloudbase" : null,
		"flyability" : 0,
		"reason" : "windDir",
		"timestamp" :1554922800
		},
	"2019-04-10T14:00:00-07:00" : {
		"windSpeed" : 4.9,
		"windDir" : 314,
		"rain" : 0,
		"cloudbase" : null,
		"flyability" : 0,
		"reason" : "windDir",
		"timestamp" :1554933600
		},
	"2019-04-10T17:00:00-07:00" : {
		"windSpeed" : 6,
		"windDir" : 293,
		"rain" : 0,
		"cloudbase" : null,
		"flyability" : 0,
		"reason" : "windSpeed, windDir",
		"timestamp" :1554944400
		},
	"2019-04-10T20:00:00-07:00" : {
		"windSpeed" : 6,
		"windDir" : 281,
		"rain" : 0,
		"cloudbase" : null,
		"flyability" : 0,
		"reason" : "windSpeed, windDir",
		"timestamp" :1554955200
		},
	"2019-04-10T23:00:00-07:00" : {
		"windSpeed" : 3.3,
		"windDir" : 273,
		"rain" : 0,
		"cloudbase" : null,
		"flyability" : 0,
		"reason" : "windDir",
		"timestamp" :1554966000
		},
	"2019-04-11T02:00:00-07:00" : {
		"windSpeed" : 1.2,
		"windDir" : 214,
		"rain" : 0,
		"cloudbase" : null,
		"flyability" : 100,
		"reason" : "",
		"timestamp" :1554976800
		},
	"2019-04-11T05:00:00-07:00" : {
		"windSpeed" : 1.5,
		"windDir" : 193,
		"rain" : 0,
		"cloudbase" : null,
		"flyability" : 100,
		"reason" : "",
		"timestamp" :1554987600
		},
	"2019-04-11T08:00:00-07:00" : {
		"windSpeed" : 1,
		"windDir" : 280,
		"rain" : 0,
		"cloudbase" : null,
		"flyability" : 0,
		"reason" : "windDir",
		"timestamp" :1554998400
		},
	"2019-04-11T11:00:00-07:00" : {
		"windSpeed" : 1.7,
		"windDir" : 270,
		"rain" : 0,
		"cloudbase" : 7344.144,
		"flyability" : 0,
		"reason" : "windDir",
		"timestamp" :1555009200
		},
	"2019-04-11T14:00:00-07:00" : {
		"windSpeed" : 5.1,
		"windDir" : 251,
		"rain" : 0,
		"cloudbase" : 7493.389,
		"flyability" : 0,
		"reason" : "windSpeed, windDir",
		"timestamp" :1555020000
		},
	"2019-04-11T17:00:00-07:00" : {
		"windSpeed" : 8.3,
		"windDir" : 274,
		"rain" : 0,
		"cloudbase" : 3937.211,
		"flyability" : 0,
		"reason" : "windSpeed, windDir",
		"timestamp" :1555030800
		},
	"2019-04-11T20:00:00-07:00" : {
		"windSpeed" : 6.2,
		"windDir" : 261,
		"rain" : 0,
		"cloudbase" : null,
		"flyability" : 0,
		"reason" : "windSpeed, windDir",
		"timestamp" :1555041600
		},
	"2019-04-11T23:00:00-07:00" : {
		"windSpeed" : 4.6,
		"windDir" : 260,
		"rain" : 0,
		"cloudbase" : null,
		"flyability" : 0,
		"reason" : "windDir",
		"timestamp" :1555052400
		},
	"2019-04-12T02:00:00-07:00" : {
		"windSpeed" : 3.4,
		"windDir" : 282,
		"rain" : 0,
		"cloudbase" : null,
		"flyability" : 0,
		"reason" : "windDir",
		"timestamp" :1555063200
		},
	"2019-04-12T05:00:00-07:00" : {
		"windSpeed" : 2,
		"windDir" : 280,
		"rain" : 0,
		"cloudbase" : null,
		"flyability" : 0,
		"reason" : "windDir",
		"timestamp" :1555074000
		},
	"2019-04-12T08:00:00-07:00" : {
		"windSpeed" : 2.4,
		"windDir" : 263,
		"rain" : 0,
		"cloudbase" : null,
		"flyability" : 0,
		"reason" : "windDir",
		"timestamp" :1555084800
		},
	"2019-04-12T11:00:00-07:00" : {
		"windSpeed" : 4.3,
		"windDir" : 330,
		"rain" : 0,
		"cloudbase" : null,
		"flyability" : 0,
		"reason" : "windDir",
		"timestamp" :1555095600
		},
	"2019-04-12T14:00:00-07:00" : {
		"windSpeed" : 5.3,
		"windDir" : 327,
		"rain" : 1,
		"cloudbase" : 2494.211,
		"flyability" : 0,
		"reason" : "windSpeed, windDir, rain",
		"timestamp" :1555106400
		},
	"2019-04-12T17:00:00-07:00" : {
		"windSpeed" : 5.6,
		"windDir" : 337,
		"rain" : 0,
		"cloudbase" : 2850,
		"flyability" : 0,
		"reason" : "windSpeed, windDir",
		"timestamp" :1555117200
		},
	"2019-04-12T20:00:00-07:00" : {
		"windSpeed" : 3.7,
		"windDir" : 358,
		"rain" : 0,
		"cloudbase" : null,
		"flyability" : 0,
		"reason" : "windDir",
		"timestamp" :1555128000
		},
	"2019-04-12T23:00:00-07:00" : {
		"windSpeed" : 0.3,
		"windDir" : 287,
		"rain" : 0,
		"cloudbase" : null,
		"flyability" : 0,
		"reason" : "windDir",
		"timestamp" :1555138800
		},
	"2019-04-13T02:00:00-07:00" : {
		"windSpeed" : 1.2,
		"windDir" : 239,
		"rain" : 0,
		"cloudbase" : null,
		"flyability" : 100,
		"reason" : "",
		"timestamp" :1555149600
		},
	"2019-04-13T05:00:00-07:00" : {
		"windSpeed" : 0.7,
		"windDir" : 290,
		"rain" : 0,
		"cloudbase" : null,
		"flyability" : 0,
		"reason" : "windDir",
		"timestamp" :1555160400
		},
	"2019-04-13T08:00:00-07:00" : {
		"windSpeed" : 1.4,
		"windDir" : 15,
		"rain" : 0,
		"cloudbase" : null,
		"flyability" : 0,
		"reason" : "windDir",
		"timestamp" :1555171200
		},
	"2019-04-13T11:00:00-07:00" : {
		"windSpeed" : 1.9,
		"windDir" : 20,
		"rain" : 0,
		"cloudbase" : null,
		"flyability" : 0,
		"reason" : "windDir",
		"timestamp" :1555182000
		},
	"2019-04-13T14:00:00-07:00" : {
		"windSpeed" : 2.1,
		"windDir" : 328,
		"rain" : 0,
		"cloudbase" : null,
		"flyability" : 0,
		"reason" : "windDir",
		"timestamp" :1555192800
		},
	"2019-04-13T17:00:00-07:00" : {
		"windSpeed" : 3.2,
		"windDir" : 302,
		"rain" : 0,
		"cloudbase" : null,
		"flyability" : 0,
		"reason" : "windDir",
		"timestamp" :1555203600
		},
	"2019-04-13T20:00:00-07:00" : {
		"windSpeed" : 2.6,
		"windDir" : 231,
		"rain" : 0,
		"cloudbase" : null,
		"flyability" : 100,
		"reason" : "",
		"timestamp" :1555214400
		},
	"2019-04-13T23:00:00-07:00" : {
		"windSpeed" : 3.2,
		"windDir" : 250,
		"rain" : 0,
		"cloudbase" : null,
		"flyability" : 0,
		"reason" : "windDir",
		"timestamp" :1555225200
		},
	"2019-04-14T02:00:00-07:00" : {
		"windSpeed" : 2.6,
		"windDir" : 231,
		"rain" : 0,
		"cloudbase" : null,
		"flyability" : 100,
		"reason" : "",
		"timestamp" :1555236000
		},
	"2019-04-14T05:00:00-07:00" : {
		"windSpeed" : 3.1,
		"windDir" : 222,
		"rain" : 0,
		"cloudbase" : 9195.289,
		"flyability" : 100,
		"reason" : "",
		"timestamp" :1555246800
		},
	"2019-04-14T08:00:00-07:00" : {
		"windSpeed" : 3.4,
		"windDir" : 223,
		"rain" : 0,
		"cloudbase" : 9195.289,
		"flyability" : 100,
		"reason" : "",
		"timestamp" :1555257600
		},
	"2019-04-14T11:00:00-07:00" : {
		"windSpeed" : 6.6,
		"windDir" : 237,
		"rain" : 0,
		"cloudbase" : 8925.7,
		"flyability" : 0,
		"reason" : "windSpeed",
		"timestamp" :1555268400
		},
	"2019-04-14T14:00:00-07:00" : {
		"windSpeed" : 6.6,
		"windDir" : 235,
		"rain" : 0,
		"cloudbase" : null,
		"flyability" : 0,
		"reason" : "windSpeed",
		"timestamp" :1555279200
		},
	"2019-04-14T17:00:00-07:00" : {
		"windSpeed" : 7.5,
		"windDir" : 226,
		"rain" : 0,
		"cloudbase" : 9700,
		"flyability" : 0,
		"reason" : "windSpeed",
		"timestamp" :1555290000
		},
	"2019-04-14T20:00:00-07:00" : {
		"windSpeed" : 5.3,
		"windDir" : 222,
		"rain" : 0,
		"cloudbase" : 9865.4,
		"flyability" : 0,
		"reason" : "windSpeed",
		"timestamp" :1555300800
		},
	"2019-04-14T23:00:00-07:00" : {
		"windSpeed" : 5.8,
		"windDir" : 223,
		"rain" : 0,
		"cloudbase" : 9802.811,
		"flyability" : 0,
		"reason" : "windSpeed",
		"timestamp" :1555311600
		},
	"2019-04-15T02:00:00-07:00" : {
		"windSpeed" : 6.3,
		"windDir" : 228,
		"rain" : 0,
		"cloudbase" : 9298.1,
		"flyability" : 0,
		"reason" : "windSpeed",
		"timestamp" :1555322400
		},
	"2019-04-15T05:00:00-07:00" : {
		"windSpeed" : 6.2,
		"windDir" : 234,
		"rain" : 0,
		"cloudbase" : null,
		"flyability" : 0,
		"reason" : "windSpeed",
		"timestamp" :1555333200
		},
	"2019-04-15T08:00:00-07:00" : {
		"windSpeed" : 5.6,
		"windDir" : 244,
		"rain" : 0,
		"cloudbase" : 6030.8,
		"flyability" : 0,
		"reason" : "windSpeed",
		"timestamp" :1555344000
		},
	"2019-04-15T11:00:00-07:00" : {
		"windSpeed" : 7,
		"windDir" : 242,
		"rain" : 1,
		"cloudbase" : 8332.7,
		"flyability" : 0,
		"reason" : "windSpeed, rain",
		"timestamp" :1555354800
		},
	"2019-04-15T14:00:00-07:00" : {
		"windSpeed" : 8.2,
		"windDir" : 250,
		"rain" : 0,
		"cloudbase" : 9490.711,
		"flyability" : 0,
		"reason" : "windSpeed, windDir",
		"timestamp" :1555365600
		},
	"2019-04-15T17:00:00-07:00" : {
		"windSpeed" : 8.6,
		"windDir" : 253,
		"rain" : 0,
		"cloudbase" : 8300,
		"flyability" : 0,
		"reason" : "windSpeed, windDir",
		"timestamp" :1555376400
		}
	}
}