{
"site" : "Zarautz",
"id" : 10615,
"orientations" : "22000001",
"forecasts" : { 
	"2019-04-14T05:00:00+02:00" : {
		"windSpeed" : 1.8,
		"windDir" : 217,
		"rain" : 0,
		"cloudbase" : 2788.3706,
		"flyability" : 0,
		"reason" : "windDir",
		"timestamp" :1555214400
		},
	"2019-04-14T08:00:00+02:00" : {
		"windSpeed" : 0.8,
		"windDir" : 207,
		"rain" : 0,
		"cloudbase" : 2058.1706,
		"flyability" : 0,
		"reason" : "windDir",
		"timestamp" :1555225200
		},
	"2019-04-14T11:00:00+02:00" : {
		"windSpeed" : 0.7,
		"windDir" : 132,
		"rain" : 1,
		"cloudbase" : 2974.2410000003,
		"flyability" : 0,
		"reason" : "windDir, rain",
		"timestamp" :1555236000
		},
	"2019-04-14T14:00:00+02:00" : {
		"windSpeed" : 3.3,
		"windDir" : 49,
		"rain" : 0,
		"cloudbase" : 1251.9206,
		"flyability" : 100,
		"reason" : "",
		"timestamp" :1555246800
		},
	"2019-04-14T17:00:00+02:00" : {
		"windSpeed" : 3,
		"windDir" : 39,
		"rain" : 0,
		"cloudbase" : 9890.1,
		"flyability" : 100,
		"reason" : "",
		"timestamp" :1555257600
		},
	"2019-04-14T20:00:00+02:00" : {
		"windSpeed" : 1.4,
		"windDir" : 49,
		"rain" : 0,
		"cloudbase" : 9993.9412,
		"flyability" : 100,
		"reason" : "",
		"timestamp" :1555268400
		},
	"2019-04-14T23:00:00+02:00" : {
		"windSpeed" : 1.7,
		"windDir" : 125,
		"rain" : 0,
		"cloudbase" : null,
		"flyability" : 0,
		"reason" : "windDir",
		"timestamp" :1555279200
		},
	"2019-04-15T02:00:00+02:00" : {
		"windSpeed" : 1.6,
		"windDir" : 162,
		"rain" : 0,
		"cloudbase" : 10480.794,
		"flyability" : 0,
		"reason" : "windDir",
		"timestamp" :1555290000
		},
	"2019-04-15T05:00:00+02:00" : {
		"windSpeed" : 2.1,
		"windDir" : 184,
		"rain" : 0,
		"cloudbase" : 7980.2,
		"flyability" : 0,
		"reason" : "windDir",
		"timestamp" :1555300800
		},
	"2019-04-15T08:00:00+02:00" : {
		"windSpeed" : 2.8,
		"windDir" : 183,
		"rain" : 0,
		"cloudbase" : 8205.3587999998,
		"flyability" : 0,
		"reason" : "windDir",
		"timestamp" :1555311600
		},
	"2019-04-15T11:00:00+02:00" : {
		"windSpeed" : 3.4,
		"windDir" : 152,
		"rain" : 0,
		"cloudbase" : 9922.8412,
		"flyability" : 0,
		"reason" : "windDir",
		"timestamp" :1555322400
		},
	"2019-04-15T14:00:00+02:00" : {
		"windSpeed" : 3.3,
		"windDir" : 179,
		"rain" : 0,
		"cloudbase" : 4391.2088,
		"flyability" : 0,
		"reason" : "windDir",
		"timestamp" :1555333200
		},
	"2019-04-15T17:00:00+02:00" : {
		"windSpeed" : 1.8,
		"windDir" : 249,
		"rain" : 0,
		"cloudbase" : 4815.0116000001,
		"flyability" : 0,
		"reason" : "windDir",
		"timestamp" :1555344000
		},
	"2019-04-15T20:00:00+02:00" : {
		"windSpeed" : 7.8,
		"windDir" : 284,
		"rain" : 0,
		"cloudbase" : 1713.18368,
		"flyability" : 0,
		"reason" : "windSpeed, windDir",
		"timestamp" :1555354800
		},
	"2019-04-15T23:00:00+02:00" : {
		"windSpeed" : 3.6,
		"windDir" : 241,
		"rain" : 1,
		"cloudbase" : 2007.7706,
		"flyability" : 0,
		"reason" : "windDir, rain",
		"timestamp" :1555365600
		},
	"2019-04-16T02:00:00+02:00" : {
		"windSpeed" : 4.8,
		"windDir" : 259,
		"rain" : 1,
		"cloudbase" : 2438.7894000002,
		"flyability" : 0,
		"reason" : "windDir, rain",
		"timestamp" :1555376400
		},
	"2019-04-16T05:00:00+02:00" : {
		"windSpeed" : 3.8,
		"windDir" : 248,
		"rain" : 0,
		"cloudbase" : 280,
		"flyability" : 0,
		"reason" : "windDir",
		"timestamp" :1555387200
		},
	"2019-04-16T08:00:00+02:00" : {
		"windSpeed" : 2.8,
		"windDir" : 227,
		"rain" : 1,
		"cloudbase" : 330,
		"flyability" : 0,
		"reason" : "windDir, rain",
		"timestamp" :1555398000
		},
	"2019-04-16T11:00:00+02:00" : {
		"windSpeed" : 1.5,
		"windDir" : 294,
		"rain" : 1,
		"cloudbase" : null,
		"flyability" : 0,
		"reason" : "rain",
		"timestamp" :1555408800
		},
	"2019-04-16T14:00:00+02:00" : {
		"windSpeed" : 2.8,
		"windDir" : 29,
		"rain" : 0,
		"cloudbase" : null,
		"flyability" : 100,
		"reason" : "",
		"timestamp" :1555419600
		},
	"2019-04-16T17:00:00+02:00" : {
		"windSpeed" : 4.1,
		"windDir" : 48,
		"rain" : 0,
		"cloudbase" : null,
		"flyability" : 100,
		"reason" : "",
		"timestamp" :1555430400
		},
	"2019-04-16T20:00:00+02:00" : {
		"windSpeed" : 3.4,
		"windDir" : 75,
		"rain" : 0,
		"cloudbase" : 8700,
		"flyability" : 0,
		"reason" : "windDir",
		"timestamp" :1555441200
		},
	"2019-04-16T23:00:00+02:00" : {
		"windSpeed" : 2.3,
		"windDir" : 92,
		"rain" : 1,
		"cloudbase" : 7351.3,
		"flyability" : 0,
		"reason" : "windDir, rain",
		"timestamp" :1555452000
		},
	"2019-04-17T02:00:00+02:00" : {
		"windSpeed" : 2.7,
		"windDir" : 158,
		"rain" : 1,
		"cloudbase" : 8872.5176,
		"flyability" : 0,
		"reason" : "windDir, rain",
		"timestamp" :1555462800
		},
	"2019-04-17T05:00:00+02:00" : {
		"windSpeed" : 3.7,
		"windDir" : 146,
		"rain" : 1,
		"cloudbase" : 8503.8412,
		"flyability" : 0,
		"reason" : "windDir, rain",
		"timestamp" :1555473600
		},
	"2019-04-17T08:00:00+02:00" : {
		"windSpeed" : 8.6,
		"windDir" : 170,
		"rain" : 0,
		"cloudbase" : 9867.906,
		"flyability" : 0,
		"reason" : "windSpeed, windDir",
		"timestamp" :1555484400
		},
	"2019-04-17T11:00:00+02:00" : {
		"windSpeed" : 7.5,
		"windDir" : 172,
		"rain" : 0,
		"cloudbase" : 10480.794,
		"flyability" : 0,
		"reason" : "windSpeed, windDir",
		"timestamp" :1555495200
		},
	"2019-04-17T14:00:00+02:00" : {
		"windSpeed" : 2.5,
		"windDir" : 141,
		"rain" : 0,
		"cloudbase" : 11275.706,
		"flyability" : 0,
		"reason" : "windDir",
		"timestamp" :1555506000
		},
	"2019-04-17T17:00:00+02:00" : {
		"windSpeed" : 3.2,
		"windDir" : 139,
		"rain" : 1,
		"cloudbase" : 11500,
		"flyability" : 0,
		"reason" : "windDir, rain",
		"timestamp" :1555516800
		},
	"2019-04-17T20:00:00+02:00" : {
		"windSpeed" : 3.3,
		"windDir" : 110,
		"rain" : 0,
		"cloudbase" : 10500,
		"flyability" : 0,
		"reason" : "windDir",
		"timestamp" :1555527600
		},
	"2019-04-17T23:00:00+02:00" : {
		"windSpeed" : 3.6,
		"windDir" : 147,
		"rain" : 1,
		"cloudbase" : 9135.3412,
		"flyability" : 0,
		"reason" : "windDir, rain",
		"timestamp" :1555538400
		},
	"2019-04-18T02:00:00+02:00" : {
		"windSpeed" : 7.1,
		"windDir" : 168,
		"rain" : 0,
		"cloudbase" : 5884.0412,
		"flyability" : 0,
		"reason" : "windSpeed, windDir",
		"timestamp" :1555549200
		},
	"2019-04-18T05:00:00+02:00" : {
		"windSpeed" : 7,
		"windDir" : 163,
		"rain" : 0,
		"cloudbase" : 5406.5000000001,
		"flyability" : 0,
		"reason" : "windSpeed, windDir",
		"timestamp" :1555560000
		},
	"2019-04-18T08:00:00+02:00" : {
		"windSpeed" : 5.5,
		"windDir" : 186,
		"rain" : 0,
		"cloudbase" : 5141.0176,
		"flyability" : 0,
		"reason" : "windSpeed, windDir",
		"timestamp" :1555570800
		},
	"2019-04-18T11:00:00+02:00" : {
		"windSpeed" : 1.5,
		"windDir" : 323,
		"rain" : 0,
		"cloudbase" : 4935.15,
		"flyability" : 100,
		"reason" : "",
		"timestamp" :1555581600
		},
	"2019-04-18T14:00:00+02:00" : {
		"windSpeed" : 2,
		"windDir" : 72,
		"rain" : 1,
		"cloudbase" : 5092.4647999999,
		"flyability" : 0,
		"reason" : "windDir, rain",
		"timestamp" :1555592400
		},
	"2019-04-18T17:00:00+02:00" : {
		"windSpeed" : 2.1,
		"windDir" : 62,
		"rain" : 1,
		"cloudbase" : 5027.7618,
		"flyability" : 0,
		"reason" : "rain",
		"timestamp" :1555603200
		},
	"2019-04-18T20:00:00+02:00" : {
		"windSpeed" : 3.2,
		"windDir" : 70,
		"rain" : 1,
		"cloudbase" : 5078.2794,
		"flyability" : 0,
		"reason" : "windDir, rain",
		"timestamp" :1555614000
		},
	"2019-04-18T23:00:00+02:00" : {
		"windSpeed" : 1.9,
		"windDir" : 192,
		"rain" : 0,
		"cloudbase" : 5519.0825999999,
		"flyability" : 0,
		"reason" : "windDir",
		"timestamp" :1555624800
		},
	"2019-04-19T02:00:00+02:00" : {
		"windSpeed" : 1.6,
		"windDir" : 175,
		"rain" : 1,
		"cloudbase" : 6338.8,
		"flyability" : 0,
		"reason" : "windDir, rain",
		"timestamp" :1555635600
		},
	"2019-04-19T05:00:00+02:00" : {
		"windSpeed" : 2.9,
		"windDir" : 187,
		"rain" : 0,
		"cloudbase" : 10446.6588,
		"flyability" : 0,
		"reason" : "windDir",
		"timestamp" :1555646400
		},
	"2019-04-19T08:00:00+02:00" : {
		"windSpeed" : 3.1,
		"windDir" : 175,
		"rain" : 1,
		"cloudbase" : 11000,
		"flyability" : 0,
		"reason" : "windDir, rain",
		"timestamp" :1555657200
		},
	"2019-04-19T11:00:00+02:00" : {
		"windSpeed" : 1.9,
		"windDir" : 53,
		"rain" : 0,
		"cloudbase" : null,
		"flyability" : 100,
		"reason" : "",
		"timestamp" :1555668000
		},
	"2019-04-19T14:00:00+02:00" : {
		"windSpeed" : 3.5,
		"windDir" : 37,
		"rain" : 0,
		"cloudbase" : 9886.2588,
		"flyability" : 100,
		"reason" : "",
		"timestamp" :1555678800
		},
	"2019-04-19T17:00:00+02:00" : {
		"windSpeed" : 2.7,
		"windDir" : 47,
		"rain" : 0,
		"cloudbase" : 4780.2,
		"flyability" : 100,
		"reason" : "",
		"timestamp" :1555689600
		},
	"2019-04-19T20:00:00+02:00" : {
		"windSpeed" : 0.6,
		"windDir" : 175,
		"rain" : 0,
		"cloudbase" : 6786.0056000001,
		"flyability" : 0,
		"reason" : "windDir",
		"timestamp" :1555700400
		},
	"2019-04-19T23:00:00+02:00" : {
		"windSpeed" : 1.4,
		"windDir" : 47,
		"rain" : 0,
		"cloudbase" : null,
		"flyability" : 100,
		"reason" : "",
		"timestamp" :1555711200
		},
	"2019-04-20T02:00:00+02:00" : {
		"windSpeed" : 2.1,
		"windDir" : 198,
		"rain" : 0,
		"cloudbase" : null,
		"flyability" : 0,
		"reason" : "windDir",
		"timestamp" :1555722000
		}
	}
}