{
"site" : "Pirapora Bom Jesus   Capuava Hill",
"id" : 10628,
"orientations" : "02122212",
"forecasts" : { 
	"2019-04-06T12:00:00-03:00" : {
		"windSpeed" : 1.1,
		"windDir" : 153,
		"rain" : 1,
		"cloudbase" : 5100,
		"flyability" : 0,
		"reason" : "rain",
		"timestamp" :1554562800
		},
	"2019-04-06T15:00:00-03:00" : {
		"windSpeed" : 2.5,
		"windDir" : 172,
		"rain" : 0,
		"cloudbase" : 10752.99025,
		"flyability" : 100,
		"reason" : "",
		"timestamp" :1554573600
		},
	"2019-04-06T18:00:00-03:00" : {
		"windSpeed" : 1.9,
		"windDir" : 92,
		"rain" : 0,
		"cloudbase" : 11500,
		"flyability" : 100,
		"reason" : "",
		"timestamp" :1554584400
		},
	"2019-04-06T21:00:00-03:00" : {
		"windSpeed" : 2.6,
		"windDir" : 113,
		"rain" : 0,
		"cloudbase" : 149.50512000002,
		"flyability" : 0,
		"reason" : "cloudbase",
		"timestamp" :1554595200
		},
	"2019-04-07T00:00:00-03:00" : {
		"windSpeed" : 2,
		"windDir" : 105,
		"rain" : 1,
		"cloudbase" : 95.026450000023,
		"flyability" : 0,
		"reason" : "rain, cloudbase",
		"timestamp" :1554606000
		},
	"2019-04-07T03:00:00-03:00" : {
		"windSpeed" : 2.5,
		"windDir" : 100,
		"rain" : 0,
		"cloudbase" : 3791.2447499999,
		"flyability" : 100,
		"reason" : "",
		"timestamp" :1554616800
		},
	"2019-04-07T06:00:00-03:00" : {
		"windSpeed" : 1.6,
		"windDir" : 68,
		"rain" : 1,
		"cloudbase" : 7244.3255999997,
		"flyability" : 0,
		"reason" : "rain",
		"timestamp" :1554627600
		},
	"2019-04-07T09:00:00-03:00" : {
		"windSpeed" : 3.7,
		"windDir" : 344,
		"rain" : 1,
		"cloudbase" : 10000,
		"flyability" : 0,
		"reason" : "windDir, rain",
		"timestamp" :1554638400
		},
	"2019-04-07T12:00:00-03:00" : {
		"windSpeed" : 3.6,
		"windDir" : 327,
		"rain" : 0,
		"cloudbase" : null,
		"flyability" : 100,
		"reason" : "",
		"timestamp" :1554649200
		},
	"2019-04-07T15:00:00-03:00" : {
		"windSpeed" : 1.8,
		"windDir" : 301,
		"rain" : 0,
		"cloudbase" : 12500,
		"flyability" : 100,
		"reason" : "",
		"timestamp" :1554660000
		},
	"2019-04-07T18:00:00-03:00" : {
		"windSpeed" : 2.9,
		"windDir" : 300,
		"rain" : 0,
		"cloudbase" : 8785.7616000005,
		"flyability" : 100,
		"reason" : "",
		"timestamp" :1554670800
		},
	"2019-04-07T21:00:00-03:00" : {
		"windSpeed" : 1.9,
		"windDir" : 32,
		"rain" : 0,
		"cloudbase" : 6472.8632999998,
		"flyability" : 100,
		"reason" : "",
		"timestamp" :1554681600
		},
	"2019-04-08T00:00:00-03:00" : {
		"windSpeed" : 1.6,
		"windDir" : 343,
		"rain" : 1,
		"cloudbase" : 9191.1622999997,
		"flyability" : 0,
		"reason" : "windDir, rain",
		"timestamp" :1554692400
		},
	"2019-04-08T03:00:00-03:00" : {
		"windSpeed" : 2.6,
		"windDir" : 349,
		"rain" : 0,
		"cloudbase" : 1080.1530499994,
		"flyability" : 0,
		"reason" : "windDir",
		"timestamp" :1554703200
		},
	"2019-04-08T06:00:00-03:00" : {
		"windSpeed" : 2.4,
		"windDir" : 324,
		"rain" : 0,
		"cloudbase" : 115.29531999999,
		"flyability" : 0,
		"reason" : "cloudbase",
		"timestamp" :1554714000
		},
	"2019-04-08T09:00:00-03:00" : {
		"windSpeed" : 2.2,
		"windDir" : 298,
		"rain" : 1,
		"cloudbase" : 151.59018499999,
		"flyability" : 0,
		"reason" : "rain, cloudbase",
		"timestamp" :1554724800
		},
	"2019-04-08T12:00:00-03:00" : {
		"windSpeed" : 2.5,
		"windDir" : 303,
		"rain" : 1,
		"cloudbase" : 568.20523499998,
		"flyability" : 0,
		"reason" : "rain, cloudbase",
		"timestamp" :1554735600
		},
	"2019-04-08T15:00:00-03:00" : {
		"windSpeed" : 2.5,
		"windDir" : 169,
		"rain" : 1,
		"cloudbase" : 1175.6967,
		"flyability" : 0,
		"reason" : "rain",
		"timestamp" :1554746400
		},
	"2019-04-08T18:00:00-03:00" : {
		"windSpeed" : 2.5,
		"windDir" : 144,
		"rain" : 1,
		"cloudbase" : 4035.5303099999,
		"flyability" : 0,
		"reason" : "rain",
		"timestamp" :1554757200
		},
	"2019-04-08T21:00:00-03:00" : {
		"windSpeed" : 4,
		"windDir" : 151,
		"rain" : 1,
		"cloudbase" : 3701.56112,
		"flyability" : 0,
		"reason" : "rain",
		"timestamp" :1554768000
		},
	"2019-04-09T00:00:00-03:00" : {
		"windSpeed" : 3.8,
		"windDir" : 141,
		"rain" : 1,
		"cloudbase" : 206.80266,
		"flyability" : 0,
		"reason" : "rain, cloudbase",
		"timestamp" :1554778800
		},
	"2019-04-09T03:00:00-03:00" : {
		"windSpeed" : 2.5,
		"windDir" : 145,
		"rain" : 1,
		"cloudbase" : 222.32,
		"flyability" : 0,
		"reason" : "rain, cloudbase",
		"timestamp" :1554789600
		},
	"2019-04-09T06:00:00-03:00" : {
		"windSpeed" : 3.2,
		"windDir" : 142,
		"rain" : 1,
		"cloudbase" : 908.33144999991,
		"flyability" : 0,
		"reason" : "rain",
		"timestamp" :1554800400
		},
	"2019-04-09T09:00:00-03:00" : {
		"windSpeed" : 3.9,
		"windDir" : 141,
		"rain" : 1,
		"cloudbase" : 663.24329999999,
		"flyability" : 0,
		"reason" : "rain, cloudbase",
		"timestamp" :1554811200
		},
	"2019-04-09T12:00:00-03:00" : {
		"windSpeed" : 3.8,
		"windDir" : 157,
		"rain" : 1,
		"cloudbase" : 1200,
		"flyability" : 0,
		"reason" : "rain",
		"timestamp" :1554822000
		},
	"2019-04-09T15:00:00-03:00" : {
		"windSpeed" : 3.9,
		"windDir" : 157,
		"rain" : 0,
		"cloudbase" : null,
		"flyability" : 100,
		"reason" : "",
		"timestamp" :1554832800
		},
	"2019-04-09T18:00:00-03:00" : {
		"windSpeed" : 3.6,
		"windDir" : 136,
		"rain" : 1,
		"cloudbase" : null,
		"flyability" : 0,
		"reason" : "rain",
		"timestamp" :1554843600
		},
	"2019-04-09T21:00:00-03:00" : {
		"windSpeed" : 3.2,
		"windDir" : 129,
		"rain" : 1,
		"cloudbase" : 1242.1382450001,
		"flyability" : 0,
		"reason" : "rain",
		"timestamp" :1554854400
		},
	"2019-04-10T00:00:00-03:00" : {
		"windSpeed" : 3.3,
		"windDir" : 117,
		"rain" : 1,
		"cloudbase" : 218.62266,
		"flyability" : 0,
		"reason" : "rain, cloudbase",
		"timestamp" :1554865200
		},
	"2019-04-10T03:00:00-03:00" : {
		"windSpeed" : 3.6,
		"windDir" : 146,
		"rain" : 1,
		"cloudbase" : 405.28505,
		"flyability" : 0,
		"reason" : "rain, cloudbase",
		"timestamp" :1554876000
		},
	"2019-04-10T06:00:00-03:00" : {
		"windSpeed" : 4.3,
		"windDir" : 145,
		"rain" : 1,
		"cloudbase" : 470.53239000001,
		"flyability" : 0,
		"reason" : "rain, cloudbase",
		"timestamp" :1554886800
		},
	"2019-04-10T09:00:00-03:00" : {
		"windSpeed" : 5.3,
		"windDir" : 139,
		"rain" : 1,
		"cloudbase" : 535.62367,
		"flyability" : 0,
		"reason" : "windSpeed, rain, cloudbase",
		"timestamp" :1554897600
		},
	"2019-04-10T12:00:00-03:00" : {
		"windSpeed" : 3.9,
		"windDir" : 130,
		"rain" : 1,
		"cloudbase" : 1190.51468,
		"flyability" : 0,
		"reason" : "rain",
		"timestamp" :1554908400
		},
	"2019-04-10T15:00:00-03:00" : {
		"windSpeed" : 4.8,
		"windDir" : 148,
		"rain" : 0,
		"cloudbase" : 918.71340000001,
		"flyability" : 100,
		"reason" : "",
		"timestamp" :1554919200
		},
	"2019-04-10T18:00:00-03:00" : {
		"windSpeed" : 4.6,
		"windDir" : 140,
		"rain" : 1,
		"cloudbase" : null,
		"flyability" : 0,
		"reason" : "rain",
		"timestamp" :1554930000
		},
	"2019-04-10T21:00:00-03:00" : {
		"windSpeed" : 3.9,
		"windDir" : 141,
		"rain" : 1,
		"cloudbase" : 560,
		"flyability" : 0,
		"reason" : "rain, cloudbase",
		"timestamp" :1554940800
		},
	"2019-04-11T00:00:00-03:00" : {
		"windSpeed" : 3.1,
		"windDir" : 130,
		"rain" : 1,
		"cloudbase" : null,
		"flyability" : 0,
		"reason" : "rain",
		"timestamp" :1554951600
		},
	"2019-04-11T03:00:00-03:00" : {
		"windSpeed" : 2.5,
		"windDir" : 128,
		"rain" : 0,
		"cloudbase" : 80,
		"flyability" : 0,
		"reason" : "cloudbase",
		"timestamp" :1554962400
		},
	"2019-04-11T06:00:00-03:00" : {
		"windSpeed" : 2,
		"windDir" : 105,
		"rain" : 1,
		"cloudbase" : 30,
		"flyability" : 0,
		"reason" : "rain, cloudbase",
		"timestamp" :1554973200
		},
	"2019-04-11T09:00:00-03:00" : {
		"windSpeed" : 3.1,
		"windDir" : 108,
		"rain" : 1,
		"cloudbase" : null,
		"flyability" : 0,
		"reason" : "rain",
		"timestamp" :1554984000
		},
	"2019-04-11T12:00:00-03:00" : {
		"windSpeed" : 1.5,
		"windDir" : 287,
		"rain" : 1,
		"cloudbase" : null,
		"flyability" : 0,
		"reason" : "rain",
		"timestamp" :1554994800
		},
	"2019-04-11T15:00:00-03:00" : {
		"windSpeed" : 2.4,
		"windDir" : 269,
		"rain" : 1,
		"cloudbase" : null,
		"flyability" : 0,
		"reason" : "rain",
		"timestamp" :1555005600
		},
	"2019-04-11T18:00:00-03:00" : {
		"windSpeed" : 3.6,
		"windDir" : 136,
		"rain" : 1,
		"cloudbase" : null,
		"flyability" : 0,
		"reason" : "rain",
		"timestamp" :1555016400
		},
	"2019-04-11T21:00:00-03:00" : {
		"windSpeed" : 2.7,
		"windDir" : 113,
		"rain" : 0,
		"cloudbase" : 242.25468,
		"flyability" : 0,
		"reason" : "cloudbase",
		"timestamp" :1555027200
		},
	"2019-04-12T00:00:00-03:00" : {
		"windSpeed" : 2,
		"windDir" : 105,
		"rain" : 0,
		"cloudbase" : 180,
		"flyability" : 0,
		"reason" : "cloudbase",
		"timestamp" :1555038000
		},
	"2019-04-12T03:00:00-03:00" : {
		"windSpeed" : 1.8,
		"windDir" : 125,
		"rain" : 1,
		"cloudbase" : 30,
		"flyability" : 0,
		"reason" : "rain, cloudbase",
		"timestamp" :1555048800
		},
	"2019-04-12T06:00:00-03:00" : {
		"windSpeed" : 1.5,
		"windDir" : 107,
		"rain" : 1,
		"cloudbase" : 30,
		"flyability" : 0,
		"reason" : "rain, cloudbase",
		"timestamp" :1555059600
		},
	"2019-04-12T09:00:00-03:00" : {
		"windSpeed" : 1.6,
		"windDir" : 108,
		"rain" : 1,
		"cloudbase" : 240,
		"flyability" : 0,
		"reason" : "rain, cloudbase",
		"timestamp" :1555070400
		}
	}
}