{
"site" : "Robotham Ridge",
"id" : 10642,
"orientations" : "22000002",
"forecasts" : { 
	"2019-04-10T08:00:00-07:00" : {
		"windSpeed" : 2.2,
		"windDir" : 198,
		"rain" : 1,
		"cloudbase" : 802.59120000007,
		"flyability" : 0,
		"reason" : "windDir, rain, cloudbase",
		"timestamp" :1554912000
		},
	"2019-04-10T11:00:00-07:00" : {
		"windSpeed" : 1.8,
		"windDir" : 248,
		"rain" : 1,
		"cloudbase" : 339.81480000002,
		"flyability" : 0,
		"reason" : "windDir, rain, cloudbase",
		"timestamp" :1554922800
		},
	"2019-04-10T14:00:00-07:00" : {
		"windSpeed" : 2.8,
		"windDir" : 249,
		"rain" : 1,
		"cloudbase" : 1994.9984000003,
		"flyability" : 0,
		"reason" : "windDir, rain",
		"timestamp" :1554933600
		},
	"2019-04-10T17:00:00-07:00" : {
		"windSpeed" : 2,
		"windDir" : 295,
		"rain" : 1,
		"cloudbase" : 3830.6740000001,
		"flyability" : 0,
		"reason" : "rain",
		"timestamp" :1554944400
		},
	"2019-04-10T20:00:00-07:00" : {
		"windSpeed" : 1.1,
		"windDir" : 232,
		"rain" : 1,
		"cloudbase" : 2804.5084000005,
		"flyability" : 0,
		"reason" : "windDir, rain",
		"timestamp" :1554955200
		},
	"2019-04-10T23:00:00-07:00" : {
		"windSpeed" : 2.4,
		"windDir" : 204,
		"rain" : 0,
		"cloudbase" : 1088.2948000002,
		"flyability" : 0,
		"reason" : "windDir",
		"timestamp" :1554966000
		},
	"2019-04-11T02:00:00-07:00" : {
		"windSpeed" : 2.5,
		"windDir" : 210,
		"rain" : 0,
		"cloudbase" : 1352.2564000001,
		"flyability" : 0,
		"reason" : "windDir",
		"timestamp" :1554976800
		},
	"2019-04-11T05:00:00-07:00" : {
		"windSpeed" : 1.5,
		"windDir" : 179,
		"rain" : 0,
		"cloudbase" : 1111.0416,
		"flyability" : 0,
		"reason" : "windDir",
		"timestamp" :1554987600
		},
	"2019-04-11T08:00:00-07:00" : {
		"windSpeed" : 0.7,
		"windDir" : 172,
		"rain" : 0,
		"cloudbase" : 603.15640000005,
		"flyability" : 0,
		"reason" : "windDir, cloudbase",
		"timestamp" :1554998400
		},
	"2019-04-11T11:00:00-07:00" : {
		"windSpeed" : 0.6,
		"windDir" : 170,
		"rain" : 1,
		"cloudbase" : 367.02160000002,
		"flyability" : 0,
		"reason" : "windDir, rain, cloudbase",
		"timestamp" :1555009200
		},
	"2019-04-11T14:00:00-07:00" : {
		"windSpeed" : 0.8,
		"windDir" : 249,
		"rain" : 1,
		"cloudbase" : 323.3576,
		"flyability" : 0,
		"reason" : "windDir, rain, cloudbase",
		"timestamp" :1555020000
		},
	"2019-04-11T17:00:00-07:00" : {
		"windSpeed" : 0.5,
		"windDir" : 343,
		"rain" : 1,
		"cloudbase" : 310.64160000002,
		"flyability" : 0,
		"reason" : "rain, cloudbase",
		"timestamp" :1555030800
		},
	"2019-04-11T20:00:00-07:00" : {
		"windSpeed" : 1.1,
		"windDir" : 335,
		"rain" : 1,
		"cloudbase" : 208.58720000002,
		"flyability" : 0,
		"reason" : "rain, cloudbase",
		"timestamp" :1555041600
		},
	"2019-04-11T23:00:00-07:00" : {
		"windSpeed" : 1.5,
		"windDir" : 337,
		"rain" : 0,
		"cloudbase" : 35.359200000001,
		"flyability" : 0,
		"reason" : "cloudbase",
		"timestamp" :1555052400
		},
	"2019-04-12T02:00:00-07:00" : {
		"windSpeed" : 1,
		"windDir" : 297,
		"rain" : 0,
		"cloudbase" : 1938.2580000005,
		"flyability" : 100,
		"reason" : "",
		"timestamp" :1555063200
		},
	"2019-04-12T05:00:00-07:00" : {
		"windSpeed" : 0.9,
		"windDir" : 239,
		"rain" : 0,
		"cloudbase" : null,
		"flyability" : 0,
		"reason" : "windDir",
		"timestamp" :1555074000
		},
	"2019-04-12T08:00:00-07:00" : {
		"windSpeed" : 0.7,
		"windDir" : 232,
		"rain" : 1,
		"cloudbase" : null,
		"flyability" : 0,
		"reason" : "windDir, rain",
		"timestamp" :1555084800
		},
	"2019-04-12T11:00:00-07:00" : {
		"windSpeed" : 0.7,
		"windDir" : 337,
		"rain" : 0,
		"cloudbase" : 8451.6,
		"flyability" : 100,
		"reason" : "",
		"timestamp" :1555095600
		},
	"2019-04-12T14:00:00-07:00" : {
		"windSpeed" : 0.2,
		"windDir" : 318,
		"rain" : 1,
		"cloudbase" : 5174.1220000003,
		"flyability" : 0,
		"reason" : "rain",
		"timestamp" :1555106400
		},
	"2019-04-12T17:00:00-07:00" : {
		"windSpeed" : 0.9,
		"windDir" : 221,
		"rain" : 0,
		"cloudbase" : null,
		"flyability" : 0,
		"reason" : "windDir",
		"timestamp" :1555117200
		},
	"2019-04-12T20:00:00-07:00" : {
		"windSpeed" : 2.5,
		"windDir" : 227,
		"rain" : 0,
		"cloudbase" : null,
		"flyability" : 0,
		"reason" : "windDir",
		"timestamp" :1555128000
		},
	"2019-04-12T23:00:00-07:00" : {
		"windSpeed" : 3,
		"windDir" : 203,
		"rain" : 0,
		"cloudbase" : 35,
		"flyability" : 0,
		"reason" : "windDir, cloudbase",
		"timestamp" :1555138800
		},
	"2019-04-13T02:00:00-07:00" : {
		"windSpeed" : 2.9,
		"windDir" : 205,
		"rain" : 0,
		"cloudbase" : 847.32800000019,
		"flyability" : 0,
		"reason" : "windDir, cloudbase",
		"timestamp" :1555149600
		},
	"2019-04-13T05:00:00-07:00" : {
		"windSpeed" : 1.8,
		"windDir" : 192,
		"rain" : 1,
		"cloudbase" : 1463.4540000001,
		"flyability" : 0,
		"reason" : "windDir, rain",
		"timestamp" :1555160400
		},
	"2019-04-13T08:00:00-07:00" : {
		"windSpeed" : 1.7,
		"windDir" : 171,
		"rain" : 0,
		"cloudbase" : 300.16280000005,
		"flyability" : 0,
		"reason" : "windDir, cloudbase",
		"timestamp" :1555171200
		},
	"2019-04-13T11:00:00-07:00" : {
		"windSpeed" : 3,
		"windDir" : 172,
		"rain" : 1,
		"cloudbase" : 480.54680000004,
		"flyability" : 0,
		"reason" : "windDir, rain, cloudbase",
		"timestamp" :1555182000
		},
	"2019-04-13T14:00:00-07:00" : {
		"windSpeed" : 2.6,
		"windDir" : 230,
		"rain" : 1,
		"cloudbase" : null,
		"flyability" : 0,
		"reason" : "windDir, rain",
		"timestamp" :1555192800
		},
	"2019-04-13T17:00:00-07:00" : {
		"windSpeed" : 4.5,
		"windDir" : 245,
		"rain" : 0,
		"cloudbase" : null,
		"flyability" : 0,
		"reason" : "windDir",
		"timestamp" :1555203600
		},
	"2019-04-13T20:00:00-07:00" : {
		"windSpeed" : 3.8,
		"windDir" : 234,
		"rain" : 0,
		"cloudbase" : 230,
		"flyability" : 0,
		"reason" : "windDir, cloudbase",
		"timestamp" :1555214400
		},
	"2019-04-13T23:00:00-07:00" : {
		"windSpeed" : 3.6,
		"windDir" : 223,
		"rain" : 0,
		"cloudbase" : 1837.3918000003,
		"flyability" : 0,
		"reason" : "windDir",
		"timestamp" :1555225200
		},
	"2019-04-14T02:00:00-07:00" : {
		"windSpeed" : 3.5,
		"windDir" : 225,
		"rain" : 0,
		"cloudbase" : 1150.4102000002,
		"flyability" : 0,
		"reason" : "windDir",
		"timestamp" :1555236000
		},
	"2019-04-14T05:00:00-07:00" : {
		"windSpeed" : 3,
		"windDir" : 221,
		"rain" : 0,
		"cloudbase" : 1280.6126000002,
		"flyability" : 0,
		"reason" : "windDir",
		"timestamp" :1555246800
		},
	"2019-04-14T08:00:00-07:00" : {
		"windSpeed" : 2.8,
		"windDir" : 225,
		"rain" : 0,
		"cloudbase" : null,
		"flyability" : 0,
		"reason" : "windDir",
		"timestamp" :1555257600
		},
	"2019-04-14T11:00:00-07:00" : {
		"windSpeed" : 2.4,
		"windDir" : 264,
		"rain" : 0,
		"cloudbase" : 2850,
		"flyability" : 0,
		"reason" : "windDir",
		"timestamp" :1555268400
		},
	"2019-04-14T14:00:00-07:00" : {
		"windSpeed" : 2.1,
		"windDir" : 261,
		"rain" : 0,
		"cloudbase" : 3599.722,
		"flyability" : 0,
		"reason" : "windDir",
		"timestamp" :1555279200
		},
	"2019-04-14T17:00:00-07:00" : {
		"windSpeed" : 2.4,
		"windDir" : 252,
		"rain" : 0,
		"cloudbase" : 3367.55,
		"flyability" : 0,
		"reason" : "windDir",
		"timestamp" :1555290000
		},
	"2019-04-14T20:00:00-07:00" : {
		"windSpeed" : 2.6,
		"windDir" : 226,
		"rain" : 0,
		"cloudbase" : null,
		"flyability" : 0,
		"reason" : "windDir",
		"timestamp" :1555300800
		},
	"2019-04-14T23:00:00-07:00" : {
		"windSpeed" : 2.8,
		"windDir" : 216,
		"rain" : 0,
		"cloudbase" : 50,
		"flyability" : 0,
		"reason" : "windDir, cloudbase",
		"timestamp" :1555311600
		},
	"2019-04-15T02:00:00-07:00" : {
		"windSpeed" : 2.4,
		"windDir" : 214,
		"rain" : 0,
		"cloudbase" : 30,
		"flyability" : 0,
		"reason" : "windDir, cloudbase",
		"timestamp" :1555322400
		},
	"2019-04-15T05:00:00-07:00" : {
		"windSpeed" : 1.9,
		"windDir" : 210,
		"rain" : 0,
		"cloudbase" : 30,
		"flyability" : 0,
		"reason" : "windDir, cloudbase",
		"timestamp" :1555333200
		},
	"2019-04-15T08:00:00-07:00" : {
		"windSpeed" : 1.1,
		"windDir" : 205,
		"rain" : 0,
		"cloudbase" : null,
		"flyability" : 0,
		"reason" : "windDir",
		"timestamp" :1555344000
		},
	"2019-04-15T11:00:00-07:00" : {
		"windSpeed" : 0.4,
		"windDir" : 266,
		"rain" : 1,
		"cloudbase" : 740,
		"flyability" : 0,
		"reason" : "windDir, rain, cloudbase",
		"timestamp" :1555354800
		},
	"2019-04-15T14:00:00-07:00" : {
		"windSpeed" : 0.7,
		"windDir" : 237,
		"rain" : 1,
		"cloudbase" : 2092.3752000003,
		"flyability" : 0,
		"reason" : "windDir, rain",
		"timestamp" :1555365600
		},
	"2019-04-15T17:00:00-07:00" : {
		"windSpeed" : 1,
		"windDir" : 202,
		"rain" : 1,
		"cloudbase" : 460,
		"flyability" : 0,
		"reason" : "windDir, rain, cloudbase",
		"timestamp" :1555376400
		},
	"2019-04-15T20:00:00-07:00" : {
		"windSpeed" : 1.4,
		"windDir" : 207,
		"rain" : 1,
		"cloudbase" : 160,
		"flyability" : 0,
		"reason" : "windDir, rain, cloudbase",
		"timestamp" :1555387200
		},
	"2019-04-15T23:00:00-07:00" : {
		"windSpeed" : 2.5,
		"windDir" : 198,
		"rain" : 0,
		"cloudbase" : 5247.3880000004,
		"flyability" : 0,
		"reason" : "windDir",
		"timestamp" :1555398000
		},
	"2019-04-16T02:00:00-07:00" : {
		"windSpeed" : 2.5,
		"windDir" : 189,
		"rain" : 0,
		"cloudbase" : 806.56520000013,
		"flyability" : 0,
		"reason" : "windDir, cloudbase",
		"timestamp" :1555408800
		},
	"2019-04-16T05:00:00-07:00" : {
		"windSpeed" : 2.5,
		"windDir" : 158,
		"rain" : 0,
		"cloudbase" : 1118.4636000001,
		"flyability" : 0,
		"reason" : "windDir",
		"timestamp" :1555419600
		}
	}
}