{
"site" : "Arco da Calheta - Rochao",
"id" : 10720,
"orientations" : "00112221",
"forecasts" : { 
	"2019-04-08T04:00:00+01:00" : {
		"windSpeed" : 2.4,
		"windDir" : 275,
		"rain" : 0,
		"cloudbase" : 880,
		"flyability" : 100,
		"reason" : "",
		"timestamp" :1554688800
		},
	"2019-04-08T07:00:00+01:00" : {
		"windSpeed" : 3.6,
		"windDir" : 278,
		"rain" : 1,
		"cloudbase" : 392.33999999999,
		"flyability" : 0,
		"reason" : "rain, cloudbase",
		"timestamp" :1554699600
		},
	"2019-04-08T10:00:00+01:00" : {
		"windSpeed" : 3,
		"windDir" : 345,
		"rain" : 1,
		"cloudbase" : 723.14499999998,
		"flyability" : 0,
		"reason" : "windDir, rain, cloudbase",
		"timestamp" :1554710400
		},
	"2019-04-08T13:00:00+01:00" : {
		"windSpeed" : 2.1,
		"windDir" : 359,
		"rain" : 1,
		"cloudbase" : null,
		"flyability" : 0,
		"reason" : "windDir, rain",
		"timestamp" :1554721200
		},
	"2019-04-08T16:00:00+01:00" : {
		"windSpeed" : 1,
		"windDir" : 338,
		"rain" : 1,
		"cloudbase" : 6763.4999999998,
		"flyability" : 0,
		"reason" : "windDir, rain",
		"timestamp" :1554732000
		},
	"2019-04-08T19:00:00+01:00" : {
		"windSpeed" : 2,
		"windDir" : 345,
		"rain" : 0,
		"cloudbase" : 6815.4999999998,
		"flyability" : 0,
		"reason" : "windDir",
		"timestamp" :1554742800
		},
	"2019-04-08T22:00:00+01:00" : {
		"windSpeed" : 1.1,
		"windDir" : 18,
		"rain" : 0,
		"cloudbase" : 3135.2999999998,
		"flyability" : 0,
		"reason" : "windDir",
		"timestamp" :1554753600
		},
	"2019-04-09T01:00:00+01:00" : {
		"windSpeed" : 0.5,
		"windDir" : 66,
		"rain" : 1,
		"cloudbase" : 2957.8999999999,
		"flyability" : 0,
		"reason" : "windDir, rain",
		"timestamp" :1554764400
		},
	"2019-04-09T04:00:00+01:00" : {
		"windSpeed" : 0.3,
		"windDir" : 20,
		"rain" : 0,
		"cloudbase" : 6992,
		"flyability" : 0,
		"reason" : "windDir",
		"timestamp" :1554775200
		},
	"2019-04-09T07:00:00+01:00" : {
		"windSpeed" : 0.6,
		"windDir" : 328,
		"rain" : 0,
		"cloudbase" : 5693.5999999998,
		"flyability" : 100,
		"reason" : "",
		"timestamp" :1554786000
		},
	"2019-04-09T10:00:00+01:00" : {
		"windSpeed" : 0.4,
		"windDir" : 87,
		"rain" : 1,
		"cloudbase" : 500,
		"flyability" : 0,
		"reason" : "rain, cloudbase",
		"timestamp" :1554796800
		},
	"2019-04-09T13:00:00+01:00" : {
		"windSpeed" : 2.4,
		"windDir" : 194,
		"rain" : 1,
		"cloudbase" : 1200,
		"flyability" : 0,
		"reason" : "rain",
		"timestamp" :1554807600
		},
	"2019-04-09T16:00:00+01:00" : {
		"windSpeed" : 1.8,
		"windDir" : 204,
		"rain" : 1,
		"cloudbase" : 1170.55,
		"flyability" : 0,
		"reason" : "rain",
		"timestamp" :1554818400
		},
	"2019-04-09T19:00:00+01:00" : {
		"windSpeed" : 1.1,
		"windDir" : 206,
		"rain" : 1,
		"cloudbase" : null,
		"flyability" : 0,
		"reason" : "rain",
		"timestamp" :1554829200
		},
	"2019-04-09T22:00:00+01:00" : {
		"windSpeed" : 0.5,
		"windDir" : 83,
		"rain" : 1,
		"cloudbase" : null,
		"flyability" : 0,
		"reason" : "rain",
		"timestamp" :1554840000
		},
	"2019-04-10T01:00:00+01:00" : {
		"windSpeed" : 0.7,
		"windDir" : 354,
		"rain" : 1,
		"cloudbase" : null,
		"flyability" : 0,
		"reason" : "windDir, rain",
		"timestamp" :1554850800
		},
	"2019-04-10T04:00:00+01:00" : {
		"windSpeed" : 0.6,
		"windDir" : 39,
		"rain" : 0,
		"cloudbase" : 750.13,
		"flyability" : 0,
		"reason" : "windDir, cloudbase",
		"timestamp" :1554861600
		},
	"2019-04-10T07:00:00+01:00" : {
		"windSpeed" : 0.7,
		"windDir" : 25,
		"rain" : 1,
		"cloudbase" : 1450,
		"flyability" : 0,
		"reason" : "windDir, rain",
		"timestamp" :1554872400
		},
	"2019-04-10T10:00:00+01:00" : {
		"windSpeed" : 0.3,
		"windDir" : 55,
		"rain" : 0,
		"cloudbase" : null,
		"flyability" : 0,
		"reason" : "windDir",
		"timestamp" :1554883200
		},
	"2019-04-10T13:00:00+01:00" : {
		"windSpeed" : 1.3,
		"windDir" : 225,
		"rain" : 1,
		"cloudbase" : 1219.32,
		"flyability" : 0,
		"reason" : "rain",
		"timestamp" :1554894000
		},
	"2019-04-10T16:00:00+01:00" : {
		"windSpeed" : 1.6,
		"windDir" : 186,
		"rain" : 0,
		"cloudbase" : 944.25999999999,
		"flyability" : 100,
		"reason" : "",
		"timestamp" :1554904800
		},
	"2019-04-10T19:00:00+01:00" : {
		"windSpeed" : 0.3,
		"windDir" : 112,
		"rain" : 0,
		"cloudbase" : 6433.6500000001,
		"flyability" : 100,
		"reason" : "",
		"timestamp" :1554915600
		},
	"2019-04-10T22:00:00+01:00" : {
		"windSpeed" : 0.8,
		"windDir" : 155,
		"rain" : 0,
		"cloudbase" : 8106.1000000002,
		"flyability" : 100,
		"reason" : "",
		"timestamp" :1554926400
		},
	"2019-04-11T01:00:00+01:00" : {
		"windSpeed" : 0.7,
		"windDir" : 307,
		"rain" : 0,
		"cloudbase" : null,
		"flyability" : 100,
		"reason" : "",
		"timestamp" :1554937200
		},
	"2019-04-11T04:00:00+01:00" : {
		"windSpeed" : 0.2,
		"windDir" : 75,
		"rain" : 0,
		"cloudbase" : null,
		"flyability" : 100,
		"reason" : "",
		"timestamp" :1554948000
		},
	"2019-04-11T07:00:00+01:00" : {
		"windSpeed" : 0.2,
		"windDir" : 119,
		"rain" : 0,
		"cloudbase" : null,
		"flyability" : 100,
		"reason" : "",
		"timestamp" :1554958800
		},
	"2019-04-11T10:00:00+01:00" : {
		"windSpeed" : 0.3,
		"windDir" : 307,
		"rain" : 1,
		"cloudbase" : 4653.5999999998,
		"flyability" : 0,
		"reason" : "rain",
		"timestamp" :1554969600
		},
	"2019-04-11T13:00:00+01:00" : {
		"windSpeed" : 1.3,
		"windDir" : 220,
		"rain" : 1,
		"cloudbase" : null,
		"flyability" : 0,
		"reason" : "rain",
		"timestamp" :1554980400
		},
	"2019-04-11T16:00:00+01:00" : {
		"windSpeed" : 0.8,
		"windDir" : 169,
		"rain" : 0,
		"cloudbase" : null,
		"flyability" : 100,
		"reason" : "",
		"timestamp" :1554991200
		},
	"2019-04-11T19:00:00+01:00" : {
		"windSpeed" : 1.1,
		"windDir" : 13,
		"rain" : 0,
		"cloudbase" : null,
		"flyability" : 0,
		"reason" : "windDir",
		"timestamp" :1555002000
		},
	"2019-04-11T22:00:00+01:00" : {
		"windSpeed" : 1.4,
		"windDir" : 36,
		"rain" : 0,
		"cloudbase" : null,
		"flyability" : 0,
		"reason" : "windDir",
		"timestamp" :1555012800
		},
	"2019-04-12T01:00:00+01:00" : {
		"windSpeed" : 1.3,
		"windDir" : 34,
		"rain" : 0,
		"cloudbase" : null,
		"flyability" : 0,
		"reason" : "windDir",
		"timestamp" :1555023600
		},
	"2019-04-12T04:00:00+01:00" : {
		"windSpeed" : 0.9,
		"windDir" : 62,
		"rain" : 0,
		"cloudbase" : null,
		"flyability" : 0,
		"reason" : "windDir",
		"timestamp" :1555034400
		},
	"2019-04-12T07:00:00+01:00" : {
		"windSpeed" : 0.6,
		"windDir" : 60,
		"rain" : 0,
		"cloudbase" : null,
		"flyability" : 0,
		"reason" : "windDir",
		"timestamp" :1555045200
		},
	"2019-04-12T10:00:00+01:00" : {
		"windSpeed" : 0.2,
		"windDir" : 108,
		"rain" : 0,
		"cloudbase" : null,
		"flyability" : 100,
		"reason" : "",
		"timestamp" :1555056000
		},
	"2019-04-12T13:00:00+01:00" : {
		"windSpeed" : 0.4,
		"windDir" : 211,
		"rain" : 0,
		"cloudbase" : 13000,
		"flyability" : 100,
		"reason" : "",
		"timestamp" :1555066800
		},
	"2019-04-12T16:00:00+01:00" : {
		"windSpeed" : 1,
		"windDir" : 161,
		"rain" : 1,
		"cloudbase" : null,
		"flyability" : 0,
		"reason" : "rain",
		"timestamp" :1555077600
		},
	"2019-04-12T19:00:00+01:00" : {
		"windSpeed" : 0.9,
		"windDir" : 153,
		"rain" : 0,
		"cloudbase" : null,
		"flyability" : 100,
		"reason" : "",
		"timestamp" :1555088400
		},
	"2019-04-12T22:00:00+01:00" : {
		"windSpeed" : 0.6,
		"windDir" : 62,
		"rain" : 0,
		"cloudbase" : 10175,
		"flyability" : 0,
		"reason" : "windDir",
		"timestamp" :1555099200
		},
	"2019-04-13T01:00:00+01:00" : {
		"windSpeed" : 0.5,
		"windDir" : 63,
		"rain" : 1,
		"cloudbase" : null,
		"flyability" : 0,
		"reason" : "windDir, rain",
		"timestamp" :1555110000
		},
	"2019-04-13T04:00:00+01:00" : {
		"windSpeed" : 0.4,
		"windDir" : 84,
		"rain" : 0,
		"cloudbase" : null,
		"flyability" : 100,
		"reason" : "",
		"timestamp" :1555120800
		},
	"2019-04-13T07:00:00+01:00" : {
		"windSpeed" : 0.2,
		"windDir" : 140,
		"rain" : 0,
		"cloudbase" : null,
		"flyability" : 100,
		"reason" : "",
		"timestamp" :1555131600
		},
	"2019-04-13T10:00:00+01:00" : {
		"windSpeed" : 0.5,
		"windDir" : 213,
		"rain" : 0,
		"cloudbase" : null,
		"flyability" : 100,
		"reason" : "",
		"timestamp" :1555142400
		},
	"2019-04-13T13:00:00+01:00" : {
		"windSpeed" : 1.5,
		"windDir" : 215,
		"rain" : 0,
		"cloudbase" : 4289.4499999998,
		"flyability" : 100,
		"reason" : "",
		"timestamp" :1555153200
		},
	"2019-04-13T16:00:00+01:00" : {
		"windSpeed" : 0.8,
		"windDir" : 173,
		"rain" : 0,
		"cloudbase" : 572.18,
		"flyability" : 0,
		"reason" : "cloudbase",
		"timestamp" :1555164000
		},
	"2019-04-13T19:00:00+01:00" : {
		"windSpeed" : 1,
		"windDir" : 259,
		"rain" : 1,
		"cloudbase" : 566.71999999999,
		"flyability" : 0,
		"reason" : "rain, cloudbase",
		"timestamp" :1555174800
		},
	"2019-04-13T22:00:00+01:00" : {
		"windSpeed" : 0.2,
		"windDir" : 285,
		"rain" : 0,
		"cloudbase" : 370,
		"flyability" : 0,
		"reason" : "cloudbase",
		"timestamp" :1555185600
		},
	"2019-04-14T01:00:00+01:00" : {
		"windSpeed" : 0.8,
		"windDir" : 194,
		"rain" : 0,
		"cloudbase" : null,
		"flyability" : 100,
		"reason" : "",
		"timestamp" :1555196400
		}
	}
}