{
"site" : "M-ti Sureanu",
"id" : 10783,
"orientations" : "01221000",
"forecasts" : { 
	"2019-04-20T06:00:00+03:00" : {
		"windSpeed" : 1.8,
		"windDir" : 39,
		"rain" : 0,
		"cloudbase" : null,
		"flyability" : 100,
		"reason" : "",
		"timestamp" :1555729200
		},
	"2019-04-20T09:00:00+03:00" : {
		"windSpeed" : 3.3,
		"windDir" : 34,
		"rain" : 0,
		"cloudbase" : null,
		"flyability" : 100,
		"reason" : "",
		"timestamp" :1555740000
		},
	"2019-04-20T12:00:00+03:00" : {
		"windSpeed" : 3,
		"windDir" : 38,
		"rain" : 0,
		"cloudbase" : 1150,
		"flyability" : 0,
		"reason" : "cloudbase",
		"timestamp" :1555750800
		},
	"2019-04-20T15:00:00+03:00" : {
		"windSpeed" : 3.2,
		"windDir" : 27,
		"rain" : 0,
		"cloudbase" : 1505.14225,
		"flyability" : 0,
		"reason" : "cloudbase",
		"timestamp" :1555761600
		},
	"2019-04-20T18:00:00+03:00" : {
		"windSpeed" : 3.2,
		"windDir" : 25,
		"rain" : 0,
		"cloudbase" : null,
		"flyability" : 100,
		"reason" : "",
		"timestamp" :1555772400
		},
	"2019-04-20T21:00:00+03:00" : {
		"windSpeed" : 1.4,
		"windDir" : 75,
		"rain" : 0,
		"cloudbase" : null,
		"flyability" : 100,
		"reason" : "",
		"timestamp" :1555783200
		},
	"2019-04-21T00:00:00+03:00" : {
		"windSpeed" : 0.6,
		"windDir" : 129,
		"rain" : 0,
		"cloudbase" : null,
		"flyability" : 100,
		"reason" : "",
		"timestamp" :1555794000
		},
	"2019-04-21T03:00:00+03:00" : {
		"windSpeed" : 1.1,
		"windDir" : 323,
		"rain" : 0,
		"cloudbase" : 7300,
		"flyability" : 0,
		"reason" : "windDir",
		"timestamp" :1555804800
		},
	"2019-04-21T06:00:00+03:00" : {
		"windSpeed" : 1.6,
		"windDir" : 307,
		"rain" : 0,
		"cloudbase" : null,
		"flyability" : 0,
		"reason" : "windDir",
		"timestamp" :1555815600
		},
	"2019-04-21T09:00:00+03:00" : {
		"windSpeed" : 2.5,
		"windDir" : 300,
		"rain" : 0,
		"cloudbase" : 2500,
		"flyability" : 0,
		"reason" : "windDir",
		"timestamp" :1555826400
		},
	"2019-04-21T12:00:00+03:00" : {
		"windSpeed" : 4.4,
		"windDir" : 287,
		"rain" : 1,
		"cloudbase" : 3094.6,
		"flyability" : 0,
		"reason" : "windDir, rain",
		"timestamp" :1555837200
		},
	"2019-04-21T15:00:00+03:00" : {
		"windSpeed" : 4.7,
		"windDir" : 292,
		"rain" : 1,
		"cloudbase" : 2548.98075,
		"flyability" : 0,
		"reason" : "windDir, rain",
		"timestamp" :1555848000
		},
	"2019-04-21T18:00:00+03:00" : {
		"windSpeed" : 1.9,
		"windDir" : 302,
		"rain" : 1,
		"cloudbase" : 1610.90775,
		"flyability" : 0,
		"reason" : "windDir, rain, cloudbase",
		"timestamp" :1555858800
		},
	"2019-04-21T21:00:00+03:00" : {
		"windSpeed" : 0.4,
		"windDir" : 54,
		"rain" : 1,
		"cloudbase" : null,
		"flyability" : 0,
		"reason" : "rain",
		"timestamp" :1555869600
		},
	"2019-04-22T00:00:00+03:00" : {
		"windSpeed" : 0.5,
		"windDir" : 355,
		"rain" : 1,
		"cloudbase" : 1700,
		"flyability" : 0,
		"reason" : "windDir, rain, cloudbase",
		"timestamp" :1555880400
		},
	"2019-04-22T03:00:00+03:00" : {
		"windSpeed" : 0.4,
		"windDir" : 15,
		"rain" : 1,
		"cloudbase" : 1632.05775,
		"flyability" : 0,
		"reason" : "windDir, rain, cloudbase",
		"timestamp" :1555891200
		},
	"2019-04-22T06:00:00+03:00" : {
		"windSpeed" : 1.4,
		"windDir" : 214,
		"rain" : 1,
		"cloudbase" : null,
		"flyability" : 0,
		"reason" : "windDir, rain",
		"timestamp" :1555902000
		},
	"2019-04-22T09:00:00+03:00" : {
		"windSpeed" : 1.4,
		"windDir" : 196,
		"rain" : 1,
		"cloudbase" : 2579.6347500001,
		"flyability" : 0,
		"reason" : "rain",
		"timestamp" :1555912800
		},
	"2019-04-22T12:00:00+03:00" : {
		"windSpeed" : 3.5,
		"windDir" : 213,
		"rain" : 1,
		"cloudbase" : 3373.16925,
		"flyability" : 0,
		"reason" : "windDir, rain",
		"timestamp" :1555923600
		},
	"2019-04-22T15:00:00+03:00" : {
		"windSpeed" : 3.3,
		"windDir" : 189,
		"rain" : 1,
		"cloudbase" : 1170.5408,
		"flyability" : 0,
		"reason" : "rain, cloudbase",
		"timestamp" :1555934400
		},
	"2019-04-22T18:00:00+03:00" : {
		"windSpeed" : 3.1,
		"windDir" : 186,
		"rain" : 1,
		"cloudbase" : 2669.7807499999,
		"flyability" : 0,
		"reason" : "rain",
		"timestamp" :1555945200
		},
	"2019-04-22T21:00:00+03:00" : {
		"windSpeed" : 3.1,
		"windDir" : 125,
		"rain" : 0,
		"cloudbase" : 2737.7013749999,
		"flyability" : 100,
		"reason" : "",
		"timestamp" :1555956000
		},
	"2019-04-23T00:00:00+03:00" : {
		"windSpeed" : 3.3,
		"windDir" : 120,
		"rain" : 0,
		"cloudbase" : 2241.5138749999,
		"flyability" : 100,
		"reason" : "",
		"timestamp" :1555966800
		},
	"2019-04-23T03:00:00+03:00" : {
		"windSpeed" : 4.4,
		"windDir" : 127,
		"rain" : 0,
		"cloudbase" : 51.467325,
		"flyability" : 0,
		"reason" : "cloudbase",
		"timestamp" :1555977600
		},
	"2019-04-23T06:00:00+03:00" : {
		"windSpeed" : 4.1,
		"windDir" : 133,
		"rain" : 0,
		"cloudbase" : 55,
		"flyability" : 0,
		"reason" : "cloudbase",
		"timestamp" :1555988400
		},
	"2019-04-23T09:00:00+03:00" : {
		"windSpeed" : 4.4,
		"windDir" : 132,
		"rain" : 0,
		"cloudbase" : 1896.4657999999,
		"flyability" : 100,
		"reason" : "",
		"timestamp" :1555999200
		},
	"2019-04-23T12:00:00+03:00" : {
		"windSpeed" : 5.3,
		"windDir" : 135,
		"rain" : 0,
		"cloudbase" : 620.82999999999,
		"flyability" : 0,
		"reason" : "windSpeed, cloudbase",
		"timestamp" :1556010000
		},
	"2019-04-23T15:00:00+03:00" : {
		"windSpeed" : 4.7,
		"windDir" : 136,
		"rain" : 0,
		"cloudbase" : 2395.1408999999,
		"flyability" : 100,
		"reason" : "",
		"timestamp" :1556020800
		},
	"2019-04-23T18:00:00+03:00" : {
		"windSpeed" : 5,
		"windDir" : 156,
		"rain" : 0,
		"cloudbase" : 1943.2767999999,
		"flyability" : 100,
		"reason" : "",
		"timestamp" :1556031600
		},
	"2019-04-23T21:00:00+03:00" : {
		"windSpeed" : 5.5,
		"windDir" : 153,
		"rain" : 1,
		"cloudbase" : 82.248899999999,
		"flyability" : 0,
		"reason" : "windSpeed, rain, cloudbase",
		"timestamp" :1556042400
		},
	"2019-04-24T00:00:00+03:00" : {
		"windSpeed" : 4.6,
		"windDir" : 141,
		"rain" : 0,
		"cloudbase" : 1413.7536,
		"flyability" : 0,
		"reason" : "cloudbase",
		"timestamp" :1556053200
		},
	"2019-04-24T03:00:00+03:00" : {
		"windSpeed" : 3.2,
		"windDir" : 142,
		"rain" : 1,
		"cloudbase" : 2666.81355,
		"flyability" : 0,
		"reason" : "rain",
		"timestamp" :1556064000
		},
	"2019-04-24T06:00:00+03:00" : {
		"windSpeed" : 3,
		"windDir" : 140,
		"rain" : 1,
		"cloudbase" : 50,
		"flyability" : 0,
		"reason" : "rain, cloudbase",
		"timestamp" :1556074800
		},
	"2019-04-24T09:00:00+03:00" : {
		"windSpeed" : 2.9,
		"windDir" : 160,
		"rain" : 0,
		"cloudbase" : null,
		"flyability" : 100,
		"reason" : "",
		"timestamp" :1556085600
		},
	"2019-04-24T12:00:00+03:00" : {
		"windSpeed" : 4.2,
		"windDir" : 192,
		"rain" : 0,
		"cloudbase" : null,
		"flyability" : 100,
		"reason" : "",
		"timestamp" :1556096400
		},
	"2019-04-24T15:00:00+03:00" : {
		"windSpeed" : 3.9,
		"windDir" : 187,
		"rain" : 0,
		"cloudbase" : 7021.1385,
		"flyability" : 100,
		"reason" : "",
		"timestamp" :1556107200
		},
	"2019-04-24T18:00:00+03:00" : {
		"windSpeed" : 3.7,
		"windDir" : 186,
		"rain" : 0,
		"cloudbase" : null,
		"flyability" : 100,
		"reason" : "",
		"timestamp" :1556118000
		},
	"2019-04-24T21:00:00+03:00" : {
		"windSpeed" : 2,
		"windDir" : 133,
		"rain" : 0,
		"cloudbase" : null,
		"flyability" : 100,
		"reason" : "",
		"timestamp" :1556128800
		},
	"2019-04-25T00:00:00+03:00" : {
		"windSpeed" : 1.8,
		"windDir" : 119,
		"rain" : 0,
		"cloudbase" : null,
		"flyability" : 100,
		"reason" : "",
		"timestamp" :1556139600
		},
	"2019-04-25T03:00:00+03:00" : {
		"windSpeed" : 1.3,
		"windDir" : 120,
		"rain" : 0,
		"cloudbase" : 8327.877,
		"flyability" : 100,
		"reason" : "",
		"timestamp" :1556150400
		},
	"2019-04-25T06:00:00+03:00" : {
		"windSpeed" : 1.2,
		"windDir" : 104,
		"rain" : 0,
		"cloudbase" : null,
		"flyability" : 100,
		"reason" : "",
		"timestamp" :1556161200
		},
	"2019-04-25T09:00:00+03:00" : {
		"windSpeed" : 2.3,
		"windDir" : 157,
		"rain" : 0,
		"cloudbase" : 7000,
		"flyability" : 100,
		"reason" : "",
		"timestamp" :1556172000
		},
	"2019-04-25T12:00:00+03:00" : {
		"windSpeed" : 4.8,
		"windDir" : 174,
		"rain" : 0,
		"cloudbase" : 7773.4615,
		"flyability" : 100,
		"reason" : "",
		"timestamp" :1556182800
		},
	"2019-04-25T15:00:00+03:00" : {
		"windSpeed" : 5.3,
		"windDir" : 184,
		"rain" : 1,
		"cloudbase" : null,
		"flyability" : 0,
		"reason" : "windSpeed, rain",
		"timestamp" :1556193600
		},
	"2019-04-25T18:00:00+03:00" : {
		"windSpeed" : 3.7,
		"windDir" : 176,
		"rain" : 0,
		"cloudbase" : 7327.254,
		"flyability" : 100,
		"reason" : "",
		"timestamp" :1556204400
		},
	"2019-04-25T21:00:00+03:00" : {
		"windSpeed" : 3,
		"windDir" : 127,
		"rain" : 1,
		"cloudbase" : 3954.69225,
		"flyability" : 0,
		"reason" : "rain",
		"timestamp" :1556215200
		},
	"2019-04-26T00:00:00+03:00" : {
		"windSpeed" : 2.9,
		"windDir" : 132,
		"rain" : 0,
		"cloudbase" : 5899.2792499998,
		"flyability" : 100,
		"reason" : "",
		"timestamp" :1556226000
		},
	"2019-04-26T03:00:00+03:00" : {
		"windSpeed" : 2.9,
		"windDir" : 119,
		"rain" : 1,
		"cloudbase" : 7047.4712499999,
		"flyability" : 0,
		"reason" : "rain",
		"timestamp" :1556236800
		}
	}
}