{
"site" : "Puketutu",
"id" : 10826,
"orientations" : "22000022",
"forecasts" : { 
	"2019-04-21T03:00:00+12:00" : {
		"windSpeed" : 1.9,
		"windDir" : 1,
		"rain" : 0,
		"cloudbase" : null,
		"flyability" : 100,
		"reason" : "",
		"timestamp" :1555772400
		},
	"2019-04-21T06:00:00+12:00" : {
		"windSpeed" : 1.9,
		"windDir" : 1,
		"rain" : 0,
		"cloudbase" : null,
		"flyability" : 100,
		"reason" : "",
		"timestamp" :1555783200
		},
	"2019-04-21T09:00:00+12:00" : {
		"windSpeed" : 3.4,
		"windDir" : 352,
		"rain" : 0,
		"cloudbase" : null,
		"flyability" : 100,
		"reason" : "",
		"timestamp" :1555794000
		},
	"2019-04-21T12:00:00+12:00" : {
		"windSpeed" : 5.5,
		"windDir" : 334,
		"rain" : 1,
		"cloudbase" : null,
		"flyability" : 0,
		"reason" : "windSpeed, rain",
		"timestamp" :1555804800
		},
	"2019-04-21T15:00:00+12:00" : {
		"windSpeed" : 6,
		"windDir" : 351,
		"rain" : 1,
		"cloudbase" : null,
		"flyability" : 0,
		"reason" : "windSpeed, rain",
		"timestamp" :1555815600
		},
	"2019-04-21T18:00:00+12:00" : {
		"windSpeed" : 3.9,
		"windDir" : 7,
		"rain" : 0,
		"cloudbase" : null,
		"flyability" : 100,
		"reason" : "",
		"timestamp" :1555826400
		},
	"2019-04-21T21:00:00+12:00" : {
		"windSpeed" : 4.9,
		"windDir" : 6,
		"rain" : 1,
		"cloudbase" : null,
		"flyability" : 0,
		"reason" : "rain",
		"timestamp" :1555837200
		},
	"2019-04-22T00:00:00+12:00" : {
		"windSpeed" : 3.9,
		"windDir" : 354,
		"rain" : 1,
		"cloudbase" : 636.0471,
		"flyability" : 0,
		"reason" : "rain",
		"timestamp" :1555848000
		},
	"2019-04-22T03:00:00+12:00" : {
		"windSpeed" : 5.3,
		"windDir" : 5,
		"rain" : 1,
		"cloudbase" : 4789.8660000002,
		"flyability" : 0,
		"reason" : "windSpeed, rain",
		"timestamp" :1555858800
		},
	"2019-04-22T06:00:00+12:00" : {
		"windSpeed" : 4.3,
		"windDir" : 1,
		"rain" : 1,
		"cloudbase" : 4206.7465,
		"flyability" : 0,
		"reason" : "rain",
		"timestamp" :1555869600
		},
	"2019-04-22T09:00:00+12:00" : {
		"windSpeed" : 4.1,
		"windDir" : 340,
		"rain" : 1,
		"cloudbase" : 3158.6235000005,
		"flyability" : 0,
		"reason" : "rain",
		"timestamp" :1555880400
		},
	"2019-04-22T12:00:00+12:00" : {
		"windSpeed" : 3.4,
		"windDir" : 315,
		"rain" : 1,
		"cloudbase" : 1189.9917000006,
		"flyability" : 0,
		"reason" : "rain",
		"timestamp" :1555891200
		},
	"2019-04-22T15:00:00+12:00" : {
		"windSpeed" : 1.9,
		"windDir" : 1,
		"rain" : 1,
		"cloudbase" : 5588.6594999998,
		"flyability" : 0,
		"reason" : "rain",
		"timestamp" :1555902000
		},
	"2019-04-22T18:00:00+12:00" : {
		"windSpeed" : 1.1,
		"windDir" : 350,
		"rain" : 1,
		"cloudbase" : 4229.8569999999,
		"flyability" : 0,
		"reason" : "rain",
		"timestamp" :1555912800
		},
	"2019-04-22T21:00:00+12:00" : {
		"windSpeed" : 1.4,
		"windDir" : 318,
		"rain" : 1,
		"cloudbase" : 6000,
		"flyability" : 0,
		"reason" : "rain",
		"timestamp" :1555923600
		},
	"2019-04-23T00:00:00+12:00" : {
		"windSpeed" : 1.1,
		"windDir" : 334,
		"rain" : 0,
		"cloudbase" : null,
		"flyability" : 100,
		"reason" : "",
		"timestamp" :1555934400
		},
	"2019-04-23T03:00:00+12:00" : {
		"windSpeed" : 1.7,
		"windDir" : 19,
		"rain" : 0,
		"cloudbase" : 256.84800000069,
		"flyability" : 100,
		"reason" : "",
		"timestamp" :1555945200
		},
	"2019-04-23T06:00:00+12:00" : {
		"windSpeed" : 0.9,
		"windDir" : 192,
		"rain" : 1,
		"cloudbase" : 41.005800000034,
		"flyability" : 0,
		"reason" : "windDir, rain, cloudbase",
		"timestamp" :1555956000
		},
	"2019-04-23T09:00:00+12:00" : {
		"windSpeed" : 1.2,
		"windDir" : 109,
		"rain" : 1,
		"cloudbase" : 140,
		"flyability" : 0,
		"reason" : "windDir, rain, cloudbase",
		"timestamp" :1555966800
		},
	"2019-04-23T12:00:00+12:00" : {
		"windSpeed" : 1.3,
		"windDir" : 136,
		"rain" : 0,
		"cloudbase" : null,
		"flyability" : 0,
		"reason" : "windDir",
		"timestamp" :1555977600
		},
	"2019-04-23T15:00:00+12:00" : {
		"windSpeed" : 1.8,
		"windDir" : 201,
		"rain" : 1,
		"cloudbase" : null,
		"flyability" : 0,
		"reason" : "windDir, rain",
		"timestamp" :1555988400
		},
	"2019-04-23T18:00:00+12:00" : {
		"windSpeed" : 1.7,
		"windDir" : 200,
		"rain" : 1,
		"cloudbase" : null,
		"flyability" : 0,
		"reason" : "windDir, rain",
		"timestamp" :1555999200
		},
	"2019-04-23T21:00:00+12:00" : {
		"windSpeed" : 1.6,
		"windDir" : 203,
		"rain" : 0,
		"cloudbase" : null,
		"flyability" : 0,
		"reason" : "windDir",
		"timestamp" :1556010000
		},
	"2019-04-24T00:00:00+12:00" : {
		"windSpeed" : 1.8,
		"windDir" : 185,
		"rain" : 0,
		"cloudbase" : 6400,
		"flyability" : 0,
		"reason" : "windDir",
		"timestamp" :1556020800
		},
	"2019-04-24T03:00:00+12:00" : {
		"windSpeed" : 2.2,
		"windDir" : 208,
		"rain" : 1,
		"cloudbase" : null,
		"flyability" : 0,
		"reason" : "windDir, rain",
		"timestamp" :1556031600
		},
	"2019-04-24T06:00:00+12:00" : {
		"windSpeed" : 2.4,
		"windDir" : 148,
		"rain" : 1,
		"cloudbase" : null,
		"flyability" : 0,
		"reason" : "windDir, rain",
		"timestamp" :1556042400
		},
	"2019-04-24T09:00:00+12:00" : {
		"windSpeed" : 2.3,
		"windDir" : 162,
		"rain" : 1,
		"cloudbase" : null,
		"flyability" : 0,
		"reason" : "windDir, rain",
		"timestamp" :1556053200
		},
	"2019-04-24T12:00:00+12:00" : {
		"windSpeed" : 4.5,
		"windDir" : 175,
		"rain" : 0,
		"cloudbase" : null,
		"flyability" : 0,
		"reason" : "windDir",
		"timestamp" :1556064000
		},
	"2019-04-24T15:00:00+12:00" : {
		"windSpeed" : 3.5,
		"windDir" : 180,
		"rain" : 0,
		"cloudbase" : null,
		"flyability" : 0,
		"reason" : "windDir",
		"timestamp" :1556074800
		},
	"2019-04-24T18:00:00+12:00" : {
		"windSpeed" : 3.4,
		"windDir" : 227,
		"rain" : 0,
		"cloudbase" : null,
		"flyability" : 0,
		"reason" : "windDir",
		"timestamp" :1556085600
		},
	"2019-04-24T21:00:00+12:00" : {
		"windSpeed" : 2.9,
		"windDir" : 189,
		"rain" : 0,
		"cloudbase" : null,
		"flyability" : 0,
		"reason" : "windDir",
		"timestamp" :1556096400
		},
	"2019-04-25T00:00:00+12:00" : {
		"windSpeed" : 2.5,
		"windDir" : 170,
		"rain" : 0,
		"cloudbase" : null,
		"flyability" : 0,
		"reason" : "windDir",
		"timestamp" :1556107200
		},
	"2019-04-25T03:00:00+12:00" : {
		"windSpeed" : 2.3,
		"windDir" : 156,
		"rain" : 0,
		"cloudbase" : null,
		"flyability" : 0,
		"reason" : "windDir",
		"timestamp" :1556118000
		},
	"2019-04-25T06:00:00+12:00" : {
		"windSpeed" : 2.4,
		"windDir" : 176,
		"rain" : 0,
		"cloudbase" : null,
		"flyability" : 0,
		"reason" : "windDir",
		"timestamp" :1556128800
		},
	"2019-04-25T09:00:00+12:00" : {
		"windSpeed" : 2,
		"windDir" : 197,
		"rain" : 1,
		"cloudbase" : null,
		"flyability" : 0,
		"reason" : "windDir, rain",
		"timestamp" :1556139600
		},
	"2019-04-25T12:00:00+12:00" : {
		"windSpeed" : 2.7,
		"windDir" : 202,
		"rain" : 0,
		"cloudbase" : 940,
		"flyability" : 0,
		"reason" : "windDir",
		"timestamp" :1556150400
		},
	"2019-04-25T15:00:00+12:00" : {
		"windSpeed" : 5.1,
		"windDir" : 233,
		"rain" : 0,
		"cloudbase" : null,
		"flyability" : 0,
		"reason" : "windSpeed, windDir",
		"timestamp" :1556161200
		},
	"2019-04-25T18:00:00+12:00" : {
		"windSpeed" : 3.3,
		"windDir" : 232,
		"rain" : 1,
		"cloudbase" : null,
		"flyability" : 0,
		"reason" : "windDir, rain",
		"timestamp" :1556172000
		},
	"2019-04-25T21:00:00+12:00" : {
		"windSpeed" : 2.8,
		"windDir" : 227,
		"rain" : 1,
		"cloudbase" : null,
		"flyability" : 0,
		"reason" : "windDir, rain",
		"timestamp" :1556182800
		},
	"2019-04-26T00:00:00+12:00" : {
		"windSpeed" : 2.9,
		"windDir" : 240,
		"rain" : 0,
		"cloudbase" : null,
		"flyability" : 0,
		"reason" : "windDir",
		"timestamp" :1556193600
		},
	"2019-04-26T03:00:00+12:00" : {
		"windSpeed" : 2.5,
		"windDir" : 258,
		"rain" : 1,
		"cloudbase" : null,
		"flyability" : 0,
		"reason" : "rain",
		"timestamp" :1556204400
		},
	"2019-04-26T06:00:00+12:00" : {
		"windSpeed" : 2.2,
		"windDir" : 255,
		"rain" : 1,
		"cloudbase" : null,
		"flyability" : 0,
		"reason" : "rain",
		"timestamp" :1556215200
		},
	"2019-04-26T09:00:00+12:00" : {
		"windSpeed" : 4.5,
		"windDir" : 244,
		"rain" : 1,
		"cloudbase" : null,
		"flyability" : 0,
		"reason" : "windDir, rain",
		"timestamp" :1556226000
		},
	"2019-04-26T12:00:00+12:00" : {
		"windSpeed" : 5.5,
		"windDir" : 248,
		"rain" : 1,
		"cloudbase" : 1300,
		"flyability" : 0,
		"reason" : "windSpeed, rain",
		"timestamp" :1556236800
		},
	"2019-04-26T15:00:00+12:00" : {
		"windSpeed" : 4.8,
		"windDir" : 250,
		"rain" : 1,
		"cloudbase" : null,
		"flyability" : 0,
		"reason" : "rain",
		"timestamp" :1556247600
		},
	"2019-04-26T18:00:00+12:00" : {
		"windSpeed" : 2.2,
		"windDir" : 256,
		"rain" : 1,
		"cloudbase" : null,
		"flyability" : 0,
		"reason" : "rain",
		"timestamp" :1556258400
		},
	"2019-04-26T21:00:00+12:00" : {
		"windSpeed" : 2.1,
		"windDir" : 285,
		"rain" : 1,
		"cloudbase" : null,
		"flyability" : 0,
		"reason" : "rain",
		"timestamp" :1556269200
		},
	"2019-04-27T00:00:00+12:00" : {
		"windSpeed" : 2.1,
		"windDir" : 315,
		"rain" : 1,
		"cloudbase" : null,
		"flyability" : 0,
		"reason" : "rain",
		"timestamp" :1556280000
		}
	}
}