{
"site" : "Mount Banyak (Gunung Banyak)",
"id" : 10878,
"orientations" : "01210000",
"forecasts" : { 
	"2019-04-07T10:00:00+07:00" : {
		"windSpeed" : 1,
		"windDir" : 180,
		"rain" : 1,
		"cloudbase" : null,
		"flyability" : 0,
		"reason" : "windDir, rain",
		"timestamp" :1554602400
		},
	"2019-04-07T13:00:00+07:00" : {
		"windSpeed" : 0.3,
		"windDir" : 184,
		"rain" : 1,
		"cloudbase" : 448.72000000018,
		"flyability" : 0,
		"reason" : "windDir, rain, cloudbase",
		"timestamp" :1554613200
		},
	"2019-04-07T16:00:00+07:00" : {
		"windSpeed" : 0.6,
		"windDir" : 200,
		"rain" : 0,
		"cloudbase" : 400,
		"flyability" : 0,
		"reason" : "windDir, cloudbase",
		"timestamp" :1554624000
		},
	"2019-04-07T19:00:00+07:00" : {
		"windSpeed" : 0.1,
		"windDir" : 163,
		"rain" : 1,
		"cloudbase" : 722.07040000405,
		"flyability" : 0,
		"reason" : "windDir, rain, cloudbase",
		"timestamp" :1554634800
		},
	"2019-04-07T22:00:00+07:00" : {
		"windSpeed" : 0.5,
		"windDir" : 1,
		"rain" : 1,
		"cloudbase" : 3891.096000002,
		"flyability" : 0,
		"reason" : "windDir, rain",
		"timestamp" :1554645600
		},
	"2019-04-08T01:00:00+07:00" : {
		"windSpeed" : 0.5,
		"windDir" : 25,
		"rain" : 1,
		"cloudbase" : 1174.2256000026,
		"flyability" : 0,
		"reason" : "rain, cloudbase",
		"timestamp" :1554656400
		},
	"2019-04-08T04:00:00+07:00" : {
		"windSpeed" : 0.5,
		"windDir" : 26,
		"rain" : 0,
		"cloudbase" : null,
		"flyability" : 100,
		"reason" : "",
		"timestamp" :1554667200
		},
	"2019-04-08T07:00:00+07:00" : {
		"windSpeed" : 0.5,
		"windDir" : 359,
		"rain" : 0,
		"cloudbase" : null,
		"flyability" : 0,
		"reason" : "windDir",
		"timestamp" :1554678000
		},
	"2019-04-08T10:00:00+07:00" : {
		"windSpeed" : 0.7,
		"windDir" : 314,
		"rain" : 1,
		"cloudbase" : 4056.3840000042,
		"flyability" : 0,
		"reason" : "windDir, rain",
		"timestamp" :1554688800
		},
	"2019-04-08T13:00:00+07:00" : {
		"windSpeed" : 1.5,
		"windDir" : 289,
		"rain" : 1,
		"cloudbase" : 1093.0976000051,
		"flyability" : 0,
		"reason" : "windDir, rain, cloudbase",
		"timestamp" :1554699600
		},
	"2019-04-08T16:00:00+07:00" : {
		"windSpeed" : 0.5,
		"windDir" : 297,
		"rain" : 1,
		"cloudbase" : 5487.0880000032,
		"flyability" : 0,
		"reason" : "windDir, rain",
		"timestamp" :1554710400
		},
	"2019-04-08T19:00:00+07:00" : {
		"windSpeed" : 0.5,
		"windDir" : 297,
		"rain" : 1,
		"cloudbase" : 8353.3599999971,
		"flyability" : 0,
		"reason" : "windDir, rain",
		"timestamp" :1554721200
		},
	"2019-04-08T22:00:00+07:00" : {
		"windSpeed" : 0.7,
		"windDir" : 2,
		"rain" : 0,
		"cloudbase" : 1800,
		"flyability" : 0,
		"reason" : "windDir",
		"timestamp" :1554732000
		},
	"2019-04-09T01:00:00+07:00" : {
		"windSpeed" : 0.7,
		"windDir" : 2,
		"rain" : 0,
		"cloudbase" : 10975.839999998,
		"flyability" : 0,
		"reason" : "windDir",
		"timestamp" :1554742800
		},
	"2019-04-09T04:00:00+07:00" : {
		"windSpeed" : 0.5,
		"windDir" : 2,
		"rain" : 0,
		"cloudbase" : 11135.647999998,
		"flyability" : 0,
		"reason" : "windDir",
		"timestamp" :1554753600
		},
	"2019-04-09T07:00:00+07:00" : {
		"windSpeed" : 0.8,
		"windDir" : 287,
		"rain" : 0,
		"cloudbase" : 10786.88,
		"flyability" : 0,
		"reason" : "windDir",
		"timestamp" :1554764400
		},
	"2019-04-09T10:00:00+07:00" : {
		"windSpeed" : 0.7,
		"windDir" : 252,
		"rain" : 0,
		"cloudbase" : 6225.040000003,
		"flyability" : 0,
		"reason" : "windDir",
		"timestamp" :1554775200
		},
	"2019-04-09T13:00:00+07:00" : {
		"windSpeed" : 1.5,
		"windDir" : 271,
		"rain" : 0,
		"cloudbase" : 9687.1680000007,
		"flyability" : 0,
		"reason" : "windDir",
		"timestamp" :1554786000
		},
	"2019-04-09T16:00:00+07:00" : {
		"windSpeed" : 0.8,
		"windDir" : 250,
		"rain" : 1,
		"cloudbase" : 9698.6240000006,
		"flyability" : 0,
		"reason" : "windDir, rain",
		"timestamp" :1554796800
		},
	"2019-04-09T19:00:00+07:00" : {
		"windSpeed" : 0.2,
		"windDir" : 357,
		"rain" : 0,
		"cloudbase" : 4305.1520000002,
		"flyability" : 0,
		"reason" : "windDir",
		"timestamp" :1554807600
		},
	"2019-04-09T22:00:00+07:00" : {
		"windSpeed" : 0.8,
		"windDir" : 21,
		"rain" : 0,
		"cloudbase" : 4694.3791999989,
		"flyability" : 0,
		"reason" : "windDir",
		"timestamp" :1554818400
		},
	"2019-04-10T01:00:00+07:00" : {
		"windSpeed" : 0.7,
		"windDir" : 44,
		"rain" : 0,
		"cloudbase" : 5512.1471999998,
		"flyability" : 100,
		"reason" : "",
		"timestamp" :1554829200
		},
	"2019-04-10T04:00:00+07:00" : {
		"windSpeed" : 0.3,
		"windDir" : 2,
		"rain" : 0,
		"cloudbase" : 153.16800000104,
		"flyability" : 0,
		"reason" : "windDir, cloudbase",
		"timestamp" :1554840000
		},
	"2019-04-10T07:00:00+07:00" : {
		"windSpeed" : 1,
		"windDir" : 255,
		"rain" : 0,
		"cloudbase" : 11941.360000001,
		"flyability" : 0,
		"reason" : "windDir",
		"timestamp" :1554850800
		},
	"2019-04-10T10:00:00+07:00" : {
		"windSpeed" : 1.5,
		"windDir" : 251,
		"rain" : 0,
		"cloudbase" : null,
		"flyability" : 0,
		"reason" : "windDir",
		"timestamp" :1554861600
		},
	"2019-04-10T13:00:00+07:00" : {
		"windSpeed" : 1.4,
		"windDir" : 224,
		"rain" : 1,
		"cloudbase" : 11020,
		"flyability" : 0,
		"reason" : "windDir, rain",
		"timestamp" :1554872400
		},
	"2019-04-10T16:00:00+07:00" : {
		"windSpeed" : 0.8,
		"windDir" : 178,
		"rain" : 1,
		"cloudbase" : 1954.0848000011,
		"flyability" : 0,
		"reason" : "windDir, rain",
		"timestamp" :1554883200
		},
	"2019-04-10T19:00:00+07:00" : {
		"windSpeed" : 0.5,
		"windDir" : 91,
		"rain" : 1,
		"cloudbase" : 2589.8400000035,
		"flyability" : 0,
		"reason" : "rain",
		"timestamp" :1554894000
		},
	"2019-04-10T22:00:00+07:00" : {
		"windSpeed" : 0,
		"windDir" : 360,
		"rain" : 1,
		"cloudbase" : 9150.6479999993,
		"flyability" : 0,
		"reason" : "windDir, rain",
		"timestamp" :1554904800
		},
	"2019-04-11T01:00:00+07:00" : {
		"windSpeed" : 0.5,
		"windDir" : 86,
		"rain" : 1,
		"cloudbase" : 7961.6159999997,
		"flyability" : 0,
		"reason" : "rain",
		"timestamp" :1554915600
		},
	"2019-04-11T04:00:00+07:00" : {
		"windSpeed" : 0.3,
		"windDir" : 134,
		"rain" : 0,
		"cloudbase" : 9776.1280000001,
		"flyability" : 100,
		"reason" : "",
		"timestamp" :1554926400
		},
	"2019-04-11T07:00:00+07:00" : {
		"windSpeed" : 0.6,
		"windDir" : 61,
		"rain" : 0,
		"cloudbase" : 11488.88,
		"flyability" : 100,
		"reason" : "",
		"timestamp" :1554937200
		},
	"2019-04-11T10:00:00+07:00" : {
		"windSpeed" : 1.2,
		"windDir" : 170,
		"rain" : 0,
		"cloudbase" : 11306.88,
		"flyability" : 0,
		"reason" : "windDir",
		"timestamp" :1554948000
		},
	"2019-04-11T13:00:00+07:00" : {
		"windSpeed" : 0.3,
		"windDir" : 177,
		"rain" : 1,
		"cloudbase" : 1758.4000000015,
		"flyability" : 0,
		"reason" : "windDir, rain",
		"timestamp" :1554958800
		},
	"2019-04-11T16:00:00+07:00" : {
		"windSpeed" : 1.3,
		"windDir" : 141,
		"rain" : 0,
		"cloudbase" : 333.85280000146,
		"flyability" : 0,
		"reason" : "cloudbase",
		"timestamp" :1554969600
		},
	"2019-04-11T19:00:00+07:00" : {
		"windSpeed" : 0.6,
		"windDir" : 62,
		"rain" : 1,
		"cloudbase" : 8771.1520000002,
		"flyability" : 0,
		"reason" : "rain",
		"timestamp" :1554980400
		},
	"2019-04-11T22:00:00+07:00" : {
		"windSpeed" : 0.4,
		"windDir" : 41,
		"rain" : 1,
		"cloudbase" : 8633.9520000001,
		"flyability" : 0,
		"reason" : "rain",
		"timestamp" :1554991200
		},
	"2019-04-12T01:00:00+07:00" : {
		"windSpeed" : 0.3,
		"windDir" : 2,
		"rain" : 0,
		"cloudbase" : 9668.2560000003,
		"flyability" : 0,
		"reason" : "windDir",
		"timestamp" :1555002000
		},
	"2019-04-12T04:00:00+07:00" : {
		"windSpeed" : 0.4,
		"windDir" : 43,
		"rain" : 0,
		"cloudbase" : 11786.88,
		"flyability" : 100,
		"reason" : "",
		"timestamp" :1555012800
		},
	"2019-04-12T07:00:00+07:00" : {
		"windSpeed" : 0.5,
		"windDir" : 360,
		"rain" : 0,
		"cloudbase" : 8468.9280000001,
		"flyability" : 0,
		"reason" : "windDir",
		"timestamp" :1555023600
		},
	"2019-04-12T10:00:00+07:00" : {
		"windSpeed" : 0,
		"windDir" : 169,
		"rain" : 1,
		"cloudbase" : 700,
		"flyability" : 0,
		"reason" : "windDir, rain, cloudbase",
		"timestamp" :1555034400
		},
	"2019-04-12T13:00:00+07:00" : {
		"windSpeed" : 0.8,
		"windDir" : 197,
		"rain" : 0,
		"cloudbase" : 1604.032000002,
		"flyability" : 0,
		"reason" : "windDir",
		"timestamp" :1555045200
		},
	"2019-04-12T16:00:00+07:00" : {
		"windSpeed" : 0.8,
		"windDir" : 162,
		"rain" : 0,
		"cloudbase" : 5709.4720000032,
		"flyability" : 0,
		"reason" : "windDir",
		"timestamp" :1555056000
		},
	"2019-04-12T19:00:00+07:00" : {
		"windSpeed" : 0.7,
		"windDir" : 86,
		"rain" : 0,
		"cloudbase" : 9977.3760000002,
		"flyability" : 100,
		"reason" : "",
		"timestamp" :1555066800
		},
	"2019-04-12T22:00:00+07:00" : {
		"windSpeed" : 0.4,
		"windDir" : 41,
		"rain" : 1,
		"cloudbase" : 11295.76,
		"flyability" : 0,
		"reason" : "rain",
		"timestamp" :1555077600
		},
	"2019-04-13T01:00:00+07:00" : {
		"windSpeed" : 0.7,
		"windDir" : 86,
		"rain" : 0,
		"cloudbase" : 9441.5040000002,
		"flyability" : 100,
		"reason" : "",
		"timestamp" :1555088400
		},
	"2019-04-13T04:00:00+07:00" : {
		"windSpeed" : 0.8,
		"windDir" : 70,
		"rain" : 1,
		"cloudbase" : 8637.5040000001,
		"flyability" : 0,
		"reason" : "rain",
		"timestamp" :1555099200
		},
	"2019-04-13T07:00:00+07:00" : {
		"windSpeed" : 0.9,
		"windDir" : 124,
		"rain" : 1,
		"cloudbase" : null,
		"flyability" : 0,
		"reason" : "rain",
		"timestamp" :1555110000
		}
	}
}