{
"site" : "agios gordis",
"id" : 10945,
"orientations" : "20000222",
"forecasts" : { 
	"2019-04-12T18:00:00+03:00" : {
		"windSpeed" : 3.6,
		"windDir" : 177,
		"rain" : 1,
		"cloudbase" : null,
		"flyability" : 0,
		"reason" : "windDir, rain",
		"timestamp" :1555081200
		},
	"2019-04-12T21:00:00+03:00" : {
		"windSpeed" : 7,
		"windDir" : 101,
		"rain" : 0,
		"cloudbase" : 1582.6822,
		"flyability" : 0,
		"reason" : "windSpeed, windDir",
		"timestamp" :1555092000
		},
	"2019-04-13T00:00:00+03:00" : {
		"windSpeed" : 5,
		"windDir" : 145,
		"rain" : 1,
		"cloudbase" : 8200,
		"flyability" : 0,
		"reason" : "windDir, rain",
		"timestamp" :1555102800
		},
	"2019-04-13T03:00:00+03:00" : {
		"windSpeed" : 4.6,
		"windDir" : 142,
		"rain" : 0,
		"cloudbase" : 8200,
		"flyability" : 0,
		"reason" : "windDir",
		"timestamp" :1555113600
		},
	"2019-04-13T06:00:00+03:00" : {
		"windSpeed" : 4.4,
		"windDir" : 127,
		"rain" : 1,
		"cloudbase" : null,
		"flyability" : 0,
		"reason" : "windDir, rain",
		"timestamp" :1555124400
		},
	"2019-04-13T09:00:00+03:00" : {
		"windSpeed" : 4,
		"windDir" : 129,
		"rain" : 1,
		"cloudbase" : null,
		"flyability" : 0,
		"reason" : "windDir, rain",
		"timestamp" :1555135200
		},
	"2019-04-13T12:00:00+03:00" : {
		"windSpeed" : 4.4,
		"windDir" : 157,
		"rain" : 1,
		"cloudbase" : null,
		"flyability" : 0,
		"reason" : "windDir, rain",
		"timestamp" :1555146000
		},
	"2019-04-13T15:00:00+03:00" : {
		"windSpeed" : 4.3,
		"windDir" : 175,
		"rain" : 1,
		"cloudbase" : 7961.2,
		"flyability" : 0,
		"reason" : "windDir, rain",
		"timestamp" :1555156800
		},
	"2019-04-13T18:00:00+03:00" : {
		"windSpeed" : 2.9,
		"windDir" : 174,
		"rain" : 1,
		"cloudbase" : null,
		"flyability" : 0,
		"reason" : "windDir, rain",
		"timestamp" :1555167600
		},
	"2019-04-13T21:00:00+03:00" : {
		"windSpeed" : 2.9,
		"windDir" : 114,
		"rain" : 1,
		"cloudbase" : 888.15612000004,
		"flyability" : 0,
		"reason" : "windDir, rain",
		"timestamp" :1555178400
		},
	"2019-04-14T00:00:00+03:00" : {
		"windSpeed" : 3.1,
		"windDir" : 109,
		"rain" : 1,
		"cloudbase" : 640,
		"flyability" : 0,
		"reason" : "windDir, rain",
		"timestamp" :1555189200
		},
	"2019-04-14T03:00:00+03:00" : {
		"windSpeed" : 3.6,
		"windDir" : 128,
		"rain" : 1,
		"cloudbase" : 2426.86424,
		"flyability" : 0,
		"reason" : "windDir, rain",
		"timestamp" :1555200000
		},
	"2019-04-14T06:00:00+03:00" : {
		"windSpeed" : 2.5,
		"windDir" : 143,
		"rain" : 1,
		"cloudbase" : 6700,
		"flyability" : 0,
		"reason" : "windDir, rain",
		"timestamp" :1555210800
		},
	"2019-04-14T09:00:00+03:00" : {
		"windSpeed" : 2.3,
		"windDir" : 131,
		"rain" : 1,
		"cloudbase" : 640,
		"flyability" : 0,
		"reason" : "windDir, rain",
		"timestamp" :1555221600
		},
	"2019-04-14T12:00:00+03:00" : {
		"windSpeed" : 2,
		"windDir" : 137,
		"rain" : 1,
		"cloudbase" : 290,
		"flyability" : 0,
		"reason" : "windDir, rain, cloudbase",
		"timestamp" :1555232400
		},
	"2019-04-14T15:00:00+03:00" : {
		"windSpeed" : 2.9,
		"windDir" : 214,
		"rain" : 1,
		"cloudbase" : null,
		"flyability" : 0,
		"reason" : "rain",
		"timestamp" :1555243200
		},
	"2019-04-14T18:00:00+03:00" : {
		"windSpeed" : 2.6,
		"windDir" : 270,
		"rain" : 1,
		"cloudbase" : null,
		"flyability" : 0,
		"reason" : "rain",
		"timestamp" :1555254000
		},
	"2019-04-14T21:00:00+03:00" : {
		"windSpeed" : 1,
		"windDir" : 282,
		"rain" : 1,
		"cloudbase" : null,
		"flyability" : 0,
		"reason" : "rain",
		"timestamp" :1555264800
		},
	"2019-04-15T00:00:00+03:00" : {
		"windSpeed" : 2,
		"windDir" : 136,
		"rain" : 1,
		"cloudbase" : null,
		"flyability" : 0,
		"reason" : "windDir, rain",
		"timestamp" :1555275600
		},
	"2019-04-15T03:00:00+03:00" : {
		"windSpeed" : 3,
		"windDir" : 150,
		"rain" : 1,
		"cloudbase" : 7323.088,
		"flyability" : 0,
		"reason" : "windDir, rain",
		"timestamp" :1555286400
		},
	"2019-04-15T06:00:00+03:00" : {
		"windSpeed" : 4.8,
		"windDir" : 129,
		"rain" : 1,
		"cloudbase" : 890.76364000004,
		"flyability" : 0,
		"reason" : "windDir, rain",
		"timestamp" :1555297200
		},
	"2019-04-15T09:00:00+03:00" : {
		"windSpeed" : 4.3,
		"windDir" : 135,
		"rain" : 1,
		"cloudbase" : 2680.1474,
		"flyability" : 0,
		"reason" : "windDir, rain",
		"timestamp" :1555308000
		},
	"2019-04-15T12:00:00+03:00" : {
		"windSpeed" : 4.8,
		"windDir" : 135,
		"rain" : 1,
		"cloudbase" : 7119.6488,
		"flyability" : 0,
		"reason" : "windDir, rain",
		"timestamp" :1555318800
		},
	"2019-04-15T15:00:00+03:00" : {
		"windSpeed" : 2.7,
		"windDir" : 136,
		"rain" : 1,
		"cloudbase" : 7853.4268,
		"flyability" : 0,
		"reason" : "windDir, rain",
		"timestamp" :1555329600
		},
	"2019-04-15T18:00:00+03:00" : {
		"windSpeed" : 0.6,
		"windDir" : 48,
		"rain" : 0,
		"cloudbase" : 7317.0244,
		"flyability" : 0,
		"reason" : "windDir",
		"timestamp" :1555340400
		},
	"2019-04-15T21:00:00+03:00" : {
		"windSpeed" : 2.5,
		"windDir" : 348,
		"rain" : 0,
		"cloudbase" : 7286.8292,
		"flyability" : 100,
		"reason" : "",
		"timestamp" :1555351200
		},
	"2019-04-16T00:00:00+03:00" : {
		"windSpeed" : 2.6,
		"windDir" : 337,
		"rain" : 0,
		"cloudbase" : null,
		"flyability" : 100,
		"reason" : "",
		"timestamp" :1555362000
		},
	"2019-04-16T03:00:00+03:00" : {
		"windSpeed" : 1.9,
		"windDir" : 20,
		"rain" : 0,
		"cloudbase" : null,
		"flyability" : 100,
		"reason" : "",
		"timestamp" :1555372800
		},
	"2019-04-16T06:00:00+03:00" : {
		"windSpeed" : 1.1,
		"windDir" : 21,
		"rain" : 0,
		"cloudbase" : null,
		"flyability" : 100,
		"reason" : "",
		"timestamp" :1555383600
		},
	"2019-04-16T09:00:00+03:00" : {
		"windSpeed" : 1.3,
		"windDir" : 104,
		"rain" : 1,
		"cloudbase" : null,
		"flyability" : 0,
		"reason" : "windDir, rain",
		"timestamp" :1555394400
		},
	"2019-04-16T12:00:00+03:00" : {
		"windSpeed" : 2.3,
		"windDir" : 100,
		"rain" : 1,
		"cloudbase" : null,
		"flyability" : 0,
		"reason" : "windDir, rain",
		"timestamp" :1555405200
		},
	"2019-04-16T15:00:00+03:00" : {
		"windSpeed" : 3.7,
		"windDir" : 234,
		"rain" : 0,
		"cloudbase" : null,
		"flyability" : 100,
		"reason" : "",
		"timestamp" :1555416000
		},
	"2019-04-16T18:00:00+03:00" : {
		"windSpeed" : 2.7,
		"windDir" : 273,
		"rain" : 0,
		"cloudbase" : null,
		"flyability" : 100,
		"reason" : "",
		"timestamp" :1555426800
		},
	"2019-04-16T21:00:00+03:00" : {
		"windSpeed" : 1.3,
		"windDir" : 318,
		"rain" : 0,
		"cloudbase" : null,
		"flyability" : 100,
		"reason" : "",
		"timestamp" :1555437600
		},
	"2019-04-17T00:00:00+03:00" : {
		"windSpeed" : 1.4,
		"windDir" : 317,
		"rain" : 0,
		"cloudbase" : null,
		"flyability" : 100,
		"reason" : "",
		"timestamp" :1555448400
		},
	"2019-04-17T03:00:00+03:00" : {
		"windSpeed" : 1.5,
		"windDir" : 71,
		"rain" : 0,
		"cloudbase" : null,
		"flyability" : 0,
		"reason" : "windDir",
		"timestamp" :1555459200
		},
	"2019-04-17T06:00:00+03:00" : {
		"windSpeed" : 2.2,
		"windDir" : 121,
		"rain" : 0,
		"cloudbase" : null,
		"flyability" : 0,
		"reason" : "windDir",
		"timestamp" :1555470000
		},
	"2019-04-17T09:00:00+03:00" : {
		"windSpeed" : 2,
		"windDir" : 111,
		"rain" : 0,
		"cloudbase" : null,
		"flyability" : 0,
		"reason" : "windDir",
		"timestamp" :1555480800
		},
	"2019-04-17T12:00:00+03:00" : {
		"windSpeed" : 1.1,
		"windDir" : 188,
		"rain" : 0,
		"cloudbase" : null,
		"flyability" : 0,
		"reason" : "windDir",
		"timestamp" :1555491600
		},
	"2019-04-17T15:00:00+03:00" : {
		"windSpeed" : 3.9,
		"windDir" : 276,
		"rain" : 0,
		"cloudbase" : null,
		"flyability" : 100,
		"reason" : "",
		"timestamp" :1555502400
		},
	"2019-04-17T18:00:00+03:00" : {
		"windSpeed" : 4.8,
		"windDir" : 295,
		"rain" : 0,
		"cloudbase" : null,
		"flyability" : 100,
		"reason" : "",
		"timestamp" :1555513200
		},
	"2019-04-17T21:00:00+03:00" : {
		"windSpeed" : 3.9,
		"windDir" : 298,
		"rain" : 0,
		"cloudbase" : null,
		"flyability" : 100,
		"reason" : "",
		"timestamp" :1555524000
		},
	"2019-04-18T00:00:00+03:00" : {
		"windSpeed" : 4,
		"windDir" : 315,
		"rain" : 1,
		"cloudbase" : null,
		"flyability" : 0,
		"reason" : "rain",
		"timestamp" :1555534800
		},
	"2019-04-18T03:00:00+03:00" : {
		"windSpeed" : 1.7,
		"windDir" : 19,
		"rain" : 0,
		"cloudbase" : 4487.339,
		"flyability" : 100,
		"reason" : "",
		"timestamp" :1555545600
		},
	"2019-04-18T06:00:00+03:00" : {
		"windSpeed" : 0.9,
		"windDir" : 117,
		"rain" : 1,
		"cloudbase" : 3922.4,
		"flyability" : 0,
		"reason" : "windDir, rain",
		"timestamp" :1555556400
		},
	"2019-04-18T09:00:00+03:00" : {
		"windSpeed" : 1.9,
		"windDir" : 109,
		"rain" : 1,
		"cloudbase" : null,
		"flyability" : 0,
		"reason" : "windDir, rain",
		"timestamp" :1555567200
		},
	"2019-04-18T12:00:00+03:00" : {
		"windSpeed" : 1.1,
		"windDir" : 195,
		"rain" : 1,
		"cloudbase" : null,
		"flyability" : 0,
		"reason" : "windDir, rain",
		"timestamp" :1555578000
		},
	"2019-04-18T15:00:00+03:00" : {
		"windSpeed" : 4.8,
		"windDir" : 305,
		"rain" : 0,
		"cloudbase" : null,
		"flyability" : 100,
		"reason" : "",
		"timestamp" :1555588800
		}
	}
}