{
"site" : "Lorens",
"id" : 10969,
"orientations" : "21012201",
"forecasts" : { 
	"2019-04-18T01:00:00+10:00" : {
		"windSpeed" : 0.9,
		"windDir" : 177,
		"rain" : 0,
		"cloudbase" : null,
		"flyability" : 100,
		"reason" : "",
		"timestamp" :1555509600
		},
	"2019-04-18T04:00:00+10:00" : {
		"windSpeed" : 0.7,
		"windDir" : 190,
		"rain" : 0,
		"cloudbase" : null,
		"flyability" : 100,
		"reason" : "",
		"timestamp" :1555520400
		},
	"2019-04-18T07:00:00+10:00" : {
		"windSpeed" : 0.7,
		"windDir" : 200,
		"rain" : 0,
		"cloudbase" : null,
		"flyability" : 100,
		"reason" : "",
		"timestamp" :1555531200
		},
	"2019-04-18T10:00:00+10:00" : {
		"windSpeed" : 1.7,
		"windDir" : 82,
		"rain" : 0,
		"cloudbase" : null,
		"flyability" : 0,
		"reason" : "windDir",
		"timestamp" :1555542000
		},
	"2019-04-18T13:00:00+10:00" : {
		"windSpeed" : 2.2,
		"windDir" : 92,
		"rain" : 0,
		"cloudbase" : null,
		"flyability" : 0,
		"reason" : "windDir",
		"timestamp" :1555552800
		},
	"2019-04-18T16:00:00+10:00" : {
		"windSpeed" : 2.6,
		"windDir" : 118,
		"rain" : 0,
		"cloudbase" : null,
		"flyability" : 100,
		"reason" : "",
		"timestamp" :1555563600
		},
	"2019-04-18T19:00:00+10:00" : {
		"windSpeed" : 2.6,
		"windDir" : 130,
		"rain" : 0,
		"cloudbase" : null,
		"flyability" : 100,
		"reason" : "",
		"timestamp" :1555574400
		},
	"2019-04-18T22:00:00+10:00" : {
		"windSpeed" : 1.5,
		"windDir" : 129,
		"rain" : 1,
		"cloudbase" : 150,
		"flyability" : 0,
		"reason" : "rain, cloudbase",
		"timestamp" :1555585200
		},
	"2019-04-19T01:00:00+10:00" : {
		"windSpeed" : 1.6,
		"windDir" : 136,
		"rain" : 0,
		"cloudbase" : 81.075200000017,
		"flyability" : 0,
		"reason" : "cloudbase",
		"timestamp" :1555596000
		},
	"2019-04-19T04:00:00+10:00" : {
		"windSpeed" : 2.1,
		"windDir" : 122,
		"rain" : 1,
		"cloudbase" : 57.945400000019,
		"flyability" : 0,
		"reason" : "rain, cloudbase",
		"timestamp" :1555606800
		},
	"2019-04-19T07:00:00+10:00" : {
		"windSpeed" : 2.3,
		"windDir" : 132,
		"rain" : 1,
		"cloudbase" : 111.3412,
		"flyability" : 0,
		"reason" : "rain, cloudbase",
		"timestamp" :1555617600
		},
	"2019-04-19T10:00:00+10:00" : {
		"windSpeed" : 3.1,
		"windDir" : 112,
		"rain" : 1,
		"cloudbase" : 500,
		"flyability" : 0,
		"reason" : "windDir, rain, cloudbase",
		"timestamp" :1555628400
		},
	"2019-04-19T13:00:00+10:00" : {
		"windSpeed" : 3.2,
		"windDir" : 108,
		"rain" : 1,
		"cloudbase" : null,
		"flyability" : 0,
		"reason" : "windDir, rain",
		"timestamp" :1555639200
		},
	"2019-04-19T16:00:00+10:00" : {
		"windSpeed" : 3.4,
		"windDir" : 111,
		"rain" : 1,
		"cloudbase" : 330,
		"flyability" : 0,
		"reason" : "windDir, rain, cloudbase",
		"timestamp" :1555650000
		},
	"2019-04-19T19:00:00+10:00" : {
		"windSpeed" : 2.6,
		"windDir" : 118,
		"rain" : 1,
		"cloudbase" : 57.889799999995,
		"flyability" : 0,
		"reason" : "rain, cloudbase",
		"timestamp" :1555660800
		},
	"2019-04-19T22:00:00+10:00" : {
		"windSpeed" : 2.6,
		"windDir" : 109,
		"rain" : 1,
		"cloudbase" : 31.709399999999,
		"flyability" : 0,
		"reason" : "windDir, rain, cloudbase",
		"timestamp" :1555671600
		},
	"2019-04-20T01:00:00+10:00" : {
		"windSpeed" : 2,
		"windDir" : 117,
		"rain" : 1,
		"cloudbase" : 63.321200000012,
		"flyability" : 0,
		"reason" : "rain, cloudbase",
		"timestamp" :1555682400
		},
	"2019-04-20T04:00:00+10:00" : {
		"windSpeed" : 1.9,
		"windDir" : 102,
		"rain" : 1,
		"cloudbase" : 80.780800000016,
		"flyability" : 0,
		"reason" : "windDir, rain, cloudbase",
		"timestamp" :1555693200
		},
	"2019-04-20T07:00:00+10:00" : {
		"windSpeed" : 1.7,
		"windDir" : 123,
		"rain" : 0,
		"cloudbase" : 34.143999999998,
		"flyability" : 0,
		"reason" : "cloudbase",
		"timestamp" :1555704000
		},
	"2019-04-20T10:00:00+10:00" : {
		"windSpeed" : 2.9,
		"windDir" : 87,
		"rain" : 0,
		"cloudbase" : 529.64080000001,
		"flyability" : 0,
		"reason" : "windDir, cloudbase",
		"timestamp" :1555714800
		},
	"2019-04-20T13:00:00+10:00" : {
		"windSpeed" : 3.3,
		"windDir" : 88,
		"rain" : 1,
		"cloudbase" : null,
		"flyability" : 0,
		"reason" : "windDir, rain",
		"timestamp" :1555725600
		},
	"2019-04-20T16:00:00+10:00" : {
		"windSpeed" : 3.4,
		"windDir" : 94,
		"rain" : 1,
		"cloudbase" : null,
		"flyability" : 0,
		"reason" : "windDir, rain",
		"timestamp" :1555736400
		},
	"2019-04-20T19:00:00+10:00" : {
		"windSpeed" : 3.1,
		"windDir" : 106,
		"rain" : 1,
		"cloudbase" : 120,
		"flyability" : 0,
		"reason" : "windDir, rain, cloudbase",
		"timestamp" :1555747200
		},
	"2019-04-20T22:00:00+10:00" : {
		"windSpeed" : 1.9,
		"windDir" : 104,
		"rain" : 1,
		"cloudbase" : 67.977400000009,
		"flyability" : 0,
		"reason" : "windDir, rain, cloudbase",
		"timestamp" :1555758000
		},
	"2019-04-21T01:00:00+10:00" : {
		"windSpeed" : 1.3,
		"windDir" : 140,
		"rain" : 0,
		"cloudbase" : 56.107199999981,
		"flyability" : 0,
		"reason" : "cloudbase",
		"timestamp" :1555768800
		},
	"2019-04-21T04:00:00+10:00" : {
		"windSpeed" : 0.6,
		"windDir" : 140,
		"rain" : 0,
		"cloudbase" : null,
		"flyability" : 100,
		"reason" : "",
		"timestamp" :1555779600
		},
	"2019-04-21T07:00:00+10:00" : {
		"windSpeed" : 0.7,
		"windDir" : 110,
		"rain" : 0,
		"cloudbase" : null,
		"flyability" : 0,
		"reason" : "windDir",
		"timestamp" :1555790400
		},
	"2019-04-21T10:00:00+10:00" : {
		"windSpeed" : 3.1,
		"windDir" : 78,
		"rain" : 0,
		"cloudbase" : null,
		"flyability" : 0,
		"reason" : "windDir",
		"timestamp" :1555801200
		},
	"2019-04-21T13:00:00+10:00" : {
		"windSpeed" : 3.4,
		"windDir" : 87,
		"rain" : 1,
		"cloudbase" : null,
		"flyability" : 0,
		"reason" : "windDir, rain",
		"timestamp" :1555812000
		},
	"2019-04-21T16:00:00+10:00" : {
		"windSpeed" : 3.2,
		"windDir" : 95,
		"rain" : 1,
		"cloudbase" : null,
		"flyability" : 0,
		"reason" : "windDir, rain",
		"timestamp" :1555822800
		},
	"2019-04-21T19:00:00+10:00" : {
		"windSpeed" : 2.4,
		"windDir" : 117,
		"rain" : 0,
		"cloudbase" : null,
		"flyability" : 100,
		"reason" : "",
		"timestamp" :1555833600
		},
	"2019-04-21T22:00:00+10:00" : {
		"windSpeed" : 1.3,
		"windDir" : 120,
		"rain" : 0,
		"cloudbase" : 10129.5,
		"flyability" : 100,
		"reason" : "",
		"timestamp" :1555844400
		},
	"2019-04-22T01:00:00+10:00" : {
		"windSpeed" : 0.9,
		"windDir" : 147,
		"rain" : 0,
		"cloudbase" : 8752.9360000001,
		"flyability" : 100,
		"reason" : "",
		"timestamp" :1555855200
		},
	"2019-04-22T04:00:00+10:00" : {
		"windSpeed" : 0.5,
		"windDir" : 189,
		"rain" : 0,
		"cloudbase" : 7020.9031999995,
		"flyability" : 100,
		"reason" : "",
		"timestamp" :1555866000
		},
	"2019-04-22T07:00:00+10:00" : {
		"windSpeed" : 0.5,
		"windDir" : 183,
		"rain" : 0,
		"cloudbase" : 7447.044,
		"flyability" : 100,
		"reason" : "",
		"timestamp" :1555876800
		},
	"2019-04-22T10:00:00+10:00" : {
		"windSpeed" : 1.3,
		"windDir" : 66,
		"rain" : 0,
		"cloudbase" : 8407.8,
		"flyability" : 100,
		"reason" : "",
		"timestamp" :1555887600
		},
	"2019-04-22T13:00:00+10:00" : {
		"windSpeed" : 2,
		"windDir" : 85,
		"rain" : 0,
		"cloudbase" : 6319.0199999988,
		"flyability" : 0,
		"reason" : "windDir",
		"timestamp" :1555898400
		},
	"2019-04-22T16:00:00+10:00" : {
		"windSpeed" : 2.4,
		"windDir" : 101,
		"rain" : 0,
		"cloudbase" : 7822.3040000001,
		"flyability" : 0,
		"reason" : "windDir",
		"timestamp" :1555909200
		},
	"2019-04-22T19:00:00+10:00" : {
		"windSpeed" : 1.4,
		"windDir" : 135,
		"rain" : 0,
		"cloudbase" : null,
		"flyability" : 100,
		"reason" : "",
		"timestamp" :1555920000
		},
	"2019-04-22T22:00:00+10:00" : {
		"windSpeed" : 0.8,
		"windDir" : 179,
		"rain" : 0,
		"cloudbase" : 6867.5560000005,
		"flyability" : 100,
		"reason" : "",
		"timestamp" :1555930800
		},
	"2019-04-23T01:00:00+10:00" : {
		"windSpeed" : 0.3,
		"windDir" : 221,
		"rain" : 0,
		"cloudbase" : null,
		"flyability" : 100,
		"reason" : "",
		"timestamp" :1555941600
		},
	"2019-04-23T04:00:00+10:00" : {
		"windSpeed" : 0.6,
		"windDir" : 203,
		"rain" : 0,
		"cloudbase" : null,
		"flyability" : 100,
		"reason" : "",
		"timestamp" :1555952400
		},
	"2019-04-23T07:00:00+10:00" : {
		"windSpeed" : 0.6,
		"windDir" : 198,
		"rain" : 0,
		"cloudbase" : null,
		"flyability" : 100,
		"reason" : "",
		"timestamp" :1555963200
		},
	"2019-04-23T10:00:00+10:00" : {
		"windSpeed" : 1.6,
		"windDir" : 87,
		"rain" : 0,
		"cloudbase" : null,
		"flyability" : 0,
		"reason" : "windDir",
		"timestamp" :1555974000
		},
	"2019-04-23T13:00:00+10:00" : {
		"windSpeed" : 2.4,
		"windDir" : 94,
		"rain" : 0,
		"cloudbase" : null,
		"flyability" : 0,
		"reason" : "windDir",
		"timestamp" :1555984800
		},
	"2019-04-23T16:00:00+10:00" : {
		"windSpeed" : 3,
		"windDir" : 112,
		"rain" : 0,
		"cloudbase" : null,
		"flyability" : 0,
		"reason" : "windDir",
		"timestamp" :1555995600
		},
	"2019-04-23T19:00:00+10:00" : {
		"windSpeed" : 2.1,
		"windDir" : 136,
		"rain" : 0,
		"cloudbase" : 170,
		"flyability" : 0,
		"reason" : "cloudbase",
		"timestamp" :1556006400
		},
	"2019-04-23T22:00:00+10:00" : {
		"windSpeed" : 0.7,
		"windDir" : 149,
		"rain" : 0,
		"cloudbase" : 30,
		"flyability" : 0,
		"reason" : "cloudbase",
		"timestamp" :1556017200
		}
	}
}