{
"site" : "wind valley - valle del vento",
"id" : 10987,
"orientations" : "00000210",
"forecasts" : { 
	"2019-04-22T05:00:00+02:00" : {
		"windSpeed" : 0.5,
		"windDir" : 276,
		"rain" : 1,
		"cloudbase" : 5311.4109,
		"flyability" : 0,
		"reason" : "rain",
		"timestamp" :1555905600
		},
	"2019-04-22T08:00:00+02:00" : {
		"windSpeed" : 1.4,
		"windDir" : 84,
		"rain" : 1,
		"cloudbase" : 1498.7592800001,
		"flyability" : 0,
		"reason" : "windDir, rain",
		"timestamp" :1555916400
		},
	"2019-04-22T11:00:00+02:00" : {
		"windSpeed" : 4.5,
		"windDir" : 101,
		"rain" : 1,
		"cloudbase" : 820.16218,
		"flyability" : 0,
		"reason" : "windDir, rain",
		"timestamp" :1555927200
		},
	"2019-04-22T14:00:00+02:00" : {
		"windSpeed" : 4.7,
		"windDir" : 72,
		"rain" : 0,
		"cloudbase" : 1004.70673,
		"flyability" : 0,
		"reason" : "windDir",
		"timestamp" :1555938000
		},
	"2019-04-22T17:00:00+02:00" : {
		"windSpeed" : 3.5,
		"windDir" : 78,
		"rain" : 1,
		"cloudbase" : 722.54037999998,
		"flyability" : 0,
		"reason" : "windDir, rain",
		"timestamp" :1555948800
		},
	"2019-04-22T20:00:00+02:00" : {
		"windSpeed" : 2.5,
		"windDir" : 77,
		"rain" : 1,
		"cloudbase" : 1695.76585,
		"flyability" : 0,
		"reason" : "windDir, rain",
		"timestamp" :1555959600
		},
	"2019-04-22T23:00:00+02:00" : {
		"windSpeed" : 1.1,
		"windDir" : 60,
		"rain" : 1,
		"cloudbase" : 137.53088499983,
		"flyability" : 0,
		"reason" : "windDir, rain, cloudbase",
		"timestamp" :1555970400
		},
	"2019-04-23T02:00:00+02:00" : {
		"windSpeed" : 2.4,
		"windDir" : 76,
		"rain" : 1,
		"cloudbase" : 39.592274999997,
		"flyability" : 0,
		"reason" : "windDir, rain, cloudbase",
		"timestamp" :1555981200
		},
	"2019-04-23T05:00:00+02:00" : {
		"windSpeed" : 0.7,
		"windDir" : 137,
		"rain" : 1,
		"cloudbase" : 1002.72679,
		"flyability" : 0,
		"reason" : "windDir, rain",
		"timestamp" :1555992000
		},
	"2019-04-23T08:00:00+02:00" : {
		"windSpeed" : 1.1,
		"windDir" : 243,
		"rain" : 1,
		"cloudbase" : 2800.1644000003,
		"flyability" : 0,
		"reason" : "rain",
		"timestamp" :1556002800
		},
	"2019-04-23T11:00:00+02:00" : {
		"windSpeed" : 1.7,
		"windDir" : 60,
		"rain" : 1,
		"cloudbase" : 3106.1889699997,
		"flyability" : 0,
		"reason" : "windDir, rain",
		"timestamp" :1556013600
		},
	"2019-04-23T14:00:00+02:00" : {
		"windSpeed" : 2.4,
		"windDir" : 81,
		"rain" : 0,
		"cloudbase" : 4784.3239499996,
		"flyability" : 0,
		"reason" : "windDir",
		"timestamp" :1556024400
		},
	"2019-04-23T17:00:00+02:00" : {
		"windSpeed" : 2.6,
		"windDir" : 170,
		"rain" : 1,
		"cloudbase" : 7809.7891,
		"flyability" : 0,
		"reason" : "windDir, rain",
		"timestamp" :1556035200
		},
	"2019-04-23T20:00:00+02:00" : {
		"windSpeed" : 2.4,
		"windDir" : 161,
		"rain" : 1,
		"cloudbase" : 8283.2891,
		"flyability" : 0,
		"reason" : "windDir, rain",
		"timestamp" :1556046000
		},
	"2019-04-23T23:00:00+02:00" : {
		"windSpeed" : 1.8,
		"windDir" : 171,
		"rain" : 0,
		"cloudbase" : null,
		"flyability" : 0,
		"reason" : "windDir",
		"timestamp" :1556056800
		},
	"2019-04-24T02:00:00+02:00" : {
		"windSpeed" : 1.8,
		"windDir" : 137,
		"rain" : 0,
		"cloudbase" : 5727.0460799998,
		"flyability" : 0,
		"reason" : "windDir",
		"timestamp" :1556067600
		},
	"2019-04-24T05:00:00+02:00" : {
		"windSpeed" : 1.9,
		"windDir" : 159,
		"rain" : 0,
		"cloudbase" : 4494.1890099998,
		"flyability" : 0,
		"reason" : "windDir",
		"timestamp" :1556078400
		},
	"2019-04-24T08:00:00+02:00" : {
		"windSpeed" : 1.8,
		"windDir" : 153,
		"rain" : 0,
		"cloudbase" : 5400,
		"flyability" : 0,
		"reason" : "windDir",
		"timestamp" :1556089200
		},
	"2019-04-24T11:00:00+02:00" : {
		"windSpeed" : 1.7,
		"windDir" : 182,
		"rain" : 0,
		"cloudbase" : null,
		"flyability" : 0,
		"reason" : "windDir",
		"timestamp" :1556100000
		},
	"2019-04-24T14:00:00+02:00" : {
		"windSpeed" : 2.3,
		"windDir" : 72,
		"rain" : 1,
		"cloudbase" : null,
		"flyability" : 0,
		"reason" : "windDir, rain",
		"timestamp" :1556110800
		},
	"2019-04-24T17:00:00+02:00" : {
		"windSpeed" : 2.6,
		"windDir" : 97,
		"rain" : 0,
		"cloudbase" : null,
		"flyability" : 0,
		"reason" : "windDir",
		"timestamp" :1556121600
		},
	"2019-04-24T20:00:00+02:00" : {
		"windSpeed" : 2,
		"windDir" : 137,
		"rain" : 0,
		"cloudbase" : 9245.2999999999,
		"flyability" : 0,
		"reason" : "windDir",
		"timestamp" :1556132400
		},
	"2019-04-24T23:00:00+02:00" : {
		"windSpeed" : 2.3,
		"windDir" : 207,
		"rain" : 0,
		"cloudbase" : null,
		"flyability" : 100,
		"reason" : "",
		"timestamp" :1556143200
		},
	"2019-04-25T02:00:00+02:00" : {
		"windSpeed" : 2.4,
		"windDir" : 209,
		"rain" : 0,
		"cloudbase" : 7975.7218,
		"flyability" : 100,
		"reason" : "",
		"timestamp" :1556154000
		},
	"2019-04-25T05:00:00+02:00" : {
		"windSpeed" : 1.6,
		"windDir" : 270,
		"rain" : 1,
		"cloudbase" : 5269.1054499999,
		"flyability" : 0,
		"reason" : "rain",
		"timestamp" :1556164800
		},
	"2019-04-25T08:00:00+02:00" : {
		"windSpeed" : 0.1,
		"windDir" : 210,
		"rain" : 0,
		"cloudbase" : 8242.7474,
		"flyability" : 100,
		"reason" : "",
		"timestamp" :1556175600
		},
	"2019-04-25T11:00:00+02:00" : {
		"windSpeed" : 1.7,
		"windDir" : 60,
		"rain" : 1,
		"cloudbase" : 3446.45,
		"flyability" : 0,
		"reason" : "windDir, rain",
		"timestamp" :1556186400
		},
	"2019-04-25T14:00:00+02:00" : {
		"windSpeed" : 1.7,
		"windDir" : 35,
		"rain" : 0,
		"cloudbase" : null,
		"flyability" : 0,
		"reason" : "windDir",
		"timestamp" :1556197200
		},
	"2019-04-25T17:00:00+02:00" : {
		"windSpeed" : 0.7,
		"windDir" : 130,
		"rain" : 0,
		"cloudbase" : null,
		"flyability" : 0,
		"reason" : "windDir",
		"timestamp" :1556208000
		},
	"2019-04-25T20:00:00+02:00" : {
		"windSpeed" : 1.4,
		"windDir" : 137,
		"rain" : 0,
		"cloudbase" : 8889.1891,
		"flyability" : 0,
		"reason" : "windDir",
		"timestamp" :1556218800
		},
	"2019-04-25T23:00:00+02:00" : {
		"windSpeed" : 2.9,
		"windDir" : 222,
		"rain" : 0,
		"cloudbase" : 8480,
		"flyability" : 100,
		"reason" : "",
		"timestamp" :1556229600
		},
	"2019-04-26T02:00:00+02:00" : {
		"windSpeed" : 3.5,
		"windDir" : 224,
		"rain" : 0,
		"cloudbase" : 7794.7,
		"flyability" : 100,
		"reason" : "",
		"timestamp" :1556240400
		},
	"2019-04-26T05:00:00+02:00" : {
		"windSpeed" : 3.2,
		"windDir" : 217,
		"rain" : 0,
		"cloudbase" : null,
		"flyability" : 100,
		"reason" : "",
		"timestamp" :1556251200
		},
	"2019-04-26T08:00:00+02:00" : {
		"windSpeed" : 3.1,
		"windDir" : 198,
		"rain" : 0,
		"cloudbase" : null,
		"flyability" : 0,
		"reason" : "windDir",
		"timestamp" :1556262000
		},
	"2019-04-26T11:00:00+02:00" : {
		"windSpeed" : 3.5,
		"windDir" : 207,
		"rain" : 1,
		"cloudbase" : 7564.7,
		"flyability" : 0,
		"reason" : "rain",
		"timestamp" :1556272800
		},
	"2019-04-26T14:00:00+02:00" : {
		"windSpeed" : 4.5,
		"windDir" : 243,
		"rain" : 0,
		"cloudbase" : null,
		"flyability" : 100,
		"reason" : "",
		"timestamp" :1556283600
		},
	"2019-04-26T17:00:00+02:00" : {
		"windSpeed" : 4.2,
		"windDir" : 255,
		"rain" : 0,
		"cloudbase" : null,
		"flyability" : 100,
		"reason" : "",
		"timestamp" :1556294400
		},
	"2019-04-26T20:00:00+02:00" : {
		"windSpeed" : 3,
		"windDir" : 251,
		"rain" : 0,
		"cloudbase" : null,
		"flyability" : 100,
		"reason" : "",
		"timestamp" :1556305200
		},
	"2019-04-26T23:00:00+02:00" : {
		"windSpeed" : 6.1,
		"windDir" : 219,
		"rain" : 0,
		"cloudbase" : 3750,
		"flyability" : 0,
		"reason" : "windSpeed",
		"timestamp" :1556316000
		},
	"2019-04-27T02:00:00+02:00" : {
		"windSpeed" : 6,
		"windDir" : 235,
		"rain" : 0,
		"cloudbase" : 4250,
		"flyability" : 0,
		"reason" : "windSpeed",
		"timestamp" :1556326800
		},
	"2019-04-27T05:00:00+02:00" : {
		"windSpeed" : 4.8,
		"windDir" : 237,
		"rain" : 0,
		"cloudbase" : null,
		"flyability" : 100,
		"reason" : "",
		"timestamp" :1556337600
		},
	"2019-04-27T08:00:00+02:00" : {
		"windSpeed" : 4.3,
		"windDir" : 234,
		"rain" : 0,
		"cloudbase" : null,
		"flyability" : 100,
		"reason" : "",
		"timestamp" :1556348400
		},
	"2019-04-27T11:00:00+02:00" : {
		"windSpeed" : 4.2,
		"windDir" : 289,
		"rain" : 0,
		"cloudbase" : null,
		"flyability" : 100,
		"reason" : "",
		"timestamp" :1556359200
		},
	"2019-04-27T14:00:00+02:00" : {
		"windSpeed" : 3,
		"windDir" : 297,
		"rain" : 0,
		"cloudbase" : null,
		"flyability" : 0,
		"reason" : "windDir",
		"timestamp" :1556370000
		},
	"2019-04-27T17:00:00+02:00" : {
		"windSpeed" : 5,
		"windDir" : 242,
		"rain" : 0,
		"cloudbase" : null,
		"flyability" : 100,
		"reason" : "",
		"timestamp" :1556380800
		},
	"2019-04-27T20:00:00+02:00" : {
		"windSpeed" : 5.6,
		"windDir" : 232,
		"rain" : 1,
		"cloudbase" : null,
		"flyability" : 0,
		"reason" : "windSpeed, rain",
		"timestamp" :1556391600
		},
	"2019-04-27T23:00:00+02:00" : {
		"windSpeed" : 5.9,
		"windDir" : 228,
		"rain" : 0,
		"cloudbase" : 6770.2109,
		"flyability" : 0,
		"reason" : "windSpeed",
		"timestamp" :1556402400
		},
	"2019-04-28T02:00:00+02:00" : {
		"windSpeed" : 6.3,
		"windDir" : 232,
		"rain" : 0,
		"cloudbase" : null,
		"flyability" : 0,
		"reason" : "windSpeed",
		"timestamp" :1556413200
		}
	}
}