{
"site" : "Coronet Peak",
"id" : 11086,
"orientations" : "01112111",
"forecasts" : { 
	"2019-04-12T03:00:00+12:00" : {
		"windSpeed" : 1.3,
		"windDir" : 230,
		"rain" : 1,
		"cloudbase" : 581.475,
		"flyability" : 0,
		"reason" : "rain, cloudbase",
		"timestamp" :1554994800
		},
	"2019-04-12T06:00:00+12:00" : {
		"windSpeed" : 1.5,
		"windDir" : 211,
		"rain" : 1,
		"cloudbase" : 628.61999999997,
		"flyability" : 0,
		"reason" : "rain, cloudbase",
		"timestamp" :1555005600
		},
	"2019-04-12T09:00:00+12:00" : {
		"windSpeed" : 2.2,
		"windDir" : 202,
		"rain" : 1,
		"cloudbase" : 1045.26,
		"flyability" : 0,
		"reason" : "rain, cloudbase",
		"timestamp" :1555016400
		},
	"2019-04-12T12:00:00+12:00" : {
		"windSpeed" : 2.7,
		"windDir" : 190,
		"rain" : 0,
		"cloudbase" : 889.36999999999,
		"flyability" : 0,
		"reason" : "cloudbase",
		"timestamp" :1555027200
		},
	"2019-04-12T15:00:00+12:00" : {
		"windSpeed" : 2.3,
		"windDir" : 197,
		"rain" : 0,
		"cloudbase" : 817.44999999999,
		"flyability" : 0,
		"reason" : "cloudbase",
		"timestamp" :1555038000
		},
	"2019-04-12T18:00:00+12:00" : {
		"windSpeed" : 1.4,
		"windDir" : 207,
		"rain" : 0,
		"cloudbase" : 1100,
		"flyability" : 0,
		"reason" : "cloudbase",
		"timestamp" :1555048800
		},
	"2019-04-12T21:00:00+12:00" : {
		"windSpeed" : 0.3,
		"windDir" : 276,
		"rain" : 0,
		"cloudbase" : null,
		"flyability" : 100,
		"reason" : "",
		"timestamp" :1555059600
		},
	"2019-04-13T00:00:00+12:00" : {
		"windSpeed" : 1.1,
		"windDir" : 9,
		"rain" : 0,
		"cloudbase" : null,
		"flyability" : 0,
		"reason" : "windDir",
		"timestamp" :1555070400
		},
	"2019-04-13T03:00:00+12:00" : {
		"windSpeed" : 1,
		"windDir" : 23,
		"rain" : 0,
		"cloudbase" : null,
		"flyability" : 100,
		"reason" : "",
		"timestamp" :1555081200
		},
	"2019-04-13T06:00:00+12:00" : {
		"windSpeed" : 1,
		"windDir" : 357,
		"rain" : 0,
		"cloudbase" : null,
		"flyability" : 0,
		"reason" : "windDir",
		"timestamp" :1555092000
		},
	"2019-04-13T09:00:00+12:00" : {
		"windSpeed" : 0.5,
		"windDir" : 330,
		"rain" : 0,
		"cloudbase" : null,
		"flyability" : 100,
		"reason" : "",
		"timestamp" :1555102800
		},
	"2019-04-13T12:00:00+12:00" : {
		"windSpeed" : 1.2,
		"windDir" : 228,
		"rain" : 0,
		"cloudbase" : null,
		"flyability" : 100,
		"reason" : "",
		"timestamp" :1555113600
		},
	"2019-04-13T15:00:00+12:00" : {
		"windSpeed" : 1.5,
		"windDir" : 212,
		"rain" : 0,
		"cloudbase" : null,
		"flyability" : 100,
		"reason" : "",
		"timestamp" :1555124400
		},
	"2019-04-13T18:00:00+12:00" : {
		"windSpeed" : 1,
		"windDir" : 233,
		"rain" : 0,
		"cloudbase" : null,
		"flyability" : 100,
		"reason" : "",
		"timestamp" :1555135200
		},
	"2019-04-13T21:00:00+12:00" : {
		"windSpeed" : 2,
		"windDir" : 253,
		"rain" : 0,
		"cloudbase" : null,
		"flyability" : 100,
		"reason" : "",
		"timestamp" :1555146000
		},
	"2019-04-14T00:00:00+12:00" : {
		"windSpeed" : 1.6,
		"windDir" : 301,
		"rain" : 0,
		"cloudbase" : 6472.7,
		"flyability" : 100,
		"reason" : "",
		"timestamp" :1555156800
		},
	"2019-04-14T03:00:00+12:00" : {
		"windSpeed" : 1.3,
		"windDir" : 338,
		"rain" : 0,
		"cloudbase" : null,
		"flyability" : 0,
		"reason" : "windDir",
		"timestamp" :1555167600
		},
	"2019-04-14T06:00:00+12:00" : {
		"windSpeed" : 0.8,
		"windDir" : 333,
		"rain" : 1,
		"cloudbase" : 739.48,
		"flyability" : 0,
		"reason" : "rain, cloudbase",
		"timestamp" :1555178400
		},
	"2019-04-14T09:00:00+12:00" : {
		"windSpeed" : 0.6,
		"windDir" : 302,
		"rain" : 1,
		"cloudbase" : 466.86999999999,
		"flyability" : 0,
		"reason" : "rain, cloudbase",
		"timestamp" :1555189200
		},
	"2019-04-14T12:00:00+12:00" : {
		"windSpeed" : 1.8,
		"windDir" : 202,
		"rain" : 1,
		"cloudbase" : 567.10999999999,
		"flyability" : 0,
		"reason" : "rain, cloudbase",
		"timestamp" :1555200000
		},
	"2019-04-14T15:00:00+12:00" : {
		"windSpeed" : 2,
		"windDir" : 203,
		"rain" : 0,
		"cloudbase" : 1253.2,
		"flyability" : 100,
		"reason" : "",
		"timestamp" :1555210800
		},
	"2019-04-14T18:00:00+12:00" : {
		"windSpeed" : 1.4,
		"windDir" : 225,
		"rain" : 0,
		"cloudbase" : null,
		"flyability" : 100,
		"reason" : "",
		"timestamp" :1555221600
		},
	"2019-04-14T21:00:00+12:00" : {
		"windSpeed" : 0.7,
		"windDir" : 240,
		"rain" : 0,
		"cloudbase" : 700,
		"flyability" : 0,
		"reason" : "cloudbase",
		"timestamp" :1555232400
		},
	"2019-04-15T00:00:00+12:00" : {
		"windSpeed" : 0.5,
		"windDir" : 174,
		"rain" : 0,
		"cloudbase" : 554.68,
		"flyability" : 0,
		"reason" : "cloudbase",
		"timestamp" :1555243200
		},
	"2019-04-15T03:00:00+12:00" : {
		"windSpeed" : 0.5,
		"windDir" : 164,
		"rain" : 0,
		"cloudbase" : 419.68000000001,
		"flyability" : 0,
		"reason" : "cloudbase",
		"timestamp" :1555254000
		},
	"2019-04-15T06:00:00+12:00" : {
		"windSpeed" : 0,
		"windDir" : 180,
		"rain" : 0,
		"cloudbase" : 410,
		"flyability" : 0,
		"reason" : "cloudbase",
		"timestamp" :1555264800
		},
	"2019-04-15T09:00:00+12:00" : {
		"windSpeed" : 0.3,
		"windDir" : 323,
		"rain" : 0,
		"cloudbase" : 300,
		"flyability" : 0,
		"reason" : "cloudbase",
		"timestamp" :1555275600
		},
	"2019-04-15T12:00:00+12:00" : {
		"windSpeed" : 1,
		"windDir" : 214,
		"rain" : 0,
		"cloudbase" : 620,
		"flyability" : 0,
		"reason" : "cloudbase",
		"timestamp" :1555286400
		},
	"2019-04-15T15:00:00+12:00" : {
		"windSpeed" : 1.6,
		"windDir" : 225,
		"rain" : 0,
		"cloudbase" : null,
		"flyability" : 100,
		"reason" : "",
		"timestamp" :1555297200
		},
	"2019-04-15T18:00:00+12:00" : {
		"windSpeed" : 1.8,
		"windDir" : 239,
		"rain" : 0,
		"cloudbase" : null,
		"flyability" : 100,
		"reason" : "",
		"timestamp" :1555308000
		},
	"2019-04-15T21:00:00+12:00" : {
		"windSpeed" : 1,
		"windDir" : 275,
		"rain" : 0,
		"cloudbase" : 600,
		"flyability" : 0,
		"reason" : "cloudbase",
		"timestamp" :1555318800
		},
	"2019-04-16T00:00:00+12:00" : {
		"windSpeed" : 0.4,
		"windDir" : 13,
		"rain" : 0,
		"cloudbase" : null,
		"flyability" : 0,
		"reason" : "windDir",
		"timestamp" :1555329600
		},
	"2019-04-16T03:00:00+12:00" : {
		"windSpeed" : 1.3,
		"windDir" : 21,
		"rain" : 0,
		"cloudbase" : null,
		"flyability" : 0,
		"reason" : "windDir",
		"timestamp" :1555340400
		},
	"2019-04-16T06:00:00+12:00" : {
		"windSpeed" : 1,
		"windDir" : 18,
		"rain" : 0,
		"cloudbase" : null,
		"flyability" : 0,
		"reason" : "windDir",
		"timestamp" :1555351200
		},
	"2019-04-16T09:00:00+12:00" : {
		"windSpeed" : 0.6,
		"windDir" : 28,
		"rain" : 0,
		"cloudbase" : null,
		"flyability" : 100,
		"reason" : "",
		"timestamp" :1555362000
		},
	"2019-04-16T12:00:00+12:00" : {
		"windSpeed" : 0.7,
		"windDir" : 161,
		"rain" : 0,
		"cloudbase" : null,
		"flyability" : 100,
		"reason" : "",
		"timestamp" :1555372800
		},
	"2019-04-16T15:00:00+12:00" : {
		"windSpeed" : 1.3,
		"windDir" : 202,
		"rain" : 0,
		"cloudbase" : null,
		"flyability" : 100,
		"reason" : "",
		"timestamp" :1555383600
		},
	"2019-04-16T18:00:00+12:00" : {
		"windSpeed" : 0.4,
		"windDir" : 180,
		"rain" : 0,
		"cloudbase" : null,
		"flyability" : 100,
		"reason" : "",
		"timestamp" :1555394400
		},
	"2019-04-16T21:00:00+12:00" : {
		"windSpeed" : 1,
		"windDir" : 27,
		"rain" : 0,
		"cloudbase" : null,
		"flyability" : 100,
		"reason" : "",
		"timestamp" :1555405200
		},
	"2019-04-17T00:00:00+12:00" : {
		"windSpeed" : 1,
		"windDir" : 15,
		"rain" : 0,
		"cloudbase" : null,
		"flyability" : 0,
		"reason" : "windDir",
		"timestamp" :1555416000
		},
	"2019-04-17T03:00:00+12:00" : {
		"windSpeed" : 0.4,
		"windDir" : 360,
		"rain" : 0,
		"cloudbase" : null,
		"flyability" : 0,
		"reason" : "windDir",
		"timestamp" :1555426800
		},
	"2019-04-17T06:00:00+12:00" : {
		"windSpeed" : 0.8,
		"windDir" : 360,
		"rain" : 0,
		"cloudbase" : 30,
		"flyability" : 0,
		"reason" : "windDir, cloudbase",
		"timestamp" :1555437600
		},
	"2019-04-17T09:00:00+12:00" : {
		"windSpeed" : 0.8,
		"windDir" : 7,
		"rain" : 0,
		"cloudbase" : 75,
		"flyability" : 0,
		"reason" : "windDir, cloudbase",
		"timestamp" :1555448400
		},
	"2019-04-17T12:00:00+12:00" : {
		"windSpeed" : 0.8,
		"windDir" : 192,
		"rain" : 0,
		"cloudbase" : null,
		"flyability" : 100,
		"reason" : "",
		"timestamp" :1555459200
		},
	"2019-04-17T15:00:00+12:00" : {
		"windSpeed" : 1.2,
		"windDir" : 188,
		"rain" : 0,
		"cloudbase" : null,
		"flyability" : 100,
		"reason" : "",
		"timestamp" :1555470000
		},
	"2019-04-17T18:00:00+12:00" : {
		"windSpeed" : 0.7,
		"windDir" : 152,
		"rain" : 0,
		"cloudbase" : null,
		"flyability" : 100,
		"reason" : "",
		"timestamp" :1555480800
		},
	"2019-04-17T21:00:00+12:00" : {
		"windSpeed" : 0.8,
		"windDir" : 352,
		"rain" : 0,
		"cloudbase" : null,
		"flyability" : 0,
		"reason" : "windDir",
		"timestamp" :1555491600
		},
	"2019-04-18T00:00:00+12:00" : {
		"windSpeed" : 1.3,
		"windDir" : 349,
		"rain" : 0,
		"cloudbase" : null,
		"flyability" : 0,
		"reason" : "windDir",
		"timestamp" :1555502400
		}
	}
}