{
"site" : "Saint Amand Nord",
"id" : 11098,
"orientations" : "10000002",
"forecasts" : { 
	"2019-04-21T05:00:00+02:00" : {
		"windSpeed" : 2.6,
		"windDir" : 21,
		"rain" : 1,
		"cloudbase" : 3775.208,
		"flyability" : 0,
		"reason" : "rain",
		"timestamp" :1555819200
		},
	"2019-04-21T08:00:00+02:00" : {
		"windSpeed" : 3.2,
		"windDir" : 44,
		"rain" : 1,
		"cloudbase" : 4076.4316,
		"flyability" : 0,
		"reason" : "windDir, rain",
		"timestamp" :1555830000
		},
	"2019-04-21T11:00:00+02:00" : {
		"windSpeed" : 1.9,
		"windDir" : 79,
		"rain" : 0,
		"cloudbase" : 7692.7648,
		"flyability" : 0,
		"reason" : "windDir",
		"timestamp" :1555840800
		},
	"2019-04-21T14:00:00+02:00" : {
		"windSpeed" : 1.5,
		"windDir" : 262,
		"rain" : 1,
		"cloudbase" : 3704.6004,
		"flyability" : 0,
		"reason" : "windDir, rain",
		"timestamp" :1555851600
		},
	"2019-04-21T17:00:00+02:00" : {
		"windSpeed" : 3.3,
		"windDir" : 343,
		"rain" : 1,
		"cloudbase" : null,
		"flyability" : 0,
		"reason" : "rain",
		"timestamp" :1555862400
		},
	"2019-04-21T20:00:00+02:00" : {
		"windSpeed" : 3.6,
		"windDir" : 353,
		"rain" : 1,
		"cloudbase" : null,
		"flyability" : 0,
		"reason" : "rain",
		"timestamp" :1555873200
		},
	"2019-04-21T23:00:00+02:00" : {
		"windSpeed" : 2.3,
		"windDir" : 75,
		"rain" : 1,
		"cloudbase" : 3250,
		"flyability" : 0,
		"reason" : "windDir, rain",
		"timestamp" :1555884000
		},
	"2019-04-22T02:00:00+02:00" : {
		"windSpeed" : 3.5,
		"windDir" : 41,
		"rain" : 1,
		"cloudbase" : 7420.3648,
		"flyability" : 0,
		"reason" : "windDir, rain",
		"timestamp" :1555894800
		},
	"2019-04-22T05:00:00+02:00" : {
		"windSpeed" : 3.9,
		"windDir" : 30,
		"rain" : 0,
		"cloudbase" : 9700,
		"flyability" : 0,
		"reason" : "windDir",
		"timestamp" :1555905600
		},
	"2019-04-22T08:00:00+02:00" : {
		"windSpeed" : 3.7,
		"windDir" : 28,
		"rain" : 1,
		"cloudbase" : null,
		"flyability" : 0,
		"reason" : "windDir, rain",
		"timestamp" :1555916400
		},
	"2019-04-22T11:00:00+02:00" : {
		"windSpeed" : 1.9,
		"windDir" : 18,
		"rain" : 0,
		"cloudbase" : 8486.4392,
		"flyability" : 100,
		"reason" : "",
		"timestamp" :1555927200
		},
	"2019-04-22T14:00:00+02:00" : {
		"windSpeed" : 3.3,
		"windDir" : 198,
		"rain" : 0,
		"cloudbase" : null,
		"flyability" : 0,
		"reason" : "windDir",
		"timestamp" :1555938000
		},
	"2019-04-22T17:00:00+02:00" : {
		"windSpeed" : 2.5,
		"windDir" : 286,
		"rain" : 0,
		"cloudbase" : 3174.3196,
		"flyability" : 0,
		"reason" : "windDir",
		"timestamp" :1555948800
		},
	"2019-04-22T20:00:00+02:00" : {
		"windSpeed" : 2.1,
		"windDir" : 288,
		"rain" : 0,
		"cloudbase" : 5182.5980000001,
		"flyability" : 0,
		"reason" : "windDir",
		"timestamp" :1555959600
		},
	"2019-04-22T23:00:00+02:00" : {
		"windSpeed" : 2.5,
		"windDir" : 353,
		"rain" : 1,
		"cloudbase" : 3720.4215999999,
		"flyability" : 0,
		"reason" : "rain",
		"timestamp" :1555970400
		},
	"2019-04-23T02:00:00+02:00" : {
		"windSpeed" : 2.8,
		"windDir" : 51,
		"rain" : 1,
		"cloudbase" : 6134.2080000001,
		"flyability" : 0,
		"reason" : "windDir, rain",
		"timestamp" :1555981200
		},
	"2019-04-23T05:00:00+02:00" : {
		"windSpeed" : 1.8,
		"windDir" : 13,
		"rain" : 1,
		"cloudbase" : 5889.3335999999,
		"flyability" : 0,
		"reason" : "rain",
		"timestamp" :1555992000
		},
	"2019-04-23T08:00:00+02:00" : {
		"windSpeed" : 2.9,
		"windDir" : 30,
		"rain" : 1,
		"cloudbase" : 7872.6392,
		"flyability" : 0,
		"reason" : "windDir, rain",
		"timestamp" :1556002800
		},
	"2019-04-23T11:00:00+02:00" : {
		"windSpeed" : 1.4,
		"windDir" : 300,
		"rain" : 1,
		"cloudbase" : 6279.7316000001,
		"flyability" : 0,
		"reason" : "rain",
		"timestamp" :1556013600
		},
	"2019-04-23T14:00:00+02:00" : {
		"windSpeed" : 0.9,
		"windDir" : 235,
		"rain" : 1,
		"cloudbase" : 2011.8528,
		"flyability" : 0,
		"reason" : "windDir, rain",
		"timestamp" :1556024400
		},
	"2019-04-23T17:00:00+02:00" : {
		"windSpeed" : 1.1,
		"windDir" : 278,
		"rain" : 1,
		"cloudbase" : 2568.4844,
		"flyability" : 0,
		"reason" : "windDir, rain",
		"timestamp" :1556035200
		},
	"2019-04-23T20:00:00+02:00" : {
		"windSpeed" : 1.4,
		"windDir" : 349,
		"rain" : 1,
		"cloudbase" : 2656.7292,
		"flyability" : 0,
		"reason" : "rain",
		"timestamp" :1556046000
		},
	"2019-04-23T23:00:00+02:00" : {
		"windSpeed" : 5.7,
		"windDir" : 132,
		"rain" : 1,
		"cloudbase" : 1924.2588,
		"flyability" : 0,
		"reason" : "windSpeed, windDir, rain",
		"timestamp" :1556056800
		},
	"2019-04-24T02:00:00+02:00" : {
		"windSpeed" : 6.3,
		"windDir" : 153,
		"rain" : 1,
		"cloudbase" : null,
		"flyability" : 0,
		"reason" : "windSpeed, windDir, rain",
		"timestamp" :1556067600
		},
	"2019-04-24T05:00:00+02:00" : {
		"windSpeed" : 5.1,
		"windDir" : 133,
		"rain" : 0,
		"cloudbase" : 2149.2243200001,
		"flyability" : 0,
		"reason" : "windSpeed, windDir",
		"timestamp" :1556078400
		},
	"2019-04-24T08:00:00+02:00" : {
		"windSpeed" : 7.9,
		"windDir" : 142,
		"rain" : 1,
		"cloudbase" : 3402.7392,
		"flyability" : 0,
		"reason" : "windSpeed, windDir, rain",
		"timestamp" :1556089200
		},
	"2019-04-24T11:00:00+02:00" : {
		"windSpeed" : 9.3,
		"windDir" : 171,
		"rain" : 1,
		"cloudbase" : 2710.6,
		"flyability" : 0,
		"reason" : "windSpeed, windDir, rain",
		"timestamp" :1556100000
		},
	"2019-04-24T14:00:00+02:00" : {
		"windSpeed" : 7.9,
		"windDir" : 166,
		"rain" : 1,
		"cloudbase" : 2842.3196,
		"flyability" : 0,
		"reason" : "windSpeed, windDir, rain",
		"timestamp" :1556110800
		},
	"2019-04-24T17:00:00+02:00" : {
		"windSpeed" : 7.2,
		"windDir" : 130,
		"rain" : 1,
		"cloudbase" : null,
		"flyability" : 0,
		"reason" : "windSpeed, windDir, rain",
		"timestamp" :1556121600
		},
	"2019-04-24T20:00:00+02:00" : {
		"windSpeed" : 7.5,
		"windDir" : 140,
		"rain" : 0,
		"cloudbase" : null,
		"flyability" : 0,
		"reason" : "windSpeed, windDir",
		"timestamp" :1556132400
		},
	"2019-04-24T23:00:00+02:00" : {
		"windSpeed" : 6.2,
		"windDir" : 129,
		"rain" : 0,
		"cloudbase" : null,
		"flyability" : 0,
		"reason" : "windSpeed, windDir",
		"timestamp" :1556143200
		},
	"2019-04-25T02:00:00+02:00" : {
		"windSpeed" : 6.3,
		"windDir" : 127,
		"rain" : 0,
		"cloudbase" : null,
		"flyability" : 0,
		"reason" : "windSpeed, windDir",
		"timestamp" :1556154000
		},
	"2019-04-25T05:00:00+02:00" : {
		"windSpeed" : 6.2,
		"windDir" : 129,
		"rain" : 0,
		"cloudbase" : null,
		"flyability" : 0,
		"reason" : "windSpeed, windDir",
		"timestamp" :1556164800
		},
	"2019-04-25T08:00:00+02:00" : {
		"windSpeed" : 6.9,
		"windDir" : 135,
		"rain" : 1,
		"cloudbase" : null,
		"flyability" : 0,
		"reason" : "windSpeed, windDir, rain",
		"timestamp" :1556175600
		},
	"2019-04-25T11:00:00+02:00" : {
		"windSpeed" : 10.9,
		"windDir" : 154,
		"rain" : 0,
		"cloudbase" : 1369.9804,
		"flyability" : 0,
		"reason" : "windSpeed, windDir",
		"timestamp" :1556186400
		},
	"2019-04-25T14:00:00+02:00" : {
		"windSpeed" : 11.2,
		"windDir" : 153,
		"rain" : 0,
		"cloudbase" : 1413.7392,
		"flyability" : 0,
		"reason" : "windSpeed, windDir",
		"timestamp" :1556197200
		},
	"2019-04-25T17:00:00+02:00" : {
		"windSpeed" : 9.5,
		"windDir" : 157,
		"rain" : 1,
		"cloudbase" : 1817.5824,
		"flyability" : 0,
		"reason" : "windSpeed, windDir, rain",
		"timestamp" :1556208000
		},
	"2019-04-25T20:00:00+02:00" : {
		"windSpeed" : 8,
		"windDir" : 143,
		"rain" : 1,
		"cloudbase" : 1489.83976,
		"flyability" : 0,
		"reason" : "windSpeed, windDir, rain",
		"timestamp" :1556218800
		},
	"2019-04-25T23:00:00+02:00" : {
		"windSpeed" : 7.4,
		"windDir" : 136,
		"rain" : 1,
		"cloudbase" : 2850,
		"flyability" : 0,
		"reason" : "windSpeed, windDir, rain",
		"timestamp" :1556229600
		},
	"2019-04-26T02:00:00+02:00" : {
		"windSpeed" : 5.5,
		"windDir" : 139,
		"rain" : 1,
		"cloudbase" : 805.50512000001,
		"flyability" : 0,
		"reason" : "windSpeed, windDir, rain",
		"timestamp" :1556240400
		},
	"2019-04-26T05:00:00+02:00" : {
		"windSpeed" : 3.2,
		"windDir" : 147,
		"rain" : 1,
		"cloudbase" : 451.79256,
		"flyability" : 0,
		"reason" : "windDir, rain, cloudbase",
		"timestamp" :1556251200
		},
	"2019-04-26T08:00:00+02:00" : {
		"windSpeed" : 2.5,
		"windDir" : 59,
		"rain" : 0,
		"cloudbase" : 520,
		"flyability" : 0,
		"reason" : "windDir, cloudbase",
		"timestamp" :1556262000
		},
	"2019-04-26T11:00:00+02:00" : {
		"windSpeed" : 2.2,
		"windDir" : 4,
		"rain" : 1,
		"cloudbase" : null,
		"flyability" : 0,
		"reason" : "rain",
		"timestamp" :1556272800
		},
	"2019-04-26T14:00:00+02:00" : {
		"windSpeed" : 4.1,
		"windDir" : 312,
		"rain" : 1,
		"cloudbase" : null,
		"flyability" : 0,
		"reason" : "rain",
		"timestamp" :1556283600
		},
	"2019-04-26T17:00:00+02:00" : {
		"windSpeed" : 3.7,
		"windDir" : 309,
		"rain" : 0,
		"cloudbase" : null,
		"flyability" : 100,
		"reason" : "",
		"timestamp" :1556294400
		},
	"2019-04-26T20:00:00+02:00" : {
		"windSpeed" : 3.8,
		"windDir" : 299,
		"rain" : 0,
		"cloudbase" : 2600,
		"flyability" : 100,
		"reason" : "",
		"timestamp" :1556305200
		},
	"2019-04-26T23:00:00+02:00" : {
		"windSpeed" : 4.1,
		"windDir" : 335,
		"rain" : 1,
		"cloudbase" : null,
		"flyability" : 0,
		"reason" : "rain",
		"timestamp" :1556316000
		},
	"2019-04-27T02:00:00+02:00" : {
		"windSpeed" : 3,
		"windDir" : 349,
		"rain" : 0,
		"cloudbase" : null,
		"flyability" : 100,
		"reason" : "",
		"timestamp" :1556326800
		}
	}
}