{
"site" : "Tally-Ho",
"id" : 11218,
"orientations" : "01121100",
"forecasts" : { 
	"2019-04-03T20:00:00-07:00" : {
		"windSpeed" : 1.8,
		"windDir" : 27,
		"rain" : 0,
		"cloudbase" : 413.44360000001,
		"flyability" : 0,
		"reason" : "cloudbase",
		"timestamp" :1554350400
		},
	"2019-04-03T23:00:00-07:00" : {
		"windSpeed" : 1.6,
		"windDir" : 41,
		"rain" : 0,
		"cloudbase" : 436.56,
		"flyability" : 0,
		"reason" : "cloudbase",
		"timestamp" :1554361200
		},
	"2019-04-04T02:00:00-07:00" : {
		"windSpeed" : 1.7,
		"windDir" : 36,
		"rain" : 0,
		"cloudbase" : 420.3018,
		"flyability" : 0,
		"reason" : "cloudbase",
		"timestamp" :1554372000
		},
	"2019-04-04T05:00:00-07:00" : {
		"windSpeed" : 1.6,
		"windDir" : 51,
		"rain" : 0,
		"cloudbase" : 373.6454,
		"flyability" : 0,
		"reason" : "cloudbase",
		"timestamp" :1554382800
		},
	"2019-04-04T08:00:00-07:00" : {
		"windSpeed" : 1.5,
		"windDir" : 53,
		"rain" : 0,
		"cloudbase" : 367.2108,
		"flyability" : 0,
		"reason" : "cloudbase",
		"timestamp" :1554393600
		},
	"2019-04-04T11:00:00-07:00" : {
		"windSpeed" : 1.5,
		"windDir" : 83,
		"rain" : 0,
		"cloudbase" : 556.1672,
		"flyability" : 0,
		"reason" : "cloudbase",
		"timestamp" :1554404400
		},
	"2019-04-04T14:00:00-07:00" : {
		"windSpeed" : 1.5,
		"windDir" : 102,
		"rain" : 0,
		"cloudbase" : null,
		"flyability" : 100,
		"reason" : "",
		"timestamp" :1554415200
		},
	"2019-04-04T17:00:00-07:00" : {
		"windSpeed" : 1.6,
		"windDir" : 113,
		"rain" : 0,
		"cloudbase" : 648.3708,
		"flyability" : 0,
		"reason" : "cloudbase",
		"timestamp" :1554426000
		},
	"2019-04-04T20:00:00-07:00" : {
		"windSpeed" : 0.8,
		"windDir" : 198,
		"rain" : 0,
		"cloudbase" : null,
		"flyability" : 100,
		"reason" : "",
		"timestamp" :1554436800
		},
	"2019-04-04T23:00:00-07:00" : {
		"windSpeed" : 0.5,
		"windDir" : 294,
		"rain" : 0,
		"cloudbase" : 1369.718,
		"flyability" : 0,
		"reason" : "windDir, cloudbase",
		"timestamp" :1554447600
		},
	"2019-04-05T02:00:00-07:00" : {
		"windSpeed" : 1.1,
		"windDir" : 13,
		"rain" : 0,
		"cloudbase" : null,
		"flyability" : 0,
		"reason" : "windDir",
		"timestamp" :1554458400
		},
	"2019-04-05T05:00:00-07:00" : {
		"windSpeed" : 1,
		"windDir" : 9,
		"rain" : 0,
		"cloudbase" : 986.66899999999,
		"flyability" : 0,
		"reason" : "windDir, cloudbase",
		"timestamp" :1554469200
		},
	"2019-04-05T08:00:00-07:00" : {
		"windSpeed" : 0.5,
		"windDir" : 18,
		"rain" : 0,
		"cloudbase" : 511.6784,
		"flyability" : 0,
		"reason" : "windDir, cloudbase",
		"timestamp" :1554480000
		},
	"2019-04-05T11:00:00-07:00" : {
		"windSpeed" : 0.9,
		"windDir" : 56,
		"rain" : 0,
		"cloudbase" : 339.46,
		"flyability" : 0,
		"reason" : "cloudbase",
		"timestamp" :1554490800
		},
	"2019-04-05T14:00:00-07:00" : {
		"windSpeed" : 1.2,
		"windDir" : 97,
		"rain" : 0,
		"cloudbase" : 555.249,
		"flyability" : 0,
		"reason" : "cloudbase",
		"timestamp" :1554501600
		},
	"2019-04-05T17:00:00-07:00" : {
		"windSpeed" : 1.1,
		"windDir" : 126,
		"rain" : 0,
		"cloudbase" : 731.4872,
		"flyability" : 0,
		"reason" : "cloudbase",
		"timestamp" :1554512400
		},
	"2019-04-05T20:00:00-07:00" : {
		"windSpeed" : 0.8,
		"windDir" : 234,
		"rain" : 0,
		"cloudbase" : 1573.5,
		"flyability" : 100,
		"reason" : "",
		"timestamp" :1554523200
		},
	"2019-04-05T23:00:00-07:00" : {
		"windSpeed" : 0.7,
		"windDir" : 225,
		"rain" : 0,
		"cloudbase" : 1526.981,
		"flyability" : 0,
		"reason" : "cloudbase",
		"timestamp" :1554534000
		},
	"2019-04-06T02:00:00-07:00" : {
		"windSpeed" : 0.7,
		"windDir" : 168,
		"rain" : 0,
		"cloudbase" : 2434.518,
		"flyability" : 100,
		"reason" : "",
		"timestamp" :1554544800
		},
	"2019-04-06T05:00:00-07:00" : {
		"windSpeed" : 0.6,
		"windDir" : 122,
		"rain" : 0,
		"cloudbase" : 3051.864,
		"flyability" : 100,
		"reason" : "",
		"timestamp" :1554555600
		},
	"2019-04-06T08:00:00-07:00" : {
		"windSpeed" : 0.8,
		"windDir" : 205,
		"rain" : 0,
		"cloudbase" : 90.987599999999,
		"flyability" : 0,
		"reason" : "cloudbase",
		"timestamp" :1554566400
		},
	"2019-04-06T11:00:00-07:00" : {
		"windSpeed" : 1.1,
		"windDir" : 128,
		"rain" : 0,
		"cloudbase" : 1635.173,
		"flyability" : 100,
		"reason" : "",
		"timestamp" :1554577200
		},
	"2019-04-06T14:00:00-07:00" : {
		"windSpeed" : 1.7,
		"windDir" : 126,
		"rain" : 0,
		"cloudbase" : 2356.809,
		"flyability" : 100,
		"reason" : "",
		"timestamp" :1554588000
		},
	"2019-04-06T17:00:00-07:00" : {
		"windSpeed" : 1.4,
		"windDir" : 134,
		"rain" : 0,
		"cloudbase" : 1573.199,
		"flyability" : 100,
		"reason" : "",
		"timestamp" :1554598800
		},
	"2019-04-06T20:00:00-07:00" : {
		"windSpeed" : 0.8,
		"windDir" : 144,
		"rain" : 0,
		"cloudbase" : 1528.09,
		"flyability" : 100,
		"reason" : "",
		"timestamp" :1554609600
		},
	"2019-04-06T23:00:00-07:00" : {
		"windSpeed" : 0.3,
		"windDir" : 166,
		"rain" : 0,
		"cloudbase" : 5333.609,
		"flyability" : 100,
		"reason" : "",
		"timestamp" :1554620400
		},
	"2019-04-07T02:00:00-07:00" : {
		"windSpeed" : 0.5,
		"windDir" : 188,
		"rain" : 0,
		"cloudbase" : 377.70050000001,
		"flyability" : 0,
		"reason" : "cloudbase",
		"timestamp" :1554631200
		},
	"2019-04-07T05:00:00-07:00" : {
		"windSpeed" : 0.9,
		"windDir" : 175,
		"rain" : 0,
		"cloudbase" : 56.114500000001,
		"flyability" : 0,
		"reason" : "cloudbase",
		"timestamp" :1554642000
		},
	"2019-04-07T08:00:00-07:00" : {
		"windSpeed" : 0.5,
		"windDir" : 197,
		"rain" : 0,
		"cloudbase" : 1568.5777999999,
		"flyability" : 100,
		"reason" : "",
		"timestamp" :1554652800
		},
	"2019-04-07T11:00:00-07:00" : {
		"windSpeed" : 1.3,
		"windDir" : 132,
		"rain" : 0,
		"cloudbase" : 2361.9701999999,
		"flyability" : 100,
		"reason" : "",
		"timestamp" :1554663600
		},
	"2019-04-07T14:00:00-07:00" : {
		"windSpeed" : 1.7,
		"windDir" : 138,
		"rain" : 0,
		"cloudbase" : 1705.4559999999,
		"flyability" : 100,
		"reason" : "",
		"timestamp" :1554674400
		},
	"2019-04-07T17:00:00-07:00" : {
		"windSpeed" : 2.5,
		"windDir" : 135,
		"rain" : 0,
		"cloudbase" : 1105.1636,
		"flyability" : 0,
		"reason" : "cloudbase",
		"timestamp" :1554685200
		},
	"2019-04-07T20:00:00-07:00" : {
		"windSpeed" : 1.2,
		"windDir" : 165,
		"rain" : 0,
		"cloudbase" : null,
		"flyability" : 100,
		"reason" : "",
		"timestamp" :1554696000
		},
	"2019-04-07T23:00:00-07:00" : {
		"windSpeed" : 1.1,
		"windDir" : 167,
		"rain" : 0,
		"cloudbase" : 739.24320000001,
		"flyability" : 0,
		"reason" : "cloudbase",
		"timestamp" :1554706800
		},
	"2019-04-08T02:00:00-07:00" : {
		"windSpeed" : 0.8,
		"windDir" : 142,
		"rain" : 0,
		"cloudbase" : 6208.018,
		"flyability" : 100,
		"reason" : "",
		"timestamp" :1554717600
		},
	"2019-04-08T05:00:00-07:00" : {
		"windSpeed" : 1.3,
		"windDir" : 169,
		"rain" : 0,
		"cloudbase" : 4400.601,
		"flyability" : 100,
		"reason" : "",
		"timestamp" :1554728400
		},
	"2019-04-08T08:00:00-07:00" : {
		"windSpeed" : 1.6,
		"windDir" : 162,
		"rain" : 0,
		"cloudbase" : 3429.4,
		"flyability" : 100,
		"reason" : "",
		"timestamp" :1554739200
		},
	"2019-04-08T11:00:00-07:00" : {
		"windSpeed" : 2.3,
		"windDir" : 173,
		"rain" : 0,
		"cloudbase" : 411.2708,
		"flyability" : 0,
		"reason" : "cloudbase",
		"timestamp" :1554750000
		},
	"2019-04-08T14:00:00-07:00" : {
		"windSpeed" : 3.4,
		"windDir" : 188,
		"rain" : 0,
		"cloudbase" : null,
		"flyability" : 100,
		"reason" : "",
		"timestamp" :1554760800
		},
	"2019-04-08T17:00:00-07:00" : {
		"windSpeed" : 3.4,
		"windDir" : 189,
		"rain" : 0,
		"cloudbase" : 600,
		"flyability" : 0,
		"reason" : "cloudbase",
		"timestamp" :1554771600
		},
	"2019-04-08T20:00:00-07:00" : {
		"windSpeed" : 1.6,
		"windDir" : 162,
		"rain" : 0,
		"cloudbase" : 1859.7619999999,
		"flyability" : 100,
		"reason" : "",
		"timestamp" :1554782400
		},
	"2019-04-08T23:00:00-07:00" : {
		"windSpeed" : 1.4,
		"windDir" : 148,
		"rain" : 0,
		"cloudbase" : 278.1998,
		"flyability" : 0,
		"reason" : "cloudbase",
		"timestamp" :1554793200
		},
	"2019-04-09T02:00:00-07:00" : {
		"windSpeed" : 1.7,
		"windDir" : 161,
		"rain" : 0,
		"cloudbase" : 367.35240000001,
		"flyability" : 0,
		"reason" : "cloudbase",
		"timestamp" :1554804000
		},
	"2019-04-09T05:00:00-07:00" : {
		"windSpeed" : 1.8,
		"windDir" : 161,
		"rain" : 0,
		"cloudbase" : 316.258,
		"flyability" : 0,
		"reason" : "cloudbase",
		"timestamp" :1554814800
		},
	"2019-04-09T08:00:00-07:00" : {
		"windSpeed" : 1.5,
		"windDir" : 163,
		"rain" : 0,
		"cloudbase" : 329.46,
		"flyability" : 0,
		"reason" : "cloudbase",
		"timestamp" :1554825600
		},
	"2019-04-09T11:00:00-07:00" : {
		"windSpeed" : 2.3,
		"windDir" : 180,
		"rain" : 0,
		"cloudbase" : 2825.591,
		"flyability" : 100,
		"reason" : "",
		"timestamp" :1554836400
		},
	"2019-04-09T14:00:00-07:00" : {
		"windSpeed" : 1.9,
		"windDir" : 153,
		"rain" : 0,
		"cloudbase" : 855.70319999999,
		"flyability" : 0,
		"reason" : "cloudbase",
		"timestamp" :1554847200
		},
	"2019-04-09T17:00:00-07:00" : {
		"windSpeed" : 1.8,
		"windDir" : 150,
		"rain" : 0,
		"cloudbase" : 700.2216,
		"flyability" : 0,
		"reason" : "cloudbase",
		"timestamp" :1554858000
		}
	}
}