{
"site" : "Minaun, Achill Island",
"id" : 11240,
"orientations" : "10020002",
"forecasts" : { 
	"2019-04-14T04:00:00+01:00" : {
		"windSpeed" : 11.3,
		"windDir" : 122,
		"rain" : 1,
		"cloudbase" : 832.94140000002,
		"flyability" : 0,
		"reason" : "windSpeed, rain",
		"timestamp" :1555207200
		},
	"2019-04-14T07:00:00+01:00" : {
		"windSpeed" : 10.7,
		"windDir" : 122,
		"rain" : 1,
		"cloudbase" : 216.86276000001,
		"flyability" : 0,
		"reason" : "windSpeed, rain, cloudbase",
		"timestamp" :1555218000
		},
	"2019-04-14T10:00:00+01:00" : {
		"windSpeed" : 11.3,
		"windDir" : 123,
		"rain" : 1,
		"cloudbase" : 1075.02284,
		"flyability" : 0,
		"reason" : "windSpeed, rain",
		"timestamp" :1555228800
		},
	"2019-04-14T13:00:00+01:00" : {
		"windSpeed" : 12,
		"windDir" : 140,
		"rain" : 1,
		"cloudbase" : 484.70000000001,
		"flyability" : 0,
		"reason" : "windSpeed, rain",
		"timestamp" :1555239600
		},
	"2019-04-14T16:00:00+01:00" : {
		"windSpeed" : 9.8,
		"windDir" : 133,
		"rain" : 0,
		"cloudbase" : 541.53104,
		"flyability" : 0,
		"reason" : "windSpeed",
		"timestamp" :1555250400
		},
	"2019-04-14T19:00:00+01:00" : {
		"windSpeed" : 9.6,
		"windDir" : 124,
		"rain" : 1,
		"cloudbase" : 1022.90348,
		"flyability" : 0,
		"reason" : "windSpeed, rain",
		"timestamp" :1555261200
		},
	"2019-04-14T22:00:00+01:00" : {
		"windSpeed" : 9.5,
		"windDir" : 119,
		"rain" : 1,
		"cloudbase" : 1353.2862,
		"flyability" : 0,
		"reason" : "windSpeed, rain",
		"timestamp" :1555272000
		},
	"2019-04-15T01:00:00+01:00" : {
		"windSpeed" : 9.5,
		"windDir" : 118,
		"rain" : 1,
		"cloudbase" : 2043.3862,
		"flyability" : 0,
		"reason" : "windSpeed, rain",
		"timestamp" :1555282800
		},
	"2019-04-15T04:00:00+01:00" : {
		"windSpeed" : 10.4,
		"windDir" : 113,
		"rain" : 1,
		"cloudbase" : 2264.2724,
		"flyability" : 0,
		"reason" : "windSpeed, rain",
		"timestamp" :1555293600
		},
	"2019-04-15T07:00:00+01:00" : {
		"windSpeed" : 13.5,
		"windDir" : 111,
		"rain" : 1,
		"cloudbase" : 2811.9982,
		"flyability" : 0,
		"reason" : "windSpeed, windDir, rain",
		"timestamp" :1555304400
		},
	"2019-04-15T10:00:00+01:00" : {
		"windSpeed" : 13.6,
		"windDir" : 116,
		"rain" : 1,
		"cloudbase" : 3575.5448,
		"flyability" : 0,
		"reason" : "windSpeed, rain",
		"timestamp" :1555315200
		},
	"2019-04-15T13:00:00+01:00" : {
		"windSpeed" : 13.5,
		"windDir" : 117,
		"rain" : 1,
		"cloudbase" : 3684.0309999999,
		"flyability" : 0,
		"reason" : "windSpeed, rain",
		"timestamp" :1555326000
		},
	"2019-04-15T16:00:00+01:00" : {
		"windSpeed" : 13,
		"windDir" : 116,
		"rain" : 1,
		"cloudbase" : 5555.7,
		"flyability" : 0,
		"reason" : "windSpeed, rain",
		"timestamp" :1555336800
		},
	"2019-04-15T19:00:00+01:00" : {
		"windSpeed" : 11.6,
		"windDir" : 134,
		"rain" : 0,
		"cloudbase" : 1100.43244,
		"flyability" : 0,
		"reason" : "windSpeed",
		"timestamp" :1555347600
		},
	"2019-04-15T22:00:00+01:00" : {
		"windSpeed" : 7.8,
		"windDir" : 142,
		"rain" : 1,
		"cloudbase" : 2451.3884,
		"flyability" : 0,
		"reason" : "windSpeed, rain",
		"timestamp" :1555358400
		},
	"2019-04-16T01:00:00+01:00" : {
		"windSpeed" : 6.9,
		"windDir" : 158,
		"rain" : 1,
		"cloudbase" : 2884.9156000001,
		"flyability" : 0,
		"reason" : "windSpeed, windDir, rain",
		"timestamp" :1555369200
		},
	"2019-04-16T04:00:00+01:00" : {
		"windSpeed" : 5.1,
		"windDir" : 131,
		"rain" : 1,
		"cloudbase" : 8174.5,
		"flyability" : 0,
		"reason" : "windSpeed, rain",
		"timestamp" :1555380000
		},
	"2019-04-16T07:00:00+01:00" : {
		"windSpeed" : 5.1,
		"windDir" : 124,
		"rain" : 0,
		"cloudbase" : null,
		"flyability" : 0,
		"reason" : "windSpeed",
		"timestamp" :1555390800
		},
	"2019-04-16T10:00:00+01:00" : {
		"windSpeed" : 4.6,
		"windDir" : 137,
		"rain" : 1,
		"cloudbase" : null,
		"flyability" : 0,
		"reason" : "rain",
		"timestamp" :1555401600
		},
	"2019-04-16T13:00:00+01:00" : {
		"windSpeed" : 3,
		"windDir" : 171,
		"rain" : 0,
		"cloudbase" : 980,
		"flyability" : 0,
		"reason" : "windDir",
		"timestamp" :1555412400
		},
	"2019-04-16T16:00:00+01:00" : {
		"windSpeed" : 3.4,
		"windDir" : 238,
		"rain" : 0,
		"cloudbase" : 1600,
		"flyability" : 0,
		"reason" : "windDir",
		"timestamp" :1555423200
		},
	"2019-04-16T19:00:00+01:00" : {
		"windSpeed" : 2.5,
		"windDir" : 31,
		"rain" : 1,
		"cloudbase" : 5139.6068000004,
		"flyability" : 0,
		"reason" : "windDir, rain",
		"timestamp" :1555434000
		},
	"2019-04-16T22:00:00+01:00" : {
		"windSpeed" : 7,
		"windDir" : 110,
		"rain" : 0,
		"cloudbase" : 6057.6172,
		"flyability" : 0,
		"reason" : "windSpeed, windDir",
		"timestamp" :1555444800
		},
	"2019-04-17T01:00:00+01:00" : {
		"windSpeed" : 6.2,
		"windDir" : 123,
		"rain" : 0,
		"cloudbase" : 9200,
		"flyability" : 0,
		"reason" : "windSpeed",
		"timestamp" :1555455600
		},
	"2019-04-17T04:00:00+01:00" : {
		"windSpeed" : 5.3,
		"windDir" : 118,
		"rain" : 1,
		"cloudbase" : 9200,
		"flyability" : 0,
		"reason" : "windSpeed, rain",
		"timestamp" :1555466400
		},
	"2019-04-17T07:00:00+01:00" : {
		"windSpeed" : 6.5,
		"windDir" : 123,
		"rain" : 0,
		"cloudbase" : 198.11104,
		"flyability" : 0,
		"reason" : "windSpeed, cloudbase",
		"timestamp" :1555477200
		},
	"2019-04-17T10:00:00+01:00" : {
		"windSpeed" : 6.1,
		"windDir" : 124,
		"rain" : 1,
		"cloudbase" : 4400,
		"flyability" : 0,
		"reason" : "windSpeed, rain",
		"timestamp" :1555488000
		},
	"2019-04-17T13:00:00+01:00" : {
		"windSpeed" : 5.8,
		"windDir" : 129,
		"rain" : 1,
		"cloudbase" : 3449.1016,
		"flyability" : 0,
		"reason" : "windSpeed, rain",
		"timestamp" :1555498800
		},
	"2019-04-17T16:00:00+01:00" : {
		"windSpeed" : 5,
		"windDir" : 135,
		"rain" : 0,
		"cloudbase" : 7103.8276,
		"flyability" : 100,
		"reason" : "",
		"timestamp" :1555509600
		},
	"2019-04-17T19:00:00+01:00" : {
		"windSpeed" : 4.2,
		"windDir" : 128,
		"rain" : 1,
		"cloudbase" : 6154.7,
		"flyability" : 0,
		"reason" : "rain",
		"timestamp" :1555520400
		},
	"2019-04-17T22:00:00+01:00" : {
		"windSpeed" : 4.6,
		"windDir" : 124,
		"rain" : 1,
		"cloudbase" : 9018.9276,
		"flyability" : 0,
		"reason" : "rain",
		"timestamp" :1555531200
		},
	"2019-04-18T01:00:00+01:00" : {
		"windSpeed" : 6,
		"windDir" : 115,
		"rain" : 0,
		"cloudbase" : 7343.8484,
		"flyability" : 0,
		"reason" : "windSpeed",
		"timestamp" :1555542000
		},
	"2019-04-18T04:00:00+01:00" : {
		"windSpeed" : 6.7,
		"windDir" : 107,
		"rain" : 0,
		"cloudbase" : 8100,
		"flyability" : 0,
		"reason" : "windSpeed, windDir",
		"timestamp" :1555552800
		},
	"2019-04-18T07:00:00+01:00" : {
		"windSpeed" : 7.1,
		"windDir" : 115,
		"rain" : 0,
		"cloudbase" : 5654.7448,
		"flyability" : 0,
		"reason" : "windSpeed",
		"timestamp" :1555563600
		},
	"2019-04-18T10:00:00+01:00" : {
		"windSpeed" : 6.5,
		"windDir" : 120,
		"rain" : 0,
		"cloudbase" : 7991.1171999999,
		"flyability" : 0,
		"reason" : "windSpeed",
		"timestamp" :1555574400
		},
	"2019-04-18T13:00:00+01:00" : {
		"windSpeed" : 5.1,
		"windDir" : 125,
		"rain" : 0,
		"cloudbase" : 3350,
		"flyability" : 0,
		"reason" : "windSpeed",
		"timestamp" :1555585200
		},
	"2019-04-18T16:00:00+01:00" : {
		"windSpeed" : 3.9,
		"windDir" : 170,
		"rain" : 0,
		"cloudbase" : null,
		"flyability" : 0,
		"reason" : "windDir",
		"timestamp" :1555596000
		},
	"2019-04-18T19:00:00+01:00" : {
		"windSpeed" : 2.8,
		"windDir" : 164,
		"rain" : 0,
		"cloudbase" : 8677.3276,
		"flyability" : 0,
		"reason" : "windDir",
		"timestamp" :1555606800
		},
	"2019-04-18T22:00:00+01:00" : {
		"windSpeed" : 4,
		"windDir" : 146,
		"rain" : 0,
		"cloudbase" : 3350,
		"flyability" : 100,
		"reason" : "",
		"timestamp" :1555617600
		},
	"2019-04-19T01:00:00+01:00" : {
		"windSpeed" : 4.7,
		"windDir" : 140,
		"rain" : 1,
		"cloudbase" : 9438.7276,
		"flyability" : 0,
		"reason" : "rain",
		"timestamp" :1555628400
		},
	"2019-04-19T04:00:00+01:00" : {
		"windSpeed" : 4.3,
		"windDir" : 136,
		"rain" : 0,
		"cloudbase" : null,
		"flyability" : 100,
		"reason" : "",
		"timestamp" :1555639200
		},
	"2019-04-19T07:00:00+01:00" : {
		"windSpeed" : 4.1,
		"windDir" : 133,
		"rain" : 1,
		"cloudbase" : null,
		"flyability" : 0,
		"reason" : "rain",
		"timestamp" :1555650000
		},
	"2019-04-19T10:00:00+01:00" : {
		"windSpeed" : 4.2,
		"windDir" : 146,
		"rain" : 0,
		"cloudbase" : null,
		"flyability" : 100,
		"reason" : "",
		"timestamp" :1555660800
		},
	"2019-04-19T13:00:00+01:00" : {
		"windSpeed" : 4.7,
		"windDir" : 205,
		"rain" : 0,
		"cloudbase" : 12500,
		"flyability" : 0,
		"reason" : "windDir",
		"timestamp" :1555671600
		},
	"2019-04-19T16:00:00+01:00" : {
		"windSpeed" : 5.2,
		"windDir" : 219,
		"rain" : 0,
		"cloudbase" : 9700,
		"flyability" : 0,
		"reason" : "windSpeed, windDir",
		"timestamp" :1555682400
		},
	"2019-04-19T19:00:00+01:00" : {
		"windSpeed" : 2.2,
		"windDir" : 248,
		"rain" : 0,
		"cloudbase" : 8032.0724,
		"flyability" : 0,
		"reason" : "windDir",
		"timestamp" :1555693200
		},
	"2019-04-19T22:00:00+01:00" : {
		"windSpeed" : 1.2,
		"windDir" : 194,
		"rain" : 0,
		"cloudbase" : 10000,
		"flyability" : 0,
		"reason" : "windDir",
		"timestamp" :1555704000
		},
	"2019-04-20T01:00:00+01:00" : {
		"windSpeed" : 4.1,
		"windDir" : 161,
		"rain" : 0,
		"cloudbase" : 9761.2724,
		"flyability" : 0,
		"reason" : "windDir",
		"timestamp" :1555714800
		}
	}
}