{
"site" : "Flegere",
"id" : 11294,
"orientations" : "00122100",
"forecasts" : { 
	"2019-04-21T17:00:00+02:00" : {
		"windSpeed" : 1.3,
		"windDir" : 90,
		"rain" : 1,
		"cloudbase" : 4736.64625,
		"flyability" : 0,
		"reason" : "rain",
		"timestamp" :1555862400
		},
	"2019-04-21T20:00:00+02:00" : {
		"windSpeed" : 1.5,
		"windDir" : 121,
		"rain" : 0,
		"cloudbase" : null,
		"flyability" : 100,
		"reason" : "",
		"timestamp" :1555873200
		},
	"2019-04-21T23:00:00+02:00" : {
		"windSpeed" : 1.9,
		"windDir" : 128,
		"rain" : 0,
		"cloudbase" : 8706.9025000001,
		"flyability" : 100,
		"reason" : "",
		"timestamp" :1555884000
		},
	"2019-04-22T02:00:00+02:00" : {
		"windSpeed" : 1.8,
		"windDir" : 124,
		"rain" : 0,
		"cloudbase" : 3368.59125,
		"flyability" : 100,
		"reason" : "",
		"timestamp" :1555894800
		},
	"2019-04-22T05:00:00+02:00" : {
		"windSpeed" : 1.2,
		"windDir" : 114,
		"rain" : 0,
		"cloudbase" : 3466.97625,
		"flyability" : 100,
		"reason" : "",
		"timestamp" :1555905600
		},
	"2019-04-22T08:00:00+02:00" : {
		"windSpeed" : 1.5,
		"windDir" : 127,
		"rain" : 1,
		"cloudbase" : null,
		"flyability" : 0,
		"reason" : "rain",
		"timestamp" :1555916400
		},
	"2019-04-22T11:00:00+02:00" : {
		"windSpeed" : 1.9,
		"windDir" : 129,
		"rain" : 0,
		"cloudbase" : 8000,
		"flyability" : 100,
		"reason" : "",
		"timestamp" :1555927200
		},
	"2019-04-22T14:00:00+02:00" : {
		"windSpeed" : 1.3,
		"windDir" : 134,
		"rain" : 0,
		"cloudbase" : null,
		"flyability" : 100,
		"reason" : "",
		"timestamp" :1555938000
		},
	"2019-04-22T17:00:00+02:00" : {
		"windSpeed" : 1.3,
		"windDir" : 131,
		"rain" : 0,
		"cloudbase" : null,
		"flyability" : 100,
		"reason" : "",
		"timestamp" :1555948800
		},
	"2019-04-22T20:00:00+02:00" : {
		"windSpeed" : 2.3,
		"windDir" : 124,
		"rain" : 0,
		"cloudbase" : 6600,
		"flyability" : 100,
		"reason" : "",
		"timestamp" :1555959600
		},
	"2019-04-22T23:00:00+02:00" : {
		"windSpeed" : 1.8,
		"windDir" : 124,
		"rain" : 0,
		"cloudbase" : 5166.7075000001,
		"flyability" : 100,
		"reason" : "",
		"timestamp" :1555970400
		},
	"2019-04-23T02:00:00+02:00" : {
		"windSpeed" : 1.8,
		"windDir" : 121,
		"rain" : 0,
		"cloudbase" : 3578.6825000001,
		"flyability" : 100,
		"reason" : "",
		"timestamp" :1555981200
		},
	"2019-04-23T05:00:00+02:00" : {
		"windSpeed" : 1.4,
		"windDir" : 124,
		"rain" : 0,
		"cloudbase" : 3201.6712500001,
		"flyability" : 100,
		"reason" : "",
		"timestamp" :1555992000
		},
	"2019-04-23T08:00:00+02:00" : {
		"windSpeed" : 1.3,
		"windDir" : 127,
		"rain" : 1,
		"cloudbase" : 3085.4212500001,
		"flyability" : 0,
		"reason" : "rain",
		"timestamp" :1556002800
		},
	"2019-04-23T11:00:00+02:00" : {
		"windSpeed" : 1.3,
		"windDir" : 134,
		"rain" : 1,
		"cloudbase" : 3254.1700000001,
		"flyability" : 0,
		"reason" : "rain",
		"timestamp" :1556013600
		},
	"2019-04-23T14:00:00+02:00" : {
		"windSpeed" : 1.2,
		"windDir" : 125,
		"rain" : 1,
		"cloudbase" : 3850,
		"flyability" : 0,
		"reason" : "rain",
		"timestamp" :1556024400
		},
	"2019-04-23T17:00:00+02:00" : {
		"windSpeed" : 1.5,
		"windDir" : 122,
		"rain" : 0,
		"cloudbase" : 4276.6350000002,
		"flyability" : 100,
		"reason" : "",
		"timestamp" :1556035200
		},
	"2019-04-23T20:00:00+02:00" : {
		"windSpeed" : 1.7,
		"windDir" : 119,
		"rain" : 1,
		"cloudbase" : 3008.7737500001,
		"flyability" : 0,
		"reason" : "rain",
		"timestamp" :1556046000
		},
	"2019-04-23T23:00:00+02:00" : {
		"windSpeed" : 1.8,
		"windDir" : 121,
		"rain" : 0,
		"cloudbase" : 390,
		"flyability" : 0,
		"reason" : "cloudbase",
		"timestamp" :1556056800
		},
	"2019-04-24T02:00:00+02:00" : {
		"windSpeed" : 1.7,
		"windDir" : 117,
		"rain" : 0,
		"cloudbase" : null,
		"flyability" : 100,
		"reason" : "",
		"timestamp" :1556067600
		},
	"2019-04-24T05:00:00+02:00" : {
		"windSpeed" : 1.7,
		"windDir" : 122,
		"rain" : 1,
		"cloudbase" : null,
		"flyability" : 0,
		"reason" : "rain",
		"timestamp" :1556078400
		},
	"2019-04-24T08:00:00+02:00" : {
		"windSpeed" : 1.5,
		"windDir" : 131,
		"rain" : 0,
		"cloudbase" : 95,
		"flyability" : 0,
		"reason" : "cloudbase",
		"timestamp" :1556089200
		},
	"2019-04-24T11:00:00+02:00" : {
		"windSpeed" : 1.5,
		"windDir" : 128,
		"rain" : 0,
		"cloudbase" : 3477.2552500002,
		"flyability" : 100,
		"reason" : "",
		"timestamp" :1556100000
		},
	"2019-04-24T14:00:00+02:00" : {
		"windSpeed" : 1.8,
		"windDir" : 122,
		"rain" : 1,
		"cloudbase" : 500,
		"flyability" : 0,
		"reason" : "rain, cloudbase",
		"timestamp" :1556110800
		},
	"2019-04-24T17:00:00+02:00" : {
		"windSpeed" : 1.5,
		"windDir" : 108,
		"rain" : 1,
		"cloudbase" : 1197.7765000002,
		"flyability" : 0,
		"reason" : "rain, cloudbase",
		"timestamp" :1556121600
		},
	"2019-04-24T20:00:00+02:00" : {
		"windSpeed" : 0.6,
		"windDir" : 138,
		"rain" : 1,
		"cloudbase" : 4152.635,
		"flyability" : 0,
		"reason" : "rain",
		"timestamp" :1556132400
		},
	"2019-04-24T23:00:00+02:00" : {
		"windSpeed" : 1.4,
		"windDir" : 126,
		"rain" : 0,
		"cloudbase" : 40.275,
		"flyability" : 0,
		"reason" : "cloudbase",
		"timestamp" :1556143200
		},
	"2019-04-25T02:00:00+02:00" : {
		"windSpeed" : 1.8,
		"windDir" : 122,
		"rain" : 0,
		"cloudbase" : 30,
		"flyability" : 0,
		"reason" : "cloudbase",
		"timestamp" :1556154000
		},
	"2019-04-25T05:00:00+02:00" : {
		"windSpeed" : 1.9,
		"windDir" : 120,
		"rain" : 0,
		"cloudbase" : null,
		"flyability" : 100,
		"reason" : "",
		"timestamp" :1556164800
		},
	"2019-04-25T08:00:00+02:00" : {
		"windSpeed" : 2.1,
		"windDir" : 129,
		"rain" : 0,
		"cloudbase" : 70,
		"flyability" : 0,
		"reason" : "cloudbase",
		"timestamp" :1556175600
		},
	"2019-04-25T11:00:00+02:00" : {
		"windSpeed" : 2,
		"windDir" : 131,
		"rain" : 0,
		"cloudbase" : null,
		"flyability" : 100,
		"reason" : "",
		"timestamp" :1556186400
		},
	"2019-04-25T14:00:00+02:00" : {
		"windSpeed" : 2,
		"windDir" : 131,
		"rain" : 0,
		"cloudbase" : null,
		"flyability" : 100,
		"reason" : "",
		"timestamp" :1556197200
		},
	"2019-04-25T17:00:00+02:00" : {
		"windSpeed" : 1.6,
		"windDir" : 132,
		"rain" : 0,
		"cloudbase" : 420.02925000001,
		"flyability" : 0,
		"reason" : "cloudbase",
		"timestamp" :1556208000
		},
	"2019-04-25T20:00:00+02:00" : {
		"windSpeed" : 1.5,
		"windDir" : 123,
		"rain" : 0,
		"cloudbase" : 346.99062500003,
		"flyability" : 0,
		"reason" : "cloudbase",
		"timestamp" :1556218800
		},
	"2019-04-25T23:00:00+02:00" : {
		"windSpeed" : 0.1,
		"windDir" : 161,
		"rain" : 0,
		"cloudbase" : 606.01375000003,
		"flyability" : 0,
		"reason" : "cloudbase",
		"timestamp" :1556229600
		},
	"2019-04-26T02:00:00+02:00" : {
		"windSpeed" : 0.1,
		"windDir" : 251,
		"rain" : 0,
		"cloudbase" : 355.67624999999,
		"flyability" : 0,
		"reason" : "windDir, cloudbase",
		"timestamp" :1556240400
		},
	"2019-04-26T05:00:00+02:00" : {
		"windSpeed" : 0.5,
		"windDir" : 270,
		"rain" : 0,
		"cloudbase" : 39.149375000002,
		"flyability" : 0,
		"reason" : "windDir, cloudbase",
		"timestamp" :1556251200
		},
	"2019-04-26T08:00:00+02:00" : {
		"windSpeed" : 0.6,
		"windDir" : 211,
		"rain" : 0,
		"cloudbase" : 1273.8755000001,
		"flyability" : 0,
		"reason" : "cloudbase",
		"timestamp" :1556262000
		},
	"2019-04-26T11:00:00+02:00" : {
		"windSpeed" : 1,
		"windDir" : 270,
		"rain" : 0,
		"cloudbase" : 1971.3112500001,
		"flyability" : 0,
		"reason" : "windDir, cloudbase",
		"timestamp" :1556272800
		},
	"2019-04-26T14:00:00+02:00" : {
		"windSpeed" : 1.5,
		"windDir" : 276,
		"rain" : 0,
		"cloudbase" : 1624.7862500001,
		"flyability" : 0,
		"reason" : "windDir, cloudbase",
		"timestamp" :1556283600
		},
	"2019-04-26T17:00:00+02:00" : {
		"windSpeed" : 1.8,
		"windDir" : 270,
		"rain" : 0,
		"cloudbase" : null,
		"flyability" : 0,
		"reason" : "windDir",
		"timestamp" :1556294400
		},
	"2019-04-26T20:00:00+02:00" : {
		"windSpeed" : 0.9,
		"windDir" : 270,
		"rain" : 0,
		"cloudbase" : 246.23662500001,
		"flyability" : 0,
		"reason" : "windDir, cloudbase",
		"timestamp" :1556305200
		},
	"2019-04-26T23:00:00+02:00" : {
		"windSpeed" : 1.4,
		"windDir" : 265,
		"rain" : 0,
		"cloudbase" : 146.70749999999,
		"flyability" : 0,
		"reason" : "windDir, cloudbase",
		"timestamp" :1556316000
		},
	"2019-04-27T02:00:00+02:00" : {
		"windSpeed" : 1.5,
		"windDir" : 252,
		"rain" : 0,
		"cloudbase" : 30,
		"flyability" : 0,
		"reason" : "windDir, cloudbase",
		"timestamp" :1556326800
		},
	"2019-04-27T05:00:00+02:00" : {
		"windSpeed" : 0.9,
		"windDir" : 273,
		"rain" : 0,
		"cloudbase" : 169.43900000002,
		"flyability" : 0,
		"reason" : "windDir, cloudbase",
		"timestamp" :1556337600
		},
	"2019-04-27T08:00:00+02:00" : {
		"windSpeed" : 0.8,
		"windDir" : 279,
		"rain" : 0,
		"cloudbase" : 78.274875000026,
		"flyability" : 0,
		"reason" : "windDir, cloudbase",
		"timestamp" :1556348400
		},
	"2019-04-27T11:00:00+02:00" : {
		"windSpeed" : 1.3,
		"windDir" : 255,
		"rain" : 0,
		"cloudbase" : 164.93775000001,
		"flyability" : 0,
		"reason" : "windDir, cloudbase",
		"timestamp" :1556359200
		},
	"2019-04-27T14:00:00+02:00" : {
		"windSpeed" : 0.8,
		"windDir" : 240,
		"rain" : 0,
		"cloudbase" : 272.55000000001,
		"flyability" : 0,
		"reason" : "cloudbase",
		"timestamp" :1556370000
		}
	}
}