{
"site" : "Ojos del Volcan",
"id" : 11331,
"orientations" : "00000020",
"forecasts" : { 
	"2019-04-04T22:00:00-05:00" : {
		"windSpeed" : 0.3,
		"windDir" : 283,
		"rain" : 1,
		"cloudbase" : 2619.2288,
		"flyability" : 0,
		"reason" : "rain",
		"timestamp" :1554429600
		},
	"2019-04-05T01:00:00-05:00" : {
		"windSpeed" : 0.7,
		"windDir" : 293,
		"rain" : 1,
		"cloudbase" : 7813.6312000002,
		"flyability" : 0,
		"reason" : "windDir, rain",
		"timestamp" :1554440400
		},
	"2019-04-05T04:00:00-05:00" : {
		"windSpeed" : 0.9,
		"windDir" : 295,
		"rain" : 1,
		"cloudbase" : 3408.4837600006,
		"flyability" : 0,
		"reason" : "windDir, rain",
		"timestamp" :1554451200
		},
	"2019-04-05T07:00:00-05:00" : {
		"windSpeed" : 0.4,
		"windDir" : 277,
		"rain" : 0,
		"cloudbase" : 7490.7136000002,
		"flyability" : 100,
		"reason" : "",
		"timestamp" :1554462000
		},
	"2019-04-05T10:00:00-05:00" : {
		"windSpeed" : 0.9,
		"windDir" : 78,
		"rain" : 1,
		"cloudbase" : 10450.9088,
		"flyability" : 0,
		"reason" : "windDir, rain",
		"timestamp" :1554472800
		},
	"2019-04-05T13:00:00-05:00" : {
		"windSpeed" : 1.8,
		"windDir" : 97,
		"rain" : 1,
		"cloudbase" : 7491.1195200005,
		"flyability" : 0,
		"reason" : "windDir, rain",
		"timestamp" :1554483600
		},
	"2019-04-05T16:00:00-05:00" : {
		"windSpeed" : 2.1,
		"windDir" : 111,
		"rain" : 1,
		"cloudbase" : 2019.8992960004,
		"flyability" : 0,
		"reason" : "windDir, rain, cloudbase",
		"timestamp" :1554494400
		},
	"2019-04-05T19:00:00-05:00" : {
		"windSpeed" : 0.2,
		"windDir" : 53,
		"rain" : 0,
		"cloudbase" : 2486.5585440001,
		"flyability" : 0,
		"reason" : "windDir",
		"timestamp" :1554505200
		},
	"2019-04-05T22:00:00-05:00" : {
		"windSpeed" : 0.3,
		"windDir" : 30,
		"rain" : 0,
		"cloudbase" : 1326.4206240005,
		"flyability" : 0,
		"reason" : "windDir, cloudbase",
		"timestamp" :1554516000
		},
	"2019-04-06T01:00:00-05:00" : {
		"windSpeed" : 0.1,
		"windDir" : 34,
		"rain" : 1,
		"cloudbase" : 2555.1995200001,
		"flyability" : 0,
		"reason" : "windDir, rain",
		"timestamp" :1554526800
		},
	"2019-04-06T04:00:00-05:00" : {
		"windSpeed" : 0.6,
		"windDir" : 305,
		"rain" : 1,
		"cloudbase" : 2056.35352,
		"flyability" : 0,
		"reason" : "windDir, rain, cloudbase",
		"timestamp" :1554537600
		},
	"2019-04-06T07:00:00-05:00" : {
		"windSpeed" : 0.8,
		"windDir" : 295,
		"rain" : 0,
		"cloudbase" : 6660.3958399994,
		"flyability" : 0,
		"reason" : "windDir",
		"timestamp" :1554548400
		},
	"2019-04-06T10:00:00-05:00" : {
		"windSpeed" : 1.2,
		"windDir" : 78,
		"rain" : 1,
		"cloudbase" : 7801.72064,
		"flyability" : 0,
		"reason" : "windDir, rain",
		"timestamp" :1554559200
		},
	"2019-04-06T13:00:00-05:00" : {
		"windSpeed" : 1.7,
		"windDir" : 101,
		"rain" : 0,
		"cloudbase" : 7660.82704,
		"flyability" : 0,
		"reason" : "windDir",
		"timestamp" :1554570000
		},
	"2019-04-06T16:00:00-05:00" : {
		"windSpeed" : 2.1,
		"windDir" : 111,
		"rain" : 1,
		"cloudbase" : 6700.7012800004,
		"flyability" : 0,
		"reason" : "windDir, rain",
		"timestamp" :1554580800
		},
	"2019-04-06T19:00:00-05:00" : {
		"windSpeed" : 1.7,
		"windDir" : 122,
		"rain" : 1,
		"cloudbase" : 4072.6670400005,
		"flyability" : 0,
		"reason" : "windDir, rain",
		"timestamp" :1554591600
		},
	"2019-04-06T22:00:00-05:00" : {
		"windSpeed" : 0.8,
		"windDir" : 142,
		"rain" : 1,
		"cloudbase" : 1139.1352960002,
		"flyability" : 0,
		"reason" : "windDir, rain, cloudbase",
		"timestamp" :1554602400
		},
	"2019-04-07T01:00:00-05:00" : {
		"windSpeed" : 0.8,
		"windDir" : 152,
		"rain" : 1,
		"cloudbase" : 968.73358400011,
		"flyability" : 0,
		"reason" : "windDir, rain, cloudbase",
		"timestamp" :1554613200
		},
	"2019-04-07T04:00:00-05:00" : {
		"windSpeed" : 1,
		"windDir" : 128,
		"rain" : 1,
		"cloudbase" : 2896.8070239996,
		"flyability" : 0,
		"reason" : "windDir, rain",
		"timestamp" :1554624000
		},
	"2019-04-07T07:00:00-05:00" : {
		"windSpeed" : 1.3,
		"windDir" : 130,
		"rain" : 1,
		"cloudbase" : 1003.1971360001,
		"flyability" : 0,
		"reason" : "windDir, rain, cloudbase",
		"timestamp" :1554634800
		},
	"2019-04-07T10:00:00-05:00" : {
		"windSpeed" : 2.2,
		"windDir" : 115,
		"rain" : 1,
		"cloudbase" : 3834.0300800001,
		"flyability" : 0,
		"reason" : "windDir, rain",
		"timestamp" :1554645600
		},
	"2019-04-07T13:00:00-05:00" : {
		"windSpeed" : 2.3,
		"windDir" : 113,
		"rain" : 1,
		"cloudbase" : 3722.3764800002,
		"flyability" : 0,
		"reason" : "windDir, rain",
		"timestamp" :1554656400
		},
	"2019-04-07T16:00:00-05:00" : {
		"windSpeed" : 2.1,
		"windDir" : 113,
		"rain" : 1,
		"cloudbase" : 4419.7456800004,
		"flyability" : 0,
		"reason" : "windDir, rain",
		"timestamp" :1554667200
		},
	"2019-04-07T19:00:00-05:00" : {
		"windSpeed" : 1.6,
		"windDir" : 124,
		"rain" : 0,
		"cloudbase" : 4199.1690079996,
		"flyability" : 0,
		"reason" : "windDir",
		"timestamp" :1554678000
		},
	"2019-04-07T22:00:00-05:00" : {
		"windSpeed" : 1.4,
		"windDir" : 112,
		"rain" : 0,
		"cloudbase" : 218.1083040001,
		"flyability" : 0,
		"reason" : "windDir, cloudbase",
		"timestamp" :1554688800
		},
	"2019-04-08T01:00:00-05:00" : {
		"windSpeed" : 1,
		"windDir" : 123,
		"rain" : 1,
		"cloudbase" : 221.69174400014,
		"flyability" : 0,
		"reason" : "windDir, rain, cloudbase",
		"timestamp" :1554699600
		},
	"2019-04-08T04:00:00-05:00" : {
		"windSpeed" : 0.6,
		"windDir" : 211,
		"rain" : 1,
		"cloudbase" : 1765.0343519998,
		"flyability" : 0,
		"reason" : "windDir, rain, cloudbase",
		"timestamp" :1554710400
		},
	"2019-04-08T07:00:00-05:00" : {
		"windSpeed" : 0.5,
		"windDir" : 209,
		"rain" : 0,
		"cloudbase" : 4265.0604800002,
		"flyability" : 0,
		"reason" : "windDir",
		"timestamp" :1554721200
		},
	"2019-04-08T10:00:00-05:00" : {
		"windSpeed" : 2.2,
		"windDir" : 106,
		"rain" : 0,
		"cloudbase" : 1750,
		"flyability" : 0,
		"reason" : "windDir, cloudbase",
		"timestamp" :1554732000
		},
	"2019-04-08T13:00:00-05:00" : {
		"windSpeed" : 2.7,
		"windDir" : 100,
		"rain" : 1,
		"cloudbase" : 1450,
		"flyability" : 0,
		"reason" : "windDir, rain, cloudbase",
		"timestamp" :1554742800
		},
	"2019-04-08T16:00:00-05:00" : {
		"windSpeed" : 2.3,
		"windDir" : 109,
		"rain" : 1,
		"cloudbase" : null,
		"flyability" : 0,
		"reason" : "windDir, rain",
		"timestamp" :1554753600
		},
	"2019-04-08T19:00:00-05:00" : {
		"windSpeed" : 1.4,
		"windDir" : 108,
		"rain" : 1,
		"cloudbase" : 2608.9925600005,
		"flyability" : 0,
		"reason" : "windDir, rain",
		"timestamp" :1554764400
		},
	"2019-04-08T22:00:00-05:00" : {
		"windSpeed" : 1,
		"windDir" : 122,
		"rain" : 1,
		"cloudbase" : 3797.7692000001,
		"flyability" : 0,
		"reason" : "windDir, rain",
		"timestamp" :1554775200
		},
	"2019-04-09T01:00:00-05:00" : {
		"windSpeed" : 0.5,
		"windDir" : 180,
		"rain" : 0,
		"cloudbase" : 3391.4140799998,
		"flyability" : 0,
		"reason" : "windDir",
		"timestamp" :1554786000
		},
	"2019-04-09T04:00:00-05:00" : {
		"windSpeed" : 0.3,
		"windDir" : 131,
		"rain" : 1,
		"cloudbase" : 3128.9257759992,
		"flyability" : 0,
		"reason" : "windDir, rain",
		"timestamp" :1554796800
		},
	"2019-04-09T07:00:00-05:00" : {
		"windSpeed" : 0.5,
		"windDir" : 156,
		"rain" : 0,
		"cloudbase" : 1430.4672480004,
		"flyability" : 0,
		"reason" : "windDir, cloudbase",
		"timestamp" :1554807600
		},
	"2019-04-09T10:00:00-05:00" : {
		"windSpeed" : 1.7,
		"windDir" : 100,
		"rain" : 1,
		"cloudbase" : 728.39040000033,
		"flyability" : 0,
		"reason" : "windDir, rain, cloudbase",
		"timestamp" :1554818400
		},
	"2019-04-09T13:00:00-05:00" : {
		"windSpeed" : 1.7,
		"windDir" : 102,
		"rain" : 1,
		"cloudbase" : 2398.890448001,
		"flyability" : 0,
		"reason" : "windDir, rain, cloudbase",
		"timestamp" :1554829200
		},
	"2019-04-09T16:00:00-05:00" : {
		"windSpeed" : 2,
		"windDir" : 101,
		"rain" : 1,
		"cloudbase" : 9606.8208000007,
		"flyability" : 0,
		"reason" : "windDir, rain",
		"timestamp" :1554840000
		},
	"2019-04-09T19:00:00-05:00" : {
		"windSpeed" : 1.3,
		"windDir" : 94,
		"rain" : 0,
		"cloudbase" : 8129.8564800006,
		"flyability" : 0,
		"reason" : "windDir",
		"timestamp" :1554850800
		},
	"2019-04-09T22:00:00-05:00" : {
		"windSpeed" : 0.8,
		"windDir" : 92,
		"rain" : 1,
		"cloudbase" : 2350,
		"flyability" : 0,
		"reason" : "windDir, rain, cloudbase",
		"timestamp" :1554861600
		},
	"2019-04-10T01:00:00-05:00" : {
		"windSpeed" : 0.1,
		"windDir" : 298,
		"rain" : 1,
		"cloudbase" : null,
		"flyability" : 0,
		"reason" : "windDir, rain",
		"timestamp" :1554872400
		},
	"2019-04-10T04:00:00-05:00" : {
		"windSpeed" : 0.7,
		"windDir" : 75,
		"rain" : 0,
		"cloudbase" : null,
		"flyability" : 0,
		"reason" : "windDir",
		"timestamp" :1554883200
		},
	"2019-04-10T07:00:00-05:00" : {
		"windSpeed" : 0.2,
		"windDir" : 325,
		"rain" : 0,
		"cloudbase" : 8186.9088000005,
		"flyability" : 0,
		"reason" : "windDir",
		"timestamp" :1554894000
		},
	"2019-04-10T10:00:00-05:00" : {
		"windSpeed" : 1.3,
		"windDir" : 99,
		"rain" : 0,
		"cloudbase" : null,
		"flyability" : 0,
		"reason" : "windDir",
		"timestamp" :1554904800
		},
	"2019-04-10T13:00:00-05:00" : {
		"windSpeed" : 2.6,
		"windDir" : 90,
		"rain" : 1,
		"cloudbase" : null,
		"flyability" : 0,
		"reason" : "windDir, rain",
		"timestamp" :1554915600
		},
	"2019-04-10T16:00:00-05:00" : {
		"windSpeed" : 1.9,
		"windDir" : 102,
		"rain" : 0,
		"cloudbase" : null,
		"flyability" : 0,
		"reason" : "windDir",
		"timestamp" :1554926400
		},
	"2019-04-10T19:00:00-05:00" : {
		"windSpeed" : 1.1,
		"windDir" : 118,
		"rain" : 0,
		"cloudbase" : 7158.5102400006,
		"flyability" : 0,
		"reason" : "windDir",
		"timestamp" :1554937200
		}
	}
}