{
"site" : "Bastberg",
"id" : 11398,
"orientations" : "10000012",
"forecasts" : { 
	"2019-04-22T05:00:00+02:00" : {
		"windSpeed" : 2.7,
		"windDir" : 41,
		"rain" : 0,
		"cloudbase" : null,
		"flyability" : 0,
		"reason" : "windDir",
		"timestamp" :1555905600
		},
	"2019-04-22T08:00:00+02:00" : {
		"windSpeed" : 2.1,
		"windDir" : 48,
		"rain" : 0,
		"cloudbase" : null,
		"flyability" : 0,
		"reason" : "windDir",
		"timestamp" :1555916400
		},
	"2019-04-22T11:00:00+02:00" : {
		"windSpeed" : 3.5,
		"windDir" : 77,
		"rain" : 0,
		"cloudbase" : null,
		"flyability" : 0,
		"reason" : "windDir",
		"timestamp" :1555927200
		},
	"2019-04-22T14:00:00+02:00" : {
		"windSpeed" : 5.1,
		"windDir" : 65,
		"rain" : 0,
		"cloudbase" : null,
		"flyability" : 0,
		"reason" : "windSpeed, windDir",
		"timestamp" :1555938000
		},
	"2019-04-22T17:00:00+02:00" : {
		"windSpeed" : 5.4,
		"windDir" : 71,
		"rain" : 0,
		"cloudbase" : 8190.19,
		"flyability" : 0,
		"reason" : "windSpeed, windDir",
		"timestamp" :1555948800
		},
	"2019-04-22T20:00:00+02:00" : {
		"windSpeed" : 4.9,
		"windDir" : 59,
		"rain" : 0,
		"cloudbase" : 6852.81,
		"flyability" : 0,
		"reason" : "windDir",
		"timestamp" :1555959600
		},
	"2019-04-22T23:00:00+02:00" : {
		"windSpeed" : 5.1,
		"windDir" : 56,
		"rain" : 0,
		"cloudbase" : null,
		"flyability" : 0,
		"reason" : "windSpeed, windDir",
		"timestamp" :1555970400
		},
	"2019-04-23T02:00:00+02:00" : {
		"windSpeed" : 4.1,
		"windDir" : 55,
		"rain" : 0,
		"cloudbase" : 11000,
		"flyability" : 0,
		"reason" : "windDir",
		"timestamp" :1555981200
		},
	"2019-04-23T05:00:00+02:00" : {
		"windSpeed" : 4,
		"windDir" : 55,
		"rain" : 0,
		"cloudbase" : 9377.38,
		"flyability" : 0,
		"reason" : "windDir",
		"timestamp" :1555992000
		},
	"2019-04-23T08:00:00+02:00" : {
		"windSpeed" : 2.8,
		"windDir" : 60,
		"rain" : 0,
		"cloudbase" : 9742,
		"flyability" : 0,
		"reason" : "windDir",
		"timestamp" :1556002800
		},
	"2019-04-23T11:00:00+02:00" : {
		"windSpeed" : 2.3,
		"windDir" : 101,
		"rain" : 0,
		"cloudbase" : 8988.62,
		"flyability" : 0,
		"reason" : "windDir",
		"timestamp" :1556013600
		},
	"2019-04-23T14:00:00+02:00" : {
		"windSpeed" : 2,
		"windDir" : 122,
		"rain" : 0,
		"cloudbase" : 5321,
		"flyability" : 0,
		"reason" : "windDir",
		"timestamp" :1556024400
		},
	"2019-04-23T17:00:00+02:00" : {
		"windSpeed" : 1.6,
		"windDir" : 128,
		"rain" : 0,
		"cloudbase" : 4487,
		"flyability" : 0,
		"reason" : "windDir",
		"timestamp" :1556035200
		},
	"2019-04-23T20:00:00+02:00" : {
		"windSpeed" : 0.8,
		"windDir" : 89,
		"rain" : 1,
		"cloudbase" : 8157.7200000001,
		"flyability" : 0,
		"reason" : "windDir, rain",
		"timestamp" :1556046000
		},
	"2019-04-23T23:00:00+02:00" : {
		"windSpeed" : 2,
		"windDir" : 235,
		"rain" : 0,
		"cloudbase" : 9079,
		"flyability" : 0,
		"reason" : "windDir",
		"timestamp" :1556056800
		},
	"2019-04-24T02:00:00+02:00" : {
		"windSpeed" : 1.2,
		"windDir" : 248,
		"rain" : 0,
		"cloudbase" : null,
		"flyability" : 100,
		"reason" : "",
		"timestamp" :1556067600
		},
	"2019-04-24T05:00:00+02:00" : {
		"windSpeed" : 2.6,
		"windDir" : 258,
		"rain" : 0,
		"cloudbase" : null,
		"flyability" : 100,
		"reason" : "",
		"timestamp" :1556078400
		},
	"2019-04-24T08:00:00+02:00" : {
		"windSpeed" : 1.7,
		"windDir" : 215,
		"rain" : 1,
		"cloudbase" : null,
		"flyability" : 0,
		"reason" : "windDir, rain",
		"timestamp" :1556089200
		},
	"2019-04-24T11:00:00+02:00" : {
		"windSpeed" : 1,
		"windDir" : 178,
		"rain" : 0,
		"cloudbase" : null,
		"flyability" : 0,
		"reason" : "windDir",
		"timestamp" :1556100000
		},
	"2019-04-24T14:00:00+02:00" : {
		"windSpeed" : 3.8,
		"windDir" : 118,
		"rain" : 0,
		"cloudbase" : 9322,
		"flyability" : 0,
		"reason" : "windDir",
		"timestamp" :1556110800
		},
	"2019-04-24T17:00:00+02:00" : {
		"windSpeed" : 2.2,
		"windDir" : 102,
		"rain" : 0,
		"cloudbase" : 6945.24,
		"flyability" : 0,
		"reason" : "windDir",
		"timestamp" :1556121600
		},
	"2019-04-24T20:00:00+02:00" : {
		"windSpeed" : 7,
		"windDir" : 264,
		"rain" : 0,
		"cloudbase" : 8021.6500000003,
		"flyability" : 0,
		"reason" : "windSpeed",
		"timestamp" :1556132400
		},
	"2019-04-24T23:00:00+02:00" : {
		"windSpeed" : 6.1,
		"windDir" : 262,
		"rain" : 0,
		"cloudbase" : 1708.19,
		"flyability" : 0,
		"reason" : "windSpeed",
		"timestamp" :1556143200
		},
	"2019-04-25T02:00:00+02:00" : {
		"windSpeed" : 2.3,
		"windDir" : 119,
		"rain" : 1,
		"cloudbase" : 2572.905,
		"flyability" : 0,
		"reason" : "windDir, rain",
		"timestamp" :1556154000
		},
	"2019-04-25T05:00:00+02:00" : {
		"windSpeed" : 2.2,
		"windDir" : 141,
		"rain" : 1,
		"cloudbase" : null,
		"flyability" : 0,
		"reason" : "windDir, rain",
		"timestamp" :1556164800
		},
	"2019-04-25T08:00:00+02:00" : {
		"windSpeed" : 2.5,
		"windDir" : 110,
		"rain" : 0,
		"cloudbase" : null,
		"flyability" : 0,
		"reason" : "windDir",
		"timestamp" :1556175600
		},
	"2019-04-25T11:00:00+02:00" : {
		"windSpeed" : 3.3,
		"windDir" : 120,
		"rain" : 0,
		"cloudbase" : null,
		"flyability" : 0,
		"reason" : "windDir",
		"timestamp" :1556186400
		},
	"2019-04-25T14:00:00+02:00" : {
		"windSpeed" : 2.2,
		"windDir" : 126,
		"rain" : 1,
		"cloudbase" : null,
		"flyability" : 0,
		"reason" : "windDir, rain",
		"timestamp" :1556197200
		},
	"2019-04-25T17:00:00+02:00" : {
		"windSpeed" : 1,
		"windDir" : 183,
		"rain" : 1,
		"cloudbase" : null,
		"flyability" : 0,
		"reason" : "windDir, rain",
		"timestamp" :1556208000
		},
	"2019-04-25T20:00:00+02:00" : {
		"windSpeed" : 5.6,
		"windDir" : 277,
		"rain" : 0,
		"cloudbase" : null,
		"flyability" : 0,
		"reason" : "windSpeed",
		"timestamp" :1556218800
		},
	"2019-04-25T23:00:00+02:00" : {
		"windSpeed" : 5,
		"windDir" : 279,
		"rain" : 1,
		"cloudbase" : null,
		"flyability" : 0,
		"reason" : "rain",
		"timestamp" :1556229600
		},
	"2019-04-26T02:00:00+02:00" : {
		"windSpeed" : 5.6,
		"windDir" : 274,
		"rain" : 1,
		"cloudbase" : 1526.69,
		"flyability" : 0,
		"reason" : "windSpeed, rain",
		"timestamp" :1556240400
		},
	"2019-04-26T05:00:00+02:00" : {
		"windSpeed" : 4.1,
		"windDir" : 253,
		"rain" : 1,
		"cloudbase" : 2045.715,
		"flyability" : 0,
		"reason" : "rain",
		"timestamp" :1556251200
		},
	"2019-04-26T08:00:00+02:00" : {
		"windSpeed" : 2.5,
		"windDir" : 254,
		"rain" : 1,
		"cloudbase" : 2659.0949999999,
		"flyability" : 0,
		"reason" : "rain",
		"timestamp" :1556262000
		},
	"2019-04-26T11:00:00+02:00" : {
		"windSpeed" : 4,
		"windDir" : 259,
		"rain" : 0,
		"cloudbase" : 1384.7769999998,
		"flyability" : 100,
		"reason" : "",
		"timestamp" :1556272800
		},
	"2019-04-26T14:00:00+02:00" : {
		"windSpeed" : 3,
		"windDir" : 250,
		"rain" : 1,
		"cloudbase" : 5300,
		"flyability" : 0,
		"reason" : "rain",
		"timestamp" :1556283600
		},
	"2019-04-26T17:00:00+02:00" : {
		"windSpeed" : 3.4,
		"windDir" : 253,
		"rain" : 1,
		"cloudbase" : 4445.7650000002,
		"flyability" : 0,
		"reason" : "rain",
		"timestamp" :1556294400
		},
	"2019-04-26T20:00:00+02:00" : {
		"windSpeed" : 1.3,
		"windDir" : 183,
		"rain" : 0,
		"cloudbase" : 4938.69,
		"flyability" : 0,
		"reason" : "windDir",
		"timestamp" :1556305200
		},
	"2019-04-26T23:00:00+02:00" : {
		"windSpeed" : 1.9,
		"windDir" : 205,
		"rain" : 0,
		"cloudbase" : null,
		"flyability" : 0,
		"reason" : "windDir",
		"timestamp" :1556316000
		},
	"2019-04-27T02:00:00+02:00" : {
		"windSpeed" : 3,
		"windDir" : 235,
		"rain" : 0,
		"cloudbase" : null,
		"flyability" : 0,
		"reason" : "windDir",
		"timestamp" :1556326800
		},
	"2019-04-27T05:00:00+02:00" : {
		"windSpeed" : 2.2,
		"windDir" : 219,
		"rain" : 0,
		"cloudbase" : null,
		"flyability" : 0,
		"reason" : "windDir",
		"timestamp" :1556337600
		},
	"2019-04-27T08:00:00+02:00" : {
		"windSpeed" : 2.1,
		"windDir" : 193,
		"rain" : 1,
		"cloudbase" : 2049.2599999998,
		"flyability" : 0,
		"reason" : "windDir, rain",
		"timestamp" :1556348400
		},
	"2019-04-27T11:00:00+02:00" : {
		"windSpeed" : 6.1,
		"windDir" : 261,
		"rain" : 1,
		"cloudbase" : 1167.38,
		"flyability" : 0,
		"reason" : "windSpeed, rain",
		"timestamp" :1556359200
		},
	"2019-04-27T14:00:00+02:00" : {
		"windSpeed" : 5.4,
		"windDir" : 231,
		"rain" : 1,
		"cloudbase" : 1256.905,
		"flyability" : 0,
		"reason" : "windSpeed, windDir, rain",
		"timestamp" :1556370000
		},
	"2019-04-27T17:00:00+02:00" : {
		"windSpeed" : 5.9,
		"windDir" : 207,
		"rain" : 1,
		"cloudbase" : null,
		"flyability" : 0,
		"reason" : "windSpeed, windDir, rain",
		"timestamp" :1556380800
		},
	"2019-04-27T20:00:00+02:00" : {
		"windSpeed" : 7.6,
		"windDir" : 255,
		"rain" : 1,
		"cloudbase" : 2677.83,
		"flyability" : 0,
		"reason" : "windSpeed, rain",
		"timestamp" :1556391600
		},
	"2019-04-27T23:00:00+02:00" : {
		"windSpeed" : 8.1,
		"windDir" : 249,
		"rain" : 1,
		"cloudbase" : 692.11400000001,
		"flyability" : 0,
		"reason" : "windSpeed, rain",
		"timestamp" :1556402400
		},
	"2019-04-28T02:00:00+02:00" : {
		"windSpeed" : 8.6,
		"windDir" : 254,
		"rain" : 1,
		"cloudbase" : 589.43800000001,
		"flyability" : 0,
		"reason" : "windSpeed, rain",
		"timestamp" :1556413200
		}
	}
}