{
"site" : "Floresti",
"id" : 11548,
"orientations" : "00122210",
"forecasts" : { 
	"2019-04-17T06:00:00+03:00" : {
		"windSpeed" : 3.2,
		"windDir" : 290,
		"rain" : 0,
		"cloudbase" : null,
		"flyability" : 100,
		"reason" : "",
		"timestamp" :1555470000
		},
	"2019-04-17T09:00:00+03:00" : {
		"windSpeed" : 3.3,
		"windDir" : 304,
		"rain" : 1,
		"cloudbase" : 1331.1545,
		"flyability" : 0,
		"reason" : "windDir, rain",
		"timestamp" :1555480800
		},
	"2019-04-17T12:00:00+03:00" : {
		"windSpeed" : 3,
		"windDir" : 320,
		"rain" : 1,
		"cloudbase" : 1834.12725,
		"flyability" : 0,
		"reason" : "windDir, rain",
		"timestamp" :1555491600
		},
	"2019-04-17T15:00:00+03:00" : {
		"windSpeed" : 3.3,
		"windDir" : 13,
		"rain" : 1,
		"cloudbase" : 1391.03625,
		"flyability" : 0,
		"reason" : "windDir, rain",
		"timestamp" :1555502400
		},
	"2019-04-17T18:00:00+03:00" : {
		"windSpeed" : 3.6,
		"windDir" : 27,
		"rain" : 1,
		"cloudbase" : 2208.9185,
		"flyability" : 0,
		"reason" : "windDir, rain",
		"timestamp" :1555513200
		},
	"2019-04-17T21:00:00+03:00" : {
		"windSpeed" : 1.2,
		"windDir" : 3,
		"rain" : 1,
		"cloudbase" : 2500,
		"flyability" : 0,
		"reason" : "windDir, rain",
		"timestamp" :1555524000
		},
	"2019-04-18T00:00:00+03:00" : {
		"windSpeed" : 1.1,
		"windDir" : 96,
		"rain" : 1,
		"cloudbase" : 2125.8045,
		"flyability" : 0,
		"reason" : "rain",
		"timestamp" :1555534800
		},
	"2019-04-18T03:00:00+03:00" : {
		"windSpeed" : 0.7,
		"windDir" : 107,
		"rain" : 0,
		"cloudbase" : 1394.6955,
		"flyability" : 100,
		"reason" : "",
		"timestamp" :1555545600
		},
	"2019-04-18T06:00:00+03:00" : {
		"windSpeed" : 0.7,
		"windDir" : 295,
		"rain" : 0,
		"cloudbase" : 1042.1355,
		"flyability" : 0,
		"reason" : "windDir",
		"timestamp" :1555556400
		},
	"2019-04-18T09:00:00+03:00" : {
		"windSpeed" : 0.9,
		"windDir" : 317,
		"rain" : 0,
		"cloudbase" : 1620.56375,
		"flyability" : 0,
		"reason" : "windDir",
		"timestamp" :1555567200
		},
	"2019-04-18T12:00:00+03:00" : {
		"windSpeed" : 1.8,
		"windDir" : 47,
		"rain" : 0,
		"cloudbase" : 1523.35,
		"flyability" : 0,
		"reason" : "windDir",
		"timestamp" :1555578000
		},
	"2019-04-18T15:00:00+03:00" : {
		"windSpeed" : 2.8,
		"windDir" : 109,
		"rain" : 1,
		"cloudbase" : 1272.8955,
		"flyability" : 0,
		"reason" : "rain",
		"timestamp" :1555588800
		},
	"2019-04-18T18:00:00+03:00" : {
		"windSpeed" : 1.1,
		"windDir" : 37,
		"rain" : 0,
		"cloudbase" : 1650,
		"flyability" : 0,
		"reason" : "windDir",
		"timestamp" :1555599600
		},
	"2019-04-18T21:00:00+03:00" : {
		"windSpeed" : 1,
		"windDir" : 285,
		"rain" : 0,
		"cloudbase" : null,
		"flyability" : 100,
		"reason" : "",
		"timestamp" :1555610400
		},
	"2019-04-19T00:00:00+03:00" : {
		"windSpeed" : 0.8,
		"windDir" : 255,
		"rain" : 0,
		"cloudbase" : null,
		"flyability" : 100,
		"reason" : "",
		"timestamp" :1555621200
		},
	"2019-04-19T03:00:00+03:00" : {
		"windSpeed" : 1.6,
		"windDir" : 252,
		"rain" : 0,
		"cloudbase" : null,
		"flyability" : 100,
		"reason" : "",
		"timestamp" :1555632000
		},
	"2019-04-19T06:00:00+03:00" : {
		"windSpeed" : 2.5,
		"windDir" : 278,
		"rain" : 0,
		"cloudbase" : null,
		"flyability" : 100,
		"reason" : "",
		"timestamp" :1555642800
		},
	"2019-04-19T09:00:00+03:00" : {
		"windSpeed" : 3.1,
		"windDir" : 317,
		"rain" : 0,
		"cloudbase" : null,
		"flyability" : 0,
		"reason" : "windDir",
		"timestamp" :1555653600
		},
	"2019-04-19T12:00:00+03:00" : {
		"windSpeed" : 4.2,
		"windDir" : 7,
		"rain" : 0,
		"cloudbase" : 1774.5,
		"flyability" : 0,
		"reason" : "windDir",
		"timestamp" :1555664400
		},
	"2019-04-19T15:00:00+03:00" : {
		"windSpeed" : 4.7,
		"windDir" : 359,
		"rain" : 1,
		"cloudbase" : 2288.68625,
		"flyability" : 0,
		"reason" : "windDir, rain",
		"timestamp" :1555675200
		},
	"2019-04-19T18:00:00+03:00" : {
		"windSpeed" : 5.2,
		"windDir" : 1,
		"rain" : 0,
		"cloudbase" : 2302.2455,
		"flyability" : 0,
		"reason" : "windSpeed, windDir",
		"timestamp" :1555686000
		},
	"2019-04-19T21:00:00+03:00" : {
		"windSpeed" : 2.2,
		"windDir" : 52,
		"rain" : 0,
		"cloudbase" : null,
		"flyability" : 0,
		"reason" : "windDir",
		"timestamp" :1555696800
		},
	"2019-04-20T00:00:00+03:00" : {
		"windSpeed" : 2,
		"windDir" : 18,
		"rain" : 0,
		"cloudbase" : null,
		"flyability" : 0,
		"reason" : "windDir",
		"timestamp" :1555707600
		},
	"2019-04-20T03:00:00+03:00" : {
		"windSpeed" : 0.9,
		"windDir" : 21,
		"rain" : 0,
		"cloudbase" : null,
		"flyability" : 0,
		"reason" : "windDir",
		"timestamp" :1555718400
		},
	"2019-04-20T06:00:00+03:00" : {
		"windSpeed" : 1.3,
		"windDir" : 33,
		"rain" : 0,
		"cloudbase" : null,
		"flyability" : 0,
		"reason" : "windDir",
		"timestamp" :1555729200
		},
	"2019-04-20T09:00:00+03:00" : {
		"windSpeed" : 0.3,
		"windDir" : 81,
		"rain" : 0,
		"cloudbase" : null,
		"flyability" : 100,
		"reason" : "",
		"timestamp" :1555740000
		},
	"2019-04-20T12:00:00+03:00" : {
		"windSpeed" : 2.1,
		"windDir" : 75,
		"rain" : 0,
		"cloudbase" : 1550,
		"flyability" : 100,
		"reason" : "",
		"timestamp" :1555750800
		},
	"2019-04-20T15:00:00+03:00" : {
		"windSpeed" : 1.6,
		"windDir" : 31,
		"rain" : 0,
		"cloudbase" : 2059.52275,
		"flyability" : 0,
		"reason" : "windDir",
		"timestamp" :1555761600
		},
	"2019-04-20T18:00:00+03:00" : {
		"windSpeed" : 1.8,
		"windDir" : 357,
		"rain" : 0,
		"cloudbase" : 2087.87275,
		"flyability" : 0,
		"reason" : "windDir",
		"timestamp" :1555772400
		},
	"2019-04-20T21:00:00+03:00" : {
		"windSpeed" : 0.4,
		"windDir" : 159,
		"rain" : 0,
		"cloudbase" : 9064.1,
		"flyability" : 100,
		"reason" : "",
		"timestamp" :1555783200
		},
	"2019-04-21T00:00:00+03:00" : {
		"windSpeed" : 1.1,
		"windDir" : 233,
		"rain" : 0,
		"cloudbase" : 8041.8455,
		"flyability" : 100,
		"reason" : "",
		"timestamp" :1555794000
		},
	"2019-04-21T03:00:00+03:00" : {
		"windSpeed" : 0.8,
		"windDir" : 274,
		"rain" : 0,
		"cloudbase" : 6800,
		"flyability" : 100,
		"reason" : "",
		"timestamp" :1555804800
		},
	"2019-04-21T06:00:00+03:00" : {
		"windSpeed" : 1.2,
		"windDir" : 223,
		"rain" : 0,
		"cloudbase" : 7647.7545,
		"flyability" : 100,
		"reason" : "",
		"timestamp" :1555815600
		},
	"2019-04-21T09:00:00+03:00" : {
		"windSpeed" : 1.6,
		"windDir" : 342,
		"rain" : 0,
		"cloudbase" : null,
		"flyability" : 0,
		"reason" : "windDir",
		"timestamp" :1555826400
		},
	"2019-04-21T12:00:00+03:00" : {
		"windSpeed" : 2.2,
		"windDir" : 360,
		"rain" : 0,
		"cloudbase" : null,
		"flyability" : 0,
		"reason" : "windDir",
		"timestamp" :1555837200
		},
	"2019-04-21T15:00:00+03:00" : {
		"windSpeed" : 3.2,
		"windDir" : 339,
		"rain" : 0,
		"cloudbase" : 2216.07275,
		"flyability" : 0,
		"reason" : "windDir",
		"timestamp" :1555848000
		},
	"2019-04-21T18:00:00+03:00" : {
		"windSpeed" : 3.5,
		"windDir" : 341,
		"rain" : 0,
		"cloudbase" : 2128.0955,
		"flyability" : 0,
		"reason" : "windDir",
		"timestamp" :1555858800
		},
	"2019-04-21T21:00:00+03:00" : {
		"windSpeed" : 1.2,
		"windDir" : 303,
		"rain" : 0,
		"cloudbase" : null,
		"flyability" : 0,
		"reason" : "windDir",
		"timestamp" :1555869600
		},
	"2019-04-22T00:00:00+03:00" : {
		"windSpeed" : 2.3,
		"windDir" : 186,
		"rain" : 0,
		"cloudbase" : 6149,
		"flyability" : 100,
		"reason" : "",
		"timestamp" :1555880400
		},
	"2019-04-22T03:00:00+03:00" : {
		"windSpeed" : 2.2,
		"windDir" : 170,
		"rain" : 1,
		"cloudbase" : 4865.73575,
		"flyability" : 0,
		"reason" : "rain",
		"timestamp" :1555891200
		},
	"2019-04-22T06:00:00+03:00" : {
		"windSpeed" : 0.8,
		"windDir" : 157,
		"rain" : 1,
		"cloudbase" : 2629.7,
		"flyability" : 0,
		"reason" : "rain",
		"timestamp" :1555902000
		},
	"2019-04-22T09:00:00+03:00" : {
		"windSpeed" : 2.3,
		"windDir" : 133,
		"rain" : 1,
		"cloudbase" : 2065.10925,
		"flyability" : 0,
		"reason" : "rain",
		"timestamp" :1555912800
		},
	"2019-04-22T12:00:00+03:00" : {
		"windSpeed" : 3.8,
		"windDir" : 144,
		"rain" : 1,
		"cloudbase" : 4323.6007500001,
		"flyability" : 0,
		"reason" : "rain",
		"timestamp" :1555923600
		},
	"2019-04-22T15:00:00+03:00" : {
		"windSpeed" : 3.7,
		"windDir" : 145,
		"rain" : 0,
		"cloudbase" : null,
		"flyability" : 100,
		"reason" : "",
		"timestamp" :1555934400
		},
	"2019-04-22T18:00:00+03:00" : {
		"windSpeed" : 4.1,
		"windDir" : 137,
		"rain" : 0,
		"cloudbase" : 1914.46825,
		"flyability" : 100,
		"reason" : "",
		"timestamp" :1555945200
		},
	"2019-04-22T21:00:00+03:00" : {
		"windSpeed" : 4.4,
		"windDir" : 138,
		"rain" : 0,
		"cloudbase" : 1553.32275,
		"flyability" : 100,
		"reason" : "",
		"timestamp" :1555956000
		},
	"2019-04-23T00:00:00+03:00" : {
		"windSpeed" : 3.6,
		"windDir" : 140,
		"rain" : 0,
		"cloudbase" : null,
		"flyability" : 100,
		"reason" : "",
		"timestamp" :1555966800
		},
	"2019-04-23T03:00:00+03:00" : {
		"windSpeed" : 3.2,
		"windDir" : 134,
		"rain" : 0,
		"cloudbase" : null,
		"flyability" : 100,
		"reason" : "",
		"timestamp" :1555977600
		}
	}
}