{
"site" : "Argalong",
"id" : 11893,
"orientations" : "10000222",
"forecasts" : { 
	"2019-04-04T14:00:00+11:00" : {
		"windSpeed" : 0.9,
		"windDir" : 132,
		"rain" : 1,
		"cloudbase" : 3172.752,
		"flyability" : 0,
		"reason" : "windDir, rain",
		"timestamp" :1554350400
		},
	"2019-04-04T17:00:00+11:00" : {
		"windSpeed" : 2.2,
		"windDir" : 90,
		"rain" : 1,
		"cloudbase" : 3227.552,
		"flyability" : 0,
		"reason" : "windDir, rain",
		"timestamp" :1554361200
		},
	"2019-04-04T20:00:00+11:00" : {
		"windSpeed" : 3.3,
		"windDir" : 99,
		"rain" : 0,
		"cloudbase" : 3017.648,
		"flyability" : 0,
		"reason" : "windDir",
		"timestamp" :1554372000
		},
	"2019-04-04T23:00:00+11:00" : {
		"windSpeed" : 3.4,
		"windDir" : 99,
		"rain" : 0,
		"cloudbase" : null,
		"flyability" : 0,
		"reason" : "windDir",
		"timestamp" :1554382800
		},
	"2019-04-05T02:00:00+11:00" : {
		"windSpeed" : 3.3,
		"windDir" : 103,
		"rain" : 0,
		"cloudbase" : null,
		"flyability" : 0,
		"reason" : "windDir",
		"timestamp" :1554393600
		},
	"2019-04-05T05:00:00+11:00" : {
		"windSpeed" : 3.3,
		"windDir" : 103,
		"rain" : 0,
		"cloudbase" : null,
		"flyability" : 0,
		"reason" : "windDir",
		"timestamp" :1554404400
		},
	"2019-04-05T08:00:00+11:00" : {
		"windSpeed" : 3.7,
		"windDir" : 101,
		"rain" : 0,
		"cloudbase" : null,
		"flyability" : 0,
		"reason" : "windDir",
		"timestamp" :1554415200
		},
	"2019-04-05T11:00:00+11:00" : {
		"windSpeed" : 3.4,
		"windDir" : 73,
		"rain" : 0,
		"cloudbase" : null,
		"flyability" : 0,
		"reason" : "windDir",
		"timestamp" :1554426000
		},
	"2019-04-05T14:00:00+11:00" : {
		"windSpeed" : 1.8,
		"windDir" : 18,
		"rain" : 0,
		"cloudbase" : 1700,
		"flyability" : 100,
		"reason" : "",
		"timestamp" :1554436800
		},
	"2019-04-05T17:00:00+11:00" : {
		"windSpeed" : 1.5,
		"windDir" : 356,
		"rain" : 0,
		"cloudbase" : 6472.5759999983,
		"flyability" : 100,
		"reason" : "",
		"timestamp" :1554447600
		},
	"2019-04-05T20:00:00+11:00" : {
		"windSpeed" : 1.8,
		"windDir" : 91,
		"rain" : 0,
		"cloudbase" : 9912.768,
		"flyability" : 0,
		"reason" : "windDir",
		"timestamp" :1554458400
		},
	"2019-04-05T23:00:00+11:00" : {
		"windSpeed" : 2.6,
		"windDir" : 85,
		"rain" : 0,
		"cloudbase" : 8793.5679999999,
		"flyability" : 0,
		"reason" : "windDir",
		"timestamp" :1554469200
		},
	"2019-04-06T02:00:00+11:00" : {
		"windSpeed" : 2.3,
		"windDir" : 84,
		"rain" : 0,
		"cloudbase" : 8530.368,
		"flyability" : 0,
		"reason" : "windDir",
		"timestamp" :1554480000
		},
	"2019-04-06T05:00:00+11:00" : {
		"windSpeed" : 1.8,
		"windDir" : 81,
		"rain" : 0,
		"cloudbase" : null,
		"flyability" : 0,
		"reason" : "windDir",
		"timestamp" :1554490800
		},
	"2019-04-06T08:00:00+11:00" : {
		"windSpeed" : 1,
		"windDir" : 82,
		"rain" : 0,
		"cloudbase" : 2564.784,
		"flyability" : 0,
		"reason" : "windDir",
		"timestamp" :1554501600
		},
	"2019-04-06T11:00:00+11:00" : {
		"windSpeed" : 1.6,
		"windDir" : 337,
		"rain" : 1,
		"cloudbase" : null,
		"flyability" : 0,
		"reason" : "rain",
		"timestamp" :1554512400
		},
	"2019-04-06T14:00:00+11:00" : {
		"windSpeed" : 1.8,
		"windDir" : 307,
		"rain" : 1,
		"cloudbase" : null,
		"flyability" : 0,
		"reason" : "rain",
		"timestamp" :1554523200
		},
	"2019-04-06T17:00:00+11:00" : {
		"windSpeed" : 2.1,
		"windDir" : 272,
		"rain" : 1,
		"cloudbase" : null,
		"flyability" : 0,
		"reason" : "rain",
		"timestamp" :1554534000
		},
	"2019-04-06T20:00:00+11:00" : {
		"windSpeed" : 0.9,
		"windDir" : 128,
		"rain" : 0,
		"cloudbase" : null,
		"flyability" : 0,
		"reason" : "windDir",
		"timestamp" :1554544800
		},
	"2019-04-06T23:00:00+11:00" : {
		"windSpeed" : 1,
		"windDir" : 91,
		"rain" : 0,
		"cloudbase" : null,
		"flyability" : 0,
		"reason" : "windDir",
		"timestamp" :1554555600
		},
	"2019-04-07T02:00:00+11:00" : {
		"windSpeed" : 1.5,
		"windDir" : 92,
		"rain" : 0,
		"cloudbase" : null,
		"flyability" : 0,
		"reason" : "windDir",
		"timestamp" :1554566400
		},
	"2019-04-07T05:00:00+11:00" : {
		"windSpeed" : 1.6,
		"windDir" : 91,
		"rain" : 0,
		"cloudbase" : null,
		"flyability" : 0,
		"reason" : "windDir",
		"timestamp" :1554577200
		},
	"2019-04-07T08:00:00+11:00" : {
		"windSpeed" : 2.2,
		"windDir" : 91,
		"rain" : 0,
		"cloudbase" : null,
		"flyability" : 0,
		"reason" : "windDir",
		"timestamp" :1554588000
		},
	"2019-04-07T11:00:00+11:00" : {
		"windSpeed" : 2.5,
		"windDir" : 303,
		"rain" : 0,
		"cloudbase" : null,
		"flyability" : 100,
		"reason" : "",
		"timestamp" :1554598800
		},
	"2019-04-07T14:00:00+11:00" : {
		"windSpeed" : 2.2,
		"windDir" : 289,
		"rain" : 0,
		"cloudbase" : null,
		"flyability" : 100,
		"reason" : "",
		"timestamp" :1554609600
		},
	"2019-04-07T17:00:00+11:00" : {
		"windSpeed" : 2.5,
		"windDir" : 294,
		"rain" : 0,
		"cloudbase" : null,
		"flyability" : 100,
		"reason" : "",
		"timestamp" :1554620400
		},
	"2019-04-07T20:00:00+11:00" : {
		"windSpeed" : 0.2,
		"windDir" : 293,
		"rain" : 0,
		"cloudbase" : null,
		"flyability" : 100,
		"reason" : "",
		"timestamp" :1554631200
		},
	"2019-04-07T23:00:00+11:00" : {
		"windSpeed" : 1.3,
		"windDir" : 140,
		"rain" : 0,
		"cloudbase" : null,
		"flyability" : 0,
		"reason" : "windDir",
		"timestamp" :1554642000
		},
	"2019-04-08T02:00:00+11:00" : {
		"windSpeed" : 0.9,
		"windDir" : 46,
		"rain" : 0,
		"cloudbase" : null,
		"flyability" : 0,
		"reason" : "windDir",
		"timestamp" :1554652800
		},
	"2019-04-08T05:00:00+11:00" : {
		"windSpeed" : 0.7,
		"windDir" : 13,
		"rain" : 0,
		"cloudbase" : null,
		"flyability" : 100,
		"reason" : "",
		"timestamp" :1554663600
		},
	"2019-04-08T08:00:00+11:00" : {
		"windSpeed" : 0.9,
		"windDir" : 360,
		"rain" : 0,
		"cloudbase" : null,
		"flyability" : 100,
		"reason" : "",
		"timestamp" :1554674400
		},
	"2019-04-08T11:00:00+11:00" : {
		"windSpeed" : 2.3,
		"windDir" : 288,
		"rain" : 0,
		"cloudbase" : null,
		"flyability" : 100,
		"reason" : "",
		"timestamp" :1554685200
		},
	"2019-04-08T14:00:00+11:00" : {
		"windSpeed" : 3.9,
		"windDir" : 285,
		"rain" : 0,
		"cloudbase" : null,
		"flyability" : 100,
		"reason" : "",
		"timestamp" :1554696000
		},
	"2019-04-08T17:00:00+11:00" : {
		"windSpeed" : 3.8,
		"windDir" : 270,
		"rain" : 0,
		"cloudbase" : null,
		"flyability" : 100,
		"reason" : "",
		"timestamp" :1554706800
		},
	"2019-04-08T20:00:00+11:00" : {
		"windSpeed" : 1.9,
		"windDir" : 325,
		"rain" : 0,
		"cloudbase" : null,
		"flyability" : 100,
		"reason" : "",
		"timestamp" :1554717600
		},
	"2019-04-08T23:00:00+11:00" : {
		"windSpeed" : 1.4,
		"windDir" : 310,
		"rain" : 0,
		"cloudbase" : null,
		"flyability" : 100,
		"reason" : "",
		"timestamp" :1554728400
		},
	"2019-04-09T02:00:00+11:00" : {
		"windSpeed" : 2.1,
		"windDir" : 236,
		"rain" : 0,
		"cloudbase" : null,
		"flyability" : 100,
		"reason" : "",
		"timestamp" :1554739200
		},
	"2019-04-09T05:00:00+11:00" : {
		"windSpeed" : 1.8,
		"windDir" : 205,
		"rain" : 0,
		"cloudbase" : null,
		"flyability" : 100,
		"reason" : "",
		"timestamp" :1554750000
		},
	"2019-04-09T08:00:00+11:00" : {
		"windSpeed" : 1.4,
		"windDir" : 225,
		"rain" : 0,
		"cloudbase" : null,
		"flyability" : 100,
		"reason" : "",
		"timestamp" :1554760800
		},
	"2019-04-09T11:00:00+11:00" : {
		"windSpeed" : 3.1,
		"windDir" : 271,
		"rain" : 0,
		"cloudbase" : null,
		"flyability" : 100,
		"reason" : "",
		"timestamp" :1554771600
		},
	"2019-04-09T14:00:00+11:00" : {
		"windSpeed" : 4.2,
		"windDir" : 258,
		"rain" : 0,
		"cloudbase" : 2000,
		"flyability" : 100,
		"reason" : "",
		"timestamp" :1554782400
		},
	"2019-04-09T17:00:00+11:00" : {
		"windSpeed" : 3.8,
		"windDir" : 240,
		"rain" : 1,
		"cloudbase" : null,
		"flyability" : 0,
		"reason" : "rain",
		"timestamp" :1554793200
		},
	"2019-04-09T20:00:00+11:00" : {
		"windSpeed" : 1.4,
		"windDir" : 216,
		"rain" : 0,
		"cloudbase" : null,
		"flyability" : 100,
		"reason" : "",
		"timestamp" :1554804000
		},
	"2019-04-09T23:00:00+11:00" : {
		"windSpeed" : 0.5,
		"windDir" : 189,
		"rain" : 0,
		"cloudbase" : null,
		"flyability" : 0,
		"reason" : "windDir",
		"timestamp" :1554814800
		},
	"2019-04-10T02:00:00+11:00" : {
		"windSpeed" : 0.2,
		"windDir" : 11,
		"rain" : 0,
		"cloudbase" : null,
		"flyability" : 100,
		"reason" : "",
		"timestamp" :1554825600
		},
	"2019-04-10T05:00:00+11:00" : {
		"windSpeed" : 0.7,
		"windDir" : 94,
		"rain" : 0,
		"cloudbase" : null,
		"flyability" : 0,
		"reason" : "windDir",
		"timestamp" :1554836400
		},
	"2019-04-10T08:00:00+11:00" : {
		"windSpeed" : 1.8,
		"windDir" : 93,
		"rain" : 0,
		"cloudbase" : 1250,
		"flyability" : 0,
		"reason" : "windDir",
		"timestamp" :1554847200
		},
	"2019-04-10T11:00:00+11:00" : {
		"windSpeed" : 1.1,
		"windDir" : 273,
		"rain" : 1,
		"cloudbase" : 1339.7216,
		"flyability" : 0,
		"reason" : "rain",
		"timestamp" :1554858000
		}
	}
}