{
"site" : "Lanzarote - Tenezar (Tenesar)",
"id" : 11951,
"orientations" : "20000000",
"forecasts" : { 
	"2019-04-20T04:00:00+01:00" : {
		"windSpeed" : 8.3,
		"windDir" : 0,
		"rain" : 0,
		"cloudbase" : null,
		"flyability" : 0,
		"reason" : "windSpeed",
		"timestamp" :1555725600
		},
	"2019-04-20T07:00:00+01:00" : {
		"windSpeed" : 8.4,
		"windDir" : 7,
		"rain" : 0,
		"cloudbase" : null,
		"flyability" : 0,
		"reason" : "windSpeed",
		"timestamp" :1555736400
		},
	"2019-04-20T10:00:00+01:00" : {
		"windSpeed" : 8.6,
		"windDir" : 6,
		"rain" : 0,
		"cloudbase" : 980,
		"flyability" : 0,
		"reason" : "windSpeed",
		"timestamp" :1555747200
		},
	"2019-04-20T13:00:00+01:00" : {
		"windSpeed" : 7.6,
		"windDir" : 356,
		"rain" : 0,
		"cloudbase" : 809.09599999999,
		"flyability" : 0,
		"reason" : "windSpeed",
		"timestamp" :1555758000
		},
	"2019-04-20T16:00:00+01:00" : {
		"windSpeed" : 8.3,
		"windDir" : 343,
		"rain" : 1,
		"cloudbase" : 1000,
		"flyability" : 0,
		"reason" : "windSpeed, rain",
		"timestamp" :1555768800
		},
	"2019-04-20T19:00:00+01:00" : {
		"windSpeed" : 8.3,
		"windDir" : 343,
		"rain" : 1,
		"cloudbase" : null,
		"flyability" : 0,
		"reason" : "windSpeed, rain",
		"timestamp" :1555779600
		},
	"2019-04-20T22:00:00+01:00" : {
		"windSpeed" : 7.5,
		"windDir" : 353,
		"rain" : 1,
		"cloudbase" : 980,
		"flyability" : 0,
		"reason" : "windSpeed, rain",
		"timestamp" :1555790400
		},
	"2019-04-21T01:00:00+01:00" : {
		"windSpeed" : 6.7,
		"windDir" : 17,
		"rain" : 1,
		"cloudbase" : null,
		"flyability" : 0,
		"reason" : "windSpeed, rain",
		"timestamp" :1555801200
		},
	"2019-04-21T04:00:00+01:00" : {
		"windSpeed" : 5.3,
		"windDir" : 355,
		"rain" : 0,
		"cloudbase" : null,
		"flyability" : 0,
		"reason" : "windSpeed",
		"timestamp" :1555812000
		},
	"2019-04-21T07:00:00+01:00" : {
		"windSpeed" : 6.8,
		"windDir" : 356,
		"rain" : 1,
		"cloudbase" : null,
		"flyability" : 0,
		"reason" : "windSpeed, rain",
		"timestamp" :1555822800
		},
	"2019-04-21T10:00:00+01:00" : {
		"windSpeed" : 6.8,
		"windDir" : 344,
		"rain" : 0,
		"cloudbase" : null,
		"flyability" : 0,
		"reason" : "windSpeed",
		"timestamp" :1555833600
		},
	"2019-04-21T13:00:00+01:00" : {
		"windSpeed" : 7.6,
		"windDir" : 355,
		"rain" : 1,
		"cloudbase" : 926.43599999998,
		"flyability" : 0,
		"reason" : "windSpeed, rain",
		"timestamp" :1555844400
		},
	"2019-04-21T16:00:00+01:00" : {
		"windSpeed" : 7,
		"windDir" : 354,
		"rain" : 0,
		"cloudbase" : null,
		"flyability" : 0,
		"reason" : "windSpeed",
		"timestamp" :1555855200
		},
	"2019-04-21T19:00:00+01:00" : {
		"windSpeed" : 6.7,
		"windDir" : 335,
		"rain" : 0,
		"cloudbase" : 640,
		"flyability" : 0,
		"reason" : "windSpeed, windDir",
		"timestamp" :1555866000
		},
	"2019-04-21T22:00:00+01:00" : {
		"windSpeed" : 7.8,
		"windDir" : 326,
		"rain" : 1,
		"cloudbase" : 663.8,
		"flyability" : 0,
		"reason" : "windSpeed, windDir, rain",
		"timestamp" :1555876800
		},
	"2019-04-22T01:00:00+01:00" : {
		"windSpeed" : 6.8,
		"windDir" : 333,
		"rain" : 0,
		"cloudbase" : 600,
		"flyability" : 0,
		"reason" : "windSpeed, windDir",
		"timestamp" :1555887600
		},
	"2019-04-22T04:00:00+01:00" : {
		"windSpeed" : 7,
		"windDir" : 339,
		"rain" : 0,
		"cloudbase" : 640,
		"flyability" : 0,
		"reason" : "windSpeed",
		"timestamp" :1555898400
		},
	"2019-04-22T07:00:00+01:00" : {
		"windSpeed" : 7.6,
		"windDir" : 345,
		"rain" : 1,
		"cloudbase" : 839.568,
		"flyability" : 0,
		"reason" : "windSpeed, rain",
		"timestamp" :1555909200
		},
	"2019-04-22T10:00:00+01:00" : {
		"windSpeed" : 7.2,
		"windDir" : 347,
		"rain" : 1,
		"cloudbase" : null,
		"flyability" : 0,
		"reason" : "windSpeed, rain",
		"timestamp" :1555920000
		},
	"2019-04-22T13:00:00+01:00" : {
		"windSpeed" : 7.1,
		"windDir" : 339,
		"rain" : 1,
		"cloudbase" : 931.6,
		"flyability" : 0,
		"reason" : "windSpeed, rain",
		"timestamp" :1555930800
		},
	"2019-04-22T16:00:00+01:00" : {
		"windSpeed" : 7.5,
		"windDir" : 331,
		"rain" : 0,
		"cloudbase" : 900,
		"flyability" : 0,
		"reason" : "windSpeed, windDir",
		"timestamp" :1555941600
		},
	"2019-04-22T19:00:00+01:00" : {
		"windSpeed" : 8,
		"windDir" : 331,
		"rain" : 0,
		"cloudbase" : 880,
		"flyability" : 0,
		"reason" : "windSpeed, windDir",
		"timestamp" :1555952400
		},
	"2019-04-22T22:00:00+01:00" : {
		"windSpeed" : 7.3,
		"windDir" : 332,
		"rain" : 0,
		"cloudbase" : 800,
		"flyability" : 0,
		"reason" : "windSpeed, windDir",
		"timestamp" :1555963200
		},
	"2019-04-23T01:00:00+01:00" : {
		"windSpeed" : 7.6,
		"windDir" : 337,
		"rain" : 0,
		"cloudbase" : 778.26399999999,
		"flyability" : 0,
		"reason" : "windSpeed, windDir",
		"timestamp" :1555974000
		},
	"2019-04-23T04:00:00+01:00" : {
		"windSpeed" : 6.9,
		"windDir" : 343,
		"rain" : 1,
		"cloudbase" : 876.20799999999,
		"flyability" : 0,
		"reason" : "windSpeed, rain",
		"timestamp" :1555984800
		},
	"2019-04-23T07:00:00+01:00" : {
		"windSpeed" : 6.3,
		"windDir" : 328,
		"rain" : 1,
		"cloudbase" : 1172.5,
		"flyability" : 0,
		"reason" : "windSpeed, windDir, rain",
		"timestamp" :1555995600
		},
	"2019-04-23T10:00:00+01:00" : {
		"windSpeed" : 7.8,
		"windDir" : 321,
		"rain" : 1,
		"cloudbase" : 1535.252,
		"flyability" : 0,
		"reason" : "windSpeed, windDir, rain",
		"timestamp" :1556006400
		},
	"2019-04-23T13:00:00+01:00" : {
		"windSpeed" : 7.1,
		"windDir" : 346,
		"rain" : 1,
		"cloudbase" : 1250,
		"flyability" : 0,
		"reason" : "windSpeed, rain",
		"timestamp" :1556017200
		},
	"2019-04-23T16:00:00+01:00" : {
		"windSpeed" : 8.2,
		"windDir" : 346,
		"rain" : 1,
		"cloudbase" : 1109.368,
		"flyability" : 0,
		"reason" : "windSpeed, rain",
		"timestamp" :1556028000
		},
	"2019-04-23T19:00:00+01:00" : {
		"windSpeed" : 8,
		"windDir" : 339,
		"rain" : 0,
		"cloudbase" : 12500,
		"flyability" : 0,
		"reason" : "windSpeed",
		"timestamp" :1556038800
		},
	"2019-04-23T22:00:00+01:00" : {
		"windSpeed" : 7.4,
		"windDir" : 338,
		"rain" : 0,
		"cloudbase" : null,
		"flyability" : 0,
		"reason" : "windSpeed",
		"timestamp" :1556049600
		},
	"2019-04-24T01:00:00+01:00" : {
		"windSpeed" : 7.2,
		"windDir" : 341,
		"rain" : 0,
		"cloudbase" : null,
		"flyability" : 0,
		"reason" : "windSpeed",
		"timestamp" :1556060400
		},
	"2019-04-24T04:00:00+01:00" : {
		"windSpeed" : 6.9,
		"windDir" : 349,
		"rain" : 0,
		"cloudbase" : null,
		"flyability" : 0,
		"reason" : "windSpeed",
		"timestamp" :1556071200
		},
	"2019-04-24T07:00:00+01:00" : {
		"windSpeed" : 6.3,
		"windDir" : 352,
		"rain" : 0,
		"cloudbase" : null,
		"flyability" : 0,
		"reason" : "windSpeed",
		"timestamp" :1556082000
		},
	"2019-04-24T10:00:00+01:00" : {
		"windSpeed" : 6,
		"windDir" : 359,
		"rain" : 0,
		"cloudbase" : 880,
		"flyability" : 0,
		"reason" : "windSpeed",
		"timestamp" :1556092800
		},
	"2019-04-24T13:00:00+01:00" : {
		"windSpeed" : 5.5,
		"windDir" : 5,
		"rain" : 0,
		"cloudbase" : 1120.22,
		"flyability" : 0,
		"reason" : "windSpeed",
		"timestamp" :1556103600
		},
	"2019-04-24T16:00:00+01:00" : {
		"windSpeed" : 4.3,
		"windDir" : 357,
		"rain" : 0,
		"cloudbase" : 1100,
		"flyability" : 100,
		"reason" : "",
		"timestamp" :1556114400
		},
	"2019-04-24T19:00:00+01:00" : {
		"windSpeed" : 5.4,
		"windDir" : 338,
		"rain" : 0,
		"cloudbase" : null,
		"flyability" : 0,
		"reason" : "windSpeed",
		"timestamp" :1556125200
		},
	"2019-04-24T22:00:00+01:00" : {
		"windSpeed" : 5.7,
		"windDir" : 339,
		"rain" : 0,
		"cloudbase" : 1150,
		"flyability" : 0,
		"reason" : "windSpeed",
		"timestamp" :1556136000
		},
	"2019-04-25T01:00:00+01:00" : {
		"windSpeed" : 4.5,
		"windDir" : 347,
		"rain" : 0,
		"cloudbase" : null,
		"flyability" : 100,
		"reason" : "",
		"timestamp" :1556146800
		},
	"2019-04-25T04:00:00+01:00" : {
		"windSpeed" : 5.2,
		"windDir" : 359,
		"rain" : 0,
		"cloudbase" : 1200,
		"flyability" : 0,
		"reason" : "windSpeed",
		"timestamp" :1556157600
		},
	"2019-04-25T07:00:00+01:00" : {
		"windSpeed" : 4.1,
		"windDir" : 16,
		"rain" : 0,
		"cloudbase" : null,
		"flyability" : 100,
		"reason" : "",
		"timestamp" :1556168400
		},
	"2019-04-25T10:00:00+01:00" : {
		"windSpeed" : 6,
		"windDir" : 9,
		"rain" : 0,
		"cloudbase" : 1148.98,
		"flyability" : 0,
		"reason" : "windSpeed",
		"timestamp" :1556179200
		},
	"2019-04-25T13:00:00+01:00" : {
		"windSpeed" : 5.5,
		"windDir" : 11,
		"rain" : 0,
		"cloudbase" : null,
		"flyability" : 0,
		"reason" : "windSpeed",
		"timestamp" :1556190000
		},
	"2019-04-25T16:00:00+01:00" : {
		"windSpeed" : 6,
		"windDir" : 10,
		"rain" : 0,
		"cloudbase" : null,
		"flyability" : 0,
		"reason" : "windSpeed",
		"timestamp" :1556200800
		},
	"2019-04-25T19:00:00+01:00" : {
		"windSpeed" : 6.9,
		"windDir" : 21,
		"rain" : 0,
		"cloudbase" : null,
		"flyability" : 0,
		"reason" : "windSpeed",
		"timestamp" :1556211600
		},
	"2019-04-25T22:00:00+01:00" : {
		"windSpeed" : 7.1,
		"windDir" : 26,
		"rain" : 0,
		"cloudbase" : 2481.0599999996,
		"flyability" : 0,
		"reason" : "windSpeed, windDir",
		"timestamp" :1556222400
		},
	"2019-04-26T01:00:00+01:00" : {
		"windSpeed" : 6.6,
		"windDir" : 35,
		"rain" : 0,
		"cloudbase" : 10500,
		"flyability" : 0,
		"reason" : "windSpeed, windDir",
		"timestamp" :1556233200
		}
	}
}