{
"site" : "West Mountain (Payson)",
"id" : 12145,
"orientations" : "00220222",
"forecasts" : { 
	"2019-04-22T09:00:00-06:00" : {
		"windSpeed" : 0.8,
		"windDir" : 224,
		"rain" : 0,
		"cloudbase" : 1000,
		"flyability" : 0,
		"reason" : "cloudbase",
		"timestamp" :1555945200
		},
	"2019-04-22T12:00:00-06:00" : {
		"windSpeed" : 1.6,
		"windDir" : 353,
		"rain" : 0,
		"cloudbase" : 987.904,
		"flyability" : 0,
		"reason" : "windDir, cloudbase",
		"timestamp" :1555956000
		},
	"2019-04-22T15:00:00-06:00" : {
		"windSpeed" : 3,
		"windDir" : 20,
		"rain" : 0,
		"cloudbase" : null,
		"flyability" : 0,
		"reason" : "windDir",
		"timestamp" :1555966800
		},
	"2019-04-22T18:00:00-06:00" : {
		"windSpeed" : 4.4,
		"windDir" : 350,
		"rain" : 1,
		"cloudbase" : null,
		"flyability" : 0,
		"reason" : "windDir, rain",
		"timestamp" :1555977600
		},
	"2019-04-22T21:00:00-06:00" : {
		"windSpeed" : 2.6,
		"windDir" : 339,
		"rain" : 0,
		"cloudbase" : null,
		"flyability" : 0,
		"reason" : "windDir",
		"timestamp" :1555988400
		},
	"2019-04-23T00:00:00-06:00" : {
		"windSpeed" : 1,
		"windDir" : 201,
		"rain" : 0,
		"cloudbase" : null,
		"flyability" : 0,
		"reason" : "windDir",
		"timestamp" :1555999200
		},
	"2019-04-23T03:00:00-06:00" : {
		"windSpeed" : 1.3,
		"windDir" : 158,
		"rain" : 0,
		"cloudbase" : null,
		"flyability" : 0,
		"reason" : "windDir",
		"timestamp" :1556010000
		},
	"2019-04-23T06:00:00-06:00" : {
		"windSpeed" : 1.3,
		"windDir" : 159,
		"rain" : 0,
		"cloudbase" : null,
		"flyability" : 0,
		"reason" : "windDir",
		"timestamp" :1556020800
		},
	"2019-04-23T09:00:00-06:00" : {
		"windSpeed" : 0.7,
		"windDir" : 154,
		"rain" : 0,
		"cloudbase" : null,
		"flyability" : 100,
		"reason" : "",
		"timestamp" :1556031600
		},
	"2019-04-23T12:00:00-06:00" : {
		"windSpeed" : 1.6,
		"windDir" : 350,
		"rain" : 0,
		"cloudbase" : null,
		"flyability" : 0,
		"reason" : "windDir",
		"timestamp" :1556042400
		},
	"2019-04-23T15:00:00-06:00" : {
		"windSpeed" : 1.1,
		"windDir" : 56,
		"rain" : 0,
		"cloudbase" : null,
		"flyability" : 0,
		"reason" : "windDir",
		"timestamp" :1556053200
		},
	"2019-04-23T18:00:00-06:00" : {
		"windSpeed" : 2.3,
		"windDir" : 12,
		"rain" : 0,
		"cloudbase" : null,
		"flyability" : 0,
		"reason" : "windDir",
		"timestamp" :1556064000
		},
	"2019-04-23T21:00:00-06:00" : {
		"windSpeed" : 2,
		"windDir" : 345,
		"rain" : 0,
		"cloudbase" : null,
		"flyability" : 0,
		"reason" : "windDir",
		"timestamp" :1556074800
		},
	"2019-04-24T00:00:00-06:00" : {
		"windSpeed" : 1.7,
		"windDir" : 163,
		"rain" : 0,
		"cloudbase" : null,
		"flyability" : 0,
		"reason" : "windDir",
		"timestamp" :1556085600
		},
	"2019-04-24T03:00:00-06:00" : {
		"windSpeed" : 1.6,
		"windDir" : 146,
		"rain" : 0,
		"cloudbase" : null,
		"flyability" : 100,
		"reason" : "",
		"timestamp" :1556096400
		},
	"2019-04-24T06:00:00-06:00" : {
		"windSpeed" : 1.6,
		"windDir" : 146,
		"rain" : 0,
		"cloudbase" : null,
		"flyability" : 100,
		"reason" : "",
		"timestamp" :1556107200
		},
	"2019-04-24T09:00:00-06:00" : {
		"windSpeed" : 0.9,
		"windDir" : 167,
		"rain" : 0,
		"cloudbase" : null,
		"flyability" : 0,
		"reason" : "windDir",
		"timestamp" :1556118000
		},
	"2019-04-24T12:00:00-06:00" : {
		"windSpeed" : 0.5,
		"windDir" : 11,
		"rain" : 0,
		"cloudbase" : null,
		"flyability" : 0,
		"reason" : "windDir",
		"timestamp" :1556128800
		},
	"2019-04-24T15:00:00-06:00" : {
		"windSpeed" : 2.5,
		"windDir" : 25,
		"rain" : 0,
		"cloudbase" : null,
		"flyability" : 0,
		"reason" : "windDir",
		"timestamp" :1556139600
		},
	"2019-04-24T18:00:00-06:00" : {
		"windSpeed" : 1.5,
		"windDir" : 346,
		"rain" : 0,
		"cloudbase" : null,
		"flyability" : 0,
		"reason" : "windDir",
		"timestamp" :1556150400
		},
	"2019-04-24T21:00:00-06:00" : {
		"windSpeed" : 1.7,
		"windDir" : 340,
		"rain" : 0,
		"cloudbase" : null,
		"flyability" : 0,
		"reason" : "windDir",
		"timestamp" :1556161200
		},
	"2019-04-25T00:00:00-06:00" : {
		"windSpeed" : 1.9,
		"windDir" : 152,
		"rain" : 0,
		"cloudbase" : null,
		"flyability" : 100,
		"reason" : "",
		"timestamp" :1556172000
		},
	"2019-04-25T03:00:00-06:00" : {
		"windSpeed" : 1.6,
		"windDir" : 146,
		"rain" : 0,
		"cloudbase" : null,
		"flyability" : 100,
		"reason" : "",
		"timestamp" :1556182800
		},
	"2019-04-25T06:00:00-06:00" : {
		"windSpeed" : 1.4,
		"windDir" : 157,
		"rain" : 0,
		"cloudbase" : null,
		"flyability" : 0,
		"reason" : "windDir",
		"timestamp" :1556193600
		},
	"2019-04-25T09:00:00-06:00" : {
		"windSpeed" : 0.9,
		"windDir" : 158,
		"rain" : 0,
		"cloudbase" : null,
		"flyability" : 0,
		"reason" : "windDir",
		"timestamp" :1556204400
		},
	"2019-04-25T12:00:00-06:00" : {
		"windSpeed" : 0.9,
		"windDir" : 349,
		"rain" : 0,
		"cloudbase" : null,
		"flyability" : 0,
		"reason" : "windDir",
		"timestamp" :1556215200
		},
	"2019-04-25T15:00:00-06:00" : {
		"windSpeed" : 1.1,
		"windDir" : 34,
		"rain" : 0,
		"cloudbase" : null,
		"flyability" : 0,
		"reason" : "windDir",
		"timestamp" :1556226000
		},
	"2019-04-25T18:00:00-06:00" : {
		"windSpeed" : 1.6,
		"windDir" : 325,
		"rain" : 0,
		"cloudbase" : 7366.52,
		"flyability" : 100,
		"reason" : "",
		"timestamp" :1556236800
		},
	"2019-04-25T21:00:00-06:00" : {
		"windSpeed" : 1.4,
		"windDir" : 186,
		"rain" : 0,
		"cloudbase" : 7647.56,
		"flyability" : 0,
		"reason" : "windDir",
		"timestamp" :1556247600
		},
	"2019-04-26T00:00:00-06:00" : {
		"windSpeed" : 1.1,
		"windDir" : 145,
		"rain" : 0,
		"cloudbase" : 7624.04,
		"flyability" : 100,
		"reason" : "",
		"timestamp" :1556258400
		},
	"2019-04-26T03:00:00-06:00" : {
		"windSpeed" : 1.2,
		"windDir" : 134,
		"rain" : 0,
		"cloudbase" : 7033.6399999998,
		"flyability" : 100,
		"reason" : "",
		"timestamp" :1556269200
		},
	"2019-04-26T06:00:00-06:00" : {
		"windSpeed" : 1,
		"windDir" : 140,
		"rain" : 0,
		"cloudbase" : 6418.7599999998,
		"flyability" : 100,
		"reason" : "",
		"timestamp" :1556280000
		},
	"2019-04-26T09:00:00-06:00" : {
		"windSpeed" : 1.7,
		"windDir" : 132,
		"rain" : 0,
		"cloudbase" : 7000,
		"flyability" : 100,
		"reason" : "",
		"timestamp" :1556290800
		},
	"2019-04-26T12:00:00-06:00" : {
		"windSpeed" : 0.6,
		"windDir" : 160,
		"rain" : 0,
		"cloudbase" : null,
		"flyability" : 0,
		"reason" : "windDir",
		"timestamp" :1556301600
		},
	"2019-04-26T15:00:00-06:00" : {
		"windSpeed" : 2.6,
		"windDir" : 291,
		"rain" : 0,
		"cloudbase" : null,
		"flyability" : 100,
		"reason" : "",
		"timestamp" :1556312400
		},
	"2019-04-26T18:00:00-06:00" : {
		"windSpeed" : 1.7,
		"windDir" : 151,
		"rain" : 0,
		"cloudbase" : null,
		"flyability" : 100,
		"reason" : "",
		"timestamp" :1556323200
		},
	"2019-04-26T21:00:00-06:00" : {
		"windSpeed" : 1.3,
		"windDir" : 39,
		"rain" : 0,
		"cloudbase" : 7864,
		"flyability" : 0,
		"reason" : "windDir",
		"timestamp" :1556334000
		},
	"2019-04-27T00:00:00-06:00" : {
		"windSpeed" : 1.1,
		"windDir" : 149,
		"rain" : 0,
		"cloudbase" : null,
		"flyability" : 100,
		"reason" : "",
		"timestamp" :1556344800
		},
	"2019-04-27T03:00:00-06:00" : {
		"windSpeed" : 1.4,
		"windDir" : 156,
		"rain" : 0,
		"cloudbase" : null,
		"flyability" : 0,
		"reason" : "windDir",
		"timestamp" :1556355600
		},
	"2019-04-27T06:00:00-06:00" : {
		"windSpeed" : 0.9,
		"windDir" : 144,
		"rain" : 0,
		"cloudbase" : null,
		"flyability" : 100,
		"reason" : "",
		"timestamp" :1556366400
		},
	"2019-04-27T09:00:00-06:00" : {
		"windSpeed" : 1.1,
		"windDir" : 136,
		"rain" : 0,
		"cloudbase" : null,
		"flyability" : 100,
		"reason" : "",
		"timestamp" :1556377200
		},
	"2019-04-27T12:00:00-06:00" : {
		"windSpeed" : 0.3,
		"windDir" : 190,
		"rain" : 0,
		"cloudbase" : null,
		"flyability" : 0,
		"reason" : "windDir",
		"timestamp" :1556388000
		},
	"2019-04-27T15:00:00-06:00" : {
		"windSpeed" : 1.2,
		"windDir" : 335,
		"rain" : 0,
		"cloudbase" : null,
		"flyability" : 100,
		"reason" : "",
		"timestamp" :1556398800
		},
	"2019-04-27T18:00:00-06:00" : {
		"windSpeed" : 3.1,
		"windDir" : 39,
		"rain" : 0,
		"cloudbase" : 7570.56,
		"flyability" : 0,
		"reason" : "windDir",
		"timestamp" :1556409600
		},
	"2019-04-27T21:00:00-06:00" : {
		"windSpeed" : 2.3,
		"windDir" : 201,
		"rain" : 0,
		"cloudbase" : 7041.56,
		"flyability" : 0,
		"reason" : "windDir",
		"timestamp" :1556420400
		},
	"2019-04-28T00:00:00-06:00" : {
		"windSpeed" : 1.2,
		"windDir" : 147,
		"rain" : 0,
		"cloudbase" : 6993.56,
		"flyability" : 100,
		"reason" : "",
		"timestamp" :1556431200
		},
	"2019-04-28T03:00:00-06:00" : {
		"windSpeed" : 1.4,
		"windDir" : 132,
		"rain" : 0,
		"cloudbase" : 6100.6,
		"flyability" : 100,
		"reason" : "",
		"timestamp" :1556442000
		},
	"2019-04-28T06:00:00-06:00" : {
		"windSpeed" : 1.6,
		"windDir" : 132,
		"rain" : 1,
		"cloudbase" : 7863.52,
		"flyability" : 0,
		"reason" : "rain",
		"timestamp" :1556452800
		}
	}
}