{
"site" : "Indian Creek Air Park",
"id" : 12256,
"orientations" : "21012101",
"forecasts" : { 
	"2019-04-14T22:00:00-05:00" : {
		"windSpeed" : 2.5,
		"windDir" : 132,
		"rain" : 0,
		"cloudbase" : null,
		"flyability" : 100,
		"reason" : "",
		"timestamp" :1555293600
		},
	"2019-04-15T01:00:00-05:00" : {
		"windSpeed" : 4,
		"windDir" : 151,
		"rain" : 0,
		"cloudbase" : null,
		"flyability" : 100,
		"reason" : "",
		"timestamp" :1555304400
		},
	"2019-04-15T04:00:00-05:00" : {
		"windSpeed" : 4,
		"windDir" : 173,
		"rain" : 0,
		"cloudbase" : null,
		"flyability" : 100,
		"reason" : "",
		"timestamp" :1555315200
		},
	"2019-04-15T07:00:00-05:00" : {
		"windSpeed" : 5.3,
		"windDir" : 175,
		"rain" : 0,
		"cloudbase" : null,
		"flyability" : 0,
		"reason" : "windSpeed",
		"timestamp" :1555326000
		},
	"2019-04-15T10:00:00-05:00" : {
		"windSpeed" : 6.9,
		"windDir" : 184,
		"rain" : 0,
		"cloudbase" : null,
		"flyability" : 0,
		"reason" : "windSpeed",
		"timestamp" :1555336800
		},
	"2019-04-15T13:00:00-05:00" : {
		"windSpeed" : 8,
		"windDir" : 188,
		"rain" : 0,
		"cloudbase" : null,
		"flyability" : 0,
		"reason" : "windSpeed",
		"timestamp" :1555347600
		},
	"2019-04-15T16:00:00-05:00" : {
		"windSpeed" : 8.4,
		"windDir" : 181,
		"rain" : 0,
		"cloudbase" : 8819.3,
		"flyability" : 0,
		"reason" : "windSpeed",
		"timestamp" :1555358400
		},
	"2019-04-15T19:00:00-05:00" : {
		"windSpeed" : 6.6,
		"windDir" : 171,
		"rain" : 0,
		"cloudbase" : 8600,
		"flyability" : 0,
		"reason" : "windSpeed",
		"timestamp" :1555369200
		},
	"2019-04-15T22:00:00-05:00" : {
		"windSpeed" : 6.9,
		"windDir" : 177,
		"rain" : 0,
		"cloudbase" : null,
		"flyability" : 0,
		"reason" : "windSpeed",
		"timestamp" :1555380000
		},
	"2019-04-16T01:00:00-05:00" : {
		"windSpeed" : 7.2,
		"windDir" : 183,
		"rain" : 0,
		"cloudbase" : null,
		"flyability" : 0,
		"reason" : "windSpeed",
		"timestamp" :1555390800
		},
	"2019-04-16T04:00:00-05:00" : {
		"windSpeed" : 6.8,
		"windDir" : 184,
		"rain" : 0,
		"cloudbase" : null,
		"flyability" : 0,
		"reason" : "windSpeed",
		"timestamp" :1555401600
		},
	"2019-04-16T07:00:00-05:00" : {
		"windSpeed" : 5.9,
		"windDir" : 185,
		"rain" : 0,
		"cloudbase" : 409.7,
		"flyability" : 0,
		"reason" : "windSpeed",
		"timestamp" :1555412400
		},
	"2019-04-16T10:00:00-05:00" : {
		"windSpeed" : 7.5,
		"windDir" : 192,
		"rain" : 0,
		"cloudbase" : 450.79540000001,
		"flyability" : 0,
		"reason" : "windSpeed",
		"timestamp" :1555423200
		},
	"2019-04-16T13:00:00-05:00" : {
		"windSpeed" : 7.2,
		"windDir" : 181,
		"rain" : 0,
		"cloudbase" : 640,
		"flyability" : 0,
		"reason" : "windSpeed",
		"timestamp" :1555434000
		},
	"2019-04-16T16:00:00-05:00" : {
		"windSpeed" : 8.9,
		"windDir" : 186,
		"rain" : 0,
		"cloudbase" : 4172.5927999999,
		"flyability" : 0,
		"reason" : "windSpeed",
		"timestamp" :1555444800
		},
	"2019-04-16T19:00:00-05:00" : {
		"windSpeed" : 6.2,
		"windDir" : 185,
		"rain" : 0,
		"cloudbase" : 7700,
		"flyability" : 0,
		"reason" : "windSpeed",
		"timestamp" :1555455600
		},
	"2019-04-16T22:00:00-05:00" : {
		"windSpeed" : 7.7,
		"windDir" : 164,
		"rain" : 1,
		"cloudbase" : 6260.5248,
		"flyability" : 0,
		"reason" : "windSpeed, rain",
		"timestamp" :1555466400
		},
	"2019-04-17T01:00:00-05:00" : {
		"windSpeed" : 6.9,
		"windDir" : 185,
		"rain" : 0,
		"cloudbase" : 7366.9584,
		"flyability" : 0,
		"reason" : "windSpeed",
		"timestamp" :1555477200
		},
	"2019-04-17T04:00:00-05:00" : {
		"windSpeed" : 6.2,
		"windDir" : 189,
		"rain" : 0,
		"cloudbase" : 554.78000000001,
		"flyability" : 0,
		"reason" : "windSpeed",
		"timestamp" :1555488000
		},
	"2019-04-17T07:00:00-05:00" : {
		"windSpeed" : 5.4,
		"windDir" : 184,
		"rain" : 0,
		"cloudbase" : 500,
		"flyability" : 0,
		"reason" : "windSpeed",
		"timestamp" :1555498800
		},
	"2019-04-17T10:00:00-05:00" : {
		"windSpeed" : 6.1,
		"windDir" : 169,
		"rain" : 1,
		"cloudbase" : 272.31708,
		"flyability" : 0,
		"reason" : "windSpeed, rain",
		"timestamp" :1555509600
		},
	"2019-04-17T13:00:00-05:00" : {
		"windSpeed" : 7,
		"windDir" : 157,
		"rain" : 1,
		"cloudbase" : 371.18248000001,
		"flyability" : 0,
		"reason" : "windSpeed, rain",
		"timestamp" :1555520400
		},
	"2019-04-17T16:00:00-05:00" : {
		"windSpeed" : 6.4,
		"windDir" : 155,
		"rain" : 0,
		"cloudbase" : 470.11043999999,
		"flyability" : 0,
		"reason" : "windSpeed",
		"timestamp" :1555531200
		},
	"2019-04-17T19:00:00-05:00" : {
		"windSpeed" : 1.9,
		"windDir" : 194,
		"rain" : 0,
		"cloudbase" : 3883.6553600007,
		"flyability" : 100,
		"reason" : "",
		"timestamp" :1555542000
		},
	"2019-04-17T22:00:00-05:00" : {
		"windSpeed" : 2.8,
		"windDir" : 233,
		"rain" : 0,
		"cloudbase" : 5248.9128000001,
		"flyability" : 100,
		"reason" : "",
		"timestamp" :1555552800
		},
	"2019-04-18T01:00:00-05:00" : {
		"windSpeed" : 4.7,
		"windDir" : 182,
		"rain" : 0,
		"cloudbase" : 5800,
		"flyability" : 100,
		"reason" : "",
		"timestamp" :1555563600
		},
	"2019-04-18T04:00:00-05:00" : {
		"windSpeed" : 5,
		"windDir" : 238,
		"rain" : 0,
		"cloudbase" : null,
		"flyability" : 100,
		"reason" : "",
		"timestamp" :1555574400
		},
	"2019-04-18T07:00:00-05:00" : {
		"windSpeed" : 8.9,
		"windDir" : 319,
		"rain" : 0,
		"cloudbase" : null,
		"flyability" : 0,
		"reason" : "windSpeed",
		"timestamp" :1555585200
		},
	"2019-04-18T10:00:00-05:00" : {
		"windSpeed" : 10.6,
		"windDir" : 327,
		"rain" : 1,
		"cloudbase" : null,
		"flyability" : 0,
		"reason" : "windSpeed, rain",
		"timestamp" :1555596000
		},
	"2019-04-18T13:00:00-05:00" : {
		"windSpeed" : 9.8,
		"windDir" : 326,
		"rain" : 0,
		"cloudbase" : 1850,
		"flyability" : 0,
		"reason" : "windSpeed",
		"timestamp" :1555606800
		},
	"2019-04-18T16:00:00-05:00" : {
		"windSpeed" : 7.6,
		"windDir" : 332,
		"rain" : 0,
		"cloudbase" : null,
		"flyability" : 0,
		"reason" : "windSpeed",
		"timestamp" :1555617600
		},
	"2019-04-18T19:00:00-05:00" : {
		"windSpeed" : 6.2,
		"windDir" : 321,
		"rain" : 0,
		"cloudbase" : null,
		"flyability" : 0,
		"reason" : "windSpeed",
		"timestamp" :1555628400
		},
	"2019-04-18T22:00:00-05:00" : {
		"windSpeed" : 5.3,
		"windDir" : 305,
		"rain" : 0,
		"cloudbase" : null,
		"flyability" : 0,
		"reason" : "windSpeed",
		"timestamp" :1555639200
		},
	"2019-04-19T01:00:00-05:00" : {
		"windSpeed" : 5.5,
		"windDir" : 313,
		"rain" : 0,
		"cloudbase" : null,
		"flyability" : 0,
		"reason" : "windSpeed",
		"timestamp" :1555650000
		},
	"2019-04-19T04:00:00-05:00" : {
		"windSpeed" : 4.4,
		"windDir" : 304,
		"rain" : 0,
		"cloudbase" : null,
		"flyability" : 100,
		"reason" : "",
		"timestamp" :1555660800
		},
	"2019-04-19T07:00:00-05:00" : {
		"windSpeed" : 5.9,
		"windDir" : 292,
		"rain" : 0,
		"cloudbase" : null,
		"flyability" : 0,
		"reason" : "windSpeed, windDir",
		"timestamp" :1555671600
		},
	"2019-04-19T10:00:00-05:00" : {
		"windSpeed" : 7.5,
		"windDir" : 305,
		"rain" : 0,
		"cloudbase" : null,
		"flyability" : 0,
		"reason" : "windSpeed",
		"timestamp" :1555682400
		},
	"2019-04-19T13:00:00-05:00" : {
		"windSpeed" : 8.5,
		"windDir" : 311,
		"rain" : 0,
		"cloudbase" : null,
		"flyability" : 0,
		"reason" : "windSpeed",
		"timestamp" :1555693200
		},
	"2019-04-19T16:00:00-05:00" : {
		"windSpeed" : 8.1,
		"windDir" : 313,
		"rain" : 0,
		"cloudbase" : null,
		"flyability" : 0,
		"reason" : "windSpeed",
		"timestamp" :1555704000
		},
	"2019-04-19T19:00:00-05:00" : {
		"windSpeed" : 5.5,
		"windDir" : 303,
		"rain" : 0,
		"cloudbase" : null,
		"flyability" : 0,
		"reason" : "windSpeed",
		"timestamp" :1555714800
		},
	"2019-04-19T22:00:00-05:00" : {
		"windSpeed" : 2.4,
		"windDir" : 295,
		"rain" : 0,
		"cloudbase" : null,
		"flyability" : 100,
		"reason" : "",
		"timestamp" :1555725600
		},
	"2019-04-20T01:00:00-05:00" : {
		"windSpeed" : 2,
		"windDir" : 270,
		"rain" : 0,
		"cloudbase" : null,
		"flyability" : 0,
		"reason" : "windDir",
		"timestamp" :1555736400
		},
	"2019-04-20T04:00:00-05:00" : {
		"windSpeed" : 2.3,
		"windDir" : 278,
		"rain" : 0,
		"cloudbase" : null,
		"flyability" : 0,
		"reason" : "windDir",
		"timestamp" :1555747200
		},
	"2019-04-20T07:00:00-05:00" : {
		"windSpeed" : 1.9,
		"windDir" : 273,
		"rain" : 0,
		"cloudbase" : null,
		"flyability" : 0,
		"reason" : "windDir",
		"timestamp" :1555758000
		},
	"2019-04-20T10:00:00-05:00" : {
		"windSpeed" : 1.4,
		"windDir" : 104,
		"rain" : 0,
		"cloudbase" : null,
		"flyability" : 0,
		"reason" : "windDir",
		"timestamp" :1555768800
		},
	"2019-04-20T13:00:00-05:00" : {
		"windSpeed" : 3.4,
		"windDir" : 146,
		"rain" : 0,
		"cloudbase" : null,
		"flyability" : 100,
		"reason" : "",
		"timestamp" :1555779600
		},
	"2019-04-20T16:00:00-05:00" : {
		"windSpeed" : 3.7,
		"windDir" : 158,
		"rain" : 0,
		"cloudbase" : 8000,
		"flyability" : 100,
		"reason" : "",
		"timestamp" :1555790400
		},
	"2019-04-20T19:00:00-05:00" : {
		"windSpeed" : 3.4,
		"windDir" : 144,
		"rain" : 0,
		"cloudbase" : null,
		"flyability" : 100,
		"reason" : "",
		"timestamp" :1555801200
		}
	}
}