{
"site" : "Winter Ridge",
"id" : 12277,
"orientations" : "00000000",
"forecasts" : { 
	"2019-04-18T08:00:00-07:00" : {
		"windSpeed" : 0.7,
		"windDir" : 188,
		"rain" : 0,
		"cloudbase" : 8324.844,
		"flyability" : -50,
		"reason" : "orientationsUnknown",
		"timestamp" :1555603200
		},
	"2019-04-18T11:00:00-07:00" : {
		"windSpeed" : 1.2,
		"windDir" : 158,
		"rain" : 0,
		"cloudbase" : 7497.144,
		"flyability" : -50,
		"reason" : "orientationsUnknown",
		"timestamp" :1555614000
		},
	"2019-04-18T14:00:00-07:00" : {
		"windSpeed" : 1.3,
		"windDir" : 177,
		"rain" : 0,
		"cloudbase" : null,
		"flyability" : -50,
		"reason" : "orientationsUnknown",
		"timestamp" :1555624800
		},
	"2019-04-18T17:00:00-07:00" : {
		"windSpeed" : 1.7,
		"windDir" : 166,
		"rain" : 0,
		"cloudbase" : null,
		"flyability" : -50,
		"reason" : "orientationsUnknown",
		"timestamp" :1555635600
		},
	"2019-04-18T20:00:00-07:00" : {
		"windSpeed" : 1.6,
		"windDir" : 236,
		"rain" : 0,
		"cloudbase" : null,
		"flyability" : -50,
		"reason" : "orientationsUnknown",
		"timestamp" :1555646400
		},
	"2019-04-18T23:00:00-07:00" : {
		"windSpeed" : 1.6,
		"windDir" : 267,
		"rain" : 0,
		"cloudbase" : null,
		"flyability" : -50,
		"reason" : "orientationsUnknown",
		"timestamp" :1555657200
		},
	"2019-04-19T02:00:00-07:00" : {
		"windSpeed" : 1.5,
		"windDir" : 214,
		"rain" : 0,
		"cloudbase" : null,
		"flyability" : -50,
		"reason" : "orientationsUnknown",
		"timestamp" :1555668000
		},
	"2019-04-19T05:00:00-07:00" : {
		"windSpeed" : 1.5,
		"windDir" : 200,
		"rain" : 0,
		"cloudbase" : null,
		"flyability" : -50,
		"reason" : "orientationsUnknown",
		"timestamp" :1555678800
		},
	"2019-04-19T08:00:00-07:00" : {
		"windSpeed" : 1.5,
		"windDir" : 196,
		"rain" : 0,
		"cloudbase" : null,
		"flyability" : -50,
		"reason" : "orientationsUnknown",
		"timestamp" :1555689600
		},
	"2019-04-19T11:00:00-07:00" : {
		"windSpeed" : 1.5,
		"windDir" : 217,
		"rain" : 0,
		"cloudbase" : 9663.732,
		"flyability" : -50,
		"reason" : "orientationsUnknown",
		"timestamp" :1555700400
		},
	"2019-04-19T14:00:00-07:00" : {
		"windSpeed" : 2.9,
		"windDir" : 221,
		"rain" : 0,
		"cloudbase" : 8358.588,
		"flyability" : -50,
		"reason" : "orientationsUnknown",
		"timestamp" :1555711200
		},
	"2019-04-19T17:00:00-07:00" : {
		"windSpeed" : 3.2,
		"windDir" : 261,
		"rain" : 0,
		"cloudbase" : 8164.3,
		"flyability" : -50,
		"reason" : "orientationsUnknown",
		"timestamp" :1555722000
		},
	"2019-04-19T20:00:00-07:00" : {
		"windSpeed" : 2.6,
		"windDir" : 296,
		"rain" : 0,
		"cloudbase" : 7558.8,
		"flyability" : -50,
		"reason" : "orientationsUnknown",
		"timestamp" :1555732800
		},
	"2019-04-19T23:00:00-07:00" : {
		"windSpeed" : 2.3,
		"windDir" : 310,
		"rain" : 1,
		"cloudbase" : 2870.9127999996,
		"flyability" : -0,
		"reason" : "orientationsUnknown, rain",
		"timestamp" :1555743600
		},
	"2019-04-20T02:00:00-07:00" : {
		"windSpeed" : 1.3,
		"windDir" : 309,
		"rain" : 1,
		"cloudbase" : 368.67719999995,
		"flyability" : -0,
		"reason" : "orientationsUnknown, rain, cloudbase",
		"timestamp" :1555754400
		},
	"2019-04-20T05:00:00-07:00" : {
		"windSpeed" : 1.5,
		"windDir" : 349,
		"rain" : 1,
		"cloudbase" : 216.90259999996,
		"flyability" : -0,
		"reason" : "orientationsUnknown, rain, cloudbase",
		"timestamp" :1555765200
		},
	"2019-04-20T08:00:00-07:00" : {
		"windSpeed" : 3.1,
		"windDir" : 346,
		"rain" : 1,
		"cloudbase" : 177.84599999998,
		"flyability" : -0,
		"reason" : "orientationsUnknown, rain, cloudbase",
		"timestamp" :1555776000
		},
	"2019-04-20T11:00:00-07:00" : {
		"windSpeed" : 3.5,
		"windDir" : 329,
		"rain" : 1,
		"cloudbase" : 205.35839999996,
		"flyability" : -0,
		"reason" : "orientationsUnknown, rain, cloudbase",
		"timestamp" :1555786800
		},
	"2019-04-20T14:00:00-07:00" : {
		"windSpeed" : 4.2,
		"windDir" : 340,
		"rain" : 1,
		"cloudbase" : 322.13399999999,
		"flyability" : -0,
		"reason" : "orientationsUnknown, rain, cloudbase",
		"timestamp" :1555797600
		},
	"2019-04-20T17:00:00-07:00" : {
		"windSpeed" : 3.7,
		"windDir" : 355,
		"rain" : 1,
		"cloudbase" : 606.69839999999,
		"flyability" : -0,
		"reason" : "orientationsUnknown, rain, cloudbase",
		"timestamp" :1555808400
		},
	"2019-04-20T20:00:00-07:00" : {
		"windSpeed" : 3.4,
		"windDir" : 331,
		"rain" : 1,
		"cloudbase" : 1426.3424,
		"flyability" : -0,
		"reason" : "orientationsUnknown, rain, cloudbase",
		"timestamp" :1555819200
		},
	"2019-04-20T23:00:00-07:00" : {
		"windSpeed" : 2.3,
		"windDir" : 311,
		"rain" : 1,
		"cloudbase" : null,
		"flyability" : -0,
		"reason" : "orientationsUnknown, rain",
		"timestamp" :1555830000
		},
	"2019-04-21T02:00:00-07:00" : {
		"windSpeed" : 2.4,
		"windDir" : 299,
		"rain" : 1,
		"cloudbase" : null,
		"flyability" : -0,
		"reason" : "orientationsUnknown, rain",
		"timestamp" :1555840800
		},
	"2019-04-21T05:00:00-07:00" : {
		"windSpeed" : 1.9,
		"windDir" : 301,
		"rain" : 0,
		"cloudbase" : null,
		"flyability" : -50,
		"reason" : "orientationsUnknown",
		"timestamp" :1555851600
		},
	"2019-04-21T08:00:00-07:00" : {
		"windSpeed" : 1.9,
		"windDir" : 302,
		"rain" : 0,
		"cloudbase" : null,
		"flyability" : -50,
		"reason" : "orientationsUnknown",
		"timestamp" :1555862400
		},
	"2019-04-21T11:00:00-07:00" : {
		"windSpeed" : 2.2,
		"windDir" : 344,
		"rain" : 0,
		"cloudbase" : null,
		"flyability" : -50,
		"reason" : "orientationsUnknown",
		"timestamp" :1555873200
		},
	"2019-04-21T14:00:00-07:00" : {
		"windSpeed" : 2.7,
		"windDir" : 331,
		"rain" : 0,
		"cloudbase" : null,
		"flyability" : -50,
		"reason" : "orientationsUnknown",
		"timestamp" :1555884000
		},
	"2019-04-21T17:00:00-07:00" : {
		"windSpeed" : 3,
		"windDir" : 360,
		"rain" : 0,
		"cloudbase" : null,
		"flyability" : -50,
		"reason" : "orientationsUnknown",
		"timestamp" :1555894800
		},
	"2019-04-21T20:00:00-07:00" : {
		"windSpeed" : 1.8,
		"windDir" : 1,
		"rain" : 0,
		"cloudbase" : null,
		"flyability" : -50,
		"reason" : "orientationsUnknown",
		"timestamp" :1555905600
		},
	"2019-04-21T23:00:00-07:00" : {
		"windSpeed" : 1.7,
		"windDir" : 334,
		"rain" : 0,
		"cloudbase" : null,
		"flyability" : -50,
		"reason" : "orientationsUnknown",
		"timestamp" :1555916400
		},
	"2019-04-22T02:00:00-07:00" : {
		"windSpeed" : 1.2,
		"windDir" : 301,
		"rain" : 0,
		"cloudbase" : null,
		"flyability" : -50,
		"reason" : "orientationsUnknown",
		"timestamp" :1555927200
		},
	"2019-04-22T05:00:00-07:00" : {
		"windSpeed" : 0.5,
		"windDir" : 288,
		"rain" : 0,
		"cloudbase" : null,
		"flyability" : -50,
		"reason" : "orientationsUnknown",
		"timestamp" :1555938000
		},
	"2019-04-22T08:00:00-07:00" : {
		"windSpeed" : 0.3,
		"windDir" : 294,
		"rain" : 0,
		"cloudbase" : null,
		"flyability" : -50,
		"reason" : "orientationsUnknown",
		"timestamp" :1555948800
		},
	"2019-04-22T11:00:00-07:00" : {
		"windSpeed" : 0.7,
		"windDir" : 59,
		"rain" : 0,
		"cloudbase" : null,
		"flyability" : -50,
		"reason" : "orientationsUnknown",
		"timestamp" :1555959600
		},
	"2019-04-22T14:00:00-07:00" : {
		"windSpeed" : 1.2,
		"windDir" : 15,
		"rain" : 0,
		"cloudbase" : null,
		"flyability" : -50,
		"reason" : "orientationsUnknown",
		"timestamp" :1555970400
		},
	"2019-04-22T17:00:00-07:00" : {
		"windSpeed" : 1.3,
		"windDir" : 338,
		"rain" : 0,
		"cloudbase" : 11500,
		"flyability" : -50,
		"reason" : "orientationsUnknown",
		"timestamp" :1555981200
		},
	"2019-04-22T20:00:00-07:00" : {
		"windSpeed" : 0.5,
		"windDir" : 246,
		"rain" : 0,
		"cloudbase" : 8252.876,
		"flyability" : -50,
		"reason" : "orientationsUnknown",
		"timestamp" :1555992000
		},
	"2019-04-22T23:00:00-07:00" : {
		"windSpeed" : 1.4,
		"windDir" : 299,
		"rain" : 0,
		"cloudbase" : null,
		"flyability" : -50,
		"reason" : "orientationsUnknown",
		"timestamp" :1556002800
		},
	"2019-04-23T02:00:00-07:00" : {
		"windSpeed" : 0.6,
		"windDir" : 285,
		"rain" : 0,
		"cloudbase" : null,
		"flyability" : -50,
		"reason" : "orientationsUnknown",
		"timestamp" :1556013600
		},
	"2019-04-23T05:00:00-07:00" : {
		"windSpeed" : 0.2,
		"windDir" : 259,
		"rain" : 0,
		"cloudbase" : null,
		"flyability" : -50,
		"reason" : "orientationsUnknown",
		"timestamp" :1556024400
		},
	"2019-04-23T08:00:00-07:00" : {
		"windSpeed" : 0.3,
		"windDir" : 241,
		"rain" : 0,
		"cloudbase" : null,
		"flyability" : -50,
		"reason" : "orientationsUnknown",
		"timestamp" :1556035200
		},
	"2019-04-23T11:00:00-07:00" : {
		"windSpeed" : 1,
		"windDir" : 138,
		"rain" : 0,
		"cloudbase" : null,
		"flyability" : -50,
		"reason" : "orientationsUnknown",
		"timestamp" :1556046000
		},
	"2019-04-23T14:00:00-07:00" : {
		"windSpeed" : 1,
		"windDir" : 97,
		"rain" : 0,
		"cloudbase" : 9989.144,
		"flyability" : -50,
		"reason" : "orientationsUnknown",
		"timestamp" :1556056800
		},
	"2019-04-23T17:00:00-07:00" : {
		"windSpeed" : 1.8,
		"windDir" : 95,
		"rain" : 0,
		"cloudbase" : 8522.556,
		"flyability" : -50,
		"reason" : "orientationsUnknown",
		"timestamp" :1556067600
		},
	"2019-04-23T20:00:00-07:00" : {
		"windSpeed" : 1.3,
		"windDir" : 222,
		"rain" : 0,
		"cloudbase" : 8892,
		"flyability" : -50,
		"reason" : "orientationsUnknown",
		"timestamp" :1556078400
		},
	"2019-04-23T23:00:00-07:00" : {
		"windSpeed" : 0.6,
		"windDir" : 209,
		"rain" : 0,
		"cloudbase" : null,
		"flyability" : -50,
		"reason" : "orientationsUnknown",
		"timestamp" :1556089200
		},
	"2019-04-24T02:00:00-07:00" : {
		"windSpeed" : 0.3,
		"windDir" : 299,
		"rain" : 0,
		"cloudbase" : null,
		"flyability" : -50,
		"reason" : "orientationsUnknown",
		"timestamp" :1556100000
		},
	"2019-04-24T05:00:00-07:00" : {
		"windSpeed" : 0.8,
		"windDir" : 281,
		"rain" : 0,
		"cloudbase" : null,
		"flyability" : -50,
		"reason" : "orientationsUnknown",
		"timestamp" :1556110800
		}
	}
}