{
"site" : "Arkoma Sod Farms",
"id" : 12373,
"orientations" : "00000000",
"forecasts" : { 
	"2019-04-18T10:00:00-05:00" : {
		"windSpeed" : 4.7,
		"windDir" : 343,
		"rain" : 1,
		"cloudbase" : 3008.8039200003,
		"flyability" : -0,
		"reason" : "orientationsUnknown, rain",
		"timestamp" :1555596000
		},
	"2019-04-18T13:00:00-05:00" : {
		"windSpeed" : 5.2,
		"windDir" : 344,
		"rain" : 1,
		"cloudbase" : 2746.2744000001,
		"flyability" : -0,
		"reason" : "windSpeed, orientationsUnknown, rain",
		"timestamp" :1555606800
		},
	"2019-04-18T16:00:00-05:00" : {
		"windSpeed" : 6,
		"windDir" : 352,
		"rain" : 0,
		"cloudbase" : 4804.7771999997,
		"flyability" : -0,
		"reason" : "windSpeed, orientationsUnknown",
		"timestamp" :1555617600
		},
	"2019-04-18T19:00:00-05:00" : {
		"windSpeed" : 3.3,
		"windDir" : 360,
		"rain" : 0,
		"cloudbase" : null,
		"flyability" : -50,
		"reason" : "orientationsUnknown",
		"timestamp" :1555628400
		},
	"2019-04-18T22:00:00-05:00" : {
		"windSpeed" : 2.4,
		"windDir" : 335,
		"rain" : 0,
		"cloudbase" : null,
		"flyability" : -50,
		"reason" : "orientationsUnknown",
		"timestamp" :1555639200
		},
	"2019-04-19T01:00:00-05:00" : {
		"windSpeed" : 2.1,
		"windDir" : 312,
		"rain" : 0,
		"cloudbase" : null,
		"flyability" : -50,
		"reason" : "orientationsUnknown",
		"timestamp" :1555650000
		},
	"2019-04-19T04:00:00-05:00" : {
		"windSpeed" : 2.5,
		"windDir" : 323,
		"rain" : 0,
		"cloudbase" : null,
		"flyability" : -50,
		"reason" : "orientationsUnknown",
		"timestamp" :1555660800
		},
	"2019-04-19T07:00:00-05:00" : {
		"windSpeed" : 3.9,
		"windDir" : 333,
		"rain" : 0,
		"cloudbase" : null,
		"flyability" : -50,
		"reason" : "orientationsUnknown",
		"timestamp" :1555671600
		},
	"2019-04-19T10:00:00-05:00" : {
		"windSpeed" : 6,
		"windDir" : 349,
		"rain" : 0,
		"cloudbase" : null,
		"flyability" : -0,
		"reason" : "windSpeed, orientationsUnknown",
		"timestamp" :1555682400
		},
	"2019-04-19T13:00:00-05:00" : {
		"windSpeed" : 6.9,
		"windDir" : 339,
		"rain" : 0,
		"cloudbase" : 1901.5256,
		"flyability" : -0,
		"reason" : "windSpeed, orientationsUnknown",
		"timestamp" :1555693200
		},
	"2019-04-19T16:00:00-05:00" : {
		"windSpeed" : 6.9,
		"windDir" : 338,
		"rain" : 0,
		"cloudbase" : 2426.45,
		"flyability" : -0,
		"reason" : "windSpeed, orientationsUnknown",
		"timestamp" :1555704000
		},
	"2019-04-19T19:00:00-05:00" : {
		"windSpeed" : 3,
		"windDir" : 338,
		"rain" : 0,
		"cloudbase" : null,
		"flyability" : -50,
		"reason" : "orientationsUnknown",
		"timestamp" :1555714800
		},
	"2019-04-19T22:00:00-05:00" : {
		"windSpeed" : 2.5,
		"windDir" : 320,
		"rain" : 0,
		"cloudbase" : null,
		"flyability" : -50,
		"reason" : "orientationsUnknown",
		"timestamp" :1555725600
		},
	"2019-04-20T01:00:00-05:00" : {
		"windSpeed" : 2.4,
		"windDir" : 352,
		"rain" : 0,
		"cloudbase" : null,
		"flyability" : -50,
		"reason" : "orientationsUnknown",
		"timestamp" :1555736400
		},
	"2019-04-20T04:00:00-05:00" : {
		"windSpeed" : 1.8,
		"windDir" : 354,
		"rain" : 0,
		"cloudbase" : null,
		"flyability" : -50,
		"reason" : "orientationsUnknown",
		"timestamp" :1555747200
		},
	"2019-04-20T07:00:00-05:00" : {
		"windSpeed" : 0.9,
		"windDir" : 274,
		"rain" : 0,
		"cloudbase" : null,
		"flyability" : -50,
		"reason" : "orientationsUnknown",
		"timestamp" :1555758000
		},
	"2019-04-20T10:00:00-05:00" : {
		"windSpeed" : 1.1,
		"windDir" : 243,
		"rain" : 0,
		"cloudbase" : null,
		"flyability" : -50,
		"reason" : "orientationsUnknown",
		"timestamp" :1555768800
		},
	"2019-04-20T13:00:00-05:00" : {
		"windSpeed" : 1.2,
		"windDir" : 240,
		"rain" : 0,
		"cloudbase" : null,
		"flyability" : -50,
		"reason" : "orientationsUnknown",
		"timestamp" :1555779600
		},
	"2019-04-20T16:00:00-05:00" : {
		"windSpeed" : 1.4,
		"windDir" : 239,
		"rain" : 0,
		"cloudbase" : null,
		"flyability" : -50,
		"reason" : "orientationsUnknown",
		"timestamp" :1555790400
		},
	"2019-04-20T19:00:00-05:00" : {
		"windSpeed" : 1.7,
		"windDir" : 130,
		"rain" : 0,
		"cloudbase" : null,
		"flyability" : -50,
		"reason" : "orientationsUnknown",
		"timestamp" :1555801200
		},
	"2019-04-20T22:00:00-05:00" : {
		"windSpeed" : 2.3,
		"windDir" : 166,
		"rain" : 0,
		"cloudbase" : null,
		"flyability" : -50,
		"reason" : "orientationsUnknown",
		"timestamp" :1555812000
		},
	"2019-04-21T01:00:00-05:00" : {
		"windSpeed" : 2.5,
		"windDir" : 171,
		"rain" : 0,
		"cloudbase" : null,
		"flyability" : -50,
		"reason" : "orientationsUnknown",
		"timestamp" :1555822800
		},
	"2019-04-21T04:00:00-05:00" : {
		"windSpeed" : 1.7,
		"windDir" : 87,
		"rain" : 0,
		"cloudbase" : null,
		"flyability" : -50,
		"reason" : "orientationsUnknown",
		"timestamp" :1555833600
		},
	"2019-04-21T07:00:00-05:00" : {
		"windSpeed" : 2.7,
		"windDir" : 90,
		"rain" : 0,
		"cloudbase" : null,
		"flyability" : -50,
		"reason" : "orientationsUnknown",
		"timestamp" :1555844400
		},
	"2019-04-21T10:00:00-05:00" : {
		"windSpeed" : 2.2,
		"windDir" : 129,
		"rain" : 0,
		"cloudbase" : null,
		"flyability" : -50,
		"reason" : "orientationsUnknown",
		"timestamp" :1555855200
		},
	"2019-04-21T13:00:00-05:00" : {
		"windSpeed" : 4.8,
		"windDir" : 177,
		"rain" : 0,
		"cloudbase" : null,
		"flyability" : -50,
		"reason" : "orientationsUnknown",
		"timestamp" :1555866000
		},
	"2019-04-21T16:00:00-05:00" : {
		"windSpeed" : 5.4,
		"windDir" : 185,
		"rain" : 0,
		"cloudbase" : null,
		"flyability" : -0,
		"reason" : "windSpeed, orientationsUnknown",
		"timestamp" :1555876800
		},
	"2019-04-21T19:00:00-05:00" : {
		"windSpeed" : 4.4,
		"windDir" : 156,
		"rain" : 0,
		"cloudbase" : 8876.3975999999,
		"flyability" : -50,
		"reason" : "orientationsUnknown",
		"timestamp" :1555887600
		},
	"2019-04-21T22:00:00-05:00" : {
		"windSpeed" : 2.5,
		"windDir" : 144,
		"rain" : 0,
		"cloudbase" : null,
		"flyability" : -50,
		"reason" : "orientationsUnknown",
		"timestamp" :1555898400
		},
	"2019-04-22T01:00:00-05:00" : {
		"windSpeed" : 2.1,
		"windDir" : 143,
		"rain" : 0,
		"cloudbase" : null,
		"flyability" : -50,
		"reason" : "orientationsUnknown",
		"timestamp" :1555909200
		},
	"2019-04-22T04:00:00-05:00" : {
		"windSpeed" : 2.2,
		"windDir" : 128,
		"rain" : 0,
		"cloudbase" : null,
		"flyability" : -50,
		"reason" : "orientationsUnknown",
		"timestamp" :1555920000
		},
	"2019-04-22T07:00:00-05:00" : {
		"windSpeed" : 1.8,
		"windDir" : 104,
		"rain" : 0,
		"cloudbase" : null,
		"flyability" : -50,
		"reason" : "orientationsUnknown",
		"timestamp" :1555930800
		},
	"2019-04-22T10:00:00-05:00" : {
		"windSpeed" : 3.6,
		"windDir" : 178,
		"rain" : 0,
		"cloudbase" : 640,
		"flyability" : -50,
		"reason" : "orientationsUnknown",
		"timestamp" :1555941600
		},
	"2019-04-22T13:00:00-05:00" : {
		"windSpeed" : 3.4,
		"windDir" : 191,
		"rain" : 0,
		"cloudbase" : null,
		"flyability" : -50,
		"reason" : "orientationsUnknown",
		"timestamp" :1555952400
		},
	"2019-04-22T16:00:00-05:00" : {
		"windSpeed" : 3,
		"windDir" : 199,
		"rain" : 0,
		"cloudbase" : null,
		"flyability" : -50,
		"reason" : "orientationsUnknown",
		"timestamp" :1555963200
		},
	"2019-04-22T19:00:00-05:00" : {
		"windSpeed" : 2.3,
		"windDir" : 207,
		"rain" : 0,
		"cloudbase" : 1650,
		"flyability" : -50,
		"reason" : "orientationsUnknown",
		"timestamp" :1555974000
		},
	"2019-04-22T22:00:00-05:00" : {
		"windSpeed" : 2.7,
		"windDir" : 158,
		"rain" : 0,
		"cloudbase" : null,
		"flyability" : -50,
		"reason" : "orientationsUnknown",
		"timestamp" :1555984800
		},
	"2019-04-23T01:00:00-05:00" : {
		"windSpeed" : 2,
		"windDir" : 142,
		"rain" : 0,
		"cloudbase" : null,
		"flyability" : -50,
		"reason" : "orientationsUnknown",
		"timestamp" :1555995600
		},
	"2019-04-23T04:00:00-05:00" : {
		"windSpeed" : 1.4,
		"windDir" : 69,
		"rain" : 0,
		"cloudbase" : 5784.8756000004,
		"flyability" : -50,
		"reason" : "orientationsUnknown",
		"timestamp" :1556006400
		},
	"2019-04-23T07:00:00-05:00" : {
		"windSpeed" : 1.2,
		"windDir" : 82,
		"rain" : 0,
		"cloudbase" : 5834.4143999999,
		"flyability" : -50,
		"reason" : "orientationsUnknown",
		"timestamp" :1556017200
		},
	"2019-04-23T10:00:00-05:00" : {
		"windSpeed" : 1.5,
		"windDir" : 151,
		"rain" : 1,
		"cloudbase" : 1950,
		"flyability" : -0,
		"reason" : "orientationsUnknown, rain",
		"timestamp" :1556028000
		},
	"2019-04-23T13:00:00-05:00" : {
		"windSpeed" : 2.5,
		"windDir" : 143,
		"rain" : 1,
		"cloudbase" : 3756.9336000002,
		"flyability" : -0,
		"reason" : "orientationsUnknown, rain",
		"timestamp" :1556038800
		},
	"2019-04-23T16:00:00-05:00" : {
		"windSpeed" : 2.6,
		"windDir" : 174,
		"rain" : 1,
		"cloudbase" : null,
		"flyability" : -0,
		"reason" : "orientationsUnknown, rain",
		"timestamp" :1556049600
		},
	"2019-04-23T19:00:00-05:00" : {
		"windSpeed" : 2.2,
		"windDir" : 55,
		"rain" : 0,
		"cloudbase" : null,
		"flyability" : -50,
		"reason" : "orientationsUnknown",
		"timestamp" :1556060400
		},
	"2019-04-23T22:00:00-05:00" : {
		"windSpeed" : 2.1,
		"windDir" : 174,
		"rain" : 0,
		"cloudbase" : 6394.8684000008,
		"flyability" : -50,
		"reason" : "orientationsUnknown",
		"timestamp" :1556071200
		},
	"2019-04-24T01:00:00-05:00" : {
		"windSpeed" : 1.3,
		"windDir" : 141,
		"rain" : 0,
		"cloudbase" : 7100,
		"flyability" : -50,
		"reason" : "orientationsUnknown",
		"timestamp" :1556082000
		},
	"2019-04-24T04:00:00-05:00" : {
		"windSpeed" : 1.3,
		"windDir" : 59,
		"rain" : 0,
		"cloudbase" : null,
		"flyability" : -50,
		"reason" : "orientationsUnknown",
		"timestamp" :1556092800
		},
	"2019-04-24T07:00:00-05:00" : {
		"windSpeed" : 1,
		"windDir" : 95,
		"rain" : 0,
		"cloudbase" : 8140.9855999999,
		"flyability" : -50,
		"reason" : "orientationsUnknown",
		"timestamp" :1556103600
		}
	}
}