{
"site" : "Serra Gorda ",
"id" : 12503,
"orientations" : "22222222",
"forecasts" : { 
	"2019-04-05T03:00:00Z" : {
		"windSpeed" : 7.4,
		"windDir" : 344,
		"rain" : 1,
		"cloudbase" : 1215.369,
		"flyability" : 0,
		"reason" : "windSpeed, rain",
		"timestamp" :1554433200
		},
	"2019-04-05T06:00:00Z" : {
		"windSpeed" : 6.3,
		"windDir" : 336,
		"rain" : 0,
		"cloudbase" : 1300,
		"flyability" : 0,
		"reason" : "windSpeed",
		"timestamp" :1554444000
		},
	"2019-04-05T09:00:00Z" : {
		"windSpeed" : 6.1,
		"windDir" : 335,
		"rain" : 1,
		"cloudbase" : 1294.219,
		"flyability" : 0,
		"reason" : "windSpeed, rain",
		"timestamp" :1554454800
		},
	"2019-04-05T12:00:00Z" : {
		"windSpeed" : 5.9,
		"windDir" : 328,
		"rain" : 1,
		"cloudbase" : 1214.1,
		"flyability" : 0,
		"reason" : "windSpeed, rain",
		"timestamp" :1554465600
		},
	"2019-04-05T15:00:00Z" : {
		"windSpeed" : 5.6,
		"windDir" : 318,
		"rain" : 1,
		"cloudbase" : 1200,
		"flyability" : 0,
		"reason" : "windSpeed, rain",
		"timestamp" :1554476400
		},
	"2019-04-05T18:00:00Z" : {
		"windSpeed" : 5.7,
		"windDir" : 304,
		"rain" : 0,
		"cloudbase" : 1108.319,
		"flyability" : 0,
		"reason" : "windSpeed",
		"timestamp" :1554487200
		},
	"2019-04-05T21:00:00Z" : {
		"windSpeed" : 4.7,
		"windDir" : 297,
		"rain" : 0,
		"cloudbase" : null,
		"flyability" : 100,
		"reason" : "",
		"timestamp" :1554498000
		},
	"2019-04-06T00:00:00Z" : {
		"windSpeed" : 3.3,
		"windDir" : 280,
		"rain" : 0,
		"cloudbase" : null,
		"flyability" : 100,
		"reason" : "",
		"timestamp" :1554508800
		},
	"2019-04-06T03:00:00Z" : {
		"windSpeed" : 4.3,
		"windDir" : 285,
		"rain" : 0,
		"cloudbase" : null,
		"flyability" : 100,
		"reason" : "",
		"timestamp" :1554519600
		},
	"2019-04-06T06:00:00Z" : {
		"windSpeed" : 5.2,
		"windDir" : 276,
		"rain" : 0,
		"cloudbase" : 812.2952,
		"flyability" : 0,
		"reason" : "windSpeed",
		"timestamp" :1554530400
		},
	"2019-04-06T09:00:00Z" : {
		"windSpeed" : 6.2,
		"windDir" : 270,
		"rain" : 1,
		"cloudbase" : 860,
		"flyability" : 0,
		"reason" : "windSpeed, rain",
		"timestamp" :1554541200
		},
	"2019-04-06T12:00:00Z" : {
		"windSpeed" : 7.3,
		"windDir" : 259,
		"rain" : 0,
		"cloudbase" : null,
		"flyability" : 0,
		"reason" : "windSpeed",
		"timestamp" :1554552000
		},
	"2019-04-06T15:00:00Z" : {
		"windSpeed" : 8,
		"windDir" : 252,
		"rain" : 1,
		"cloudbase" : 860,
		"flyability" : 0,
		"reason" : "windSpeed, rain",
		"timestamp" :1554562800
		},
	"2019-04-06T18:00:00Z" : {
		"windSpeed" : 8.6,
		"windDir" : 252,
		"rain" : 1,
		"cloudbase" : null,
		"flyability" : 0,
		"reason" : "windSpeed, rain",
		"timestamp" :1554573600
		},
	"2019-04-06T21:00:00Z" : {
		"windSpeed" : 8.2,
		"windDir" : 247,
		"rain" : 1,
		"cloudbase" : 5823.82,
		"flyability" : 0,
		"reason" : "windSpeed, rain",
		"timestamp" :1554584400
		},
	"2019-04-07T00:00:00Z" : {
		"windSpeed" : 7.3,
		"windDir" : 311,
		"rain" : 1,
		"cloudbase" : 2194.8089999999,
		"flyability" : 0,
		"reason" : "windSpeed, rain",
		"timestamp" :1554595200
		},
	"2019-04-07T03:00:00Z" : {
		"windSpeed" : 7.7,
		"windDir" : 313,
		"rain" : 1,
		"cloudbase" : 3192.3629999997,
		"flyability" : 0,
		"reason" : "windSpeed, rain",
		"timestamp" :1554606000
		},
	"2019-04-07T06:00:00Z" : {
		"windSpeed" : 6.4,
		"windDir" : 312,
		"rain" : 0,
		"cloudbase" : 8009.024,
		"flyability" : 0,
		"reason" : "windSpeed",
		"timestamp" :1554616800
		},
	"2019-04-07T09:00:00Z" : {
		"windSpeed" : 7.3,
		"windDir" : 309,
		"rain" : 0,
		"cloudbase" : null,
		"flyability" : 0,
		"reason" : "windSpeed",
		"timestamp" :1554627600
		},
	"2019-04-07T12:00:00Z" : {
		"windSpeed" : 7.2,
		"windDir" : 306,
		"rain" : 0,
		"cloudbase" : 1700,
		"flyability" : 0,
		"reason" : "windSpeed",
		"timestamp" :1554638400
		},
	"2019-04-07T15:00:00Z" : {
		"windSpeed" : 6.9,
		"windDir" : 303,
		"rain" : 0,
		"cloudbase" : 1600,
		"flyability" : 0,
		"reason" : "windSpeed",
		"timestamp" :1554649200
		},
	"2019-04-07T18:00:00Z" : {
		"windSpeed" : 6.4,
		"windDir" : 286,
		"rain" : 0,
		"cloudbase" : null,
		"flyability" : 0,
		"reason" : "windSpeed",
		"timestamp" :1554660000
		},
	"2019-04-07T21:00:00Z" : {
		"windSpeed" : 5.9,
		"windDir" : 297,
		"rain" : 1,
		"cloudbase" : 1818.798,
		"flyability" : 0,
		"reason" : "windSpeed, rain",
		"timestamp" :1554670800
		},
	"2019-04-08T00:00:00Z" : {
		"windSpeed" : 5.8,
		"windDir" : 296,
		"rain" : 0,
		"cloudbase" : 2050,
		"flyability" : 0,
		"reason" : "windSpeed",
		"timestamp" :1554681600
		},
	"2019-04-08T03:00:00Z" : {
		"windSpeed" : 5,
		"windDir" : 304,
		"rain" : 0,
		"cloudbase" : 2819.464,
		"flyability" : 100,
		"reason" : "",
		"timestamp" :1554692400
		},
	"2019-04-08T06:00:00Z" : {
		"windSpeed" : 4.2,
		"windDir" : 311,
		"rain" : 0,
		"cloudbase" : 7114.1,
		"flyability" : 100,
		"reason" : "",
		"timestamp" :1554703200
		},
	"2019-04-08T09:00:00Z" : {
		"windSpeed" : 4.4,
		"windDir" : 315,
		"rain" : 0,
		"cloudbase" : 1900,
		"flyability" : 100,
		"reason" : "",
		"timestamp" :1554714000
		},
	"2019-04-08T12:00:00Z" : {
		"windSpeed" : 4,
		"windDir" : 310,
		"rain" : 1,
		"cloudbase" : 1650,
		"flyability" : 0,
		"reason" : "rain",
		"timestamp" :1554724800
		},
	"2019-04-08T15:00:00Z" : {
		"windSpeed" : 3.9,
		"windDir" : 294,
		"rain" : 1,
		"cloudbase" : 1600,
		"flyability" : 0,
		"reason" : "rain",
		"timestamp" :1554735600
		},
	"2019-04-08T18:00:00Z" : {
		"windSpeed" : 3.1,
		"windDir" : 280,
		"rain" : 0,
		"cloudbase" : null,
		"flyability" : 100,
		"reason" : "",
		"timestamp" :1554746400
		},
	"2019-04-08T21:00:00Z" : {
		"windSpeed" : 1.8,
		"windDir" : 256,
		"rain" : 0,
		"cloudbase" : null,
		"flyability" : 100,
		"reason" : "",
		"timestamp" :1554757200
		},
	"2019-04-09T00:00:00Z" : {
		"windSpeed" : 2.3,
		"windDir" : 226,
		"rain" : 0,
		"cloudbase" : null,
		"flyability" : 100,
		"reason" : "",
		"timestamp" :1554768000
		},
	"2019-04-09T03:00:00Z" : {
		"windSpeed" : 3.5,
		"windDir" : 219,
		"rain" : 0,
		"cloudbase" : 1489.05,
		"flyability" : 100,
		"reason" : "",
		"timestamp" :1554778800
		},
	"2019-04-09T06:00:00Z" : {
		"windSpeed" : 4.2,
		"windDir" : 220,
		"rain" : 0,
		"cloudbase" : 1451.269,
		"flyability" : 100,
		"reason" : "",
		"timestamp" :1554789600
		},
	"2019-04-09T09:00:00Z" : {
		"windSpeed" : 4.9,
		"windDir" : 213,
		"rain" : 0,
		"cloudbase" : 1635.219,
		"flyability" : 100,
		"reason" : "",
		"timestamp" :1554800400
		},
	"2019-04-09T12:00:00Z" : {
		"windSpeed" : 6.6,
		"windDir" : 212,
		"rain" : 0,
		"cloudbase" : 1450,
		"flyability" : 0,
		"reason" : "windSpeed",
		"timestamp" :1554811200
		},
	"2019-04-09T15:00:00Z" : {
		"windSpeed" : 7.5,
		"windDir" : 217,
		"rain" : 1,
		"cloudbase" : 1482.344,
		"flyability" : 0,
		"reason" : "windSpeed, rain",
		"timestamp" :1554822000
		},
	"2019-04-09T18:00:00Z" : {
		"windSpeed" : 6.7,
		"windDir" : 219,
		"rain" : 1,
		"cloudbase" : null,
		"flyability" : 0,
		"reason" : "windSpeed, rain",
		"timestamp" :1554832800
		},
	"2019-04-09T21:00:00Z" : {
		"windSpeed" : 5.5,
		"windDir" : 209,
		"rain" : 0,
		"cloudbase" : null,
		"flyability" : 0,
		"reason" : "windSpeed",
		"timestamp" :1554843600
		},
	"2019-04-10T00:00:00Z" : {
		"windSpeed" : 6.2,
		"windDir" : 200,
		"rain" : 0,
		"cloudbase" : 10147.81,
		"flyability" : 0,
		"reason" : "windSpeed",
		"timestamp" :1554854400
		},
	"2019-04-10T03:00:00Z" : {
		"windSpeed" : 7.2,
		"windDir" : 202,
		"rain" : 1,
		"cloudbase" : 1405.578,
		"flyability" : 0,
		"reason" : "windSpeed, rain",
		"timestamp" :1554865200
		},
	"2019-04-10T06:00:00Z" : {
		"windSpeed" : 6.9,
		"windDir" : 212,
		"rain" : 1,
		"cloudbase" : 439.1934,
		"flyability" : 0,
		"reason" : "windSpeed, rain",
		"timestamp" :1554876000
		},
	"2019-04-10T09:00:00Z" : {
		"windSpeed" : 3.8,
		"windDir" : 271,
		"rain" : 1,
		"cloudbase" : 3003.0385999999,
		"flyability" : 0,
		"reason" : "rain",
		"timestamp" :1554886800
		},
	"2019-04-10T12:00:00Z" : {
		"windSpeed" : 5.1,
		"windDir" : 246,
		"rain" : 1,
		"cloudbase" : 3338.2159999999,
		"flyability" : 0,
		"reason" : "windSpeed, rain",
		"timestamp" :1554897600
		},
	"2019-04-10T15:00:00Z" : {
		"windSpeed" : 5.4,
		"windDir" : 230,
		"rain" : 1,
		"cloudbase" : 2209.325,
		"flyability" : 0,
		"reason" : "windSpeed, rain",
		"timestamp" :1554908400
		},
	"2019-04-10T18:00:00Z" : {
		"windSpeed" : 2.8,
		"windDir" : 210,
		"rain" : 1,
		"cloudbase" : 1768.7563999998,
		"flyability" : 0,
		"reason" : "rain",
		"timestamp" :1554919200
		},
	"2019-04-10T21:00:00Z" : {
		"windSpeed" : 3.1,
		"windDir" : 227,
		"rain" : 1,
		"cloudbase" : 3730.2209999997,
		"flyability" : 0,
		"reason" : "rain",
		"timestamp" :1554930000
		},
	"2019-04-11T00:00:00Z" : {
		"windSpeed" : 4.6,
		"windDir" : 236,
		"rain" : 0,
		"cloudbase" : 3138.5319999998,
		"flyability" : 100,
		"reason" : "",
		"timestamp" :1554940800
		}
	}
}