{
"site" : "Pen Cerrig Calch",
"id" : 12605,
"orientations" : "00002100",
"forecasts" : { 
	"2019-04-22T04:00:00+01:00" : {
		"windSpeed" : 2.1,
		"windDir" : 106,
		"rain" : 0,
		"cloudbase" : null,
		"flyability" : 0,
		"reason" : "windDir",
		"timestamp" :1555898400
		},
	"2019-04-22T07:00:00+01:00" : {
		"windSpeed" : 1.8,
		"windDir" : 108,
		"rain" : 0,
		"cloudbase" : null,
		"flyability" : 0,
		"reason" : "windDir",
		"timestamp" :1555909200
		},
	"2019-04-22T10:00:00+01:00" : {
		"windSpeed" : 2.2,
		"windDir" : 93,
		"rain" : 0,
		"cloudbase" : null,
		"flyability" : 0,
		"reason" : "windDir",
		"timestamp" :1555920000
		},
	"2019-04-22T13:00:00+01:00" : {
		"windSpeed" : 3.2,
		"windDir" : 98,
		"rain" : 0,
		"cloudbase" : 4239.01942,
		"flyability" : 0,
		"reason" : "windDir",
		"timestamp" :1555930800
		},
	"2019-04-22T16:00:00+01:00" : {
		"windSpeed" : 4.3,
		"windDir" : 127,
		"rain" : 1,
		"cloudbase" : 3629.23186,
		"flyability" : 0,
		"reason" : "windDir, rain",
		"timestamp" :1555941600
		},
	"2019-04-22T19:00:00+01:00" : {
		"windSpeed" : 2.7,
		"windDir" : 159,
		"rain" : 0,
		"cloudbase" : 8643.03372,
		"flyability" : 100,
		"reason" : "",
		"timestamp" :1555952400
		},
	"2019-04-22T22:00:00+01:00" : {
		"windSpeed" : 2.3,
		"windDir" : 163,
		"rain" : 0,
		"cloudbase" : 3005.085,
		"flyability" : 100,
		"reason" : "",
		"timestamp" :1555963200
		},
	"2019-04-23T01:00:00+01:00" : {
		"windSpeed" : 1.1,
		"windDir" : 95,
		"rain" : 1,
		"cloudbase" : 2505.87802,
		"flyability" : 0,
		"reason" : "windDir, rain",
		"timestamp" :1555974000
		},
	"2019-04-23T04:00:00+01:00" : {
		"windSpeed" : 2.1,
		"windDir" : 47,
		"rain" : 0,
		"cloudbase" : 2800,
		"flyability" : 0,
		"reason" : "windDir",
		"timestamp" :1555984800
		},
	"2019-04-23T07:00:00+01:00" : {
		"windSpeed" : 2.7,
		"windDir" : 44,
		"rain" : 0,
		"cloudbase" : null,
		"flyability" : 0,
		"reason" : "windDir",
		"timestamp" :1555995600
		},
	"2019-04-23T10:00:00+01:00" : {
		"windSpeed" : 3.9,
		"windDir" : 69,
		"rain" : 0,
		"cloudbase" : null,
		"flyability" : 0,
		"reason" : "windDir",
		"timestamp" :1556006400
		},
	"2019-04-23T13:00:00+01:00" : {
		"windSpeed" : 4.5,
		"windDir" : 85,
		"rain" : 0,
		"cloudbase" : 9304.33628,
		"flyability" : 0,
		"reason" : "windDir",
		"timestamp" :1556017200
		},
	"2019-04-23T16:00:00+01:00" : {
		"windSpeed" : 4.3,
		"windDir" : 113,
		"rain" : 0,
		"cloudbase" : 9063.49744,
		"flyability" : 0,
		"reason" : "windDir",
		"timestamp" :1556028000
		},
	"2019-04-23T19:00:00+01:00" : {
		"windSpeed" : 2.2,
		"windDir" : 116,
		"rain" : 0,
		"cloudbase" : 7197.77,
		"flyability" : 0,
		"reason" : "windDir",
		"timestamp" :1556038800
		},
	"2019-04-23T22:00:00+01:00" : {
		"windSpeed" : 2,
		"windDir" : 104,
		"rain" : 0,
		"cloudbase" : 5595.66372,
		"flyability" : 0,
		"reason" : "windDir",
		"timestamp" :1556049600
		},
	"2019-04-24T01:00:00+01:00" : {
		"windSpeed" : 1.6,
		"windDir" : 108,
		"rain" : 0,
		"cloudbase" : 4493.49558,
		"flyability" : 0,
		"reason" : "windDir",
		"timestamp" :1556060400
		},
	"2019-04-24T04:00:00+01:00" : {
		"windSpeed" : 1.5,
		"windDir" : 77,
		"rain" : 0,
		"cloudbase" : 3048.7177800002,
		"flyability" : 0,
		"reason" : "windDir",
		"timestamp" :1556071200
		},
	"2019-04-24T07:00:00+01:00" : {
		"windSpeed" : 2.2,
		"windDir" : 78,
		"rain" : 0,
		"cloudbase" : 8178.25508,
		"flyability" : 0,
		"reason" : "windDir",
		"timestamp" :1556082000
		},
	"2019-04-24T10:00:00+01:00" : {
		"windSpeed" : 3.6,
		"windDir" : 101,
		"rain" : 1,
		"cloudbase" : 2251.955396,
		"flyability" : 0,
		"reason" : "windDir, rain",
		"timestamp" :1556092800
		},
	"2019-04-24T13:00:00+01:00" : {
		"windSpeed" : 4.1,
		"windDir" : 188,
		"rain" : 1,
		"cloudbase" : 351.495884,
		"flyability" : 0,
		"reason" : "rain, cloudbase",
		"timestamp" :1556103600
		},
	"2019-04-24T16:00:00+01:00" : {
		"windSpeed" : 5,
		"windDir" : 203,
		"rain" : 1,
		"cloudbase" : 1112.86186,
		"flyability" : 0,
		"reason" : "rain",
		"timestamp" :1556114400
		},
	"2019-04-24T19:00:00+01:00" : {
		"windSpeed" : 4.7,
		"windDir" : 165,
		"rain" : 0,
		"cloudbase" : null,
		"flyability" : 100,
		"reason" : "",
		"timestamp" :1556125200
		},
	"2019-04-24T22:00:00+01:00" : {
		"windSpeed" : 4.7,
		"windDir" : 138,
		"rain" : 1,
		"cloudbase" : 411.68274399998,
		"flyability" : 0,
		"reason" : "windDir, rain, cloudbase",
		"timestamp" :1556136000
		},
	"2019-04-25T01:00:00+01:00" : {
		"windSpeed" : 5.3,
		"windDir" : 131,
		"rain" : 1,
		"cloudbase" : 6475.2,
		"flyability" : 0,
		"reason" : "windSpeed, windDir, rain",
		"timestamp" :1556146800
		},
	"2019-04-25T04:00:00+01:00" : {
		"windSpeed" : 5.4,
		"windDir" : 130,
		"rain" : 1,
		"cloudbase" : 701.40097599997,
		"flyability" : 0,
		"reason" : "windSpeed, windDir, rain",
		"timestamp" :1556157600
		},
	"2019-04-25T07:00:00+01:00" : {
		"windSpeed" : 6.5,
		"windDir" : 134,
		"rain" : 1,
		"cloudbase" : 705.31544000001,
		"flyability" : 0,
		"reason" : "windSpeed, windDir, rain",
		"timestamp" :1556168400
		},
	"2019-04-25T10:00:00+01:00" : {
		"windSpeed" : 3.9,
		"windDir" : 145,
		"rain" : 1,
		"cloudbase" : 3521.3773399998,
		"flyability" : 0,
		"reason" : "windDir, rain",
		"timestamp" :1556179200
		},
	"2019-04-25T13:00:00+01:00" : {
		"windSpeed" : 6.1,
		"windDir" : 169,
		"rain" : 1,
		"cloudbase" : null,
		"flyability" : 0,
		"reason" : "windSpeed, rain",
		"timestamp" :1556190000
		},
	"2019-04-25T16:00:00+01:00" : {
		"windSpeed" : 6.1,
		"windDir" : 178,
		"rain" : 1,
		"cloudbase" : null,
		"flyability" : 0,
		"reason" : "windSpeed, rain",
		"timestamp" :1556200800
		},
	"2019-04-25T19:00:00+01:00" : {
		"windSpeed" : 4.6,
		"windDir" : 174,
		"rain" : 1,
		"cloudbase" : null,
		"flyability" : 0,
		"reason" : "rain",
		"timestamp" :1556211600
		},
	"2019-04-25T22:00:00+01:00" : {
		"windSpeed" : 2.8,
		"windDir" : 166,
		"rain" : 0,
		"cloudbase" : null,
		"flyability" : 100,
		"reason" : "",
		"timestamp" :1556222400
		},
	"2019-04-26T01:00:00+01:00" : {
		"windSpeed" : 2.7,
		"windDir" : 159,
		"rain" : 0,
		"cloudbase" : 148.259302,
		"flyability" : 0,
		"reason" : "cloudbase",
		"timestamp" :1556233200
		},
	"2019-04-26T04:00:00+01:00" : {
		"windSpeed" : 3,
		"windDir" : 146,
		"rain" : 0,
		"cloudbase" : 42.307616,
		"flyability" : 0,
		"reason" : "windDir, cloudbase",
		"timestamp" :1556244000
		},
	"2019-04-26T07:00:00+01:00" : {
		"windSpeed" : 3.7,
		"windDir" : 144,
		"rain" : 0,
		"cloudbase" : 49.459302000001,
		"flyability" : 0,
		"reason" : "windDir, cloudbase",
		"timestamp" :1556254800
		},
	"2019-04-26T10:00:00+01:00" : {
		"windSpeed" : 4.6,
		"windDir" : 153,
		"rain" : 1,
		"cloudbase" : 278.35551200003,
		"flyability" : 0,
		"reason" : "windDir, rain, cloudbase",
		"timestamp" :1556265600
		},
	"2019-04-26T13:00:00+01:00" : {
		"windSpeed" : 4.6,
		"windDir" : 195,
		"rain" : 1,
		"cloudbase" : 260.04385999999,
		"flyability" : 0,
		"reason" : "rain, cloudbase",
		"timestamp" :1556276400
		},
	"2019-04-26T16:00:00+01:00" : {
		"windSpeed" : 5.2,
		"windDir" : 238,
		"rain" : 1,
		"cloudbase" : 1536.7054679996,
		"flyability" : 0,
		"reason" : "windSpeed, rain",
		"timestamp" :1556287200
		},
	"2019-04-26T19:00:00+01:00" : {
		"windSpeed" : 4.9,
		"windDir" : 248,
		"rain" : 1,
		"cloudbase" : 4379.24942,
		"flyability" : 0,
		"reason" : "windDir, rain",
		"timestamp" :1556298000
		},
	"2019-04-26T22:00:00+01:00" : {
		"windSpeed" : 4.5,
		"windDir" : 244,
		"rain" : 0,
		"cloudbase" : 6600,
		"flyability" : 100,
		"reason" : "",
		"timestamp" :1556308800
		},
	"2019-04-27T01:00:00+01:00" : {
		"windSpeed" : 2.6,
		"windDir" : 191,
		"rain" : 1,
		"cloudbase" : 1612.9543,
		"flyability" : 0,
		"reason" : "rain",
		"timestamp" :1556319600
		},
	"2019-04-27T04:00:00+01:00" : {
		"windSpeed" : 4,
		"windDir" : 88,
		"rain" : 1,
		"cloudbase" : 62.169185999996,
		"flyability" : 0,
		"reason" : "windDir, rain, cloudbase",
		"timestamp" :1556330400
		},
	"2019-04-27T07:00:00+01:00" : {
		"windSpeed" : 6.2,
		"windDir" : 332,
		"rain" : 1,
		"cloudbase" : 127.60588399997,
		"flyability" : 0,
		"reason" : "windSpeed, windDir, rain, cloudbase",
		"timestamp" :1556341200
		},
	"2019-04-27T10:00:00+01:00" : {
		"windSpeed" : 8.2,
		"windDir" : 313,
		"rain" : 1,
		"cloudbase" : 637.97195200006,
		"flyability" : 0,
		"reason" : "windSpeed, windDir, rain",
		"timestamp" :1556352000
		},
	"2019-04-27T13:00:00+01:00" : {
		"windSpeed" : 7.6,
		"windDir" : 303,
		"rain" : 1,
		"cloudbase" : null,
		"flyability" : 0,
		"reason" : "windSpeed, windDir, rain",
		"timestamp" :1556362800
		},
	"2019-04-27T16:00:00+01:00" : {
		"windSpeed" : 7.4,
		"windDir" : 299,
		"rain" : 1,
		"cloudbase" : null,
		"flyability" : 0,
		"reason" : "windSpeed, windDir, rain",
		"timestamp" :1556373600
		},
	"2019-04-27T19:00:00+01:00" : {
		"windSpeed" : 5.7,
		"windDir" : 293,
		"rain" : 1,
		"cloudbase" : null,
		"flyability" : 0,
		"reason" : "windSpeed, windDir, rain",
		"timestamp" :1556384400
		},
	"2019-04-27T22:00:00+01:00" : {
		"windSpeed" : 2.5,
		"windDir" : 269,
		"rain" : 0,
		"cloudbase" : 7973.89372,
		"flyability" : 0,
		"reason" : "windDir",
		"timestamp" :1556395200
		},
	"2019-04-28T01:00:00+01:00" : {
		"windSpeed" : 2.6,
		"windDir" : 256,
		"rain" : 0,
		"cloudbase" : 7173.09372,
		"flyability" : 0,
		"reason" : "windDir",
		"timestamp" :1556406000
		}
	}
}