{
"site" : "LBBO",
"id" : 12663,
"orientations" : "00000000",
"forecasts" : { 
	"2019-04-20T06:00:00+03:00" : {
		"windSpeed" : 0.9,
		"windDir" : 123,
		"rain" : 0,
		"cloudbase" : null,
		"flyability" : -50,
		"reason" : "orientationsUnknown",
		"timestamp" :1555729200
		},
	"2019-04-20T09:00:00+03:00" : {
		"windSpeed" : 2.1,
		"windDir" : 79,
		"rain" : 0,
		"cloudbase" : null,
		"flyability" : -50,
		"reason" : "orientationsUnknown",
		"timestamp" :1555740000
		},
	"2019-04-20T12:00:00+03:00" : {
		"windSpeed" : 2.2,
		"windDir" : 74,
		"rain" : 1,
		"cloudbase" : null,
		"flyability" : -0,
		"reason" : "orientationsUnknown, rain",
		"timestamp" :1555750800
		},
	"2019-04-20T15:00:00+03:00" : {
		"windSpeed" : 3.2,
		"windDir" : 52,
		"rain" : 1,
		"cloudbase" : null,
		"flyability" : -0,
		"reason" : "orientationsUnknown, rain",
		"timestamp" :1555761600
		},
	"2019-04-20T18:00:00+03:00" : {
		"windSpeed" : 3.4,
		"windDir" : 79,
		"rain" : 0,
		"cloudbase" : 1987.94755,
		"flyability" : -50,
		"reason" : "orientationsUnknown",
		"timestamp" :1555772400
		},
	"2019-04-20T21:00:00+03:00" : {
		"windSpeed" : 1.7,
		"windDir" : 197,
		"rain" : 0,
		"cloudbase" : null,
		"flyability" : -50,
		"reason" : "orientationsUnknown",
		"timestamp" :1555783200
		},
	"2019-04-21T00:00:00+03:00" : {
		"windSpeed" : 2.2,
		"windDir" : 207,
		"rain" : 0,
		"cloudbase" : null,
		"flyability" : -50,
		"reason" : "orientationsUnknown",
		"timestamp" :1555794000
		},
	"2019-04-21T03:00:00+03:00" : {
		"windSpeed" : 2.3,
		"windDir" : 208,
		"rain" : 0,
		"cloudbase" : null,
		"flyability" : -50,
		"reason" : "orientationsUnknown",
		"timestamp" :1555804800
		},
	"2019-04-21T06:00:00+03:00" : {
		"windSpeed" : 2.2,
		"windDir" : 204,
		"rain" : 0,
		"cloudbase" : null,
		"flyability" : -50,
		"reason" : "orientationsUnknown",
		"timestamp" :1555815600
		},
	"2019-04-21T09:00:00+03:00" : {
		"windSpeed" : 2.7,
		"windDir" : 203,
		"rain" : 0,
		"cloudbase" : null,
		"flyability" : -50,
		"reason" : "orientationsUnknown",
		"timestamp" :1555826400
		},
	"2019-04-21T12:00:00+03:00" : {
		"windSpeed" : 2.5,
		"windDir" : 270,
		"rain" : 0,
		"cloudbase" : null,
		"flyability" : -50,
		"reason" : "orientationsUnknown",
		"timestamp" :1555837200
		},
	"2019-04-21T15:00:00+03:00" : {
		"windSpeed" : 1.7,
		"windDir" : 289,
		"rain" : 0,
		"cloudbase" : null,
		"flyability" : -50,
		"reason" : "orientationsUnknown",
		"timestamp" :1555848000
		},
	"2019-04-21T18:00:00+03:00" : {
		"windSpeed" : 2,
		"windDir" : 273,
		"rain" : 0,
		"cloudbase" : null,
		"flyability" : -50,
		"reason" : "orientationsUnknown",
		"timestamp" :1555858800
		},
	"2019-04-21T21:00:00+03:00" : {
		"windSpeed" : 1.5,
		"windDir" : 182,
		"rain" : 0,
		"cloudbase" : null,
		"flyability" : -50,
		"reason" : "orientationsUnknown",
		"timestamp" :1555869600
		},
	"2019-04-22T00:00:00+03:00" : {
		"windSpeed" : 2.5,
		"windDir" : 192,
		"rain" : 0,
		"cloudbase" : null,
		"flyability" : -50,
		"reason" : "orientationsUnknown",
		"timestamp" :1555880400
		},
	"2019-04-22T03:00:00+03:00" : {
		"windSpeed" : 2.9,
		"windDir" : 212,
		"rain" : 0,
		"cloudbase" : null,
		"flyability" : -50,
		"reason" : "orientationsUnknown",
		"timestamp" :1555891200
		},
	"2019-04-22T06:00:00+03:00" : {
		"windSpeed" : 1.7,
		"windDir" : 31,
		"rain" : 0,
		"cloudbase" : null,
		"flyability" : -50,
		"reason" : "orientationsUnknown",
		"timestamp" :1555902000
		},
	"2019-04-22T09:00:00+03:00" : {
		"windSpeed" : 2,
		"windDir" : 164,
		"rain" : 0,
		"cloudbase" : null,
		"flyability" : -50,
		"reason" : "orientationsUnknown",
		"timestamp" :1555912800
		},
	"2019-04-22T12:00:00+03:00" : {
		"windSpeed" : 3.1,
		"windDir" : 74,
		"rain" : 0,
		"cloudbase" : 6234.7902,
		"flyability" : -50,
		"reason" : "orientationsUnknown",
		"timestamp" :1555923600
		},
	"2019-04-22T15:00:00+03:00" : {
		"windSpeed" : 4.1,
		"windDir" : 78,
		"rain" : 0,
		"cloudbase" : 5881.2098,
		"flyability" : -50,
		"reason" : "orientationsUnknown",
		"timestamp" :1555934400
		},
	"2019-04-22T18:00:00+03:00" : {
		"windSpeed" : 5.3,
		"windDir" : 80,
		"rain" : 0,
		"cloudbase" : 6200,
		"flyability" : -0,
		"reason" : "windSpeed, orientationsUnknown",
		"timestamp" :1555945200
		},
	"2019-04-22T21:00:00+03:00" : {
		"windSpeed" : 3.9,
		"windDir" : 82,
		"rain" : 0,
		"cloudbase" : 3251.15245,
		"flyability" : -50,
		"reason" : "orientationsUnknown",
		"timestamp" :1555956000
		},
	"2019-04-23T00:00:00+03:00" : {
		"windSpeed" : 3.3,
		"windDir" : 92,
		"rain" : 0,
		"cloudbase" : null,
		"flyability" : -50,
		"reason" : "orientationsUnknown",
		"timestamp" :1555966800
		},
	"2019-04-23T03:00:00+03:00" : {
		"windSpeed" : 3.2,
		"windDir" : 85,
		"rain" : 0,
		"cloudbase" : null,
		"flyability" : -50,
		"reason" : "orientationsUnknown",
		"timestamp" :1555977600
		},
	"2019-04-23T06:00:00+03:00" : {
		"windSpeed" : 2.1,
		"windDir" : 90,
		"rain" : 0,
		"cloudbase" : 8787.2147,
		"flyability" : -50,
		"reason" : "orientationsUnknown",
		"timestamp" :1555988400
		},
	"2019-04-23T09:00:00+03:00" : {
		"windSpeed" : 1.7,
		"windDir" : 92,
		"rain" : 0,
		"cloudbase" : 4255.85,
		"flyability" : -50,
		"reason" : "orientationsUnknown",
		"timestamp" :1555999200
		},
	"2019-04-23T12:00:00+03:00" : {
		"windSpeed" : 2.3,
		"windDir" : 119,
		"rain" : 1,
		"cloudbase" : 3754.69755,
		"flyability" : -0,
		"reason" : "orientationsUnknown, rain",
		"timestamp" :1556010000
		},
	"2019-04-23T15:00:00+03:00" : {
		"windSpeed" : 2.7,
		"windDir" : 89,
		"rain" : 1,
		"cloudbase" : 2661.8902,
		"flyability" : -0,
		"reason" : "orientationsUnknown, rain",
		"timestamp" :1556020800
		},
	"2019-04-23T18:00:00+03:00" : {
		"windSpeed" : 2.8,
		"windDir" : 114,
		"rain" : 0,
		"cloudbase" : 4050,
		"flyability" : -50,
		"reason" : "orientationsUnknown",
		"timestamp" :1556031600
		},
	"2019-04-23T21:00:00+03:00" : {
		"windSpeed" : 3.3,
		"windDir" : 102,
		"rain" : 0,
		"cloudbase" : 4079.25,
		"flyability" : -50,
		"reason" : "orientationsUnknown",
		"timestamp" :1556042400
		},
	"2019-04-24T00:00:00+03:00" : {
		"windSpeed" : 2.7,
		"windDir" : 96,
		"rain" : 0,
		"cloudbase" : 9500,
		"flyability" : -50,
		"reason" : "orientationsUnknown",
		"timestamp" :1556053200
		},
	"2019-04-24T03:00:00+03:00" : {
		"windSpeed" : 2.4,
		"windDir" : 117,
		"rain" : 0,
		"cloudbase" : 8401.3951,
		"flyability" : -50,
		"reason" : "orientationsUnknown",
		"timestamp" :1556064000
		},
	"2019-04-24T06:00:00+03:00" : {
		"windSpeed" : 1.5,
		"windDir" : 157,
		"rain" : 0,
		"cloudbase" : null,
		"flyability" : -50,
		"reason" : "orientationsUnknown",
		"timestamp" :1556074800
		},
	"2019-04-24T09:00:00+03:00" : {
		"windSpeed" : 0.1,
		"windDir" : 96,
		"rain" : 0,
		"cloudbase" : null,
		"flyability" : -50,
		"reason" : "orientationsUnknown",
		"timestamp" :1556085600
		},
	"2019-04-24T12:00:00+03:00" : {
		"windSpeed" : 2.2,
		"windDir" : 32,
		"rain" : 0,
		"cloudbase" : null,
		"flyability" : -50,
		"reason" : "orientationsUnknown",
		"timestamp" :1556096400
		},
	"2019-04-24T15:00:00+03:00" : {
		"windSpeed" : 3.6,
		"windDir" : 77,
		"rain" : 0,
		"cloudbase" : null,
		"flyability" : -50,
		"reason" : "orientationsUnknown",
		"timestamp" :1556107200
		},
	"2019-04-24T18:00:00+03:00" : {
		"windSpeed" : 4.7,
		"windDir" : 74,
		"rain" : 0,
		"cloudbase" : 9800,
		"flyability" : -50,
		"reason" : "orientationsUnknown",
		"timestamp" :1556118000
		},
	"2019-04-24T21:00:00+03:00" : {
		"windSpeed" : 3.2,
		"windDir" : 81,
		"rain" : 0,
		"cloudbase" : null,
		"flyability" : -50,
		"reason" : "orientationsUnknown",
		"timestamp" :1556128800
		},
	"2019-04-25T00:00:00+03:00" : {
		"windSpeed" : 1.9,
		"windDir" : 140,
		"rain" : 0,
		"cloudbase" : null,
		"flyability" : -50,
		"reason" : "orientationsUnknown",
		"timestamp" :1556139600
		},
	"2019-04-25T03:00:00+03:00" : {
		"windSpeed" : 1.1,
		"windDir" : 149,
		"rain" : 0,
		"cloudbase" : null,
		"flyability" : -50,
		"reason" : "orientationsUnknown",
		"timestamp" :1556150400
		},
	"2019-04-25T06:00:00+03:00" : {
		"windSpeed" : 1.7,
		"windDir" : 104,
		"rain" : 0,
		"cloudbase" : null,
		"flyability" : -50,
		"reason" : "orientationsUnknown",
		"timestamp" :1556161200
		},
	"2019-04-25T09:00:00+03:00" : {
		"windSpeed" : 1.7,
		"windDir" : 73,
		"rain" : 0,
		"cloudbase" : null,
		"flyability" : -50,
		"reason" : "orientationsUnknown",
		"timestamp" :1556172000
		},
	"2019-04-25T12:00:00+03:00" : {
		"windSpeed" : 3.1,
		"windDir" : 72,
		"rain" : 0,
		"cloudbase" : 9265.2098,
		"flyability" : -50,
		"reason" : "orientationsUnknown",
		"timestamp" :1556182800
		},
	"2019-04-25T15:00:00+03:00" : {
		"windSpeed" : 2.8,
		"windDir" : 64,
		"rain" : 0,
		"cloudbase" : 9035.1,
		"flyability" : -50,
		"reason" : "orientationsUnknown",
		"timestamp" :1556193600
		},
	"2019-04-25T18:00:00+03:00" : {
		"windSpeed" : 3.7,
		"windDir" : 61,
		"rain" : 0,
		"cloudbase" : 6609.351,
		"flyability" : -50,
		"reason" : "orientationsUnknown",
		"timestamp" :1556204400
		},
	"2019-04-25T21:00:00+03:00" : {
		"windSpeed" : 2,
		"windDir" : 122,
		"rain" : 0,
		"cloudbase" : 8978.3049,
		"flyability" : -50,
		"reason" : "orientationsUnknown",
		"timestamp" :1556215200
		},
	"2019-04-26T00:00:00+03:00" : {
		"windSpeed" : 2.3,
		"windDir" : 106,
		"rain" : 0,
		"cloudbase" : null,
		"flyability" : -50,
		"reason" : "orientationsUnknown",
		"timestamp" :1556226000
		},
	"2019-04-26T03:00:00+03:00" : {
		"windSpeed" : 2.3,
		"windDir" : 112,
		"rain" : 0,
		"cloudbase" : null,
		"flyability" : -50,
		"reason" : "orientationsUnknown",
		"timestamp" :1556236800
		}
	}
}