{
"site" : "Pico Vulcano",
"id" : 13069,
"orientations" : "22122212",
"forecasts" : { 
	"2019-04-13T03:00:00Z" : {
		"windSpeed" : 3.5,
		"windDir" : 280,
		"rain" : 1,
		"cloudbase" : 2073.3292,
		"flyability" : 0,
		"reason" : "rain, cloudbase",
		"timestamp" :1555124400
		},
	"2019-04-13T06:00:00Z" : {
		"windSpeed" : 3.1,
		"windDir" : 288,
		"rain" : 1,
		"cloudbase" : 4926.1528,
		"flyability" : 0,
		"reason" : "rain",
		"timestamp" :1555135200
		},
	"2019-04-13T09:00:00Z" : {
		"windSpeed" : 2,
		"windDir" : 283,
		"rain" : 0,
		"cloudbase" : 5329.7528,
		"flyability" : 100,
		"reason" : "",
		"timestamp" :1555146000
		},
	"2019-04-13T12:00:00Z" : {
		"windSpeed" : 2.6,
		"windDir" : 277,
		"rain" : 0,
		"cloudbase" : 6197.6472,
		"flyability" : 100,
		"reason" : "",
		"timestamp" :1555156800
		},
	"2019-04-13T15:00:00Z" : {
		"windSpeed" : 2.8,
		"windDir" : 278,
		"rain" : 0,
		"cloudbase" : 1500,
		"flyability" : 0,
		"reason" : "cloudbase",
		"timestamp" :1555167600
		},
	"2019-04-13T18:00:00Z" : {
		"windSpeed" : 3.3,
		"windDir" : 269,
		"rain" : 0,
		"cloudbase" : null,
		"flyability" : 100,
		"reason" : "",
		"timestamp" :1555178400
		},
	"2019-04-13T21:00:00Z" : {
		"windSpeed" : 2,
		"windDir" : 260,
		"rain" : 1,
		"cloudbase" : null,
		"flyability" : 0,
		"reason" : "rain",
		"timestamp" :1555189200
		},
	"2019-04-14T00:00:00Z" : {
		"windSpeed" : 1.1,
		"windDir" : 268,
		"rain" : 0,
		"cloudbase" : null,
		"flyability" : 100,
		"reason" : "",
		"timestamp" :1555200000
		},
	"2019-04-14T03:00:00Z" : {
		"windSpeed" : 2.4,
		"windDir" : 273,
		"rain" : 1,
		"cloudbase" : null,
		"flyability" : 0,
		"reason" : "rain",
		"timestamp" :1555210800
		},
	"2019-04-14T06:00:00Z" : {
		"windSpeed" : 3.6,
		"windDir" : 286,
		"rain" : 1,
		"cloudbase" : 6100,
		"flyability" : 0,
		"reason" : "rain",
		"timestamp" :1555221600
		},
	"2019-04-14T09:00:00Z" : {
		"windSpeed" : 3.9,
		"windDir" : 316,
		"rain" : 1,
		"cloudbase" : null,
		"flyability" : 0,
		"reason" : "rain",
		"timestamp" :1555232400
		},
	"2019-04-14T12:00:00Z" : {
		"windSpeed" : 4.5,
		"windDir" : 311,
		"rain" : 1,
		"cloudbase" : null,
		"flyability" : 0,
		"reason" : "rain",
		"timestamp" :1555243200
		},
	"2019-04-14T15:00:00Z" : {
		"windSpeed" : 5.2,
		"windDir" : 315,
		"rain" : 1,
		"cloudbase" : null,
		"flyability" : 0,
		"reason" : "windSpeed, rain",
		"timestamp" :1555254000
		},
	"2019-04-14T18:00:00Z" : {
		"windSpeed" : 5.6,
		"windDir" : 304,
		"rain" : 1,
		"cloudbase" : null,
		"flyability" : 0,
		"reason" : "windSpeed, rain",
		"timestamp" :1555264800
		},
	"2019-04-14T21:00:00Z" : {
		"windSpeed" : 4.9,
		"windDir" : 302,
		"rain" : 1,
		"cloudbase" : 1234.8472,
		"flyability" : 0,
		"reason" : "rain, cloudbase",
		"timestamp" :1555275600
		},
	"2019-04-15T00:00:00Z" : {
		"windSpeed" : 4.1,
		"windDir" : 284,
		"rain" : 0,
		"cloudbase" : 6600,
		"flyability" : 100,
		"reason" : "",
		"timestamp" :1555286400
		},
	"2019-04-15T03:00:00Z" : {
		"windSpeed" : 4.2,
		"windDir" : 254,
		"rain" : 1,
		"cloudbase" : null,
		"flyability" : 0,
		"reason" : "rain",
		"timestamp" :1555297200
		},
	"2019-04-15T06:00:00Z" : {
		"windSpeed" : 6.8,
		"windDir" : 241,
		"rain" : 1,
		"cloudbase" : 4037.3576800004,
		"flyability" : 0,
		"reason" : "windSpeed, rain",
		"timestamp" :1555308000
		},
	"2019-04-15T09:00:00Z" : {
		"windSpeed" : 7,
		"windDir" : 231,
		"rain" : 1,
		"cloudbase" : 1524.5584,
		"flyability" : 0,
		"reason" : "windSpeed, rain, cloudbase",
		"timestamp" :1555318800
		},
	"2019-04-15T12:00:00Z" : {
		"windSpeed" : 9.8,
		"windDir" : 239,
		"rain" : 1,
		"cloudbase" : 665.37615999996,
		"flyability" : 0,
		"reason" : "windSpeed, rain, cloudbase",
		"timestamp" :1555329600
		},
	"2019-04-15T15:00:00Z" : {
		"windSpeed" : 11,
		"windDir" : 245,
		"rain" : 1,
		"cloudbase" : 298.95639999999,
		"flyability" : 0,
		"reason" : "windSpeed, rain, cloudbase",
		"timestamp" :1555340400
		},
	"2019-04-15T18:00:00Z" : {
		"windSpeed" : 9.3,
		"windDir" : 242,
		"rain" : 1,
		"cloudbase" : 351.29863999999,
		"flyability" : 0,
		"reason" : "windSpeed, rain, cloudbase",
		"timestamp" :1555351200
		},
	"2019-04-15T21:00:00Z" : {
		"windSpeed" : 7.7,
		"windDir" : 266,
		"rain" : 1,
		"cloudbase" : 2113.44768,
		"flyability" : 0,
		"reason" : "windSpeed, rain, cloudbase",
		"timestamp" :1555362000
		},
	"2019-04-16T00:00:00Z" : {
		"windSpeed" : 7.1,
		"windDir" : 284,
		"rain" : 0,
		"cloudbase" : null,
		"flyability" : 0,
		"reason" : "windSpeed",
		"timestamp" :1555372800
		},
	"2019-04-16T03:00:00Z" : {
		"windSpeed" : 8.2,
		"windDir" : 286,
		"rain" : 0,
		"cloudbase" : null,
		"flyability" : 0,
		"reason" : "windSpeed",
		"timestamp" :1555383600
		},
	"2019-04-16T06:00:00Z" : {
		"windSpeed" : 7.5,
		"windDir" : 285,
		"rain" : 1,
		"cloudbase" : 434.38024,
		"flyability" : 0,
		"reason" : "windSpeed, rain, cloudbase",
		"timestamp" :1555394400
		},
	"2019-04-16T09:00:00Z" : {
		"windSpeed" : 8.2,
		"windDir" : 308,
		"rain" : 1,
		"cloudbase" : 700,
		"flyability" : 0,
		"reason" : "windSpeed, rain, cloudbase",
		"timestamp" :1555405200
		},
	"2019-04-16T12:00:00Z" : {
		"windSpeed" : 8.8,
		"windDir" : 309,
		"rain" : 1,
		"cloudbase" : null,
		"flyability" : 0,
		"reason" : "windSpeed, rain",
		"timestamp" :1555416000
		},
	"2019-04-16T15:00:00Z" : {
		"windSpeed" : 9.6,
		"windDir" : 313,
		"rain" : 0,
		"cloudbase" : null,
		"flyability" : 0,
		"reason" : "windSpeed",
		"timestamp" :1555426800
		},
	"2019-04-16T18:00:00Z" : {
		"windSpeed" : 8.7,
		"windDir" : 318,
		"rain" : 1,
		"cloudbase" : null,
		"flyability" : 0,
		"reason" : "windSpeed, rain",
		"timestamp" :1555437600
		},
	"2019-04-16T21:00:00Z" : {
		"windSpeed" : 6.2,
		"windDir" : 324,
		"rain" : 1,
		"cloudbase" : null,
		"flyability" : 0,
		"reason" : "windSpeed, rain",
		"timestamp" :1555448400
		},
	"2019-04-17T00:00:00Z" : {
		"windSpeed" : 5.7,
		"windDir" : 322,
		"rain" : 0,
		"cloudbase" : 2354.2764,
		"flyability" : 0,
		"reason" : "windSpeed",
		"timestamp" :1555459200
		},
	"2019-04-17T03:00:00Z" : {
		"windSpeed" : 4.2,
		"windDir" : 315,
		"rain" : 0,
		"cloudbase" : 12654,
		"flyability" : 100,
		"reason" : "",
		"timestamp" :1555470000
		},
	"2019-04-17T06:00:00Z" : {
		"windSpeed" : 2.9,
		"windDir" : 301,
		"rain" : 0,
		"cloudbase" : 11500,
		"flyability" : 100,
		"reason" : "",
		"timestamp" :1555480800
		},
	"2019-04-17T09:00:00Z" : {
		"windSpeed" : 3,
		"windDir" : 296,
		"rain" : 0,
		"cloudbase" : 1932.6472,
		"flyability" : 0,
		"reason" : "cloudbase",
		"timestamp" :1555491600
		},
	"2019-04-17T12:00:00Z" : {
		"windSpeed" : 3.5,
		"windDir" : 275,
		"rain" : 0,
		"cloudbase" : 1411.4831999999,
		"flyability" : 0,
		"reason" : "cloudbase",
		"timestamp" :1555502400
		},
	"2019-04-17T15:00:00Z" : {
		"windSpeed" : 2.9,
		"windDir" : 245,
		"rain" : 0,
		"cloudbase" : 641.19999999999,
		"flyability" : 0,
		"reason" : "cloudbase",
		"timestamp" :1555513200
		},
	"2019-04-17T18:00:00Z" : {
		"windSpeed" : 3.9,
		"windDir" : 230,
		"rain" : 0,
		"cloudbase" : 198.43279999999,
		"flyability" : 0,
		"reason" : "cloudbase",
		"timestamp" :1555524000
		},
	"2019-04-17T21:00:00Z" : {
		"windSpeed" : 4,
		"windDir" : 240,
		"rain" : 1,
		"cloudbase" : 30.352919999999,
		"flyability" : 0,
		"reason" : "rain, cloudbase",
		"timestamp" :1555534800
		},
	"2019-04-18T00:00:00Z" : {
		"windSpeed" : 3.7,
		"windDir" : 246,
		"rain" : 0,
		"cloudbase" : 38.170559999998,
		"flyability" : 0,
		"reason" : "cloudbase",
		"timestamp" :1555545600
		},
	"2019-04-18T03:00:00Z" : {
		"windSpeed" : 3.7,
		"windDir" : 240,
		"rain" : 0,
		"cloudbase" : 71.465279999996,
		"flyability" : 0,
		"reason" : "cloudbase",
		"timestamp" :1555556400
		},
	"2019-04-18T06:00:00Z" : {
		"windSpeed" : 3.9,
		"windDir" : 233,
		"rain" : 1,
		"cloudbase" : 44.650559999997,
		"flyability" : 0,
		"reason" : "rain, cloudbase",
		"timestamp" :1555567200
		},
	"2019-04-18T09:00:00Z" : {
		"windSpeed" : 4.7,
		"windDir" : 233,
		"rain" : 1,
		"cloudbase" : null,
		"flyability" : 0,
		"reason" : "rain",
		"timestamp" :1555578000
		},
	"2019-04-18T12:00:00Z" : {
		"windSpeed" : 4.6,
		"windDir" : 232,
		"rain" : 1,
		"cloudbase" : 179.25147999997,
		"flyability" : 0,
		"reason" : "rain, cloudbase",
		"timestamp" :1555588800
		},
	"2019-04-18T15:00:00Z" : {
		"windSpeed" : 5,
		"windDir" : 217,
		"rain" : 0,
		"cloudbase" : 330,
		"flyability" : 0,
		"reason" : "cloudbase",
		"timestamp" :1555599600
		},
	"2019-04-18T18:00:00Z" : {
		"windSpeed" : 5.1,
		"windDir" : 218,
		"rain" : 0,
		"cloudbase" : 8100.1732000002,
		"flyability" : 0,
		"reason" : "windSpeed",
		"timestamp" :1555610400
		},
	"2019-04-18T21:00:00Z" : {
		"windSpeed" : 4.3,
		"windDir" : 215,
		"rain" : 1,
		"cloudbase" : 914.77055999998,
		"flyability" : 0,
		"reason" : "rain, cloudbase",
		"timestamp" :1555621200
		},
	"2019-04-19T00:00:00Z" : {
		"windSpeed" : 5,
		"windDir" : 214,
		"rain" : 0,
		"cloudbase" : 86.330559999998,
		"flyability" : 0,
		"reason" : "cloudbase",
		"timestamp" :1555632000
		}
	}
}