{
"site" : "Soito",
"id" : 13137,
"orientations" : "00000000",
"forecasts" : { 
	"2019-04-14T04:00:00+01:00" : {
		"windSpeed" : 0.4,
		"windDir" : 330,
		"rain" : 0,
		"cloudbase" : 5113.0532639999,
		"flyability" : -50,
		"reason" : "orientationsUnknown",
		"timestamp" :1555207200
		},
	"2019-04-14T07:00:00+01:00" : {
		"windSpeed" : 1.3,
		"windDir" : 0,
		"rain" : 0,
		"cloudbase" : 8808.7596800011,
		"flyability" : -50,
		"reason" : "orientationsUnknown",
		"timestamp" :1555218000
		},
	"2019-04-14T10:00:00+01:00" : {
		"windSpeed" : 1.4,
		"windDir" : 318,
		"rain" : 0,
		"cloudbase" : 604.85865600001,
		"flyability" : -0,
		"reason" : "orientationsUnknown, cloudbase",
		"timestamp" :1555228800
		},
	"2019-04-14T13:00:00+01:00" : {
		"windSpeed" : 2.6,
		"windDir" : 206,
		"rain" : 1,
		"cloudbase" : 988.84,
		"flyability" : -0,
		"reason" : "orientationsUnknown, rain",
		"timestamp" :1555239600
		},
	"2019-04-14T16:00:00+01:00" : {
		"windSpeed" : 3.7,
		"windDir" : 198,
		"rain" : 1,
		"cloudbase" : 1150,
		"flyability" : -0,
		"reason" : "orientationsUnknown, rain",
		"timestamp" :1555250400
		},
	"2019-04-14T19:00:00+01:00" : {
		"windSpeed" : 2.9,
		"windDir" : 197,
		"rain" : 0,
		"cloudbase" : 5311.5794400001,
		"flyability" : -50,
		"reason" : "orientationsUnknown",
		"timestamp" :1555261200
		},
	"2019-04-14T22:00:00+01:00" : {
		"windSpeed" : 2.3,
		"windDir" : 192,
		"rain" : 0,
		"cloudbase" : 6100,
		"flyability" : -50,
		"reason" : "orientationsUnknown",
		"timestamp" :1555272000
		},
	"2019-04-15T01:00:00+01:00" : {
		"windSpeed" : 2.8,
		"windDir" : 178,
		"rain" : 0,
		"cloudbase" : 5970.94672,
		"flyability" : -50,
		"reason" : "orientationsUnknown",
		"timestamp" :1555282800
		},
	"2019-04-15T04:00:00+01:00" : {
		"windSpeed" : 3.4,
		"windDir" : 167,
		"rain" : 0,
		"cloudbase" : 9864.53328,
		"flyability" : -50,
		"reason" : "orientationsUnknown",
		"timestamp" :1555293600
		},
	"2019-04-15T07:00:00+01:00" : {
		"windSpeed" : 3.8,
		"windDir" : 174,
		"rain" : 0,
		"cloudbase" : 9304.1600000001,
		"flyability" : -50,
		"reason" : "orientationsUnknown",
		"timestamp" :1555304400
		},
	"2019-04-15T10:00:00+01:00" : {
		"windSpeed" : 4.6,
		"windDir" : 205,
		"rain" : 1,
		"cloudbase" : null,
		"flyability" : -0,
		"reason" : "orientationsUnknown, rain",
		"timestamp" :1555315200
		},
	"2019-04-15T13:00:00+01:00" : {
		"windSpeed" : 6.8,
		"windDir" : 223,
		"rain" : 0,
		"cloudbase" : null,
		"flyability" : -0,
		"reason" : "windSpeed, orientationsUnknown",
		"timestamp" :1555326000
		},
	"2019-04-15T16:00:00+01:00" : {
		"windSpeed" : 5.4,
		"windDir" : 256,
		"rain" : 1,
		"cloudbase" : null,
		"flyability" : -0,
		"reason" : "windSpeed, orientationsUnknown, rain",
		"timestamp" :1555336800
		},
	"2019-04-15T19:00:00+01:00" : {
		"windSpeed" : 4.8,
		"windDir" : 298,
		"rain" : 0,
		"cloudbase" : 1250,
		"flyability" : -50,
		"reason" : "orientationsUnknown",
		"timestamp" :1555347600
		},
	"2019-04-15T22:00:00+01:00" : {
		"windSpeed" : 3.5,
		"windDir" : 329,
		"rain" : 0,
		"cloudbase" : null,
		"flyability" : -50,
		"reason" : "orientationsUnknown",
		"timestamp" :1555358400
		},
	"2019-04-16T01:00:00+01:00" : {
		"windSpeed" : 3.8,
		"windDir" : 10,
		"rain" : 0,
		"cloudbase" : null,
		"flyability" : -50,
		"reason" : "orientationsUnknown",
		"timestamp" :1555369200
		},
	"2019-04-16T04:00:00+01:00" : {
		"windSpeed" : 2.9,
		"windDir" : 28,
		"rain" : 0,
		"cloudbase" : 9488.8,
		"flyability" : -50,
		"reason" : "orientationsUnknown",
		"timestamp" :1555380000
		},
	"2019-04-16T07:00:00+01:00" : {
		"windSpeed" : 2.2,
		"windDir" : 76,
		"rain" : 0,
		"cloudbase" : null,
		"flyability" : -50,
		"reason" : "orientationsUnknown",
		"timestamp" :1555390800
		},
	"2019-04-16T10:00:00+01:00" : {
		"windSpeed" : 2.6,
		"windDir" : 167,
		"rain" : 0,
		"cloudbase" : 8580.4932799999,
		"flyability" : -50,
		"reason" : "orientationsUnknown",
		"timestamp" :1555401600
		},
	"2019-04-16T13:00:00+01:00" : {
		"windSpeed" : 4.4,
		"windDir" : 163,
		"rain" : 0,
		"cloudbase" : 9300,
		"flyability" : -50,
		"reason" : "orientationsUnknown",
		"timestamp" :1555412400
		},
	"2019-04-16T16:00:00+01:00" : {
		"windSpeed" : 5,
		"windDir" : 159,
		"rain" : 0,
		"cloudbase" : 8231.30672,
		"flyability" : -50,
		"reason" : "orientationsUnknown",
		"timestamp" :1555423200
		},
	"2019-04-16T19:00:00+01:00" : {
		"windSpeed" : 3.7,
		"windDir" : 160,
		"rain" : 0,
		"cloudbase" : 10500,
		"flyability" : -50,
		"reason" : "orientationsUnknown",
		"timestamp" :1555434000
		},
	"2019-04-16T22:00:00+01:00" : {
		"windSpeed" : 4.1,
		"windDir" : 133,
		"rain" : 0,
		"cloudbase" : 8831.30672,
		"flyability" : -50,
		"reason" : "orientationsUnknown",
		"timestamp" :1555444800
		},
	"2019-04-17T01:00:00+01:00" : {
		"windSpeed" : 6.1,
		"windDir" : 158,
		"rain" : 0,
		"cloudbase" : 8233.56016,
		"flyability" : -0,
		"reason" : "windSpeed, orientationsUnknown",
		"timestamp" :1555455600
		},
	"2019-04-17T04:00:00+01:00" : {
		"windSpeed" : 5.8,
		"windDir" : 169,
		"rain" : 0,
		"cloudbase" : null,
		"flyability" : -0,
		"reason" : "windSpeed, orientationsUnknown",
		"timestamp" :1555466400
		},
	"2019-04-17T07:00:00+01:00" : {
		"windSpeed" : 5.8,
		"windDir" : 171,
		"rain" : 0,
		"cloudbase" : 8320.12,
		"flyability" : -0,
		"reason" : "windSpeed, orientationsUnknown",
		"timestamp" :1555477200
		},
	"2019-04-17T10:00:00+01:00" : {
		"windSpeed" : 7.5,
		"windDir" : 164,
		"rain" : 0,
		"cloudbase" : 8220.12,
		"flyability" : -0,
		"reason" : "windSpeed, orientationsUnknown",
		"timestamp" :1555488000
		},
	"2019-04-17T13:00:00+01:00" : {
		"windSpeed" : 7.4,
		"windDir" : 162,
		"rain" : 0,
		"cloudbase" : 6300,
		"flyability" : -0,
		"reason" : "windSpeed, orientationsUnknown",
		"timestamp" :1555498800
		},
	"2019-04-17T16:00:00+01:00" : {
		"windSpeed" : 7.7,
		"windDir" : 165,
		"rain" : 0,
		"cloudbase" : 5400,
		"flyability" : -0,
		"reason" : "windSpeed, orientationsUnknown",
		"timestamp" :1555509600
		},
	"2019-04-17T19:00:00+01:00" : {
		"windSpeed" : 7,
		"windDir" : 173,
		"rain" : 0,
		"cloudbase" : 6363.3067200002,
		"flyability" : -0,
		"reason" : "windSpeed, orientationsUnknown",
		"timestamp" :1555520400
		},
	"2019-04-17T22:00:00+01:00" : {
		"windSpeed" : 2.8,
		"windDir" : 216,
		"rain" : 1,
		"cloudbase" : 4381.9666400001,
		"flyability" : -0,
		"reason" : "orientationsUnknown, rain",
		"timestamp" :1555531200
		},
	"2019-04-18T01:00:00+01:00" : {
		"windSpeed" : 3.4,
		"windDir" : 207,
		"rain" : 1,
		"cloudbase" : 621.61064000004,
		"flyability" : -0,
		"reason" : "orientationsUnknown, rain, cloudbase",
		"timestamp" :1555542000
		},
	"2019-04-18T04:00:00+01:00" : {
		"windSpeed" : 2.5,
		"windDir" : 165,
		"rain" : 1,
		"cloudbase" : 5490.4667200001,
		"flyability" : -0,
		"reason" : "orientationsUnknown, rain",
		"timestamp" :1555552800
		},
	"2019-04-18T07:00:00+01:00" : {
		"windSpeed" : 1.9,
		"windDir" : 177,
		"rain" : 1,
		"cloudbase" : null,
		"flyability" : -0,
		"reason" : "orientationsUnknown, rain",
		"timestamp" :1555563600
		},
	"2019-04-18T10:00:00+01:00" : {
		"windSpeed" : 2.9,
		"windDir" : 148,
		"rain" : 1,
		"cloudbase" : 1534.2568959993,
		"flyability" : -0,
		"reason" : "orientationsUnknown, rain",
		"timestamp" :1555574400
		},
	"2019-04-18T13:00:00+01:00" : {
		"windSpeed" : 3.2,
		"windDir" : 151,
		"rain" : 1,
		"cloudbase" : 5915.36,
		"flyability" : -0,
		"reason" : "orientationsUnknown, rain",
		"timestamp" :1555585200
		},
	"2019-04-18T16:00:00+01:00" : {
		"windSpeed" : 3.2,
		"windDir" : 119,
		"rain" : 1,
		"cloudbase" : null,
		"flyability" : -0,
		"reason" : "orientationsUnknown, rain",
		"timestamp" :1555596000
		},
	"2019-04-18T19:00:00+01:00" : {
		"windSpeed" : 2.6,
		"windDir" : 171,
		"rain" : 1,
		"cloudbase" : 4489.9203199999,
		"flyability" : -0,
		"reason" : "orientationsUnknown, rain",
		"timestamp" :1555606800
		},
	"2019-04-18T22:00:00+01:00" : {
		"windSpeed" : 1,
		"windDir" : 59,
		"rain" : 1,
		"cloudbase" : 5396.1196799999,
		"flyability" : -0,
		"reason" : "orientationsUnknown, rain",
		"timestamp" :1555617600
		},
	"2019-04-19T01:00:00+01:00" : {
		"windSpeed" : 1.9,
		"windDir" : 82,
		"rain" : 1,
		"cloudbase" : 5497.1332800001,
		"flyability" : -0,
		"reason" : "orientationsUnknown, rain",
		"timestamp" :1555628400
		},
	"2019-04-19T04:00:00+01:00" : {
		"windSpeed" : 1.3,
		"windDir" : 52,
		"rain" : 1,
		"cloudbase" : 1368.69328,
		"flyability" : -0,
		"reason" : "orientationsUnknown, rain",
		"timestamp" :1555639200
		},
	"2019-04-19T07:00:00+01:00" : {
		"windSpeed" : 2.1,
		"windDir" : 43,
		"rain" : 1,
		"cloudbase" : null,
		"flyability" : -0,
		"reason" : "orientationsUnknown, rain",
		"timestamp" :1555650000
		},
	"2019-04-19T10:00:00+01:00" : {
		"windSpeed" : 4.2,
		"windDir" : 44,
		"rain" : 0,
		"cloudbase" : 7319.1864000002,
		"flyability" : -50,
		"reason" : "orientationsUnknown",
		"timestamp" :1555660800
		},
	"2019-04-19T13:00:00+01:00" : {
		"windSpeed" : 3.6,
		"windDir" : 71,
		"rain" : 1,
		"cloudbase" : 4319.82664,
		"flyability" : -0,
		"reason" : "orientationsUnknown, rain",
		"timestamp" :1555671600
		},
	"2019-04-19T16:00:00+01:00" : {
		"windSpeed" : 4.5,
		"windDir" : 50,
		"rain" : 1,
		"cloudbase" : 3795.1265599999,
		"flyability" : -0,
		"reason" : "orientationsUnknown, rain",
		"timestamp" :1555682400
		},
	"2019-04-19T19:00:00+01:00" : {
		"windSpeed" : 4.3,
		"windDir" : 65,
		"rain" : 1,
		"cloudbase" : 1300,
		"flyability" : -0,
		"reason" : "orientationsUnknown, rain",
		"timestamp" :1555693200
		},
	"2019-04-19T22:00:00+01:00" : {
		"windSpeed" : 4.3,
		"windDir" : 42,
		"rain" : 0,
		"cloudbase" : null,
		"flyability" : -50,
		"reason" : "orientationsUnknown",
		"timestamp" :1555704000
		},
	"2019-04-20T01:00:00+01:00" : {
		"windSpeed" : 4.3,
		"windDir" : 42,
		"rain" : 1,
		"cloudbase" : 4101.47336,
		"flyability" : -0,
		"reason" : "orientationsUnknown, rain",
		"timestamp" :1555714800
		}
	}
}