{
"site" : "Sxoinias - Dikastika",
"id" : 13200,
"orientations" : "00000000",
"forecasts" : { 
	"2019-04-14T06:00:00+03:00" : {
		"windSpeed" : 0.7,
		"windDir" : 296,
		"rain" : 0,
		"cloudbase" : null,
		"flyability" : -50,
		"reason" : "orientationsUnknown",
		"timestamp" :1555210800
		},
	"2019-04-14T09:00:00+03:00" : {
		"windSpeed" : 1.1,
		"windDir" : 352,
		"rain" : 0,
		"cloudbase" : 30,
		"flyability" : -0,
		"reason" : "orientationsUnknown, cloudbase",
		"timestamp" :1555221600
		},
	"2019-04-14T12:00:00+03:00" : {
		"windSpeed" : 2.4,
		"windDir" : 71,
		"rain" : 0,
		"cloudbase" : null,
		"flyability" : -50,
		"reason" : "orientationsUnknown",
		"timestamp" :1555232400
		},
	"2019-04-14T15:00:00+03:00" : {
		"windSpeed" : 2.6,
		"windDir" : 68,
		"rain" : 0,
		"cloudbase" : null,
		"flyability" : -50,
		"reason" : "orientationsUnknown",
		"timestamp" :1555243200
		},
	"2019-04-14T18:00:00+03:00" : {
		"windSpeed" : 1,
		"windDir" : 60,
		"rain" : 1,
		"cloudbase" : null,
		"flyability" : -0,
		"reason" : "orientationsUnknown, rain",
		"timestamp" :1555254000
		},
	"2019-04-14T21:00:00+03:00" : {
		"windSpeed" : 1.7,
		"windDir" : 24,
		"rain" : 0,
		"cloudbase" : null,
		"flyability" : -50,
		"reason" : "orientationsUnknown",
		"timestamp" :1555264800
		},
	"2019-04-15T00:00:00+03:00" : {
		"windSpeed" : 1.9,
		"windDir" : 350,
		"rain" : 0,
		"cloudbase" : null,
		"flyability" : -50,
		"reason" : "orientationsUnknown",
		"timestamp" :1555275600
		},
	"2019-04-15T03:00:00+03:00" : {
		"windSpeed" : 2.7,
		"windDir" : 10,
		"rain" : 1,
		"cloudbase" : 240,
		"flyability" : -0,
		"reason" : "orientationsUnknown, rain",
		"timestamp" :1555286400
		},
	"2019-04-15T06:00:00+03:00" : {
		"windSpeed" : 2.4,
		"windDir" : 331,
		"rain" : 0,
		"cloudbase" : null,
		"flyability" : -50,
		"reason" : "orientationsUnknown",
		"timestamp" :1555297200
		},
	"2019-04-15T09:00:00+03:00" : {
		"windSpeed" : 2.9,
		"windDir" : 342,
		"rain" : 0,
		"cloudbase" : null,
		"flyability" : -50,
		"reason" : "orientationsUnknown",
		"timestamp" :1555308000
		},
	"2019-04-15T12:00:00+03:00" : {
		"windSpeed" : 1.8,
		"windDir" : 26,
		"rain" : 1,
		"cloudbase" : null,
		"flyability" : -0,
		"reason" : "orientationsUnknown, rain",
		"timestamp" :1555318800
		},
	"2019-04-15T15:00:00+03:00" : {
		"windSpeed" : 2.3,
		"windDir" : 54,
		"rain" : 1,
		"cloudbase" : null,
		"flyability" : -0,
		"reason" : "orientationsUnknown, rain",
		"timestamp" :1555329600
		},
	"2019-04-15T18:00:00+03:00" : {
		"windSpeed" : 3.1,
		"windDir" : 32,
		"rain" : 1,
		"cloudbase" : 8060.5527999999,
		"flyability" : -0,
		"reason" : "orientationsUnknown, rain",
		"timestamp" :1555340400
		},
	"2019-04-15T21:00:00+03:00" : {
		"windSpeed" : 3.5,
		"windDir" : 22,
		"rain" : 1,
		"cloudbase" : 1273.2121999997,
		"flyability" : -0,
		"reason" : "orientationsUnknown, rain",
		"timestamp" :1555351200
		},
	"2019-04-16T00:00:00+03:00" : {
		"windSpeed" : 4.2,
		"windDir" : 352,
		"rain" : 1,
		"cloudbase" : 6246.4310000001,
		"flyability" : -0,
		"reason" : "orientationsUnknown, rain",
		"timestamp" :1555362000
		},
	"2019-04-16T03:00:00+03:00" : {
		"windSpeed" : 5.6,
		"windDir" : 12,
		"rain" : 1,
		"cloudbase" : 1196.6838799997,
		"flyability" : -0,
		"reason" : "windSpeed, orientationsUnknown, rain",
		"timestamp" :1555372800
		},
	"2019-04-16T06:00:00+03:00" : {
		"windSpeed" : 6.2,
		"windDir" : 359,
		"rain" : 1,
		"cloudbase" : null,
		"flyability" : -0,
		"reason" : "windSpeed, orientationsUnknown, rain",
		"timestamp" :1555383600
		},
	"2019-04-16T09:00:00+03:00" : {
		"windSpeed" : 7.7,
		"windDir" : 3,
		"rain" : 0,
		"cloudbase" : null,
		"flyability" : -0,
		"reason" : "windSpeed, orientationsUnknown",
		"timestamp" :1555394400
		},
	"2019-04-16T12:00:00+03:00" : {
		"windSpeed" : 7.4,
		"windDir" : 11,
		"rain" : 1,
		"cloudbase" : null,
		"flyability" : -0,
		"reason" : "windSpeed, orientationsUnknown, rain",
		"timestamp" :1555405200
		},
	"2019-04-16T15:00:00+03:00" : {
		"windSpeed" : 6.1,
		"windDir" : 18,
		"rain" : 0,
		"cloudbase" : null,
		"flyability" : -0,
		"reason" : "windSpeed, orientationsUnknown",
		"timestamp" :1555416000
		},
	"2019-04-16T18:00:00+03:00" : {
		"windSpeed" : 4.9,
		"windDir" : 44,
		"rain" : 0,
		"cloudbase" : null,
		"flyability" : -50,
		"reason" : "orientationsUnknown",
		"timestamp" :1555426800
		},
	"2019-04-16T21:00:00+03:00" : {
		"windSpeed" : 1.6,
		"windDir" : 25,
		"rain" : 0,
		"cloudbase" : null,
		"flyability" : -50,
		"reason" : "orientationsUnknown",
		"timestamp" :1555437600
		},
	"2019-04-17T00:00:00+03:00" : {
		"windSpeed" : 1,
		"windDir" : 307,
		"rain" : 0,
		"cloudbase" : null,
		"flyability" : -50,
		"reason" : "orientationsUnknown",
		"timestamp" :1555448400
		},
	"2019-04-17T03:00:00+03:00" : {
		"windSpeed" : 0.9,
		"windDir" : 231,
		"rain" : 0,
		"cloudbase" : null,
		"flyability" : -50,
		"reason" : "orientationsUnknown",
		"timestamp" :1555459200
		},
	"2019-04-17T06:00:00+03:00" : {
		"windSpeed" : 1.3,
		"windDir" : 300,
		"rain" : 1,
		"cloudbase" : null,
		"flyability" : -0,
		"reason" : "orientationsUnknown, rain",
		"timestamp" :1555470000
		},
	"2019-04-17T09:00:00+03:00" : {
		"windSpeed" : 1.3,
		"windDir" : 323,
		"rain" : 0,
		"cloudbase" : null,
		"flyability" : -50,
		"reason" : "orientationsUnknown",
		"timestamp" :1555480800
		},
	"2019-04-17T12:00:00+03:00" : {
		"windSpeed" : 2,
		"windDir" : 2,
		"rain" : 0,
		"cloudbase" : null,
		"flyability" : -50,
		"reason" : "orientationsUnknown",
		"timestamp" :1555491600
		},
	"2019-04-17T15:00:00+03:00" : {
		"windSpeed" : 3,
		"windDir" : 87,
		"rain" : 1,
		"cloudbase" : null,
		"flyability" : -0,
		"reason" : "orientationsUnknown, rain",
		"timestamp" :1555502400
		},
	"2019-04-17T18:00:00+03:00" : {
		"windSpeed" : 2.8,
		"windDir" : 155,
		"rain" : 0,
		"cloudbase" : null,
		"flyability" : -50,
		"reason" : "orientationsUnknown",
		"timestamp" :1555513200
		},
	"2019-04-17T21:00:00+03:00" : {
		"windSpeed" : 0.4,
		"windDir" : 88,
		"rain" : 1,
		"cloudbase" : null,
		"flyability" : -0,
		"reason" : "orientationsUnknown, rain",
		"timestamp" :1555524000
		},
	"2019-04-18T00:00:00+03:00" : {
		"windSpeed" : 1.9,
		"windDir" : 20,
		"rain" : 1,
		"cloudbase" : null,
		"flyability" : -0,
		"reason" : "orientationsUnknown, rain",
		"timestamp" :1555534800
		},
	"2019-04-18T03:00:00+03:00" : {
		"windSpeed" : 2.6,
		"windDir" : 329,
		"rain" : 0,
		"cloudbase" : null,
		"flyability" : -50,
		"reason" : "orientationsUnknown",
		"timestamp" :1555545600
		},
	"2019-04-18T06:00:00+03:00" : {
		"windSpeed" : 3,
		"windDir" : 334,
		"rain" : 0,
		"cloudbase" : null,
		"flyability" : -50,
		"reason" : "orientationsUnknown",
		"timestamp" :1555556400
		},
	"2019-04-18T09:00:00+03:00" : {
		"windSpeed" : 3.1,
		"windDir" : 340,
		"rain" : 0,
		"cloudbase" : null,
		"flyability" : -50,
		"reason" : "orientationsUnknown",
		"timestamp" :1555567200
		},
	"2019-04-18T12:00:00+03:00" : {
		"windSpeed" : 5.8,
		"windDir" : 24,
		"rain" : 1,
		"cloudbase" : null,
		"flyability" : -0,
		"reason" : "windSpeed, orientationsUnknown, rain",
		"timestamp" :1555578000
		},
	"2019-04-18T15:00:00+03:00" : {
		"windSpeed" : 5.1,
		"windDir" : 21,
		"rain" : 1,
		"cloudbase" : null,
		"flyability" : -0,
		"reason" : "windSpeed, orientationsUnknown, rain",
		"timestamp" :1555588800
		},
	"2019-04-18T18:00:00+03:00" : {
		"windSpeed" : 5.4,
		"windDir" : 26,
		"rain" : 0,
		"cloudbase" : null,
		"flyability" : -0,
		"reason" : "windSpeed, orientationsUnknown",
		"timestamp" :1555599600
		},
	"2019-04-18T21:00:00+03:00" : {
		"windSpeed" : 4.2,
		"windDir" : 1,
		"rain" : 1,
		"cloudbase" : null,
		"flyability" : -0,
		"reason" : "orientationsUnknown, rain",
		"timestamp" :1555610400
		},
	"2019-04-19T00:00:00+03:00" : {
		"windSpeed" : 4.3,
		"windDir" : 334,
		"rain" : 0,
		"cloudbase" : null,
		"flyability" : -50,
		"reason" : "orientationsUnknown",
		"timestamp" :1555621200
		},
	"2019-04-19T03:00:00+03:00" : {
		"windSpeed" : 5,
		"windDir" : 329,
		"rain" : 1,
		"cloudbase" : null,
		"flyability" : -0,
		"reason" : "orientationsUnknown, rain",
		"timestamp" :1555632000
		},
	"2019-04-19T06:00:00+03:00" : {
		"windSpeed" : 6.8,
		"windDir" : 354,
		"rain" : 1,
		"cloudbase" : null,
		"flyability" : -0,
		"reason" : "windSpeed, orientationsUnknown, rain",
		"timestamp" :1555642800
		},
	"2019-04-19T09:00:00+03:00" : {
		"windSpeed" : 7.8,
		"windDir" : 5,
		"rain" : 1,
		"cloudbase" : null,
		"flyability" : -0,
		"reason" : "windSpeed, orientationsUnknown, rain",
		"timestamp" :1555653600
		},
	"2019-04-19T12:00:00+03:00" : {
		"windSpeed" : 8.3,
		"windDir" : 15,
		"rain" : 0,
		"cloudbase" : null,
		"flyability" : -0,
		"reason" : "windSpeed, orientationsUnknown",
		"timestamp" :1555664400
		},
	"2019-04-19T15:00:00+03:00" : {
		"windSpeed" : 7,
		"windDir" : 21,
		"rain" : 0,
		"cloudbase" : null,
		"flyability" : -0,
		"reason" : "windSpeed, orientationsUnknown",
		"timestamp" :1555675200
		},
	"2019-04-19T18:00:00+03:00" : {
		"windSpeed" : 5.5,
		"windDir" : 33,
		"rain" : 0,
		"cloudbase" : null,
		"flyability" : -0,
		"reason" : "windSpeed, orientationsUnknown",
		"timestamp" :1555686000
		},
	"2019-04-19T21:00:00+03:00" : {
		"windSpeed" : 2.2,
		"windDir" : 17,
		"rain" : 0,
		"cloudbase" : null,
		"flyability" : -50,
		"reason" : "orientationsUnknown",
		"timestamp" :1555696800
		},
	"2019-04-20T00:00:00+03:00" : {
		"windSpeed" : 2.1,
		"windDir" : 5,
		"rain" : 0,
		"cloudbase" : null,
		"flyability" : -50,
		"reason" : "orientationsUnknown",
		"timestamp" :1555707600
		},
	"2019-04-20T03:00:00+03:00" : {
		"windSpeed" : 5.4,
		"windDir" : 24,
		"rain" : 0,
		"cloudbase" : 1712.2146,
		"flyability" : -0,
		"reason" : "windSpeed, orientationsUnknown",
		"timestamp" :1555718400
		}
	}
}