{
"site" : "Kopaida Gliderport",
"id" : 13376,
"orientations" : "00000000",
"forecasts" : { 
	"2019-04-14T06:00:00+03:00" : {
		"windSpeed" : 1.4,
		"windDir" : 224,
		"rain" : 0,
		"cloudbase" : null,
		"flyability" : -50,
		"reason" : "orientationsUnknown",
		"timestamp" :1555210800
		},
	"2019-04-14T09:00:00+03:00" : {
		"windSpeed" : 0.9,
		"windDir" : 223,
		"rain" : 0,
		"cloudbase" : null,
		"flyability" : -50,
		"reason" : "orientationsUnknown",
		"timestamp" :1555221600
		},
	"2019-04-14T12:00:00+03:00" : {
		"windSpeed" : 0.3,
		"windDir" : 84,
		"rain" : 1,
		"cloudbase" : null,
		"flyability" : -0,
		"reason" : "orientationsUnknown, rain",
		"timestamp" :1555232400
		},
	"2019-04-14T15:00:00+03:00" : {
		"windSpeed" : 2,
		"windDir" : 17,
		"rain" : 0,
		"cloudbase" : 7600,
		"flyability" : -50,
		"reason" : "orientationsUnknown",
		"timestamp" :1555243200
		},
	"2019-04-14T18:00:00+03:00" : {
		"windSpeed" : 0.8,
		"windDir" : 38,
		"rain" : 0,
		"cloudbase" : 7300,
		"flyability" : -50,
		"reason" : "orientationsUnknown",
		"timestamp" :1555254000
		},
	"2019-04-14T21:00:00+03:00" : {
		"windSpeed" : 0.3,
		"windDir" : 332,
		"rain" : 1,
		"cloudbase" : null,
		"flyability" : -0,
		"reason" : "orientationsUnknown, rain",
		"timestamp" :1555264800
		},
	"2019-04-15T00:00:00+03:00" : {
		"windSpeed" : 1.1,
		"windDir" : 259,
		"rain" : 0,
		"cloudbase" : null,
		"flyability" : -50,
		"reason" : "orientationsUnknown",
		"timestamp" :1555275600
		},
	"2019-04-15T03:00:00+03:00" : {
		"windSpeed" : 0.9,
		"windDir" : 299,
		"rain" : 1,
		"cloudbase" : 134.27604000002,
		"flyability" : -0,
		"reason" : "orientationsUnknown, rain",
		"timestamp" :1555286400
		},
	"2019-04-15T06:00:00+03:00" : {
		"windSpeed" : 1,
		"windDir" : 278,
		"rain" : 1,
		"cloudbase" : null,
		"flyability" : -0,
		"reason" : "orientationsUnknown, rain",
		"timestamp" :1555297200
		},
	"2019-04-15T09:00:00+03:00" : {
		"windSpeed" : 0.7,
		"windDir" : 344,
		"rain" : 1,
		"cloudbase" : null,
		"flyability" : -0,
		"reason" : "orientationsUnknown, rain",
		"timestamp" :1555308000
		},
	"2019-04-15T12:00:00+03:00" : {
		"windSpeed" : 1.5,
		"windDir" : 4,
		"rain" : 1,
		"cloudbase" : 397.59072,
		"flyability" : -0,
		"reason" : "orientationsUnknown, rain",
		"timestamp" :1555318800
		},
	"2019-04-15T15:00:00+03:00" : {
		"windSpeed" : 2.9,
		"windDir" : 21,
		"rain" : 1,
		"cloudbase" : 2325.98988,
		"flyability" : -0,
		"reason" : "orientationsUnknown, rain",
		"timestamp" :1555329600
		},
	"2019-04-15T18:00:00+03:00" : {
		"windSpeed" : 2.7,
		"windDir" : 4,
		"rain" : 1,
		"cloudbase" : 6112.5421,
		"flyability" : -0,
		"reason" : "orientationsUnknown, rain",
		"timestamp" :1555340400
		},
	"2019-04-15T21:00:00+03:00" : {
		"windSpeed" : 1.8,
		"windDir" : 357,
		"rain" : 1,
		"cloudbase" : 2321.2200800004,
		"flyability" : -0,
		"reason" : "orientationsUnknown, rain",
		"timestamp" :1555351200
		},
	"2019-04-16T00:00:00+03:00" : {
		"windSpeed" : 2.7,
		"windDir" : 351,
		"rain" : 1,
		"cloudbase" : null,
		"flyability" : -0,
		"reason" : "orientationsUnknown, rain",
		"timestamp" :1555362000
		},
	"2019-04-16T03:00:00+03:00" : {
		"windSpeed" : 3.6,
		"windDir" : 345,
		"rain" : 1,
		"cloudbase" : 362.96676000002,
		"flyability" : -0,
		"reason" : "orientationsUnknown, rain",
		"timestamp" :1555372800
		},
	"2019-04-16T06:00:00+03:00" : {
		"windSpeed" : 3.5,
		"windDir" : 352,
		"rain" : 1,
		"cloudbase" : null,
		"flyability" : -0,
		"reason" : "orientationsUnknown, rain",
		"timestamp" :1555383600
		},
	"2019-04-16T09:00:00+03:00" : {
		"windSpeed" : 4.1,
		"windDir" : 7,
		"rain" : 0,
		"cloudbase" : null,
		"flyability" : -50,
		"reason" : "orientationsUnknown",
		"timestamp" :1555394400
		},
	"2019-04-16T12:00:00+03:00" : {
		"windSpeed" : 4.1,
		"windDir" : 17,
		"rain" : 1,
		"cloudbase" : 1200,
		"flyability" : -0,
		"reason" : "orientationsUnknown, rain",
		"timestamp" :1555405200
		},
	"2019-04-16T15:00:00+03:00" : {
		"windSpeed" : 2.9,
		"windDir" : 13,
		"rain" : 0,
		"cloudbase" : 1324.2,
		"flyability" : -50,
		"reason" : "orientationsUnknown",
		"timestamp" :1555416000
		},
	"2019-04-16T18:00:00+03:00" : {
		"windSpeed" : 1.9,
		"windDir" : 46,
		"rain" : 0,
		"cloudbase" : null,
		"flyability" : -50,
		"reason" : "orientationsUnknown",
		"timestamp" :1555426800
		},
	"2019-04-16T21:00:00+03:00" : {
		"windSpeed" : 1.3,
		"windDir" : 138,
		"rain" : 1,
		"cloudbase" : null,
		"flyability" : -0,
		"reason" : "orientationsUnknown, rain",
		"timestamp" :1555437600
		},
	"2019-04-17T00:00:00+03:00" : {
		"windSpeed" : 1.3,
		"windDir" : 230,
		"rain" : 0,
		"cloudbase" : null,
		"flyability" : -50,
		"reason" : "orientationsUnknown",
		"timestamp" :1555448400
		},
	"2019-04-17T03:00:00+03:00" : {
		"windSpeed" : 1,
		"windDir" : 241,
		"rain" : 0,
		"cloudbase" : null,
		"flyability" : -50,
		"reason" : "orientationsUnknown",
		"timestamp" :1555459200
		},
	"2019-04-17T06:00:00+03:00" : {
		"windSpeed" : 1.1,
		"windDir" : 251,
		"rain" : 1,
		"cloudbase" : null,
		"flyability" : -0,
		"reason" : "orientationsUnknown, rain",
		"timestamp" :1555470000
		},
	"2019-04-17T09:00:00+03:00" : {
		"windSpeed" : 0.5,
		"windDir" : 281,
		"rain" : 0,
		"cloudbase" : null,
		"flyability" : -50,
		"reason" : "orientationsUnknown",
		"timestamp" :1555480800
		},
	"2019-04-17T12:00:00+03:00" : {
		"windSpeed" : 2.5,
		"windDir" : 63,
		"rain" : 1,
		"cloudbase" : null,
		"flyability" : -0,
		"reason" : "orientationsUnknown, rain",
		"timestamp" :1555491600
		},
	"2019-04-17T15:00:00+03:00" : {
		"windSpeed" : 1.3,
		"windDir" : 68,
		"rain" : 1,
		"cloudbase" : null,
		"flyability" : -0,
		"reason" : "orientationsUnknown, rain",
		"timestamp" :1555502400
		},
	"2019-04-17T18:00:00+03:00" : {
		"windSpeed" : 2.8,
		"windDir" : 49,
		"rain" : 0,
		"cloudbase" : null,
		"flyability" : -50,
		"reason" : "orientationsUnknown",
		"timestamp" :1555513200
		},
	"2019-04-17T21:00:00+03:00" : {
		"windSpeed" : 1.5,
		"windDir" : 25,
		"rain" : 0,
		"cloudbase" : null,
		"flyability" : -50,
		"reason" : "orientationsUnknown",
		"timestamp" :1555524000
		},
	"2019-04-18T00:00:00+03:00" : {
		"windSpeed" : 1.7,
		"windDir" : 284,
		"rain" : 0,
		"cloudbase" : null,
		"flyability" : -50,
		"reason" : "orientationsUnknown",
		"timestamp" :1555534800
		},
	"2019-04-18T03:00:00+03:00" : {
		"windSpeed" : 1.2,
		"windDir" : 279,
		"rain" : 0,
		"cloudbase" : null,
		"flyability" : -50,
		"reason" : "orientationsUnknown",
		"timestamp" :1555545600
		},
	"2019-04-18T06:00:00+03:00" : {
		"windSpeed" : 1.3,
		"windDir" : 284,
		"rain" : 0,
		"cloudbase" : null,
		"flyability" : -50,
		"reason" : "orientationsUnknown",
		"timestamp" :1555556400
		},
	"2019-04-18T09:00:00+03:00" : {
		"windSpeed" : 1.2,
		"windDir" : 315,
		"rain" : 0,
		"cloudbase" : null,
		"flyability" : -50,
		"reason" : "orientationsUnknown",
		"timestamp" :1555567200
		},
	"2019-04-18T12:00:00+03:00" : {
		"windSpeed" : 3.5,
		"windDir" : 17,
		"rain" : 0,
		"cloudbase" : null,
		"flyability" : -50,
		"reason" : "orientationsUnknown",
		"timestamp" :1555578000
		},
	"2019-04-18T15:00:00+03:00" : {
		"windSpeed" : 3.3,
		"windDir" : 19,
		"rain" : 1,
		"cloudbase" : null,
		"flyability" : -0,
		"reason" : "orientationsUnknown, rain",
		"timestamp" :1555588800
		},
	"2019-04-18T18:00:00+03:00" : {
		"windSpeed" : 2.8,
		"windDir" : 5,
		"rain" : 1,
		"cloudbase" : null,
		"flyability" : -0,
		"reason" : "orientationsUnknown, rain",
		"timestamp" :1555599600
		},
	"2019-04-18T21:00:00+03:00" : {
		"windSpeed" : 2,
		"windDir" : 18,
		"rain" : 1,
		"cloudbase" : null,
		"flyability" : -0,
		"reason" : "orientationsUnknown, rain",
		"timestamp" :1555610400
		},
	"2019-04-19T00:00:00+03:00" : {
		"windSpeed" : 1.7,
		"windDir" : 318,
		"rain" : 1,
		"cloudbase" : null,
		"flyability" : -0,
		"reason" : "orientationsUnknown, rain",
		"timestamp" :1555621200
		},
	"2019-04-19T03:00:00+03:00" : {
		"windSpeed" : 2.1,
		"windDir" : 308,
		"rain" : 1,
		"cloudbase" : null,
		"flyability" : -0,
		"reason" : "orientationsUnknown, rain",
		"timestamp" :1555632000
		},
	"2019-04-19T06:00:00+03:00" : {
		"windSpeed" : 2.7,
		"windDir" : 338,
		"rain" : 1,
		"cloudbase" : null,
		"flyability" : -0,
		"reason" : "orientationsUnknown, rain",
		"timestamp" :1555642800
		},
	"2019-04-19T09:00:00+03:00" : {
		"windSpeed" : 4.3,
		"windDir" : 5,
		"rain" : 1,
		"cloudbase" : null,
		"flyability" : -0,
		"reason" : "orientationsUnknown, rain",
		"timestamp" :1555653600
		},
	"2019-04-19T12:00:00+03:00" : {
		"windSpeed" : 4.8,
		"windDir" : 21,
		"rain" : 0,
		"cloudbase" : 1320.4259,
		"flyability" : -50,
		"reason" : "orientationsUnknown",
		"timestamp" :1555664400
		},
	"2019-04-19T15:00:00+03:00" : {
		"windSpeed" : 3.2,
		"windDir" : 15,
		"rain" : 0,
		"cloudbase" : 1450,
		"flyability" : -50,
		"reason" : "orientationsUnknown",
		"timestamp" :1555675200
		},
	"2019-04-19T18:00:00+03:00" : {
		"windSpeed" : 1.6,
		"windDir" : 45,
		"rain" : 0,
		"cloudbase" : null,
		"flyability" : -50,
		"reason" : "orientationsUnknown",
		"timestamp" :1555686000
		},
	"2019-04-19T21:00:00+03:00" : {
		"windSpeed" : 1.5,
		"windDir" : 175,
		"rain" : 0,
		"cloudbase" : null,
		"flyability" : -50,
		"reason" : "orientationsUnknown",
		"timestamp" :1555696800
		},
	"2019-04-20T00:00:00+03:00" : {
		"windSpeed" : 0.6,
		"windDir" : 195,
		"rain" : 0,
		"cloudbase" : null,
		"flyability" : -50,
		"reason" : "orientationsUnknown",
		"timestamp" :1555707600
		},
	"2019-04-20T03:00:00+03:00" : {
		"windSpeed" : 1.2,
		"windDir" : 344,
		"rain" : 1,
		"cloudbase" : null,
		"flyability" : -0,
		"reason" : "orientationsUnknown, rain",
		"timestamp" :1555718400
		}
	}
}