{
"site" : "Goleniha",
"id" : 13549,
"orientations" : "00000000",
"forecasts" : { 
	"2019-04-08T18:00:00+03:00" : {
		"windSpeed" : 4.2,
		"windDir" : 159,
		"rain" : 0,
		"cloudbase" : 1080.59375,
		"flyability" : -50,
		"reason" : "orientationsUnknown",
		"timestamp" :1554735600
		},
	"2019-04-08T21:00:00+03:00" : {
		"windSpeed" : 3,
		"windDir" : 161,
		"rain" : 1,
		"cloudbase" : 1487.8125,
		"flyability" : -0,
		"reason" : "orientationsUnknown, rain",
		"timestamp" :1554746400
		},
	"2019-04-09T00:00:00+03:00" : {
		"windSpeed" : 3.2,
		"windDir" : 171,
		"rain" : 0,
		"cloudbase" : 2122.84375,
		"flyability" : -50,
		"reason" : "orientationsUnknown",
		"timestamp" :1554757200
		},
	"2019-04-09T03:00:00+03:00" : {
		"windSpeed" : 3,
		"windDir" : 184,
		"rain" : 1,
		"cloudbase" : 2000,
		"flyability" : -0,
		"reason" : "orientationsUnknown, rain",
		"timestamp" :1554768000
		},
	"2019-04-09T06:00:00+03:00" : {
		"windSpeed" : 3.5,
		"windDir" : 188,
		"rain" : 0,
		"cloudbase" : null,
		"flyability" : -50,
		"reason" : "orientationsUnknown",
		"timestamp" :1554778800
		},
	"2019-04-09T09:00:00+03:00" : {
		"windSpeed" : 4,
		"windDir" : 187,
		"rain" : 0,
		"cloudbase" : null,
		"flyability" : -50,
		"reason" : "orientationsUnknown",
		"timestamp" :1554789600
		},
	"2019-04-09T12:00:00+03:00" : {
		"windSpeed" : 4.3,
		"windDir" : 180,
		"rain" : 1,
		"cloudbase" : 3500,
		"flyability" : -0,
		"reason" : "orientationsUnknown, rain",
		"timestamp" :1554800400
		},
	"2019-04-09T15:00:00+03:00" : {
		"windSpeed" : 4.3,
		"windDir" : 180,
		"rain" : 1,
		"cloudbase" : 3793.46875,
		"flyability" : -0,
		"reason" : "orientationsUnknown, rain",
		"timestamp" :1554811200
		},
	"2019-04-09T18:00:00+03:00" : {
		"windSpeed" : 2.4,
		"windDir" : 204,
		"rain" : 1,
		"cloudbase" : 2937.90625,
		"flyability" : -0,
		"reason" : "orientationsUnknown, rain",
		"timestamp" :1554822000
		},
	"2019-04-09T21:00:00+03:00" : {
		"windSpeed" : 2.5,
		"windDir" : 169,
		"rain" : 1,
		"cloudbase" : 3098.25,
		"flyability" : -0,
		"reason" : "orientationsUnknown, rain",
		"timestamp" :1554832800
		},
	"2019-04-10T00:00:00+03:00" : {
		"windSpeed" : 2.3,
		"windDir" : 172,
		"rain" : 1,
		"cloudbase" : 1972.75,
		"flyability" : -0,
		"reason" : "orientationsUnknown, rain",
		"timestamp" :1554843600
		},
	"2019-04-10T03:00:00+03:00" : {
		"windSpeed" : 1.5,
		"windDir" : 161,
		"rain" : 1,
		"cloudbase" : 3267.34375,
		"flyability" : -0,
		"reason" : "orientationsUnknown, rain",
		"timestamp" :1554854400
		},
	"2019-04-10T06:00:00+03:00" : {
		"windSpeed" : 1.9,
		"windDir" : 201,
		"rain" : 0,
		"cloudbase" : 30,
		"flyability" : -0,
		"reason" : "orientationsUnknown, cloudbase",
		"timestamp" :1554865200
		},
	"2019-04-10T09:00:00+03:00" : {
		"windSpeed" : 1.7,
		"windDir" : 285,
		"rain" : 1,
		"cloudbase" : 516.79374999999,
		"flyability" : -0,
		"reason" : "orientationsUnknown, rain",
		"timestamp" :1554876000
		},
	"2019-04-10T12:00:00+03:00" : {
		"windSpeed" : 2,
		"windDir" : 261,
		"rain" : 1,
		"cloudbase" : 441.5375,
		"flyability" : -0,
		"reason" : "orientationsUnknown, rain",
		"timestamp" :1554886800
		},
	"2019-04-10T15:00:00+03:00" : {
		"windSpeed" : 2,
		"windDir" : 270,
		"rain" : 1,
		"cloudbase" : 1089.13125,
		"flyability" : -0,
		"reason" : "orientationsUnknown, rain",
		"timestamp" :1554897600
		},
	"2019-04-10T18:00:00+03:00" : {
		"windSpeed" : 3.6,
		"windDir" : 322,
		"rain" : 0,
		"cloudbase" : 1167.34375,
		"flyability" : -50,
		"reason" : "orientationsUnknown",
		"timestamp" :1554908400
		},
	"2019-04-10T21:00:00+03:00" : {
		"windSpeed" : 1.4,
		"windDir" : 58,
		"rain" : 0,
		"cloudbase" : 1526.34375,
		"flyability" : -50,
		"reason" : "orientationsUnknown",
		"timestamp" :1554919200
		},
	"2019-04-11T00:00:00+03:00" : {
		"windSpeed" : 1.7,
		"windDir" : 332,
		"rain" : 0,
		"cloudbase" : 1640.1875,
		"flyability" : -50,
		"reason" : "orientationsUnknown",
		"timestamp" :1554930000
		},
	"2019-04-11T03:00:00+03:00" : {
		"windSpeed" : 2.3,
		"windDir" : 337,
		"rain" : 0,
		"cloudbase" : 1547.15625,
		"flyability" : -50,
		"reason" : "orientationsUnknown",
		"timestamp" :1554940800
		},
	"2019-04-11T06:00:00+03:00" : {
		"windSpeed" : 2.3,
		"windDir" : 344,
		"rain" : 0,
		"cloudbase" : 1536.75,
		"flyability" : -50,
		"reason" : "orientationsUnknown",
		"timestamp" :1554951600
		},
	"2019-04-11T09:00:00+03:00" : {
		"windSpeed" : 2.6,
		"windDir" : 360,
		"rain" : 1,
		"cloudbase" : 5915.5,
		"flyability" : -0,
		"reason" : "orientationsUnknown, rain",
		"timestamp" :1554962400
		},
	"2019-04-11T12:00:00+03:00" : {
		"windSpeed" : 2.5,
		"windDir" : 356,
		"rain" : 0,
		"cloudbase" : 1602.84375,
		"flyability" : -50,
		"reason" : "orientationsUnknown",
		"timestamp" :1554973200
		},
	"2019-04-11T15:00:00+03:00" : {
		"windSpeed" : 2.1,
		"windDir" : 298,
		"rain" : 0,
		"cloudbase" : 1686.75,
		"flyability" : -50,
		"reason" : "orientationsUnknown",
		"timestamp" :1554984000
		},
	"2019-04-11T18:00:00+03:00" : {
		"windSpeed" : 3.7,
		"windDir" : 329,
		"rain" : 0,
		"cloudbase" : null,
		"flyability" : -50,
		"reason" : "orientationsUnknown",
		"timestamp" :1554994800
		},
	"2019-04-11T21:00:00+03:00" : {
		"windSpeed" : 3.6,
		"windDir" : 344,
		"rain" : 0,
		"cloudbase" : null,
		"flyability" : -50,
		"reason" : "orientationsUnknown",
		"timestamp" :1555005600
		},
	"2019-04-12T00:00:00+03:00" : {
		"windSpeed" : 3,
		"windDir" : 360,
		"rain" : 0,
		"cloudbase" : null,
		"flyability" : -50,
		"reason" : "orientationsUnknown",
		"timestamp" :1555016400
		},
	"2019-04-12T03:00:00+03:00" : {
		"windSpeed" : 2.8,
		"windDir" : 360,
		"rain" : 1,
		"cloudbase" : null,
		"flyability" : -0,
		"reason" : "orientationsUnknown, rain",
		"timestamp" :1555027200
		},
	"2019-04-12T06:00:00+03:00" : {
		"windSpeed" : 2.6,
		"windDir" : 349,
		"rain" : 0,
		"cloudbase" : null,
		"flyability" : -50,
		"reason" : "orientationsUnknown",
		"timestamp" :1555038000
		},
	"2019-04-12T09:00:00+03:00" : {
		"windSpeed" : 3.3,
		"windDir" : 360,
		"rain" : 0,
		"cloudbase" : 861.3,
		"flyability" : -50,
		"reason" : "orientationsUnknown",
		"timestamp" :1555048800
		},
	"2019-04-12T12:00:00+03:00" : {
		"windSpeed" : 3.5,
		"windDir" : 8,
		"rain" : 1,
		"cloudbase" : 986.48125,
		"flyability" : -0,
		"reason" : "orientationsUnknown, rain",
		"timestamp" :1555059600
		},
	"2019-04-12T15:00:00+03:00" : {
		"windSpeed" : 3.5,
		"windDir" : 1,
		"rain" : 0,
		"cloudbase" : 1250,
		"flyability" : -50,
		"reason" : "orientationsUnknown",
		"timestamp" :1555070400
		},
	"2019-04-12T18:00:00+03:00" : {
		"windSpeed" : 4.3,
		"windDir" : 3,
		"rain" : 0,
		"cloudbase" : 1400,
		"flyability" : -50,
		"reason" : "orientationsUnknown",
		"timestamp" :1555081200
		},
	"2019-04-12T21:00:00+03:00" : {
		"windSpeed" : 4.7,
		"windDir" : 18,
		"rain" : 0,
		"cloudbase" : 1150,
		"flyability" : -50,
		"reason" : "orientationsUnknown",
		"timestamp" :1555092000
		},
	"2019-04-13T00:00:00+03:00" : {
		"windSpeed" : 3,
		"windDir" : 21,
		"rain" : 0,
		"cloudbase" : null,
		"flyability" : -50,
		"reason" : "orientationsUnknown",
		"timestamp" :1555102800
		},
	"2019-04-13T03:00:00+03:00" : {
		"windSpeed" : 3,
		"windDir" : 354,
		"rain" : 0,
		"cloudbase" : 959.7375,
		"flyability" : -50,
		"reason" : "orientationsUnknown",
		"timestamp" :1555113600
		},
	"2019-04-13T06:00:00+03:00" : {
		"windSpeed" : 3.5,
		"windDir" : 8,
		"rain" : 0,
		"cloudbase" : 1105.5,
		"flyability" : -50,
		"reason" : "orientationsUnknown",
		"timestamp" :1555124400
		},
	"2019-04-13T09:00:00+03:00" : {
		"windSpeed" : 4,
		"windDir" : 30,
		"rain" : 0,
		"cloudbase" : null,
		"flyability" : -50,
		"reason" : "orientationsUnknown",
		"timestamp" :1555135200
		},
	"2019-04-13T12:00:00+03:00" : {
		"windSpeed" : 5,
		"windDir" : 37,
		"rain" : 0,
		"cloudbase" : 1250,
		"flyability" : -50,
		"reason" : "orientationsUnknown",
		"timestamp" :1555146000
		},
	"2019-04-13T15:00:00+03:00" : {
		"windSpeed" : 4.8,
		"windDir" : 38,
		"rain" : 0,
		"cloudbase" : 1513.84375,
		"flyability" : -50,
		"reason" : "orientationsUnknown",
		"timestamp" :1555156800
		},
	"2019-04-13T18:00:00+03:00" : {
		"windSpeed" : 4.3,
		"windDir" : 36,
		"rain" : 0,
		"cloudbase" : 1550,
		"flyability" : -50,
		"reason" : "orientationsUnknown",
		"timestamp" :1555167600
		},
	"2019-04-13T21:00:00+03:00" : {
		"windSpeed" : 3.2,
		"windDir" : 39,
		"rain" : 0,
		"cloudbase" : 1355.5,
		"flyability" : -50,
		"reason" : "orientationsUnknown",
		"timestamp" :1555178400
		},
	"2019-04-14T00:00:00+03:00" : {
		"windSpeed" : 3.1,
		"windDir" : 24,
		"rain" : 0,
		"cloudbase" : 1532.65625,
		"flyability" : -50,
		"reason" : "orientationsUnknown",
		"timestamp" :1555189200
		},
	"2019-04-14T03:00:00+03:00" : {
		"windSpeed" : 2.8,
		"windDir" : 45,
		"rain" : 0,
		"cloudbase" : 1500,
		"flyability" : -50,
		"reason" : "orientationsUnknown",
		"timestamp" :1555200000
		},
	"2019-04-14T06:00:00+03:00" : {
		"windSpeed" : 2.5,
		"windDir" : 37,
		"rain" : 0,
		"cloudbase" : null,
		"flyability" : -50,
		"reason" : "orientationsUnknown",
		"timestamp" :1555210800
		},
	"2019-04-14T09:00:00+03:00" : {
		"windSpeed" : 2.9,
		"windDir" : 59,
		"rain" : 0,
		"cloudbase" : null,
		"flyability" : -50,
		"reason" : "orientationsUnknown",
		"timestamp" :1555221600
		},
	"2019-04-14T12:00:00+03:00" : {
		"windSpeed" : 3.2,
		"windDir" : 51,
		"rain" : 0,
		"cloudbase" : null,
		"flyability" : -50,
		"reason" : "orientationsUnknown",
		"timestamp" :1555232400
		},
	"2019-04-14T15:00:00+03:00" : {
		"windSpeed" : 2.7,
		"windDir" : 39,
		"rain" : 0,
		"cloudbase" : null,
		"flyability" : -50,
		"reason" : "orientationsUnknown",
		"timestamp" :1555243200
		}
	}
}