{
"site" : "Los Castillejos",
"id" : 13611,
"orientations" : "00011100",
"forecasts" : { 
	"2019-04-15T17:00:00+02:00" : {
		"windSpeed" : 5.8,
		"windDir" : 137,
		"rain" : 0,
		"cloudbase" : 9614.324131,
		"flyability" : 0,
		"reason" : "windSpeed",
		"timestamp" :1555344000
		},
	"2019-04-15T20:00:00+02:00" : {
		"windSpeed" : 4.7,
		"windDir" : 123,
		"rain" : 0,
		"cloudbase" : null,
		"flyability" : 100,
		"reason" : "",
		"timestamp" :1555354800
		},
	"2019-04-15T23:00:00+02:00" : {
		"windSpeed" : 2.8,
		"windDir" : 95,
		"rain" : 0,
		"cloudbase" : null,
		"flyability" : 0,
		"reason" : "windDir",
		"timestamp" :1555365600
		},
	"2019-04-16T02:00:00+02:00" : {
		"windSpeed" : 1.9,
		"windDir" : 122,
		"rain" : 0,
		"cloudbase" : 8400,
		"flyability" : 100,
		"reason" : "",
		"timestamp" :1555376400
		},
	"2019-04-16T05:00:00+02:00" : {
		"windSpeed" : 0.5,
		"windDir" : 340,
		"rain" : 0,
		"cloudbase" : 394.65023929999,
		"flyability" : 0,
		"reason" : "windDir, cloudbase",
		"timestamp" :1555387200
		},
	"2019-04-16T08:00:00+02:00" : {
		"windSpeed" : 1.3,
		"windDir" : 307,
		"rain" : 0,
		"cloudbase" : 395.10868689998,
		"flyability" : 0,
		"reason" : "windDir, cloudbase",
		"timestamp" :1555398000
		},
	"2019-04-16T11:00:00+02:00" : {
		"windSpeed" : 1.5,
		"windDir" : 353,
		"rain" : 1,
		"cloudbase" : 478.4694869,
		"flyability" : 0,
		"reason" : "windDir, rain, cloudbase",
		"timestamp" :1555408800
		},
	"2019-04-16T14:00:00+02:00" : {
		"windSpeed" : 2.1,
		"windDir" : 103,
		"rain" : 1,
		"cloudbase" : null,
		"flyability" : 0,
		"reason" : "windDir, rain",
		"timestamp" :1555419600
		},
	"2019-04-16T17:00:00+02:00" : {
		"windSpeed" : 5.2,
		"windDir" : 122,
		"rain" : 1,
		"cloudbase" : 904.4462524,
		"flyability" : 0,
		"reason" : "windSpeed, rain, cloudbase",
		"timestamp" :1555430400
		},
	"2019-04-16T20:00:00+02:00" : {
		"windSpeed" : 3.7,
		"windDir" : 128,
		"rain" : 0,
		"cloudbase" : 9419.417738,
		"flyability" : 100,
		"reason" : "",
		"timestamp" :1555441200
		},
	"2019-04-16T23:00:00+02:00" : {
		"windSpeed" : 1.6,
		"windDir" : 108,
		"rain" : 1,
		"cloudbase" : 8822.8,
		"flyability" : 0,
		"reason" : "windDir, rain",
		"timestamp" :1555452000
		},
	"2019-04-17T02:00:00+02:00" : {
		"windSpeed" : 1.6,
		"windDir" : 118,
		"rain" : 0,
		"cloudbase" : null,
		"flyability" : 100,
		"reason" : "",
		"timestamp" :1555462800
		},
	"2019-04-17T05:00:00+02:00" : {
		"windSpeed" : 1.9,
		"windDir" : 96,
		"rain" : 0,
		"cloudbase" : null,
		"flyability" : 0,
		"reason" : "windDir",
		"timestamp" :1555473600
		},
	"2019-04-17T08:00:00+02:00" : {
		"windSpeed" : 2.2,
		"windDir" : 90,
		"rain" : 0,
		"cloudbase" : null,
		"flyability" : 0,
		"reason" : "windDir",
		"timestamp" :1555484400
		},
	"2019-04-17T11:00:00+02:00" : {
		"windSpeed" : 4.3,
		"windDir" : 127,
		"rain" : 0,
		"cloudbase" : 620,
		"flyability" : 0,
		"reason" : "cloudbase",
		"timestamp" :1555495200
		},
	"2019-04-17T14:00:00+02:00" : {
		"windSpeed" : 5.3,
		"windDir" : 129,
		"rain" : 0,
		"cloudbase" : 580,
		"flyability" : 0,
		"reason" : "windSpeed, cloudbase",
		"timestamp" :1555506000
		},
	"2019-04-17T17:00:00+02:00" : {
		"windSpeed" : 5.3,
		"windDir" : 124,
		"rain" : 0,
		"cloudbase" : 9416.058869,
		"flyability" : 0,
		"reason" : "windSpeed",
		"timestamp" :1555516800
		},
	"2019-04-17T20:00:00+02:00" : {
		"windSpeed" : 4.8,
		"windDir" : 112,
		"rain" : 0,
		"cloudbase" : 12000,
		"flyability" : 0,
		"reason" : "windDir",
		"timestamp" :1555527600
		},
	"2019-04-17T23:00:00+02:00" : {
		"windSpeed" : 4.7,
		"windDir" : 96,
		"rain" : 0,
		"cloudbase" : 77.587239299995,
		"flyability" : 0,
		"reason" : "windDir, cloudbase",
		"timestamp" :1555538400
		},
	"2019-04-18T02:00:00+02:00" : {
		"windSpeed" : 5.2,
		"windDir" : 93,
		"rain" : 0,
		"cloudbase" : 1908.0339080498,
		"flyability" : 0,
		"reason" : "windSpeed, windDir",
		"timestamp" :1555549200
		},
	"2019-04-18T05:00:00+02:00" : {
		"windSpeed" : 4.4,
		"windDir" : 77,
		"rain" : 0,
		"cloudbase" : 7744.758131,
		"flyability" : 0,
		"reason" : "windDir",
		"timestamp" :1555560000
		},
	"2019-04-18T08:00:00+02:00" : {
		"windSpeed" : 4.5,
		"windDir" : 77,
		"rain" : 1,
		"cloudbase" : 5006.306393,
		"flyability" : 0,
		"reason" : "windDir, rain",
		"timestamp" :1555570800
		},
	"2019-04-18T11:00:00+02:00" : {
		"windSpeed" : 5.9,
		"windDir" : 86,
		"rain" : 1,
		"cloudbase" : 6399.7892925,
		"flyability" : 0,
		"reason" : "windSpeed, windDir, rain",
		"timestamp" :1555581600
		},
	"2019-04-18T14:00:00+02:00" : {
		"windSpeed" : 10.3,
		"windDir" : 101,
		"rain" : 0,
		"cloudbase" : 6016.654297,
		"flyability" : 0,
		"reason" : "windSpeed, windDir",
		"timestamp" :1555592400
		},
	"2019-04-18T17:00:00+02:00" : {
		"windSpeed" : 11.3,
		"windDir" : 99,
		"rain" : 0,
		"cloudbase" : 871.11297510001,
		"flyability" : 0,
		"reason" : "windSpeed, windDir, cloudbase",
		"timestamp" :1555603200
		},
	"2019-04-18T20:00:00+02:00" : {
		"windSpeed" : 9,
		"windDir" : 93,
		"rain" : 1,
		"cloudbase" : 368.03696549999,
		"flyability" : 0,
		"reason" : "windSpeed, windDir, rain, cloudbase",
		"timestamp" :1555614000
		},
	"2019-04-18T23:00:00+02:00" : {
		"windSpeed" : 8.6,
		"windDir" : 95,
		"rain" : 1,
		"cloudbase" : 175.2526131,
		"flyability" : 0,
		"reason" : "windSpeed, windDir, rain, cloudbase",
		"timestamp" :1555624800
		},
	"2019-04-19T02:00:00+02:00" : {
		"windSpeed" : 6.4,
		"windDir" : 97,
		"rain" : 1,
		"cloudbase" : 146.28540064999,
		"flyability" : 0,
		"reason" : "windSpeed, windDir, rain, cloudbase",
		"timestamp" :1555635600
		},
	"2019-04-19T05:00:00+02:00" : {
		"windSpeed" : 4.8,
		"windDir" : 84,
		"rain" : 1,
		"cloudbase" : 202.76133995,
		"flyability" : 0,
		"reason" : "windDir, rain, cloudbase",
		"timestamp" :1555646400
		},
	"2019-04-19T08:00:00+02:00" : {
		"windSpeed" : 7.4,
		"windDir" : 88,
		"rain" : 1,
		"cloudbase" : 142.19548339999,
		"flyability" : 0,
		"reason" : "windSpeed, windDir, rain, cloudbase",
		"timestamp" :1555657200
		},
	"2019-04-19T11:00:00+02:00" : {
		"windSpeed" : 8.8,
		"windDir" : 90,
		"rain" : 1,
		"cloudbase" : 551.81230479998,
		"flyability" : 0,
		"reason" : "windSpeed, windDir, rain, cloudbase",
		"timestamp" :1555668000
		},
	"2019-04-19T14:00:00+02:00" : {
		"windSpeed" : 10,
		"windDir" : 95,
		"rain" : 0,
		"cloudbase" : 4240.9039345,
		"flyability" : 0,
		"reason" : "windSpeed, windDir",
		"timestamp" :1555678800
		},
	"2019-04-19T17:00:00+02:00" : {
		"windSpeed" : 9.7,
		"windDir" : 98,
		"rain" : 0,
		"cloudbase" : 4968.8386025001,
		"flyability" : 0,
		"reason" : "windSpeed, windDir",
		"timestamp" :1555689600
		},
	"2019-04-19T20:00:00+02:00" : {
		"windSpeed" : 9,
		"windDir" : 89,
		"rain" : 0,
		"cloudbase" : 8603.2482620001,
		"flyability" : 0,
		"reason" : "windSpeed, windDir",
		"timestamp" :1555700400
		},
	"2019-04-19T23:00:00+02:00" : {
		"windSpeed" : 7.7,
		"windDir" : 77,
		"rain" : 0,
		"cloudbase" : null,
		"flyability" : 0,
		"reason" : "windSpeed, windDir",
		"timestamp" :1555711200
		},
	"2019-04-20T02:00:00+02:00" : {
		"windSpeed" : 6.6,
		"windDir" : 73,
		"rain" : 0,
		"cloudbase" : 8411.4,
		"flyability" : 0,
		"reason" : "windSpeed, windDir",
		"timestamp" :1555722000
		},
	"2019-04-20T05:00:00+02:00" : {
		"windSpeed" : 4.4,
		"windDir" : 81,
		"rain" : 0,
		"cloudbase" : 7469.551629,
		"flyability" : 0,
		"reason" : "windDir",
		"timestamp" :1555732800
		},
	"2019-04-20T08:00:00+02:00" : {
		"windSpeed" : 4.5,
		"windDir" : 68,
		"rain" : 0,
		"cloudbase" : 6025.4009169999,
		"flyability" : 0,
		"reason" : "windDir",
		"timestamp" :1555743600
		},
	"2019-04-20T11:00:00+02:00" : {
		"windSpeed" : 4,
		"windDir" : 84,
		"rain" : 0,
		"cloudbase" : 5640.483,
		"flyability" : 0,
		"reason" : "windDir",
		"timestamp" :1555754400
		},
	"2019-04-20T14:00:00+02:00" : {
		"windSpeed" : 6.3,
		"windDir" : 92,
		"rain" : 0,
		"cloudbase" : 5680.124131,
		"flyability" : 0,
		"reason" : "windSpeed, windDir",
		"timestamp" :1555765200
		},
	"2019-04-20T17:00:00+02:00" : {
		"windSpeed" : 5,
		"windDir" : 97,
		"rain" : 0,
		"cloudbase" : 5233.741869,
		"flyability" : 0,
		"reason" : "windDir",
		"timestamp" :1555776000
		},
	"2019-04-20T20:00:00+02:00" : {
		"windSpeed" : 3.9,
		"windDir" : 101,
		"rain" : 0,
		"cloudbase" : 7951.883,
		"flyability" : 0,
		"reason" : "windDir",
		"timestamp" :1555786800
		},
	"2019-04-20T23:00:00+02:00" : {
		"windSpeed" : 2.7,
		"windDir" : 61,
		"rain" : 0,
		"cloudbase" : 8402.924131,
		"flyability" : 0,
		"reason" : "windDir",
		"timestamp" :1555797600
		},
	"2019-04-21T02:00:00+02:00" : {
		"windSpeed" : 4.5,
		"windDir" : 50,
		"rain" : 0,
		"cloudbase" : 8958.624131,
		"flyability" : 0,
		"reason" : "windDir",
		"timestamp" :1555808400
		},
	"2019-04-21T05:00:00+02:00" : {
		"windSpeed" : 4.4,
		"windDir" : 44,
		"rain" : 1,
		"cloudbase" : 7727.000738,
		"flyability" : 0,
		"reason" : "windDir, rain",
		"timestamp" :1555819200
		},
	"2019-04-21T08:00:00+02:00" : {
		"windSpeed" : 4.8,
		"windDir" : 63,
		"rain" : 0,
		"cloudbase" : 7620.607131,
		"flyability" : 0,
		"reason" : "windDir",
		"timestamp" :1555830000
		},
	"2019-04-21T11:00:00+02:00" : {
		"windSpeed" : 5.6,
		"windDir" : 63,
		"rain" : 1,
		"cloudbase" : 5709.2914629999,
		"flyability" : 0,
		"reason" : "windSpeed, windDir, rain",
		"timestamp" :1555840800
		},
	"2019-04-21T14:00:00+02:00" : {
		"windSpeed" : 6.8,
		"windDir" : 76,
		"rain" : 1,
		"cloudbase" : 8100,
		"flyability" : 0,
		"reason" : "windSpeed, windDir, rain",
		"timestamp" :1555851600
		}
	}
}