{
"site" : "Paraiso",
"id" : 13651,
"orientations" : "00122000",
"forecasts" : { 
	"2019-04-11T23:00:00-04:00" : {
		"windSpeed" : 0.7,
		"windDir" : 32,
		"rain" : 0,
		"cloudbase" : 11916.6625,
		"flyability" : 0,
		"reason" : "windDir",
		"timestamp" :1555041600
		},
	"2019-04-12T02:00:00-04:00" : {
		"windSpeed" : 1.9,
		"windDir" : 42,
		"rain" : 1,
		"cloudbase" : null,
		"flyability" : 0,
		"reason" : "windDir, rain",
		"timestamp" :1555052400
		},
	"2019-04-12T05:00:00-04:00" : {
		"windSpeed" : 2.3,
		"windDir" : 58,
		"rain" : 1,
		"cloudbase" : 80,
		"flyability" : 0,
		"reason" : "windDir, rain, cloudbase",
		"timestamp" :1555063200
		},
	"2019-04-12T08:00:00-04:00" : {
		"windSpeed" : 3.9,
		"windDir" : 72,
		"rain" : 1,
		"cloudbase" : 10628.6275,
		"flyability" : 0,
		"reason" : "rain",
		"timestamp" :1555074000
		},
	"2019-04-12T11:00:00-04:00" : {
		"windSpeed" : 3.7,
		"windDir" : 73,
		"rain" : 1,
		"cloudbase" : 6441.52125,
		"flyability" : 0,
		"reason" : "rain",
		"timestamp" :1555084800
		},
	"2019-04-12T14:00:00-04:00" : {
		"windSpeed" : 2.5,
		"windDir" : 77,
		"rain" : 1,
		"cloudbase" : 300,
		"flyability" : 0,
		"reason" : "rain, cloudbase",
		"timestamp" :1555095600
		},
	"2019-04-12T17:00:00-04:00" : {
		"windSpeed" : 2.5,
		"windDir" : 79,
		"rain" : 1,
		"cloudbase" : null,
		"flyability" : 0,
		"reason" : "rain",
		"timestamp" :1555106400
		},
	"2019-04-12T20:00:00-04:00" : {
		"windSpeed" : 2.9,
		"windDir" : 67,
		"rain" : 1,
		"cloudbase" : 380,
		"flyability" : 0,
		"reason" : "windDir, rain, cloudbase",
		"timestamp" :1555117200
		},
	"2019-04-12T23:00:00-04:00" : {
		"windSpeed" : 3.3,
		"windDir" : 63,
		"rain" : 1,
		"cloudbase" : 210,
		"flyability" : 0,
		"reason" : "windDir, rain, cloudbase",
		"timestamp" :1555128000
		},
	"2019-04-13T02:00:00-04:00" : {
		"windSpeed" : 3.8,
		"windDir" : 73,
		"rain" : 1,
		"cloudbase" : 276.06599999998,
		"flyability" : 0,
		"reason" : "rain, cloudbase",
		"timestamp" :1555138800
		},
	"2019-04-13T05:00:00-04:00" : {
		"windSpeed" : 3.6,
		"windDir" : 64,
		"rain" : 1,
		"cloudbase" : 1700,
		"flyability" : 0,
		"reason" : "windDir, rain",
		"timestamp" :1555149600
		},
	"2019-04-13T08:00:00-04:00" : {
		"windSpeed" : 4.6,
		"windDir" : 71,
		"rain" : 1,
		"cloudbase" : 1350,
		"flyability" : 0,
		"reason" : "rain",
		"timestamp" :1555160400
		},
	"2019-04-13T11:00:00-04:00" : {
		"windSpeed" : 4,
		"windDir" : 65,
		"rain" : 1,
		"cloudbase" : null,
		"flyability" : 0,
		"reason" : "windDir, rain",
		"timestamp" :1555171200
		},
	"2019-04-13T14:00:00-04:00" : {
		"windSpeed" : 4.3,
		"windDir" : 81,
		"rain" : 1,
		"cloudbase" : null,
		"flyability" : 0,
		"reason" : "rain",
		"timestamp" :1555182000
		},
	"2019-04-13T17:00:00-04:00" : {
		"windSpeed" : 4.5,
		"windDir" : 82,
		"rain" : 1,
		"cloudbase" : null,
		"flyability" : 0,
		"reason" : "rain",
		"timestamp" :1555192800
		},
	"2019-04-13T20:00:00-04:00" : {
		"windSpeed" : 4.6,
		"windDir" : 72,
		"rain" : 1,
		"cloudbase" : 390,
		"flyability" : 0,
		"reason" : "rain, cloudbase",
		"timestamp" :1555203600
		},
	"2019-04-13T23:00:00-04:00" : {
		"windSpeed" : 4.7,
		"windDir" : 69,
		"rain" : 1,
		"cloudbase" : 420,
		"flyability" : 0,
		"reason" : "rain, cloudbase",
		"timestamp" :1555214400
		},
	"2019-04-14T02:00:00-04:00" : {
		"windSpeed" : 3.5,
		"windDir" : 72,
		"rain" : 1,
		"cloudbase" : null,
		"flyability" : 0,
		"reason" : "rain",
		"timestamp" :1555225200
		},
	"2019-04-14T05:00:00-04:00" : {
		"windSpeed" : 3.5,
		"windDir" : 63,
		"rain" : 1,
		"cloudbase" : null,
		"flyability" : 0,
		"reason" : "windDir, rain",
		"timestamp" :1555236000
		},
	"2019-04-14T08:00:00-04:00" : {
		"windSpeed" : 4.6,
		"windDir" : 69,
		"rain" : 1,
		"cloudbase" : null,
		"flyability" : 0,
		"reason" : "rain",
		"timestamp" :1555246800
		},
	"2019-04-14T11:00:00-04:00" : {
		"windSpeed" : 4.2,
		"windDir" : 68,
		"rain" : 1,
		"cloudbase" : null,
		"flyability" : 0,
		"reason" : "rain",
		"timestamp" :1555257600
		},
	"2019-04-14T14:00:00-04:00" : {
		"windSpeed" : 4,
		"windDir" : 83,
		"rain" : 1,
		"cloudbase" : 2650,
		"flyability" : 0,
		"reason" : "rain",
		"timestamp" :1555268400
		},
	"2019-04-14T17:00:00-04:00" : {
		"windSpeed" : 2.8,
		"windDir" : 91,
		"rain" : 1,
		"cloudbase" : null,
		"flyability" : 0,
		"reason" : "rain",
		"timestamp" :1555279200
		},
	"2019-04-14T20:00:00-04:00" : {
		"windSpeed" : 3.3,
		"windDir" : 76,
		"rain" : 0,
		"cloudbase" : null,
		"flyability" : 100,
		"reason" : "",
		"timestamp" :1555290000
		},
	"2019-04-14T23:00:00-04:00" : {
		"windSpeed" : 3.7,
		"windDir" : 67,
		"rain" : 1,
		"cloudbase" : 2150,
		"flyability" : 0,
		"reason" : "windDir, rain",
		"timestamp" :1555300800
		},
	"2019-04-15T02:00:00-04:00" : {
		"windSpeed" : 3.4,
		"windDir" : 70,
		"rain" : 1,
		"cloudbase" : 1150,
		"flyability" : 0,
		"reason" : "rain",
		"timestamp" :1555311600
		},
	"2019-04-15T05:00:00-04:00" : {
		"windSpeed" : 3.3,
		"windDir" : 65,
		"rain" : 1,
		"cloudbase" : null,
		"flyability" : 0,
		"reason" : "windDir, rain",
		"timestamp" :1555322400
		},
	"2019-04-15T08:00:00-04:00" : {
		"windSpeed" : 4,
		"windDir" : 67,
		"rain" : 1,
		"cloudbase" : 2600,
		"flyability" : 0,
		"reason" : "windDir, rain",
		"timestamp" :1555333200
		},
	"2019-04-15T11:00:00-04:00" : {
		"windSpeed" : 3.4,
		"windDir" : 60,
		"rain" : 1,
		"cloudbase" : null,
		"flyability" : 0,
		"reason" : "windDir, rain",
		"timestamp" :1555344000
		},
	"2019-04-15T14:00:00-04:00" : {
		"windSpeed" : 2.6,
		"windDir" : 86,
		"rain" : 1,
		"cloudbase" : null,
		"flyability" : 0,
		"reason" : "rain",
		"timestamp" :1555354800
		},
	"2019-04-15T17:00:00-04:00" : {
		"windSpeed" : 1.9,
		"windDir" : 86,
		"rain" : 0,
		"cloudbase" : null,
		"flyability" : 100,
		"reason" : "",
		"timestamp" :1555365600
		},
	"2019-04-15T20:00:00-04:00" : {
		"windSpeed" : 2,
		"windDir" : 83,
		"rain" : 0,
		"cloudbase" : 660,
		"flyability" : 100,
		"reason" : "",
		"timestamp" :1555376400
		},
	"2019-04-15T23:00:00-04:00" : {
		"windSpeed" : 2.9,
		"windDir" : 67,
		"rain" : 1,
		"cloudbase" : 1338.1634999999,
		"flyability" : 0,
		"reason" : "windDir, rain",
		"timestamp" :1555387200
		},
	"2019-04-16T02:00:00-04:00" : {
		"windSpeed" : 2.4,
		"windDir" : 69,
		"rain" : 1,
		"cloudbase" : 620,
		"flyability" : 0,
		"reason" : "rain, cloudbase",
		"timestamp" :1555398000
		},
	"2019-04-16T05:00:00-04:00" : {
		"windSpeed" : 1.8,
		"windDir" : 48,
		"rain" : 1,
		"cloudbase" : null,
		"flyability" : 0,
		"reason" : "windDir, rain",
		"timestamp" :1555408800
		},
	"2019-04-16T08:00:00-04:00" : {
		"windSpeed" : 2.4,
		"windDir" : 40,
		"rain" : 0,
		"cloudbase" : null,
		"flyability" : 0,
		"reason" : "windDir",
		"timestamp" :1555419600
		},
	"2019-04-16T11:00:00-04:00" : {
		"windSpeed" : 3.4,
		"windDir" : 60,
		"rain" : 0,
		"cloudbase" : null,
		"flyability" : 0,
		"reason" : "windDir",
		"timestamp" :1555430400
		},
	"2019-04-16T14:00:00-04:00" : {
		"windSpeed" : 3.2,
		"windDir" : 98,
		"rain" : 0,
		"cloudbase" : null,
		"flyability" : 100,
		"reason" : "",
		"timestamp" :1555441200
		},
	"2019-04-16T17:00:00-04:00" : {
		"windSpeed" : 2.5,
		"windDir" : 90,
		"rain" : 0,
		"cloudbase" : null,
		"flyability" : 100,
		"reason" : "",
		"timestamp" :1555452000
		},
	"2019-04-16T20:00:00-04:00" : {
		"windSpeed" : 2.6,
		"windDir" : 84,
		"rain" : 0,
		"cloudbase" : 2500,
		"flyability" : 100,
		"reason" : "",
		"timestamp" :1555462800
		},
	"2019-04-16T23:00:00-04:00" : {
		"windSpeed" : 3.4,
		"windDir" : 77,
		"rain" : 1,
		"cloudbase" : 1265.7785,
		"flyability" : 0,
		"reason" : "rain",
		"timestamp" :1555473600
		},
	"2019-04-17T02:00:00-04:00" : {
		"windSpeed" : 3.5,
		"windDir" : 71,
		"rain" : 1,
		"cloudbase" : 778.78299999995,
		"flyability" : 0,
		"reason" : "rain",
		"timestamp" :1555484400
		},
	"2019-04-17T05:00:00-04:00" : {
		"windSpeed" : 3.8,
		"windDir" : 63,
		"rain" : 1,
		"cloudbase" : 380,
		"flyability" : 0,
		"reason" : "windDir, rain, cloudbase",
		"timestamp" :1555495200
		},
	"2019-04-17T08:00:00-04:00" : {
		"windSpeed" : 4.5,
		"windDir" : 66,
		"rain" : 1,
		"cloudbase" : null,
		"flyability" : 0,
		"reason" : "windDir, rain",
		"timestamp" :1555506000
		},
	"2019-04-17T11:00:00-04:00" : {
		"windSpeed" : 4.1,
		"windDir" : 71,
		"rain" : 1,
		"cloudbase" : null,
		"flyability" : 0,
		"reason" : "rain",
		"timestamp" :1555516800
		},
	"2019-04-17T14:00:00-04:00" : {
		"windSpeed" : 3.4,
		"windDir" : 97,
		"rain" : 1,
		"cloudbase" : null,
		"flyability" : 0,
		"reason" : "rain",
		"timestamp" :1555527600
		},
	"2019-04-17T17:00:00-04:00" : {
		"windSpeed" : 2.2,
		"windDir" : 79,
		"rain" : 1,
		"cloudbase" : null,
		"flyability" : 0,
		"reason" : "rain",
		"timestamp" :1555538400
		},
	"2019-04-17T20:00:00-04:00" : {
		"windSpeed" : 2.9,
		"windDir" : 70,
		"rain" : 0,
		"cloudbase" : null,
		"flyability" : 100,
		"reason" : "",
		"timestamp" :1555549200
		}
	}
}