{
"site" : "Dagenbach",
"id" : 13907,
"orientations" : "00000000",
"forecasts" : { 
	"2019-04-08T05:00:00+02:00" : {
		"windSpeed" : 2.3,
		"windDir" : 270,
		"rain" : 0,
		"cloudbase" : 1600,
		"flyability" : -50,
		"reason" : "orientationsUnknown",
		"timestamp" :1554696000
		},
	"2019-04-08T08:00:00+02:00" : {
		"windSpeed" : 3,
		"windDir" : 266,
		"rain" : 0,
		"cloudbase" : 138.2716,
		"flyability" : -0,
		"reason" : "orientationsUnknown, cloudbase",
		"timestamp" :1554706800
		},
	"2019-04-08T11:00:00+02:00" : {
		"windSpeed" : 2.1,
		"windDir" : 290,
		"rain" : 0,
		"cloudbase" : 5270.927,
		"flyability" : -50,
		"reason" : "orientationsUnknown",
		"timestamp" :1554717600
		},
	"2019-04-08T14:00:00+02:00" : {
		"windSpeed" : 0.9,
		"windDir" : 302,
		"rain" : 1,
		"cloudbase" : 1323.442,
		"flyability" : -0,
		"reason" : "orientationsUnknown, rain",
		"timestamp" :1554728400
		},
	"2019-04-08T17:00:00+02:00" : {
		"windSpeed" : 2.3,
		"windDir" : 284,
		"rain" : 1,
		"cloudbase" : 1700.679,
		"flyability" : -0,
		"reason" : "orientationsUnknown, rain",
		"timestamp" :1554739200
		},
	"2019-04-08T20:00:00+02:00" : {
		"windSpeed" : 2,
		"windDir" : 284,
		"rain" : 0,
		"cloudbase" : 1782.779,
		"flyability" : -50,
		"reason" : "orientationsUnknown",
		"timestamp" :1554750000
		},
	"2019-04-08T23:00:00+02:00" : {
		"windSpeed" : 2.1,
		"windDir" : 291,
		"rain" : 0,
		"cloudbase" : null,
		"flyability" : -50,
		"reason" : "orientationsUnknown",
		"timestamp" :1554760800
		},
	"2019-04-09T02:00:00+02:00" : {
		"windSpeed" : 1.6,
		"windDir" : 290,
		"rain" : 0,
		"cloudbase" : null,
		"flyability" : -50,
		"reason" : "orientationsUnknown",
		"timestamp" :1554771600
		},
	"2019-04-09T05:00:00+02:00" : {
		"windSpeed" : 1.8,
		"windDir" : 302,
		"rain" : 0,
		"cloudbase" : 6842.9959999998,
		"flyability" : -50,
		"reason" : "orientationsUnknown",
		"timestamp" :1554782400
		},
	"2019-04-09T08:00:00+02:00" : {
		"windSpeed" : 1.7,
		"windDir" : 335,
		"rain" : 1,
		"cloudbase" : null,
		"flyability" : -0,
		"reason" : "orientationsUnknown, rain",
		"timestamp" :1554793200
		},
	"2019-04-09T11:00:00+02:00" : {
		"windSpeed" : 2.9,
		"windDir" : 70,
		"rain" : 1,
		"cloudbase" : null,
		"flyability" : -0,
		"reason" : "orientationsUnknown, rain",
		"timestamp" :1554804000
		},
	"2019-04-09T14:00:00+02:00" : {
		"windSpeed" : 4.8,
		"windDir" : 38,
		"rain" : 1,
		"cloudbase" : 4241.7659999999,
		"flyability" : -0,
		"reason" : "orientationsUnknown, rain",
		"timestamp" :1554814800
		},
	"2019-04-09T17:00:00+02:00" : {
		"windSpeed" : 3.7,
		"windDir" : 36,
		"rain" : 1,
		"cloudbase" : 5235.116,
		"flyability" : -0,
		"reason" : "orientationsUnknown, rain",
		"timestamp" :1554825600
		},
	"2019-04-09T20:00:00+02:00" : {
		"windSpeed" : 4.1,
		"windDir" : 43,
		"rain" : 1,
		"cloudbase" : 7187.6,
		"flyability" : -0,
		"reason" : "orientationsUnknown, rain",
		"timestamp" :1554836400
		},
	"2019-04-09T23:00:00+02:00" : {
		"windSpeed" : 4.1,
		"windDir" : 48,
		"rain" : 0,
		"cloudbase" : 6223.4,
		"flyability" : -50,
		"reason" : "orientationsUnknown",
		"timestamp" :1554847200
		},
	"2019-04-10T02:00:00+02:00" : {
		"windSpeed" : 4,
		"windDir" : 60,
		"rain" : 1,
		"cloudbase" : 5676.384,
		"flyability" : -0,
		"reason" : "orientationsUnknown, rain",
		"timestamp" :1554858000
		},
	"2019-04-10T05:00:00+02:00" : {
		"windSpeed" : 3.2,
		"windDir" : 52,
		"rain" : 1,
		"cloudbase" : 2037.263,
		"flyability" : -0,
		"reason" : "orientationsUnknown, rain",
		"timestamp" :1554868800
		},
	"2019-04-10T08:00:00+02:00" : {
		"windSpeed" : 3.5,
		"windDir" : 45,
		"rain" : 1,
		"cloudbase" : 1953.8,
		"flyability" : -0,
		"reason" : "orientationsUnknown, rain",
		"timestamp" :1554879600
		},
	"2019-04-10T11:00:00+02:00" : {
		"windSpeed" : 3.5,
		"windDir" : 45,
		"rain" : 1,
		"cloudbase" : 1707.6,
		"flyability" : -0,
		"reason" : "orientationsUnknown, rain",
		"timestamp" :1554890400
		},
	"2019-04-10T14:00:00+02:00" : {
		"windSpeed" : 4.1,
		"windDir" : 52,
		"rain" : 0,
		"cloudbase" : 1801.379,
		"flyability" : -50,
		"reason" : "orientationsUnknown",
		"timestamp" :1554901200
		},
	"2019-04-10T17:00:00+02:00" : {
		"windSpeed" : 3.4,
		"windDir" : 72,
		"rain" : 0,
		"cloudbase" : 1397.921,
		"flyability" : -50,
		"reason" : "orientationsUnknown",
		"timestamp" :1554912000
		},
	"2019-04-10T20:00:00+02:00" : {
		"windSpeed" : 3.7,
		"windDir" : 37,
		"rain" : 0,
		"cloudbase" : 6523.0940000001,
		"flyability" : -50,
		"reason" : "orientationsUnknown",
		"timestamp" :1554922800
		},
	"2019-04-10T23:00:00+02:00" : {
		"windSpeed" : 4.6,
		"windDir" : 41,
		"rain" : 0,
		"cloudbase" : null,
		"flyability" : -50,
		"reason" : "orientationsUnknown",
		"timestamp" :1554933600
		},
	"2019-04-11T02:00:00+02:00" : {
		"windSpeed" : 3.5,
		"windDir" : 45,
		"rain" : 0,
		"cloudbase" : null,
		"flyability" : -50,
		"reason" : "orientationsUnknown",
		"timestamp" :1554944400
		},
	"2019-04-11T05:00:00+02:00" : {
		"windSpeed" : 3.2,
		"windDir" : 52,
		"rain" : 0,
		"cloudbase" : null,
		"flyability" : -50,
		"reason" : "orientationsUnknown",
		"timestamp" :1554955200
		},
	"2019-04-11T08:00:00+02:00" : {
		"windSpeed" : 3.6,
		"windDir" : 56,
		"rain" : 1,
		"cloudbase" : null,
		"flyability" : -0,
		"reason" : "orientationsUnknown, rain",
		"timestamp" :1554966000
		},
	"2019-04-11T11:00:00+02:00" : {
		"windSpeed" : 4.5,
		"windDir" : 63,
		"rain" : 0,
		"cloudbase" : null,
		"flyability" : -50,
		"reason" : "orientationsUnknown",
		"timestamp" :1554976800
		},
	"2019-04-11T14:00:00+02:00" : {
		"windSpeed" : 3.9,
		"windDir" : 50,
		"rain" : 1,
		"cloudbase" : null,
		"flyability" : -0,
		"reason" : "orientationsUnknown, rain",
		"timestamp" :1554987600
		},
	"2019-04-11T17:00:00+02:00" : {
		"windSpeed" : 3.7,
		"windDir" : 42,
		"rain" : 0,
		"cloudbase" : null,
		"flyability" : -50,
		"reason" : "orientationsUnknown",
		"timestamp" :1554998400
		},
	"2019-04-11T20:00:00+02:00" : {
		"windSpeed" : 2.3,
		"windDir" : 40,
		"rain" : 0,
		"cloudbase" : null,
		"flyability" : -50,
		"reason" : "orientationsUnknown",
		"timestamp" :1555009200
		},
	"2019-04-11T23:00:00+02:00" : {
		"windSpeed" : 3.5,
		"windDir" : 45,
		"rain" : 0,
		"cloudbase" : null,
		"flyability" : -50,
		"reason" : "orientationsUnknown",
		"timestamp" :1555020000
		},
	"2019-04-12T02:00:00+02:00" : {
		"windSpeed" : 2.7,
		"windDir" : 68,
		"rain" : 0,
		"cloudbase" : null,
		"flyability" : -50,
		"reason" : "orientationsUnknown",
		"timestamp" :1555030800
		},
	"2019-04-12T05:00:00+02:00" : {
		"windSpeed" : 2.5,
		"windDir" : 66,
		"rain" : 0,
		"cloudbase" : null,
		"flyability" : -50,
		"reason" : "orientationsUnknown",
		"timestamp" :1555041600
		},
	"2019-04-12T08:00:00+02:00" : {
		"windSpeed" : 2.7,
		"windDir" : 68,
		"rain" : 0,
		"cloudbase" : null,
		"flyability" : -50,
		"reason" : "orientationsUnknown",
		"timestamp" :1555052400
		},
	"2019-04-12T11:00:00+02:00" : {
		"windSpeed" : 2.7,
		"windDir" : 56,
		"rain" : 0,
		"cloudbase" : null,
		"flyability" : -50,
		"reason" : "orientationsUnknown",
		"timestamp" :1555063200
		},
	"2019-04-12T14:00:00+02:00" : {
		"windSpeed" : 2.7,
		"windDir" : 49,
		"rain" : 0,
		"cloudbase" : 1423.1,
		"flyability" : -50,
		"reason" : "orientationsUnknown",
		"timestamp" :1555074000
		},
	"2019-04-12T17:00:00+02:00" : {
		"windSpeed" : 2.2,
		"windDir" : 63,
		"rain" : 1,
		"cloudbase" : 1476.9,
		"flyability" : -0,
		"reason" : "orientationsUnknown, rain",
		"timestamp" :1555084800
		},
	"2019-04-12T20:00:00+02:00" : {
		"windSpeed" : 3,
		"windDir" : 55,
		"rain" : 0,
		"cloudbase" : 1436.521,
		"flyability" : -50,
		"reason" : "orientationsUnknown",
		"timestamp" :1555095600
		},
	"2019-04-12T23:00:00+02:00" : {
		"windSpeed" : 3.7,
		"windDir" : 61,
		"rain" : 0,
		"cloudbase" : 3424.363,
		"flyability" : -50,
		"reason" : "orientationsUnknown",
		"timestamp" :1555106400
		},
	"2019-04-13T02:00:00+02:00" : {
		"windSpeed" : 3,
		"windDir" : 80,
		"rain" : 1,
		"cloudbase" : 1678.637,
		"flyability" : -0,
		"reason" : "orientationsUnknown, rain",
		"timestamp" :1555117200
		},
	"2019-04-13T05:00:00+02:00" : {
		"windSpeed" : 3.2,
		"windDir" : 72,
		"rain" : 0,
		"cloudbase" : null,
		"flyability" : -50,
		"reason" : "orientationsUnknown",
		"timestamp" :1555128000
		},
	"2019-04-13T08:00:00+02:00" : {
		"windSpeed" : 3.6,
		"windDir" : 65,
		"rain" : 0,
		"cloudbase" : 2100,
		"flyability" : -50,
		"reason" : "orientationsUnknown",
		"timestamp" :1555138800
		},
	"2019-04-13T11:00:00+02:00" : {
		"windSpeed" : 5.1,
		"windDir" : 79,
		"rain" : 0,
		"cloudbase" : null,
		"flyability" : -0,
		"reason" : "windSpeed, orientationsUnknown",
		"timestamp" :1555149600
		},
	"2019-04-13T14:00:00+02:00" : {
		"windSpeed" : 4.7,
		"windDir" : 74,
		"rain" : 0,
		"cloudbase" : 1476.9,
		"flyability" : -50,
		"reason" : "orientationsUnknown",
		"timestamp" :1555160400
		},
	"2019-04-13T17:00:00+02:00" : {
		"windSpeed" : 4.5,
		"windDir" : 71,
		"rain" : 0,
		"cloudbase" : 1500,
		"flyability" : -50,
		"reason" : "orientationsUnknown",
		"timestamp" :1555171200
		},
	"2019-04-13T20:00:00+02:00" : {
		"windSpeed" : 4.8,
		"windDir" : 69,
		"rain" : 0,
		"cloudbase" : null,
		"flyability" : -50,
		"reason" : "orientationsUnknown",
		"timestamp" :1555182000
		},
	"2019-04-13T23:00:00+02:00" : {
		"windSpeed" : 4.2,
		"windDir" : 62,
		"rain" : 0,
		"cloudbase" : 6000,
		"flyability" : -50,
		"reason" : "orientationsUnknown",
		"timestamp" :1555192800
		},
	"2019-04-14T02:00:00+02:00" : {
		"windSpeed" : 4.7,
		"windDir" : 58,
		"rain" : 0,
		"cloudbase" : 5539.958,
		"flyability" : -50,
		"reason" : "orientationsUnknown",
		"timestamp" :1555203600
		}
	}
}