{
"site" : "Korne",
"id" : 13990,
"orientations" : "00000000",
"forecasts" : { 
	"2019-04-16T17:00:00+02:00" : {
		"windSpeed" : 5.7,
		"windDir" : 61,
		"rain" : 0,
		"cloudbase" : 7600,
		"flyability" : -0,
		"reason" : "windSpeed, orientationsUnknown",
		"timestamp" :1555430400
		},
	"2019-04-16T20:00:00+02:00" : {
		"windSpeed" : 4.5,
		"windDir" : 57,
		"rain" : 0,
		"cloudbase" : 5834.2345,
		"flyability" : -50,
		"reason" : "orientationsUnknown",
		"timestamp" :1555441200
		},
	"2019-04-16T23:00:00+02:00" : {
		"windSpeed" : 2.7,
		"windDir" : 52,
		"rain" : 0,
		"cloudbase" : 2393.23275,
		"flyability" : -50,
		"reason" : "orientationsUnknown",
		"timestamp" :1555452000
		},
	"2019-04-17T02:00:00+02:00" : {
		"windSpeed" : 2.6,
		"windDir" : 3,
		"rain" : 0,
		"cloudbase" : null,
		"flyability" : -50,
		"reason" : "orientationsUnknown",
		"timestamp" :1555462800
		},
	"2019-04-17T05:00:00+02:00" : {
		"windSpeed" : 2.3,
		"windDir" : 18,
		"rain" : 0,
		"cloudbase" : null,
		"flyability" : -50,
		"reason" : "orientationsUnknown",
		"timestamp" :1555473600
		},
	"2019-04-17T08:00:00+02:00" : {
		"windSpeed" : 3.1,
		"windDir" : 56,
		"rain" : 0,
		"cloudbase" : null,
		"flyability" : -50,
		"reason" : "orientationsUnknown",
		"timestamp" :1555484400
		},
	"2019-04-17T11:00:00+02:00" : {
		"windSpeed" : 3.8,
		"windDir" : 67,
		"rain" : 0,
		"cloudbase" : null,
		"flyability" : -50,
		"reason" : "orientationsUnknown",
		"timestamp" :1555495200
		},
	"2019-04-17T14:00:00+02:00" : {
		"windSpeed" : 4.9,
		"windDir" : 70,
		"rain" : 0,
		"cloudbase" : null,
		"flyability" : -50,
		"reason" : "orientationsUnknown",
		"timestamp" :1555506000
		},
	"2019-04-17T17:00:00+02:00" : {
		"windSpeed" : 4,
		"windDir" : 60,
		"rain" : 0,
		"cloudbase" : null,
		"flyability" : -50,
		"reason" : "orientationsUnknown",
		"timestamp" :1555516800
		},
	"2019-04-17T20:00:00+02:00" : {
		"windSpeed" : 3.7,
		"windDir" : 49,
		"rain" : 0,
		"cloudbase" : null,
		"flyability" : -50,
		"reason" : "orientationsUnknown",
		"timestamp" :1555527600
		},
	"2019-04-17T23:00:00+02:00" : {
		"windSpeed" : 3.8,
		"windDir" : 55,
		"rain" : 0,
		"cloudbase" : null,
		"flyability" : -50,
		"reason" : "orientationsUnknown",
		"timestamp" :1555538400
		},
	"2019-04-18T02:00:00+02:00" : {
		"windSpeed" : 2.3,
		"windDir" : 66,
		"rain" : 0,
		"cloudbase" : null,
		"flyability" : -50,
		"reason" : "orientationsUnknown",
		"timestamp" :1555549200
		},
	"2019-04-18T05:00:00+02:00" : {
		"windSpeed" : 2.2,
		"windDir" : 65,
		"rain" : 0,
		"cloudbase" : null,
		"flyability" : -50,
		"reason" : "orientationsUnknown",
		"timestamp" :1555560000
		},
	"2019-04-18T08:00:00+02:00" : {
		"windSpeed" : 2.2,
		"windDir" : 68,
		"rain" : 0,
		"cloudbase" : null,
		"flyability" : -50,
		"reason" : "orientationsUnknown",
		"timestamp" :1555570800
		},
	"2019-04-18T11:00:00+02:00" : {
		"windSpeed" : 3.6,
		"windDir" : 80,
		"rain" : 0,
		"cloudbase" : null,
		"flyability" : -50,
		"reason" : "orientationsUnknown",
		"timestamp" :1555581600
		},
	"2019-04-18T14:00:00+02:00" : {
		"windSpeed" : 3.8,
		"windDir" : 67,
		"rain" : 0,
		"cloudbase" : null,
		"flyability" : -50,
		"reason" : "orientationsUnknown",
		"timestamp" :1555592400
		},
	"2019-04-18T17:00:00+02:00" : {
		"windSpeed" : 4,
		"windDir" : 60,
		"rain" : 0,
		"cloudbase" : null,
		"flyability" : -50,
		"reason" : "orientationsUnknown",
		"timestamp" :1555603200
		},
	"2019-04-18T20:00:00+02:00" : {
		"windSpeed" : 2.9,
		"windDir" : 46,
		"rain" : 0,
		"cloudbase" : null,
		"flyability" : -50,
		"reason" : "orientationsUnknown",
		"timestamp" :1555614000
		},
	"2019-04-18T23:00:00+02:00" : {
		"windSpeed" : 2.4,
		"windDir" : 43,
		"rain" : 0,
		"cloudbase" : null,
		"flyability" : -50,
		"reason" : "orientationsUnknown",
		"timestamp" :1555624800
		},
	"2019-04-19T02:00:00+02:00" : {
		"windSpeed" : 2.3,
		"windDir" : 30,
		"rain" : 0,
		"cloudbase" : null,
		"flyability" : -50,
		"reason" : "orientationsUnknown",
		"timestamp" :1555635600
		},
	"2019-04-19T05:00:00+02:00" : {
		"windSpeed" : 2.3,
		"windDir" : 30,
		"rain" : 0,
		"cloudbase" : null,
		"flyability" : -50,
		"reason" : "orientationsUnknown",
		"timestamp" :1555646400
		},
	"2019-04-19T08:00:00+02:00" : {
		"windSpeed" : 1.5,
		"windDir" : 43,
		"rain" : 0,
		"cloudbase" : null,
		"flyability" : -50,
		"reason" : "orientationsUnknown",
		"timestamp" :1555657200
		},
	"2019-04-19T11:00:00+02:00" : {
		"windSpeed" : 2,
		"windDir" : 56,
		"rain" : 0,
		"cloudbase" : null,
		"flyability" : -50,
		"reason" : "orientationsUnknown",
		"timestamp" :1555668000
		},
	"2019-04-19T14:00:00+02:00" : {
		"windSpeed" : 2.5,
		"windDir" : 49,
		"rain" : 0,
		"cloudbase" : null,
		"flyability" : -50,
		"reason" : "orientationsUnknown",
		"timestamp" :1555678800
		},
	"2019-04-19T17:00:00+02:00" : {
		"windSpeed" : 3.2,
		"windDir" : 51,
		"rain" : 0,
		"cloudbase" : null,
		"flyability" : -50,
		"reason" : "orientationsUnknown",
		"timestamp" :1555689600
		},
	"2019-04-19T20:00:00+02:00" : {
		"windSpeed" : 2.6,
		"windDir" : 55,
		"rain" : 0,
		"cloudbase" : null,
		"flyability" : -50,
		"reason" : "orientationsUnknown",
		"timestamp" :1555700400
		},
	"2019-04-19T23:00:00+02:00" : {
		"windSpeed" : 2.4,
		"windDir" : 59,
		"rain" : 0,
		"cloudbase" : null,
		"flyability" : -50,
		"reason" : "orientationsUnknown",
		"timestamp" :1555711200
		},
	"2019-04-20T02:00:00+02:00" : {
		"windSpeed" : 2.6,
		"windDir" : 51,
		"rain" : 0,
		"cloudbase" : null,
		"flyability" : -50,
		"reason" : "orientationsUnknown",
		"timestamp" :1555722000
		},
	"2019-04-20T05:00:00+02:00" : {
		"windSpeed" : 2.8,
		"windDir" : 46,
		"rain" : 0,
		"cloudbase" : null,
		"flyability" : -50,
		"reason" : "orientationsUnknown",
		"timestamp" :1555732800
		},
	"2019-04-20T08:00:00+02:00" : {
		"windSpeed" : 1,
		"windDir" : 35,
		"rain" : 0,
		"cloudbase" : null,
		"flyability" : -50,
		"reason" : "orientationsUnknown",
		"timestamp" :1555743600
		},
	"2019-04-20T11:00:00+02:00" : {
		"windSpeed" : 1,
		"windDir" : 71,
		"rain" : 0,
		"cloudbase" : 8216.9,
		"flyability" : -50,
		"reason" : "orientationsUnknown",
		"timestamp" :1555754400
		},
	"2019-04-20T14:00:00+02:00" : {
		"windSpeed" : 0.3,
		"windDir" : 62,
		"rain" : 0,
		"cloudbase" : 6800,
		"flyability" : -50,
		"reason" : "orientationsUnknown",
		"timestamp" :1555765200
		},
	"2019-04-20T17:00:00+02:00" : {
		"windSpeed" : 1.5,
		"windDir" : 321,
		"rain" : 0,
		"cloudbase" : 3369.6794999999,
		"flyability" : -50,
		"reason" : "orientationsUnknown",
		"timestamp" :1555776000
		},
	"2019-04-20T20:00:00+02:00" : {
		"windSpeed" : 2.7,
		"windDir" : 68,
		"rain" : 0,
		"cloudbase" : null,
		"flyability" : -50,
		"reason" : "orientationsUnknown",
		"timestamp" :1555786800
		},
	"2019-04-20T23:00:00+02:00" : {
		"windSpeed" : 1.7,
		"windDir" : 75,
		"rain" : 0,
		"cloudbase" : null,
		"flyability" : -50,
		"reason" : "orientationsUnknown",
		"timestamp" :1555797600
		},
	"2019-04-21T02:00:00+02:00" : {
		"windSpeed" : 1.7,
		"windDir" : 110,
		"rain" : 0,
		"cloudbase" : null,
		"flyability" : -50,
		"reason" : "orientationsUnknown",
		"timestamp" :1555808400
		},
	"2019-04-21T05:00:00+02:00" : {
		"windSpeed" : 0.4,
		"windDir" : 43,
		"rain" : 0,
		"cloudbase" : 8500,
		"flyability" : -50,
		"reason" : "orientationsUnknown",
		"timestamp" :1555819200
		},
	"2019-04-21T08:00:00+02:00" : {
		"windSpeed" : 0.3,
		"windDir" : 345,
		"rain" : 0,
		"cloudbase" : 8500,
		"flyability" : -50,
		"reason" : "orientationsUnknown",
		"timestamp" :1555830000
		},
	"2019-04-21T11:00:00+02:00" : {
		"windSpeed" : 0.6,
		"windDir" : 261,
		"rain" : 0,
		"cloudbase" : null,
		"flyability" : -50,
		"reason" : "orientationsUnknown",
		"timestamp" :1555840800
		},
	"2019-04-21T14:00:00+02:00" : {
		"windSpeed" : 0.8,
		"windDir" : 217,
		"rain" : 0,
		"cloudbase" : null,
		"flyability" : -50,
		"reason" : "orientationsUnknown",
		"timestamp" :1555851600
		},
	"2019-04-21T17:00:00+02:00" : {
		"windSpeed" : 1,
		"windDir" : 255,
		"rain" : 0,
		"cloudbase" : null,
		"flyability" : -50,
		"reason" : "orientationsUnknown",
		"timestamp" :1555862400
		},
	"2019-04-21T20:00:00+02:00" : {
		"windSpeed" : 3.4,
		"windDir" : 47,
		"rain" : 0,
		"cloudbase" : null,
		"flyability" : -50,
		"reason" : "orientationsUnknown",
		"timestamp" :1555873200
		},
	"2019-04-21T23:00:00+02:00" : {
		"windSpeed" : 2,
		"windDir" : 82,
		"rain" : 0,
		"cloudbase" : 5079.84825,
		"flyability" : -50,
		"reason" : "orientationsUnknown",
		"timestamp" :1555884000
		},
	"2019-04-22T02:00:00+02:00" : {
		"windSpeed" : 1.6,
		"windDir" : 77,
		"rain" : 0,
		"cloudbase" : 3913.21725,
		"flyability" : -50,
		"reason" : "orientationsUnknown",
		"timestamp" :1555894800
		},
	"2019-04-22T05:00:00+02:00" : {
		"windSpeed" : 1.7,
		"windDir" : 57,
		"rain" : 0,
		"cloudbase" : 3222.3,
		"flyability" : -50,
		"reason" : "orientationsUnknown",
		"timestamp" :1555905600
		},
	"2019-04-22T08:00:00+02:00" : {
		"windSpeed" : 1.6,
		"windDir" : 58,
		"rain" : 0,
		"cloudbase" : 2251.5,
		"flyability" : -50,
		"reason" : "orientationsUnknown",
		"timestamp" :1555916400
		},
	"2019-04-22T11:00:00+02:00" : {
		"windSpeed" : 2.6,
		"windDir" : 86,
		"rain" : 0,
		"cloudbase" : null,
		"flyability" : -50,
		"reason" : "orientationsUnknown",
		"timestamp" :1555927200
		},
	"2019-04-22T14:00:00+02:00" : {
		"windSpeed" : 2.7,
		"windDir" : 110,
		"rain" : 0,
		"cloudbase" : null,
		"flyability" : -50,
		"reason" : "orientationsUnknown",
		"timestamp" :1555938000
		}
	}
}