{
"site" : "Apache Maid (Flagstaff)",
"id" : 14006,
"orientations" : "00001210",
"forecasts" : { 
	"2019-04-04T20:00:00-07:00" : {
		"windSpeed" : 1.6,
		"windDir" : 149,
		"rain" : 0,
		"cloudbase" : null,
		"flyability" : 0,
		"reason" : "windDir",
		"timestamp" :1554436800
		},
	"2019-04-04T23:00:00-07:00" : {
		"windSpeed" : 1.8,
		"windDir" : 159,
		"rain" : 0,
		"cloudbase" : null,
		"flyability" : 100,
		"reason" : "",
		"timestamp" :1554447600
		},
	"2019-04-05T02:00:00-07:00" : {
		"windSpeed" : 2.8,
		"windDir" : 170,
		"rain" : 0,
		"cloudbase" : null,
		"flyability" : 100,
		"reason" : "",
		"timestamp" :1554458400
		},
	"2019-04-05T05:00:00-07:00" : {
		"windSpeed" : 1.3,
		"windDir" : 136,
		"rain" : 0,
		"cloudbase" : 7300,
		"flyability" : 0,
		"reason" : "windDir",
		"timestamp" :1554469200
		},
	"2019-04-05T08:00:00-07:00" : {
		"windSpeed" : 2.9,
		"windDir" : 171,
		"rain" : 0,
		"cloudbase" : null,
		"flyability" : 100,
		"reason" : "",
		"timestamp" :1554480000
		},
	"2019-04-05T11:00:00-07:00" : {
		"windSpeed" : 4.4,
		"windDir" : 215,
		"rain" : 0,
		"cloudbase" : 5481.648,
		"flyability" : 100,
		"reason" : "",
		"timestamp" :1554490800
		},
	"2019-04-05T14:00:00-07:00" : {
		"windSpeed" : 5.4,
		"windDir" : 220,
		"rain" : 1,
		"cloudbase" : null,
		"flyability" : 0,
		"reason" : "windSpeed, rain",
		"timestamp" :1554501600
		},
	"2019-04-05T17:00:00-07:00" : {
		"windSpeed" : 5.1,
		"windDir" : 214,
		"rain" : 0,
		"cloudbase" : null,
		"flyability" : 0,
		"reason" : "windSpeed",
		"timestamp" :1554512400
		},
	"2019-04-05T20:00:00-07:00" : {
		"windSpeed" : 3.3,
		"windDir" : 178,
		"rain" : 0,
		"cloudbase" : null,
		"flyability" : 100,
		"reason" : "",
		"timestamp" :1554523200
		},
	"2019-04-05T23:00:00-07:00" : {
		"windSpeed" : 2.4,
		"windDir" : 222,
		"rain" : 0,
		"cloudbase" : null,
		"flyability" : 100,
		"reason" : "",
		"timestamp" :1554534000
		},
	"2019-04-06T02:00:00-07:00" : {
		"windSpeed" : 1.8,
		"windDir" : 214,
		"rain" : 0,
		"cloudbase" : 7908,
		"flyability" : 100,
		"reason" : "",
		"timestamp" :1554544800
		},
	"2019-04-06T05:00:00-07:00" : {
		"windSpeed" : 1.9,
		"windDir" : 205,
		"rain" : 0,
		"cloudbase" : 1550,
		"flyability" : 0,
		"reason" : "cloudbase",
		"timestamp" :1554555600
		},
	"2019-04-06T08:00:00-07:00" : {
		"windSpeed" : 1,
		"windDir" : 229,
		"rain" : 0,
		"cloudbase" : 2800,
		"flyability" : 100,
		"reason" : "",
		"timestamp" :1554566400
		},
	"2019-04-06T11:00:00-07:00" : {
		"windSpeed" : 3.2,
		"windDir" : 269,
		"rain" : 1,
		"cloudbase" : null,
		"flyability" : 0,
		"reason" : "rain",
		"timestamp" :1554577200
		},
	"2019-04-06T14:00:00-07:00" : {
		"windSpeed" : 3.4,
		"windDir" : 288,
		"rain" : 1,
		"cloudbase" : null,
		"flyability" : 0,
		"reason" : "rain",
		"timestamp" :1554588000
		},
	"2019-04-06T17:00:00-07:00" : {
		"windSpeed" : 2.9,
		"windDir" : 252,
		"rain" : 0,
		"cloudbase" : null,
		"flyability" : 100,
		"reason" : "",
		"timestamp" :1554598800
		},
	"2019-04-06T20:00:00-07:00" : {
		"windSpeed" : 2.2,
		"windDir" : 194,
		"rain" : 0,
		"cloudbase" : null,
		"flyability" : 100,
		"reason" : "",
		"timestamp" :1554609600
		},
	"2019-04-06T23:00:00-07:00" : {
		"windSpeed" : 1.9,
		"windDir" : 240,
		"rain" : 0,
		"cloudbase" : 5336.4,
		"flyability" : 100,
		"reason" : "",
		"timestamp" :1554620400
		},
	"2019-04-07T02:00:00-07:00" : {
		"windSpeed" : 1.4,
		"windDir" : 41,
		"rain" : 0,
		"cloudbase" : null,
		"flyability" : 0,
		"reason" : "windDir",
		"timestamp" :1554631200
		},
	"2019-04-07T05:00:00-07:00" : {
		"windSpeed" : 2.6,
		"windDir" : 69,
		"rain" : 0,
		"cloudbase" : null,
		"flyability" : 0,
		"reason" : "windDir",
		"timestamp" :1554642000
		},
	"2019-04-07T08:00:00-07:00" : {
		"windSpeed" : 2.6,
		"windDir" : 78,
		"rain" : 0,
		"cloudbase" : 9800,
		"flyability" : 0,
		"reason" : "windDir",
		"timestamp" :1554652800
		},
	"2019-04-07T11:00:00-07:00" : {
		"windSpeed" : 2.1,
		"windDir" : 264,
		"rain" : 0,
		"cloudbase" : null,
		"flyability" : 100,
		"reason" : "",
		"timestamp" :1554663600
		},
	"2019-04-07T14:00:00-07:00" : {
		"windSpeed" : 3.5,
		"windDir" : 273,
		"rain" : 0,
		"cloudbase" : null,
		"flyability" : 100,
		"reason" : "",
		"timestamp" :1554674400
		},
	"2019-04-07T17:00:00-07:00" : {
		"windSpeed" : 4.5,
		"windDir" : 281,
		"rain" : 0,
		"cloudbase" : null,
		"flyability" : 100,
		"reason" : "",
		"timestamp" :1554685200
		},
	"2019-04-07T20:00:00-07:00" : {
		"windSpeed" : 3.2,
		"windDir" : 34,
		"rain" : 0,
		"cloudbase" : null,
		"flyability" : 0,
		"reason" : "windDir",
		"timestamp" :1554696000
		},
	"2019-04-07T23:00:00-07:00" : {
		"windSpeed" : 3.9,
		"windDir" : 65,
		"rain" : 0,
		"cloudbase" : null,
		"flyability" : 0,
		"reason" : "windDir",
		"timestamp" :1554706800
		},
	"2019-04-08T02:00:00-07:00" : {
		"windSpeed" : 4.1,
		"windDir" : 70,
		"rain" : 0,
		"cloudbase" : null,
		"flyability" : 0,
		"reason" : "windDir",
		"timestamp" :1554717600
		},
	"2019-04-08T05:00:00-07:00" : {
		"windSpeed" : 4.6,
		"windDir" : 64,
		"rain" : 0,
		"cloudbase" : 8382.4,
		"flyability" : 0,
		"reason" : "windDir",
		"timestamp" :1554728400
		},
	"2019-04-08T08:00:00-07:00" : {
		"windSpeed" : 3.8,
		"windDir" : 70,
		"rain" : 0,
		"cloudbase" : null,
		"flyability" : 0,
		"reason" : "windDir",
		"timestamp" :1554739200
		},
	"2019-04-08T11:00:00-07:00" : {
		"windSpeed" : 1.9,
		"windDir" : 268,
		"rain" : 0,
		"cloudbase" : null,
		"flyability" : 100,
		"reason" : "",
		"timestamp" :1554750000
		},
	"2019-04-08T14:00:00-07:00" : {
		"windSpeed" : 3.8,
		"windDir" : 257,
		"rain" : 0,
		"cloudbase" : 6174.528,
		"flyability" : 100,
		"reason" : "",
		"timestamp" :1554760800
		},
	"2019-04-08T17:00:00-07:00" : {
		"windSpeed" : 2.4,
		"windDir" : 265,
		"rain" : 0,
		"cloudbase" : 6474.2079999999,
		"flyability" : 100,
		"reason" : "",
		"timestamp" :1554771600
		},
	"2019-04-08T20:00:00-07:00" : {
		"windSpeed" : 2.1,
		"windDir" : 180,
		"rain" : 0,
		"cloudbase" : 10941.12,
		"flyability" : 100,
		"reason" : "",
		"timestamp" :1554782400
		},
	"2019-04-08T23:00:00-07:00" : {
		"windSpeed" : 3,
		"windDir" : 200,
		"rain" : 0,
		"cloudbase" : null,
		"flyability" : 100,
		"reason" : "",
		"timestamp" :1554793200
		},
	"2019-04-09T02:00:00-07:00" : {
		"windSpeed" : 2.8,
		"windDir" : 191,
		"rain" : 0,
		"cloudbase" : null,
		"flyability" : 100,
		"reason" : "",
		"timestamp" :1554804000
		},
	"2019-04-09T05:00:00-07:00" : {
		"windSpeed" : 2.9,
		"windDir" : 195,
		"rain" : 0,
		"cloudbase" : null,
		"flyability" : 100,
		"reason" : "",
		"timestamp" :1554814800
		},
	"2019-04-09T08:00:00-07:00" : {
		"windSpeed" : 4.2,
		"windDir" : 209,
		"rain" : 0,
		"cloudbase" : 8950.976,
		"flyability" : 100,
		"reason" : "",
		"timestamp" :1554825600
		},
	"2019-04-09T11:00:00-07:00" : {
		"windSpeed" : 8.6,
		"windDir" : 213,
		"rain" : 0,
		"cloudbase" : 9500,
		"flyability" : 0,
		"reason" : "windSpeed",
		"timestamp" :1554836400
		},
	"2019-04-09T14:00:00-07:00" : {
		"windSpeed" : 11.3,
		"windDir" : 217,
		"rain" : 0,
		"cloudbase" : 7590.4,
		"flyability" : 0,
		"reason" : "windSpeed",
		"timestamp" :1554847200
		},
	"2019-04-09T17:00:00-07:00" : {
		"windSpeed" : 12.1,
		"windDir" : 222,
		"rain" : 0,
		"cloudbase" : 7062.752,
		"flyability" : 0,
		"reason" : "windSpeed",
		"timestamp" :1554858000
		},
	"2019-04-09T20:00:00-07:00" : {
		"windSpeed" : 10.2,
		"windDir" : 241,
		"rain" : 0,
		"cloudbase" : null,
		"flyability" : 0,
		"reason" : "windSpeed",
		"timestamp" :1554868800
		},
	"2019-04-09T23:00:00-07:00" : {
		"windSpeed" : 6.1,
		"windDir" : 269,
		"rain" : 0,
		"cloudbase" : null,
		"flyability" : 0,
		"reason" : "windSpeed",
		"timestamp" :1554879600
		},
	"2019-04-10T02:00:00-07:00" : {
		"windSpeed" : 2.9,
		"windDir" : 269,
		"rain" : 0,
		"cloudbase" : null,
		"flyability" : 100,
		"reason" : "",
		"timestamp" :1554890400
		},
	"2019-04-10T05:00:00-07:00" : {
		"windSpeed" : 2.2,
		"windDir" : 257,
		"rain" : 0,
		"cloudbase" : null,
		"flyability" : 100,
		"reason" : "",
		"timestamp" :1554901200
		},
	"2019-04-10T08:00:00-07:00" : {
		"windSpeed" : 3.8,
		"windDir" : 272,
		"rain" : 0,
		"cloudbase" : null,
		"flyability" : 100,
		"reason" : "",
		"timestamp" :1554912000
		},
	"2019-04-10T11:00:00-07:00" : {
		"windSpeed" : 5.8,
		"windDir" : 262,
		"rain" : 0,
		"cloudbase" : null,
		"flyability" : 0,
		"reason" : "windSpeed",
		"timestamp" :1554922800
		},
	"2019-04-10T14:00:00-07:00" : {
		"windSpeed" : 9.1,
		"windDir" : 273,
		"rain" : 0,
		"cloudbase" : null,
		"flyability" : 0,
		"reason" : "windSpeed",
		"timestamp" :1554933600
		},
	"2019-04-10T17:00:00-07:00" : {
		"windSpeed" : 8.1,
		"windDir" : 285,
		"rain" : 0,
		"cloudbase" : null,
		"flyability" : 0,
		"reason" : "windSpeed",
		"timestamp" :1554944400
		}
	}
}