{
"site" : "Portsea",
"id" : 14274,
"orientations" : "00000100",
"forecasts" : { 
	"2019-04-03T14:00:00+11:00" : {
		"windSpeed" : 7.2,
		"windDir" : 195,
		"rain" : 1,
		"cloudbase" : 3865.988,
		"flyability" : 0,
		"reason" : "windSpeed, windDir, rain",
		"timestamp" :1554264000
		},
	"2019-04-03T17:00:00+11:00" : {
		"windSpeed" : 7,
		"windDir" : 180,
		"rain" : 1,
		"cloudbase" : 3372.8559999999,
		"flyability" : 0,
		"reason" : "windSpeed, windDir, rain",
		"timestamp" :1554274800
		},
	"2019-04-03T20:00:00+11:00" : {
		"windSpeed" : 6.9,
		"windDir" : 163,
		"rain" : 0,
		"cloudbase" : 5783.1999999999,
		"flyability" : 0,
		"reason" : "windSpeed, windDir",
		"timestamp" :1554285600
		},
	"2019-04-03T23:00:00+11:00" : {
		"windSpeed" : 5.7,
		"windDir" : 154,
		"rain" : 0,
		"cloudbase" : null,
		"flyability" : 0,
		"reason" : "windSpeed, windDir",
		"timestamp" :1554296400
		},
	"2019-04-04T02:00:00+11:00" : {
		"windSpeed" : 4.8,
		"windDir" : 131,
		"rain" : 0,
		"cloudbase" : null,
		"flyability" : 0,
		"reason" : "windDir",
		"timestamp" :1554307200
		},
	"2019-04-04T05:00:00+11:00" : {
		"windSpeed" : 4.7,
		"windDir" : 107,
		"rain" : 0,
		"cloudbase" : null,
		"flyability" : 0,
		"reason" : "windDir",
		"timestamp" :1554318000
		},
	"2019-04-04T08:00:00+11:00" : {
		"windSpeed" : 4.7,
		"windDir" : 96,
		"rain" : 0,
		"cloudbase" : null,
		"flyability" : 0,
		"reason" : "windDir",
		"timestamp" :1554328800
		},
	"2019-04-04T11:00:00+11:00" : {
		"windSpeed" : 3.2,
		"windDir" : 81,
		"rain" : 0,
		"cloudbase" : null,
		"flyability" : 0,
		"reason" : "windDir",
		"timestamp" :1554339600
		},
	"2019-04-04T14:00:00+11:00" : {
		"windSpeed" : 0.4,
		"windDir" : 288,
		"rain" : 0,
		"cloudbase" : 9228.992,
		"flyability" : 0,
		"reason" : "windDir",
		"timestamp" :1554350400
		},
	"2019-04-04T17:00:00+11:00" : {
		"windSpeed" : 1.5,
		"windDir" : 215,
		"rain" : 0,
		"cloudbase" : null,
		"flyability" : 100,
		"reason" : "",
		"timestamp" :1554361200
		},
	"2019-04-04T20:00:00+11:00" : {
		"windSpeed" : 9,
		"windDir" : 87,
		"rain" : 0,
		"cloudbase" : null,
		"flyability" : 0,
		"reason" : "windSpeed, windDir",
		"timestamp" :1554372000
		},
	"2019-04-04T23:00:00+11:00" : {
		"windSpeed" : 9.2,
		"windDir" : 77,
		"rain" : 0,
		"cloudbase" : null,
		"flyability" : 0,
		"reason" : "windSpeed, windDir",
		"timestamp" :1554382800
		},
	"2019-04-05T02:00:00+11:00" : {
		"windSpeed" : 7.9,
		"windDir" : 64,
		"rain" : 0,
		"cloudbase" : null,
		"flyability" : 0,
		"reason" : "windSpeed, windDir",
		"timestamp" :1554393600
		},
	"2019-04-05T05:00:00+11:00" : {
		"windSpeed" : 6.9,
		"windDir" : 53,
		"rain" : 0,
		"cloudbase" : 12000,
		"flyability" : 0,
		"reason" : "windSpeed, windDir",
		"timestamp" :1554404400
		},
	"2019-04-05T08:00:00+11:00" : {
		"windSpeed" : 7.1,
		"windDir" : 36,
		"rain" : 0,
		"cloudbase" : null,
		"flyability" : 0,
		"reason" : "windSpeed, windDir",
		"timestamp" :1554415200
		},
	"2019-04-05T11:00:00+11:00" : {
		"windSpeed" : 8.6,
		"windDir" : 25,
		"rain" : 0,
		"cloudbase" : 9443.6,
		"flyability" : 0,
		"reason" : "windSpeed, windDir",
		"timestamp" :1554426000
		},
	"2019-04-05T14:00:00+11:00" : {
		"windSpeed" : 9.6,
		"windDir" : 26,
		"rain" : 0,
		"cloudbase" : 5209.9999999995,
		"flyability" : 0,
		"reason" : "windSpeed, windDir",
		"timestamp" :1554436800
		},
	"2019-04-05T17:00:00+11:00" : {
		"windSpeed" : 10.4,
		"windDir" : 23,
		"rain" : 0,
		"cloudbase" : 8900,
		"flyability" : 0,
		"reason" : "windSpeed, windDir",
		"timestamp" :1554447600
		},
	"2019-04-05T20:00:00+11:00" : {
		"windSpeed" : 11.7,
		"windDir" : 29,
		"rain" : 1,
		"cloudbase" : 8734.016,
		"flyability" : 0,
		"reason" : "windSpeed, windDir, rain",
		"timestamp" :1554458400
		},
	"2019-04-05T23:00:00+11:00" : {
		"windSpeed" : 12.9,
		"windDir" : 7,
		"rain" : 0,
		"cloudbase" : null,
		"flyability" : 0,
		"reason" : "windSpeed, windDir",
		"timestamp" :1554469200
		},
	"2019-04-06T02:00:00+11:00" : {
		"windSpeed" : 3.8,
		"windDir" : 271,
		"rain" : 0,
		"cloudbase" : 5945.9199999998,
		"flyability" : 0,
		"reason" : "windDir",
		"timestamp" :1554480000
		},
	"2019-04-06T05:00:00+11:00" : {
		"windSpeed" : 6.7,
		"windDir" : 291,
		"rain" : 0,
		"cloudbase" : null,
		"flyability" : 0,
		"reason" : "windSpeed, windDir",
		"timestamp" :1554490800
		},
	"2019-04-06T08:00:00+11:00" : {
		"windSpeed" : 7.8,
		"windDir" : 289,
		"rain" : 0,
		"cloudbase" : null,
		"flyability" : 0,
		"reason" : "windSpeed, windDir",
		"timestamp" :1554501600
		},
	"2019-04-06T11:00:00+11:00" : {
		"windSpeed" : 7.1,
		"windDir" : 275,
		"rain" : 1,
		"cloudbase" : null,
		"flyability" : 0,
		"reason" : "windSpeed, windDir, rain",
		"timestamp" :1554512400
		},
	"2019-04-06T14:00:00+11:00" : {
		"windSpeed" : 4.8,
		"windDir" : 205,
		"rain" : 1,
		"cloudbase" : 1478.992,
		"flyability" : 0,
		"reason" : "rain",
		"timestamp" :1554523200
		},
	"2019-04-06T17:00:00+11:00" : {
		"windSpeed" : 8.4,
		"windDir" : 204,
		"rain" : 0,
		"cloudbase" : null,
		"flyability" : 0,
		"reason" : "windSpeed",
		"timestamp" :1554534000
		},
	"2019-04-06T20:00:00+11:00" : {
		"windSpeed" : 7.4,
		"windDir" : 206,
		"rain" : 0,
		"cloudbase" : 10500,
		"flyability" : 0,
		"reason" : "windSpeed",
		"timestamp" :1554544800
		},
	"2019-04-06T23:00:00+11:00" : {
		"windSpeed" : 3.6,
		"windDir" : 191,
		"rain" : 0,
		"cloudbase" : null,
		"flyability" : 0,
		"reason" : "windDir",
		"timestamp" :1554555600
		},
	"2019-04-07T02:00:00+11:00" : {
		"windSpeed" : 1.6,
		"windDir" : 52,
		"rain" : 0,
		"cloudbase" : null,
		"flyability" : 0,
		"reason" : "windDir",
		"timestamp" :1554566400
		},
	"2019-04-07T05:00:00+11:00" : {
		"windSpeed" : 3.1,
		"windDir" : 17,
		"rain" : 0,
		"cloudbase" : 720,
		"flyability" : 0,
		"reason" : "windDir",
		"timestamp" :1554577200
		},
	"2019-04-07T08:00:00+11:00" : {
		"windSpeed" : 6,
		"windDir" : 21,
		"rain" : 0,
		"cloudbase" : null,
		"flyability" : 0,
		"reason" : "windSpeed, windDir",
		"timestamp" :1554588000
		},
	"2019-04-07T11:00:00+11:00" : {
		"windSpeed" : 6.4,
		"windDir" : 10,
		"rain" : 0,
		"cloudbase" : 10335.04,
		"flyability" : 0,
		"reason" : "windSpeed, windDir",
		"timestamp" :1554598800
		},
	"2019-04-07T14:00:00+11:00" : {
		"windSpeed" : 6.1,
		"windDir" : 2,
		"rain" : 0,
		"cloudbase" : 9800,
		"flyability" : 0,
		"reason" : "windSpeed, windDir",
		"timestamp" :1554609600
		},
	"2019-04-07T17:00:00+11:00" : {
		"windSpeed" : 6.5,
		"windDir" : 320,
		"rain" : 0,
		"cloudbase" : 5900,
		"flyability" : 0,
		"reason" : "windSpeed, windDir",
		"timestamp" :1554620400
		},
	"2019-04-07T20:00:00+11:00" : {
		"windSpeed" : 4.1,
		"windDir" : 213,
		"rain" : 0,
		"cloudbase" : 3080.4039999997,
		"flyability" : 100,
		"reason" : "",
		"timestamp" :1554631200
		},
	"2019-04-07T23:00:00+11:00" : {
		"windSpeed" : 7.5,
		"windDir" : 283,
		"rain" : 0,
		"cloudbase" : null,
		"flyability" : 0,
		"reason" : "windSpeed, windDir",
		"timestamp" :1554642000
		},
	"2019-04-08T02:00:00+11:00" : {
		"windSpeed" : 6.8,
		"windDir" : 267,
		"rain" : 0,
		"cloudbase" : 1021.1008,
		"flyability" : 0,
		"reason" : "windSpeed, windDir",
		"timestamp" :1554652800
		},
	"2019-04-08T05:00:00+11:00" : {
		"windSpeed" : 7.4,
		"windDir" : 267,
		"rain" : 1,
		"cloudbase" : null,
		"flyability" : 0,
		"reason" : "windSpeed, windDir, rain",
		"timestamp" :1554663600
		},
	"2019-04-08T08:00:00+11:00" : {
		"windSpeed" : 9.9,
		"windDir" : 293,
		"rain" : 0,
		"cloudbase" : null,
		"flyability" : 0,
		"reason" : "windSpeed, windDir",
		"timestamp" :1554674400
		},
	"2019-04-08T11:00:00+11:00" : {
		"windSpeed" : 9.7,
		"windDir" : 295,
		"rain" : 0,
		"cloudbase" : 1300,
		"flyability" : 0,
		"reason" : "windSpeed, windDir",
		"timestamp" :1554685200
		},
	"2019-04-08T14:00:00+11:00" : {
		"windSpeed" : 9.2,
		"windDir" : 293,
		"rain" : 0,
		"cloudbase" : 1647.904,
		"flyability" : 0,
		"reason" : "windSpeed, windDir",
		"timestamp" :1554696000
		},
	"2019-04-08T17:00:00+11:00" : {
		"windSpeed" : 9,
		"windDir" : 290,
		"rain" : 1,
		"cloudbase" : 1898,
		"flyability" : 0,
		"reason" : "windSpeed, windDir, rain",
		"timestamp" :1554706800
		},
	"2019-04-08T20:00:00+11:00" : {
		"windSpeed" : 7.4,
		"windDir" : 283,
		"rain" : 0,
		"cloudbase" : 2114.496,
		"flyability" : 0,
		"reason" : "windSpeed, windDir",
		"timestamp" :1554717600
		},
	"2019-04-08T23:00:00+11:00" : {
		"windSpeed" : 10.7,
		"windDir" : 283,
		"rain" : 0,
		"cloudbase" : 3550,
		"flyability" : 0,
		"reason" : "windSpeed, windDir",
		"timestamp" :1554728400
		},
	"2019-04-09T02:00:00+11:00" : {
		"windSpeed" : 9.9,
		"windDir" : 282,
		"rain" : 1,
		"cloudbase" : 1850,
		"flyability" : 0,
		"reason" : "windSpeed, windDir, rain",
		"timestamp" :1554739200
		},
	"2019-04-09T05:00:00+11:00" : {
		"windSpeed" : 8.5,
		"windDir" : 265,
		"rain" : 1,
		"cloudbase" : 2190.6,
		"flyability" : 0,
		"reason" : "windSpeed, windDir, rain",
		"timestamp" :1554750000
		},
	"2019-04-09T08:00:00+11:00" : {
		"windSpeed" : 7.9,
		"windDir" : 267,
		"rain" : 1,
		"cloudbase" : null,
		"flyability" : 0,
		"reason" : "windSpeed, windDir, rain",
		"timestamp" :1554760800
		},
	"2019-04-09T11:00:00+11:00" : {
		"windSpeed" : 8.7,
		"windDir" : 249,
		"rain" : 1,
		"cloudbase" : null,
		"flyability" : 0,
		"reason" : "windSpeed, windDir, rain",
		"timestamp" :1554771600
		}
	}
}