{
"site" : "Knockgour \/ Allihies",
"id" : 14385,
"orientations" : "00010020",
"forecasts" : { 
	"2019-04-20T04:00:00+01:00" : {
		"windSpeed" : 1.8,
		"windDir" : 317,
		"rain" : 0,
		"cloudbase" : 7934.9024999998,
		"flyability" : 0,
		"reason" : "windDir",
		"timestamp" :1555725600
		},
	"2019-04-20T07:00:00+01:00" : {
		"windSpeed" : 1.3,
		"windDir" : 9,
		"rain" : 0,
		"cloudbase" : 6719.5470499999,
		"flyability" : 0,
		"reason" : "windDir",
		"timestamp" :1555736400
		},
	"2019-04-20T10:00:00+01:00" : {
		"windSpeed" : 2,
		"windDir" : 321,
		"rain" : 0,
		"cloudbase" : 41.395000000002,
		"flyability" : 0,
		"reason" : "windDir, cloudbase",
		"timestamp" :1555747200
		},
	"2019-04-20T13:00:00+01:00" : {
		"windSpeed" : 1.5,
		"windDir" : 258,
		"rain" : 0,
		"cloudbase" : 2832.2511000003,
		"flyability" : 100,
		"reason" : "",
		"timestamp" :1555758000
		},
	"2019-04-20T16:00:00+01:00" : {
		"windSpeed" : 2,
		"windDir" : 266,
		"rain" : 0,
		"cloudbase" : 4719.6215000002,
		"flyability" : 100,
		"reason" : "",
		"timestamp" :1555768800
		},
	"2019-04-20T19:00:00+01:00" : {
		"windSpeed" : 2.2,
		"windDir" : 280,
		"rain" : 0,
		"cloudbase" : 7091.0782000003,
		"flyability" : 100,
		"reason" : "",
		"timestamp" :1555779600
		},
	"2019-04-20T22:00:00+01:00" : {
		"windSpeed" : 2.9,
		"windDir" : 308,
		"rain" : 0,
		"cloudbase" : 8147.4592000002,
		"flyability" : 0,
		"reason" : "windDir",
		"timestamp" :1555790400
		},
	"2019-04-21T01:00:00+01:00" : {
		"windSpeed" : 1.7,
		"windDir" : 320,
		"rain" : 0,
		"cloudbase" : 6752.6242799998,
		"flyability" : 0,
		"reason" : "windDir",
		"timestamp" :1555801200
		},
	"2019-04-21T04:00:00+01:00" : {
		"windSpeed" : 1.6,
		"windDir" : 259,
		"rain" : 0,
		"cloudbase" : 30,
		"flyability" : 0,
		"reason" : "cloudbase",
		"timestamp" :1555812000
		},
	"2019-04-21T07:00:00+01:00" : {
		"windSpeed" : 2.7,
		"windDir" : 222,
		"rain" : 0,
		"cloudbase" : 56.914315000005,
		"flyability" : 0,
		"reason" : "windDir, cloudbase",
		"timestamp" :1555822800
		},
	"2019-04-21T10:00:00+01:00" : {
		"windSpeed" : 4.1,
		"windDir" : 194,
		"rain" : 1,
		"cloudbase" : 79.363645000003,
		"flyability" : 0,
		"reason" : "windDir, rain, cloudbase",
		"timestamp" :1555833600
		},
	"2019-04-21T13:00:00+01:00" : {
		"windSpeed" : 5.6,
		"windDir" : 188,
		"rain" : 1,
		"cloudbase" : 103.608645,
		"flyability" : 0,
		"reason" : "windSpeed, windDir, rain, cloudbase",
		"timestamp" :1555844400
		},
	"2019-04-21T16:00:00+01:00" : {
		"windSpeed" : 6.3,
		"windDir" : 189,
		"rain" : 1,
		"cloudbase" : 88.934595000001,
		"flyability" : 0,
		"reason" : "windSpeed, windDir, rain, cloudbase",
		"timestamp" :1555855200
		},
	"2019-04-21T19:00:00+01:00" : {
		"windSpeed" : 6.9,
		"windDir" : 180,
		"rain" : 1,
		"cloudbase" : 75.629595000001,
		"flyability" : 0,
		"reason" : "windSpeed, windDir, rain, cloudbase",
		"timestamp" :1555866000
		},
	"2019-04-21T22:00:00+01:00" : {
		"windSpeed" : 7,
		"windDir" : 163,
		"rain" : 1,
		"cloudbase" : 44.744190000001,
		"flyability" : 0,
		"reason" : "windSpeed, windDir, rain, cloudbase",
		"timestamp" :1555876800
		},
	"2019-04-22T01:00:00+01:00" : {
		"windSpeed" : 7.6,
		"windDir" : 157,
		"rain" : 1,
		"cloudbase" : 63.934595000001,
		"flyability" : 0,
		"reason" : "windSpeed, windDir, rain, cloudbase",
		"timestamp" :1555887600
		},
	"2019-04-22T04:00:00+01:00" : {
		"windSpeed" : 7.5,
		"windDir" : 155,
		"rain" : 1,
		"cloudbase" : 151.52,
		"flyability" : 0,
		"reason" : "windSpeed, rain, cloudbase",
		"timestamp" :1555898400
		},
	"2019-04-22T07:00:00+01:00" : {
		"windSpeed" : 7.9,
		"windDir" : 150,
		"rain" : 0,
		"cloudbase" : 6840.7081,
		"flyability" : 0,
		"reason" : "windSpeed",
		"timestamp" :1555909200
		},
	"2019-04-22T10:00:00+01:00" : {
		"windSpeed" : 8.5,
		"windDir" : 148,
		"rain" : 0,
		"cloudbase" : 5700,
		"flyability" : 0,
		"reason" : "windSpeed",
		"timestamp" :1555920000
		},
	"2019-04-22T13:00:00+01:00" : {
		"windSpeed" : 8.8,
		"windDir" : 145,
		"rain" : 0,
		"cloudbase" : 5399.5919,
		"flyability" : 0,
		"reason" : "windSpeed",
		"timestamp" :1555930800
		},
	"2019-04-22T16:00:00+01:00" : {
		"windSpeed" : 8.2,
		"windDir" : 148,
		"rain" : 0,
		"cloudbase" : 5640.7081,
		"flyability" : 0,
		"reason" : "windSpeed",
		"timestamp" :1555941600
		},
	"2019-04-22T19:00:00+01:00" : {
		"windSpeed" : 7.6,
		"windDir" : 139,
		"rain" : 0,
		"cloudbase" : 6198.8919,
		"flyability" : 0,
		"reason" : "windSpeed",
		"timestamp" :1555952400
		},
	"2019-04-22T22:00:00+01:00" : {
		"windSpeed" : 6.2,
		"windDir" : 137,
		"rain" : 0,
		"cloudbase" : 347.16352,
		"flyability" : 0,
		"reason" : "windSpeed, cloudbase",
		"timestamp" :1555963200
		},
	"2019-04-23T01:00:00+01:00" : {
		"windSpeed" : 4,
		"windDir" : 191,
		"rain" : 0,
		"cloudbase" : null,
		"flyability" : 0,
		"reason" : "windDir",
		"timestamp" :1555974000
		},
	"2019-04-23T04:00:00+01:00" : {
		"windSpeed" : 1.6,
		"windDir" : 207,
		"rain" : 0,
		"cloudbase" : 2150,
		"flyability" : 0,
		"reason" : "windDir",
		"timestamp" :1555984800
		},
	"2019-04-23T07:00:00+01:00" : {
		"windSpeed" : 3,
		"windDir" : 319,
		"rain" : 0,
		"cloudbase" : 1907.8919,
		"flyability" : 0,
		"reason" : "windDir",
		"timestamp" :1555995600
		},
	"2019-04-23T10:00:00+01:00" : {
		"windSpeed" : 3.7,
		"windDir" : 344,
		"rain" : 0,
		"cloudbase" : 1987.45,
		"flyability" : 0,
		"reason" : "windDir",
		"timestamp" :1556006400
		},
	"2019-04-23T13:00:00+01:00" : {
		"windSpeed" : 2.9,
		"windDir" : 311,
		"rain" : 0,
		"cloudbase" : 3050,
		"flyability" : 0,
		"reason" : "windDir",
		"timestamp" :1556017200
		},
	"2019-04-23T16:00:00+01:00" : {
		"windSpeed" : 3.6,
		"windDir" : 336,
		"rain" : 0,
		"cloudbase" : 1414.27274,
		"flyability" : 0,
		"reason" : "windDir",
		"timestamp" :1556028000
		},
	"2019-04-23T19:00:00+01:00" : {
		"windSpeed" : 2.9,
		"windDir" : 13,
		"rain" : 1,
		"cloudbase" : 992.06838,
		"flyability" : 0,
		"reason" : "windDir, rain",
		"timestamp" :1556038800
		},
	"2019-04-23T22:00:00+01:00" : {
		"windSpeed" : 1.7,
		"windDir" : 75,
		"rain" : 1,
		"cloudbase" : 655.59838,
		"flyability" : 0,
		"reason" : "windDir, rain",
		"timestamp" :1556049600
		},
	"2019-04-24T01:00:00+01:00" : {
		"windSpeed" : 2.9,
		"windDir" : 161,
		"rain" : 1,
		"cloudbase" : 413.25271,
		"flyability" : 0,
		"reason" : "windDir, rain, cloudbase",
		"timestamp" :1556060400
		},
	"2019-04-24T04:00:00+01:00" : {
		"windSpeed" : 2,
		"windDir" : 258,
		"rain" : 1,
		"cloudbase" : 863.24293000003,
		"flyability" : 0,
		"reason" : "rain",
		"timestamp" :1556071200
		},
	"2019-04-24T07:00:00+01:00" : {
		"windSpeed" : 1.9,
		"windDir" : 231,
		"rain" : 1,
		"cloudbase" : 792.50000000001,
		"flyability" : 0,
		"reason" : "windDir, rain",
		"timestamp" :1556082000
		},
	"2019-04-24T10:00:00+01:00" : {
		"windSpeed" : 3,
		"windDir" : 146,
		"rain" : 1,
		"cloudbase" : 898.89782000001,
		"flyability" : 0,
		"reason" : "rain",
		"timestamp" :1556092800
		},
	"2019-04-24T13:00:00+01:00" : {
		"windSpeed" : 5.9,
		"windDir" : 159,
		"rain" : 1,
		"cloudbase" : 674.71028,
		"flyability" : 0,
		"reason" : "windSpeed, windDir, rain",
		"timestamp" :1556103600
		},
	"2019-04-24T16:00:00+01:00" : {
		"windSpeed" : 5.2,
		"windDir" : 156,
		"rain" : 1,
		"cloudbase" : 666.75676,
		"flyability" : 0,
		"reason" : "windSpeed, windDir, rain",
		"timestamp" :1556114400
		},
	"2019-04-24T19:00:00+01:00" : {
		"windSpeed" : 3.6,
		"windDir" : 134,
		"rain" : 1,
		"cloudbase" : 2600.49595,
		"flyability" : 0,
		"reason" : "rain",
		"timestamp" :1556125200
		},
	"2019-04-24T22:00:00+01:00" : {
		"windSpeed" : 2,
		"windDir" : 98,
		"rain" : 1,
		"cloudbase" : 3033.0838,
		"flyability" : 0,
		"reason" : "windDir, rain",
		"timestamp" :1556136000
		},
	"2019-04-25T01:00:00+01:00" : {
		"windSpeed" : 3.1,
		"windDir" : 147,
		"rain" : 1,
		"cloudbase" : 1850.49595,
		"flyability" : 0,
		"reason" : "rain",
		"timestamp" :1556146800
		},
	"2019-04-25T04:00:00+01:00" : {
		"windSpeed" : 2,
		"windDir" : 159,
		"rain" : 1,
		"cloudbase" : 768.78324,
		"flyability" : 0,
		"reason" : "windDir, rain",
		"timestamp" :1556157600
		},
	"2019-04-25T07:00:00+01:00" : {
		"windSpeed" : 4.7,
		"windDir" : 224,
		"rain" : 1,
		"cloudbase" : 678.21838,
		"flyability" : 0,
		"reason" : "windDir, rain",
		"timestamp" :1556168400
		},
	"2019-04-25T10:00:00+01:00" : {
		"windSpeed" : 7.5,
		"windDir" : 229,
		"rain" : 1,
		"cloudbase" : 1471.4750800001,
		"flyability" : 0,
		"reason" : "windSpeed, windDir, rain",
		"timestamp" :1556179200
		},
	"2019-04-25T13:00:00+01:00" : {
		"windSpeed" : 7.8,
		"windDir" : 246,
		"rain" : 1,
		"cloudbase" : 3754.6581,
		"flyability" : 0,
		"reason" : "windSpeed, windDir, rain",
		"timestamp" :1556190000
		},
	"2019-04-25T16:00:00+01:00" : {
		"windSpeed" : 7.3,
		"windDir" : 263,
		"rain" : 1,
		"cloudbase" : 5257.16215,
		"flyability" : 0,
		"reason" : "windSpeed, rain",
		"timestamp" :1556200800
		},
	"2019-04-25T19:00:00+01:00" : {
		"windSpeed" : 6.3,
		"windDir" : 263,
		"rain" : 1,
		"cloudbase" : 5500,
		"flyability" : 0,
		"reason" : "windSpeed, rain",
		"timestamp" :1556211600
		},
	"2019-04-25T22:00:00+01:00" : {
		"windSpeed" : 6.6,
		"windDir" : 246,
		"rain" : 1,
		"cloudbase" : 5800,
		"flyability" : 0,
		"reason" : "windSpeed, windDir, rain",
		"timestamp" :1556222400
		},
	"2019-04-26T01:00:00+01:00" : {
		"windSpeed" : 9,
		"windDir" : 275,
		"rain" : 0,
		"cloudbase" : null,
		"flyability" : 0,
		"reason" : "windSpeed",
		"timestamp" :1556233200
		}
	}
}