{
"site" : "Thompson's lookout",
"id" : 14477,
"orientations" : "00000220",
"forecasts" : { 
	"2019-04-21T20:00:00-07:00" : {
		"windSpeed" : 1.1,
		"windDir" : 86,
		"rain" : 0,
		"cloudbase" : 7234.2,
		"flyability" : 0,
		"reason" : "windDir",
		"timestamp" :1555905600
		},
	"2019-04-21T23:00:00-07:00" : {
		"windSpeed" : 0.6,
		"windDir" : 102,
		"rain" : 0,
		"cloudbase" : null,
		"flyability" : 0,
		"reason" : "windDir",
		"timestamp" :1555916400
		},
	"2019-04-22T02:00:00-07:00" : {
		"windSpeed" : 0.6,
		"windDir" : 62,
		"rain" : 0,
		"cloudbase" : null,
		"flyability" : 0,
		"reason" : "windDir",
		"timestamp" :1555927200
		},
	"2019-04-22T05:00:00-07:00" : {
		"windSpeed" : 1,
		"windDir" : 68,
		"rain" : 0,
		"cloudbase" : 8847.948,
		"flyability" : 0,
		"reason" : "windDir",
		"timestamp" :1555938000
		},
	"2019-04-22T08:00:00-07:00" : {
		"windSpeed" : 0.5,
		"windDir" : 64,
		"rain" : 0,
		"cloudbase" : 8368.2,
		"flyability" : 0,
		"reason" : "windDir",
		"timestamp" :1555948800
		},
	"2019-04-22T11:00:00-07:00" : {
		"windSpeed" : 2.1,
		"windDir" : 184,
		"rain" : 0,
		"cloudbase" : 9458.684,
		"flyability" : 0,
		"reason" : "windDir",
		"timestamp" :1555959600
		},
	"2019-04-22T14:00:00-07:00" : {
		"windSpeed" : 3.6,
		"windDir" : 224,
		"rain" : 0,
		"cloudbase" : 3904.474,
		"flyability" : 100,
		"reason" : "",
		"timestamp" :1555970400
		},
	"2019-04-22T17:00:00-07:00" : {
		"windSpeed" : 3.2,
		"windDir" : 220,
		"rain" : 0,
		"cloudbase" : 8080.684,
		"flyability" : 100,
		"reason" : "",
		"timestamp" :1555981200
		},
	"2019-04-22T20:00:00-07:00" : {
		"windSpeed" : 1.9,
		"windDir" : 213,
		"rain" : 0,
		"cloudbase" : 6234.2,
		"flyability" : 100,
		"reason" : "",
		"timestamp" :1555992000
		},
	"2019-04-22T23:00:00-07:00" : {
		"windSpeed" : 1.3,
		"windDir" : 221,
		"rain" : 1,
		"cloudbase" : null,
		"flyability" : 0,
		"reason" : "rain",
		"timestamp" :1556002800
		},
	"2019-04-23T02:00:00-07:00" : {
		"windSpeed" : 0.7,
		"windDir" : 155,
		"rain" : 1,
		"cloudbase" : 1324.442,
		"flyability" : 0,
		"reason" : "windDir, rain, cloudbase",
		"timestamp" :1556013600
		},
	"2019-04-23T05:00:00-07:00" : {
		"windSpeed" : 0.4,
		"windDir" : 116,
		"rain" : 1,
		"cloudbase" : 923.2224,
		"flyability" : 0,
		"reason" : "windDir, rain, cloudbase",
		"timestamp" :1556024400
		},
	"2019-04-23T08:00:00-07:00" : {
		"windSpeed" : 1.1,
		"windDir" : 184,
		"rain" : 1,
		"cloudbase" : 420,
		"flyability" : 0,
		"reason" : "windDir, rain, cloudbase",
		"timestamp" :1556035200
		},
	"2019-04-23T11:00:00-07:00" : {
		"windSpeed" : 3.2,
		"windDir" : 220,
		"rain" : 1,
		"cloudbase" : 1150,
		"flyability" : 0,
		"reason" : "rain, cloudbase",
		"timestamp" :1556046000
		},
	"2019-04-23T14:00:00-07:00" : {
		"windSpeed" : 3.8,
		"windDir" : 230,
		"rain" : 1,
		"cloudbase" : 1400,
		"flyability" : 0,
		"reason" : "rain, cloudbase",
		"timestamp" :1556056800
		},
	"2019-04-23T17:00:00-07:00" : {
		"windSpeed" : 1.9,
		"windDir" : 211,
		"rain" : 1,
		"cloudbase" : 1650,
		"flyability" : 0,
		"reason" : "rain, cloudbase",
		"timestamp" :1556067600
		},
	"2019-04-23T20:00:00-07:00" : {
		"windSpeed" : 2,
		"windDir" : 173,
		"rain" : 0,
		"cloudbase" : null,
		"flyability" : 0,
		"reason" : "windDir",
		"timestamp" :1556078400
		},
	"2019-04-23T23:00:00-07:00" : {
		"windSpeed" : 0.6,
		"windDir" : 111,
		"rain" : 0,
		"cloudbase" : 8000,
		"flyability" : 0,
		"reason" : "windDir",
		"timestamp" :1556089200
		},
	"2019-04-24T02:00:00-07:00" : {
		"windSpeed" : 0.7,
		"windDir" : 66,
		"rain" : 0,
		"cloudbase" : null,
		"flyability" : 0,
		"reason" : "windDir",
		"timestamp" :1556100000
		},
	"2019-04-24T05:00:00-07:00" : {
		"windSpeed" : 0.6,
		"windDir" : 62,
		"rain" : 0,
		"cloudbase" : null,
		"flyability" : 0,
		"reason" : "windDir",
		"timestamp" :1556110800
		},
	"2019-04-24T08:00:00-07:00" : {
		"windSpeed" : 0.7,
		"windDir" : 150,
		"rain" : 0,
		"cloudbase" : null,
		"flyability" : 0,
		"reason" : "windDir",
		"timestamp" :1556121600
		},
	"2019-04-24T11:00:00-07:00" : {
		"windSpeed" : 1,
		"windDir" : 229,
		"rain" : 0,
		"cloudbase" : null,
		"flyability" : 100,
		"reason" : "",
		"timestamp" :1556132400
		},
	"2019-04-24T14:00:00-07:00" : {
		"windSpeed" : 3.3,
		"windDir" : 246,
		"rain" : 1,
		"cloudbase" : null,
		"flyability" : 0,
		"reason" : "rain",
		"timestamp" :1556143200
		},
	"2019-04-24T17:00:00-07:00" : {
		"windSpeed" : 3.5,
		"windDir" : 265,
		"rain" : 0,
		"cloudbase" : null,
		"flyability" : 100,
		"reason" : "",
		"timestamp" :1556154000
		},
	"2019-04-24T20:00:00-07:00" : {
		"windSpeed" : 1.8,
		"windDir" : 231,
		"rain" : 0,
		"cloudbase" : null,
		"flyability" : 100,
		"reason" : "",
		"timestamp" :1556164800
		},
	"2019-04-24T23:00:00-07:00" : {
		"windSpeed" : 0.6,
		"windDir" : 56,
		"rain" : 0,
		"cloudbase" : null,
		"flyability" : 0,
		"reason" : "windDir",
		"timestamp" :1556175600
		},
	"2019-04-25T02:00:00-07:00" : {
		"windSpeed" : 0.7,
		"windDir" : 53,
		"rain" : 1,
		"cloudbase" : null,
		"flyability" : 0,
		"reason" : "windDir, rain",
		"timestamp" :1556186400
		},
	"2019-04-25T05:00:00-07:00" : {
		"windSpeed" : 1.1,
		"windDir" : 66,
		"rain" : 0,
		"cloudbase" : null,
		"flyability" : 0,
		"reason" : "windDir",
		"timestamp" :1556197200
		},
	"2019-04-25T08:00:00-07:00" : {
		"windSpeed" : 0.4,
		"windDir" : 82,
		"rain" : 0,
		"cloudbase" : 7380.684,
		"flyability" : 0,
		"reason" : "windDir",
		"timestamp" :1556208000
		},
	"2019-04-25T11:00:00-07:00" : {
		"windSpeed" : 0.8,
		"windDir" : 227,
		"rain" : 0,
		"cloudbase" : 4750,
		"flyability" : 100,
		"reason" : "",
		"timestamp" :1556218800
		},
	"2019-04-25T14:00:00-07:00" : {
		"windSpeed" : 0.3,
		"windDir" : 243,
		"rain" : 0,
		"cloudbase" : 4707.158,
		"flyability" : 100,
		"reason" : "",
		"timestamp" :1556229600
		},
	"2019-04-25T17:00:00-07:00" : {
		"windSpeed" : 2,
		"windDir" : 179,
		"rain" : 0,
		"cloudbase" : 3989,
		"flyability" : 0,
		"reason" : "windDir",
		"timestamp" :1556240400
		},
	"2019-04-25T20:00:00-07:00" : {
		"windSpeed" : 1.5,
		"windDir" : 139,
		"rain" : 0,
		"cloudbase" : 3941.4,
		"flyability" : 0,
		"reason" : "windDir",
		"timestamp" :1556251200
		},
	"2019-04-25T23:00:00-07:00" : {
		"windSpeed" : 0.1,
		"windDir" : 147,
		"rain" : 0,
		"cloudbase" : 2697.194,
		"flyability" : 0,
		"reason" : "windDir",
		"timestamp" :1556262000
		},
	"2019-04-26T02:00:00-07:00" : {
		"windSpeed" : 0,
		"windDir" : 270,
		"rain" : 0,
		"cloudbase" : 2562.242,
		"flyability" : 100,
		"reason" : "",
		"timestamp" :1556272800
		},
	"2019-04-26T05:00:00-07:00" : {
		"windSpeed" : 0.7,
		"windDir" : 24,
		"rain" : 0,
		"cloudbase" : 2138.532,
		"flyability" : 0,
		"reason" : "windDir",
		"timestamp" :1556283600
		},
	"2019-04-26T08:00:00-07:00" : {
		"windSpeed" : 0.7,
		"windDir" : 307,
		"rain" : 1,
		"cloudbase" : null,
		"flyability" : 0,
		"reason" : "windDir, rain",
		"timestamp" :1556294400
		},
	"2019-04-26T11:00:00-07:00" : {
		"windSpeed" : 2,
		"windDir" : 299,
		"rain" : 1,
		"cloudbase" : null,
		"flyability" : 0,
		"reason" : "windDir, rain",
		"timestamp" :1556305200
		},
	"2019-04-26T14:00:00-07:00" : {
		"windSpeed" : 3.2,
		"windDir" : 262,
		"rain" : 1,
		"cloudbase" : null,
		"flyability" : 0,
		"reason" : "rain",
		"timestamp" :1556316000
		},
	"2019-04-26T17:00:00-07:00" : {
		"windSpeed" : 3.1,
		"windDir" : 259,
		"rain" : 1,
		"cloudbase" : 3294.84,
		"flyability" : 0,
		"reason" : "rain",
		"timestamp" :1556326800
		},
	"2019-04-26T20:00:00-07:00" : {
		"windSpeed" : 1.5,
		"windDir" : 240,
		"rain" : 0,
		"cloudbase" : 3477.532,
		"flyability" : 100,
		"reason" : "",
		"timestamp" :1556337600
		},
	"2019-04-26T23:00:00-07:00" : {
		"windSpeed" : 1.4,
		"windDir" : 138,
		"rain" : 0,
		"cloudbase" : null,
		"flyability" : 0,
		"reason" : "windDir",
		"timestamp" :1556348400
		},
	"2019-04-27T02:00:00-07:00" : {
		"windSpeed" : 0.8,
		"windDir" : 148,
		"rain" : 0,
		"cloudbase" : null,
		"flyability" : 0,
		"reason" : "windDir",
		"timestamp" :1556359200
		},
	"2019-04-27T05:00:00-07:00" : {
		"windSpeed" : 0.5,
		"windDir" : 137,
		"rain" : 0,
		"cloudbase" : null,
		"flyability" : 0,
		"reason" : "windDir",
		"timestamp" :1556370000
		},
	"2019-04-27T08:00:00-07:00" : {
		"windSpeed" : 1.2,
		"windDir" : 166,
		"rain" : 1,
		"cloudbase" : 6614.968,
		"flyability" : 0,
		"reason" : "windDir, rain",
		"timestamp" :1556380800
		},
	"2019-04-27T11:00:00-07:00" : {
		"windSpeed" : 3.7,
		"windDir" : 255,
		"rain" : 0,
		"cloudbase" : null,
		"flyability" : 100,
		"reason" : "",
		"timestamp" :1556391600
		},
	"2019-04-27T14:00:00-07:00" : {
		"windSpeed" : 3.8,
		"windDir" : 248,
		"rain" : 1,
		"cloudbase" : 2600,
		"flyability" : 0,
		"reason" : "rain",
		"timestamp" :1556402400
		},
	"2019-04-27T17:00:00-07:00" : {
		"windSpeed" : 2,
		"windDir" : 202,
		"rain" : 1,
		"cloudbase" : 2070.374,
		"flyability" : 0,
		"reason" : "windDir, rain",
		"timestamp" :1556413200
		}
	}
}