{
"site" : "Alum Bay",
"id" : 14480,
"orientations" : "00000000",
"forecasts" : { 
	"2019-04-22T04:00:00+01:00" : {
		"windSpeed" : 5,
		"windDir" : 87,
		"rain" : 0,
		"cloudbase" : null,
		"flyability" : -50,
		"reason" : "orientationsUnknown",
		"timestamp" :1555898400
		},
	"2019-04-22T07:00:00+01:00" : {
		"windSpeed" : 5.2,
		"windDir" : 83,
		"rain" : 0,
		"cloudbase" : 9000,
		"flyability" : -0,
		"reason" : "windSpeed, orientationsUnknown",
		"timestamp" :1555909200
		},
	"2019-04-22T10:00:00+01:00" : {
		"windSpeed" : 4.7,
		"windDir" : 101,
		"rain" : 0,
		"cloudbase" : null,
		"flyability" : -50,
		"reason" : "orientationsUnknown",
		"timestamp" :1555920000
		},
	"2019-04-22T13:00:00+01:00" : {
		"windSpeed" : 4.3,
		"windDir" : 145,
		"rain" : 0,
		"cloudbase" : null,
		"flyability" : -50,
		"reason" : "orientationsUnknown",
		"timestamp" :1555930800
		},
	"2019-04-22T16:00:00+01:00" : {
		"windSpeed" : 1.9,
		"windDir" : 157,
		"rain" : 0,
		"cloudbase" : 8400,
		"flyability" : -50,
		"reason" : "orientationsUnknown",
		"timestamp" :1555941600
		},
	"2019-04-22T19:00:00+01:00" : {
		"windSpeed" : 3.1,
		"windDir" : 116,
		"rain" : 0,
		"cloudbase" : 3100,
		"flyability" : -50,
		"reason" : "orientationsUnknown",
		"timestamp" :1555952400
		},
	"2019-04-22T22:00:00+01:00" : {
		"windSpeed" : 4.5,
		"windDir" : 68,
		"rain" : 0,
		"cloudbase" : 3550,
		"flyability" : -50,
		"reason" : "orientationsUnknown",
		"timestamp" :1555963200
		},
	"2019-04-23T01:00:00+01:00" : {
		"windSpeed" : 5,
		"windDir" : 67,
		"rain" : 1,
		"cloudbase" : 8260.73,
		"flyability" : -0,
		"reason" : "orientationsUnknown, rain",
		"timestamp" :1555974000
		},
	"2019-04-23T04:00:00+01:00" : {
		"windSpeed" : 5,
		"windDir" : 52,
		"rain" : 0,
		"cloudbase" : 7000,
		"flyability" : -50,
		"reason" : "orientationsUnknown",
		"timestamp" :1555984800
		},
	"2019-04-23T07:00:00+01:00" : {
		"windSpeed" : 5.5,
		"windDir" : 72,
		"rain" : 0,
		"cloudbase" : 9500,
		"flyability" : -0,
		"reason" : "windSpeed, orientationsUnknown",
		"timestamp" :1555995600
		},
	"2019-04-23T10:00:00+01:00" : {
		"windSpeed" : 5.2,
		"windDir" : 91,
		"rain" : 0,
		"cloudbase" : 9678.73,
		"flyability" : -0,
		"reason" : "windSpeed, orientationsUnknown",
		"timestamp" :1556006400
		},
	"2019-04-23T13:00:00+01:00" : {
		"windSpeed" : 4.9,
		"windDir" : 112,
		"rain" : 0,
		"cloudbase" : 9200,
		"flyability" : -50,
		"reason" : "orientationsUnknown",
		"timestamp" :1556017200
		},
	"2019-04-23T16:00:00+01:00" : {
		"windSpeed" : 3.2,
		"windDir" : 129,
		"rain" : 0,
		"cloudbase" : 6852.73,
		"flyability" : -50,
		"reason" : "orientationsUnknown",
		"timestamp" :1556028000
		},
	"2019-04-23T19:00:00+01:00" : {
		"windSpeed" : 3.9,
		"windDir" : 103,
		"rain" : 0,
		"cloudbase" : 5492,
		"flyability" : -50,
		"reason" : "orientationsUnknown",
		"timestamp" :1556038800
		},
	"2019-04-23T22:00:00+01:00" : {
		"windSpeed" : 2.6,
		"windDir" : 121,
		"rain" : 0,
		"cloudbase" : 4062.595,
		"flyability" : -50,
		"reason" : "orientationsUnknown",
		"timestamp" :1556049600
		},
	"2019-04-24T01:00:00+01:00" : {
		"windSpeed" : 1.4,
		"windDir" : 110,
		"rain" : 0,
		"cloudbase" : 2650,
		"flyability" : -50,
		"reason" : "orientationsUnknown",
		"timestamp" :1556060400
		},
	"2019-04-24T04:00:00+01:00" : {
		"windSpeed" : 2.4,
		"windDir" : 104,
		"rain" : 1,
		"cloudbase" : 8918.27,
		"flyability" : -0,
		"reason" : "orientationsUnknown, rain",
		"timestamp" :1556071200
		},
	"2019-04-24T07:00:00+01:00" : {
		"windSpeed" : 4.2,
		"windDir" : 108,
		"rain" : 1,
		"cloudbase" : 2050,
		"flyability" : -0,
		"reason" : "orientationsUnknown, rain",
		"timestamp" :1556082000
		},
	"2019-04-24T10:00:00+01:00" : {
		"windSpeed" : 6.7,
		"windDir" : 159,
		"rain" : 1,
		"cloudbase" : 342.173,
		"flyability" : -0,
		"reason" : "windSpeed, orientationsUnknown, rain",
		"timestamp" :1556092800
		},
	"2019-04-24T13:00:00+01:00" : {
		"windSpeed" : 6.7,
		"windDir" : 217,
		"rain" : 1,
		"cloudbase" : 1644.77,
		"flyability" : -0,
		"reason" : "windSpeed, orientationsUnknown, rain",
		"timestamp" :1556103600
		},
	"2019-04-24T16:00:00+01:00" : {
		"windSpeed" : 4.8,
		"windDir" : 183,
		"rain" : 0,
		"cloudbase" : 6200,
		"flyability" : -50,
		"reason" : "orientationsUnknown",
		"timestamp" :1556114400
		},
	"2019-04-24T19:00:00+01:00" : {
		"windSpeed" : 7.3,
		"windDir" : 137,
		"rain" : 1,
		"cloudbase" : 4359.905,
		"flyability" : -0,
		"reason" : "windSpeed, orientationsUnknown, rain",
		"timestamp" :1556125200
		},
	"2019-04-24T22:00:00+01:00" : {
		"windSpeed" : 8.7,
		"windDir" : 151,
		"rain" : 1,
		"cloudbase" : null,
		"flyability" : -0,
		"reason" : "windSpeed, orientationsUnknown, rain",
		"timestamp" :1556136000
		},
	"2019-04-25T01:00:00+01:00" : {
		"windSpeed" : 9.5,
		"windDir" : 148,
		"rain" : 1,
		"cloudbase" : 2505.365,
		"flyability" : -0,
		"reason" : "windSpeed, orientationsUnknown, rain",
		"timestamp" :1556146800
		},
	"2019-04-25T04:00:00+01:00" : {
		"windSpeed" : 10.4,
		"windDir" : 144,
		"rain" : 1,
		"cloudbase" : 2479.675,
		"flyability" : -0,
		"reason" : "windSpeed, orientationsUnknown, rain",
		"timestamp" :1556157600
		},
	"2019-04-25T07:00:00+01:00" : {
		"windSpeed" : 10.6,
		"windDir" : 147,
		"rain" : 1,
		"cloudbase" : 1036.865,
		"flyability" : -0,
		"reason" : "windSpeed, orientationsUnknown, rain",
		"timestamp" :1556168400
		},
	"2019-04-25T10:00:00+01:00" : {
		"windSpeed" : 9.2,
		"windDir" : 173,
		"rain" : 1,
		"cloudbase" : 960,
		"flyability" : -0,
		"reason" : "windSpeed, orientationsUnknown, rain",
		"timestamp" :1556179200
		},
	"2019-04-25T13:00:00+01:00" : {
		"windSpeed" : 7.5,
		"windDir" : 171,
		"rain" : 1,
		"cloudbase" : null,
		"flyability" : -0,
		"reason" : "windSpeed, orientationsUnknown, rain",
		"timestamp" :1556190000
		},
	"2019-04-25T16:00:00+01:00" : {
		"windSpeed" : 6.5,
		"windDir" : 183,
		"rain" : 1,
		"cloudbase" : null,
		"flyability" : -0,
		"reason" : "windSpeed, orientationsUnknown, rain",
		"timestamp" :1556200800
		},
	"2019-04-25T19:00:00+01:00" : {
		"windSpeed" : 6.3,
		"windDir" : 190,
		"rain" : 0,
		"cloudbase" : 6400,
		"flyability" : -0,
		"reason" : "windSpeed, orientationsUnknown",
		"timestamp" :1556211600
		},
	"2019-04-25T22:00:00+01:00" : {
		"windSpeed" : 6.8,
		"windDir" : 194,
		"rain" : 0,
		"cloudbase" : null,
		"flyability" : -0,
		"reason" : "windSpeed, orientationsUnknown",
		"timestamp" :1556222400
		},
	"2019-04-26T01:00:00+01:00" : {
		"windSpeed" : 6.1,
		"windDir" : 186,
		"rain" : 1,
		"cloudbase" : null,
		"flyability" : -0,
		"reason" : "windSpeed, orientationsUnknown, rain",
		"timestamp" :1556233200
		},
	"2019-04-26T04:00:00+01:00" : {
		"windSpeed" : 7,
		"windDir" : 186,
		"rain" : 0,
		"cloudbase" : null,
		"flyability" : -0,
		"reason" : "windSpeed, orientationsUnknown",
		"timestamp" :1556244000
		},
	"2019-04-26T07:00:00+01:00" : {
		"windSpeed" : 5.5,
		"windDir" : 191,
		"rain" : 1,
		"cloudbase" : 5686.3300000001,
		"flyability" : -0,
		"reason" : "windSpeed, orientationsUnknown, rain",
		"timestamp" :1556254800
		},
	"2019-04-26T10:00:00+01:00" : {
		"windSpeed" : 6.1,
		"windDir" : 189,
		"rain" : 1,
		"cloudbase" : null,
		"flyability" : -0,
		"reason" : "windSpeed, orientationsUnknown, rain",
		"timestamp" :1556265600
		},
	"2019-04-26T13:00:00+01:00" : {
		"windSpeed" : 7.9,
		"windDir" : 210,
		"rain" : 1,
		"cloudbase" : 497.281,
		"flyability" : -0,
		"reason" : "windSpeed, orientationsUnknown, rain",
		"timestamp" :1556276400
		},
	"2019-04-26T16:00:00+01:00" : {
		"windSpeed" : 7.7,
		"windDir" : 226,
		"rain" : 0,
		"cloudbase" : 7100,
		"flyability" : -0,
		"reason" : "windSpeed, orientationsUnknown",
		"timestamp" :1556287200
		},
	"2019-04-26T19:00:00+01:00" : {
		"windSpeed" : 7.6,
		"windDir" : 248,
		"rain" : 0,
		"cloudbase" : null,
		"flyability" : -0,
		"reason" : "windSpeed, orientationsUnknown",
		"timestamp" :1556298000
		},
	"2019-04-26T22:00:00+01:00" : {
		"windSpeed" : 8.5,
		"windDir" : 254,
		"rain" : 0,
		"cloudbase" : 6653.6850000001,
		"flyability" : -0,
		"reason" : "windSpeed, orientationsUnknown",
		"timestamp" :1556308800
		},
	"2019-04-27T01:00:00+01:00" : {
		"windSpeed" : 7.3,
		"windDir" : 222,
		"rain" : 1,
		"cloudbase" : 987.935,
		"flyability" : -0,
		"reason" : "windSpeed, orientationsUnknown, rain",
		"timestamp" :1556319600
		},
	"2019-04-27T04:00:00+01:00" : {
		"windSpeed" : 12.7,
		"windDir" : 192,
		"rain" : 1,
		"cloudbase" : 494.9,
		"flyability" : -0,
		"reason" : "windSpeed, orientationsUnknown, rain",
		"timestamp" :1556330400
		},
	"2019-04-27T07:00:00+01:00" : {
		"windSpeed" : 11.9,
		"windDir" : 253,
		"rain" : 1,
		"cloudbase" : null,
		"flyability" : -0,
		"reason" : "windSpeed, orientationsUnknown, rain",
		"timestamp" :1556341200
		},
	"2019-04-27T10:00:00+01:00" : {
		"windSpeed" : 14,
		"windDir" : 304,
		"rain" : 1,
		"cloudbase" : 1591.85,
		"flyability" : -0,
		"reason" : "windSpeed, orientationsUnknown, rain",
		"timestamp" :1556352000
		},
	"2019-04-27T13:00:00+01:00" : {
		"windSpeed" : 10.9,
		"windDir" : 301,
		"rain" : 0,
		"cloudbase" : null,
		"flyability" : -0,
		"reason" : "windSpeed, orientationsUnknown",
		"timestamp" :1556362800
		},
	"2019-04-27T16:00:00+01:00" : {
		"windSpeed" : 11.3,
		"windDir" : 300,
		"rain" : 1,
		"cloudbase" : null,
		"flyability" : -0,
		"reason" : "windSpeed, orientationsUnknown, rain",
		"timestamp" :1556373600
		},
	"2019-04-27T19:00:00+01:00" : {
		"windSpeed" : 9.9,
		"windDir" : 289,
		"rain" : 1,
		"cloudbase" : null,
		"flyability" : -0,
		"reason" : "windSpeed, orientationsUnknown, rain",
		"timestamp" :1556384400
		},
	"2019-04-27T22:00:00+01:00" : {
		"windSpeed" : 7.3,
		"windDir" : 287,
		"rain" : 0,
		"cloudbase" : 7147.27,
		"flyability" : -0,
		"reason" : "windSpeed, orientationsUnknown",
		"timestamp" :1556395200
		},
	"2019-04-28T01:00:00+01:00" : {
		"windSpeed" : 7.3,
		"windDir" : 275,
		"rain" : 0,
		"cloudbase" : 6076.27,
		"flyability" : -0,
		"reason" : "windSpeed, orientationsUnknown",
		"timestamp" :1556406000
		}
	}
}