{
"site" : "192km",
"id" : 14590,
"orientations" : "00000000",
"forecasts" : { 
	"2019-04-15T04:00:00+01:00" : {
		"windSpeed" : 4.4,
		"windDir" : 261,
		"rain" : 0,
		"cloudbase" : null,
		"flyability" : -50,
		"reason" : "orientationsUnknown",
		"timestamp" :1555293600
		},
	"2019-04-15T07:00:00+01:00" : {
		"windSpeed" : 2.6,
		"windDir" : 260,
		"rain" : 0,
		"cloudbase" : 10500,
		"flyability" : -50,
		"reason" : "orientationsUnknown",
		"timestamp" :1555304400
		},
	"2019-04-15T10:00:00+01:00" : {
		"windSpeed" : 3.3,
		"windDir" : 289,
		"rain" : 0,
		"cloudbase" : 10000,
		"flyability" : -50,
		"reason" : "orientationsUnknown",
		"timestamp" :1555315200
		},
	"2019-04-15T13:00:00+01:00" : {
		"windSpeed" : 2.9,
		"windDir" : 302,
		"rain" : 0,
		"cloudbase" : 5666.8475600002,
		"flyability" : -50,
		"reason" : "orientationsUnknown",
		"timestamp" :1555326000
		},
	"2019-04-15T16:00:00+01:00" : {
		"windSpeed" : 4.9,
		"windDir" : 352,
		"rain" : 0,
		"cloudbase" : null,
		"flyability" : -50,
		"reason" : "orientationsUnknown",
		"timestamp" :1555336800
		},
	"2019-04-15T19:00:00+01:00" : {
		"windSpeed" : 4.2,
		"windDir" : 19,
		"rain" : 0,
		"cloudbase" : null,
		"flyability" : -50,
		"reason" : "orientationsUnknown",
		"timestamp" :1555347600
		},
	"2019-04-15T22:00:00+01:00" : {
		"windSpeed" : 3.4,
		"windDir" : 44,
		"rain" : 0,
		"cloudbase" : null,
		"flyability" : -50,
		"reason" : "orientationsUnknown",
		"timestamp" :1555358400
		},
	"2019-04-16T01:00:00+01:00" : {
		"windSpeed" : 3.4,
		"windDir" : 57,
		"rain" : 0,
		"cloudbase" : null,
		"flyability" : -50,
		"reason" : "orientationsUnknown",
		"timestamp" :1555369200
		},
	"2019-04-16T04:00:00+01:00" : {
		"windSpeed" : 3.6,
		"windDir" : 73,
		"rain" : 0,
		"cloudbase" : null,
		"flyability" : -50,
		"reason" : "orientationsUnknown",
		"timestamp" :1555380000
		},
	"2019-04-16T07:00:00+01:00" : {
		"windSpeed" : 3.2,
		"windDir" : 73,
		"rain" : 0,
		"cloudbase" : null,
		"flyability" : -50,
		"reason" : "orientationsUnknown",
		"timestamp" :1555390800
		},
	"2019-04-16T10:00:00+01:00" : {
		"windSpeed" : 2.7,
		"windDir" : 69,
		"rain" : 0,
		"cloudbase" : null,
		"flyability" : -50,
		"reason" : "orientationsUnknown",
		"timestamp" :1555401600
		},
	"2019-04-16T13:00:00+01:00" : {
		"windSpeed" : 4.3,
		"windDir" : 359,
		"rain" : 0,
		"cloudbase" : 10500,
		"flyability" : -50,
		"reason" : "orientationsUnknown",
		"timestamp" :1555412400
		},
	"2019-04-16T16:00:00+01:00" : {
		"windSpeed" : 2.6,
		"windDir" : 339,
		"rain" : 0,
		"cloudbase" : 9981.06931,
		"flyability" : -50,
		"reason" : "orientationsUnknown",
		"timestamp" :1555423200
		},
	"2019-04-16T19:00:00+01:00" : {
		"windSpeed" : 2.1,
		"windDir" : 314,
		"rain" : 0,
		"cloudbase" : null,
		"flyability" : -50,
		"reason" : "orientationsUnknown",
		"timestamp" :1555434000
		},
	"2019-04-16T22:00:00+01:00" : {
		"windSpeed" : 2,
		"windDir" : 286,
		"rain" : 0,
		"cloudbase" : null,
		"flyability" : -50,
		"reason" : "orientationsUnknown",
		"timestamp" :1555444800
		},
	"2019-04-17T01:00:00+01:00" : {
		"windSpeed" : 0.7,
		"windDir" : 46,
		"rain" : 0,
		"cloudbase" : null,
		"flyability" : -50,
		"reason" : "orientationsUnknown",
		"timestamp" :1555455600
		},
	"2019-04-17T04:00:00+01:00" : {
		"windSpeed" : 2.8,
		"windDir" : 137,
		"rain" : 0,
		"cloudbase" : 37.8977585,
		"flyability" : -0,
		"reason" : "orientationsUnknown, cloudbase",
		"timestamp" :1555466400
		},
	"2019-04-17T07:00:00+01:00" : {
		"windSpeed" : 2.6,
		"windDir" : 161,
		"rain" : 0,
		"cloudbase" : 10559.76104,
		"flyability" : -50,
		"reason" : "orientationsUnknown",
		"timestamp" :1555477200
		},
	"2019-04-17T10:00:00+01:00" : {
		"windSpeed" : 4.7,
		"windDir" : 240,
		"rain" : 0,
		"cloudbase" : null,
		"flyability" : -50,
		"reason" : "orientationsUnknown",
		"timestamp" :1555488000
		},
	"2019-04-17T13:00:00+01:00" : {
		"windSpeed" : 6.7,
		"windDir" : 236,
		"rain" : 0,
		"cloudbase" : 8279.90069,
		"flyability" : -0,
		"reason" : "windSpeed, orientationsUnknown",
		"timestamp" :1555498800
		},
	"2019-04-17T16:00:00+01:00" : {
		"windSpeed" : 7.3,
		"windDir" : 251,
		"rain" : 0,
		"cloudbase" : null,
		"flyability" : -0,
		"reason" : "windSpeed, orientationsUnknown",
		"timestamp" :1555509600
		},
	"2019-04-17T19:00:00+01:00" : {
		"windSpeed" : 4.4,
		"windDir" : 290,
		"rain" : 1,
		"cloudbase" : null,
		"flyability" : -0,
		"reason" : "orientationsUnknown, rain",
		"timestamp" :1555520400
		},
	"2019-04-17T22:00:00+01:00" : {
		"windSpeed" : 1.6,
		"windDir" : 256,
		"rain" : 0,
		"cloudbase" : 2299.8001600001,
		"flyability" : -50,
		"reason" : "orientationsUnknown",
		"timestamp" :1555531200
		},
	"2019-04-18T01:00:00+01:00" : {
		"windSpeed" : 2,
		"windDir" : 231,
		"rain" : 1,
		"cloudbase" : 10000,
		"flyability" : -0,
		"reason" : "orientationsUnknown, rain",
		"timestamp" :1555542000
		},
	"2019-04-18T04:00:00+01:00" : {
		"windSpeed" : 2.8,
		"windDir" : 290,
		"rain" : 1,
		"cloudbase" : 8900,
		"flyability" : -0,
		"reason" : "orientationsUnknown, rain",
		"timestamp" :1555552800
		},
	"2019-04-18T07:00:00+01:00" : {
		"windSpeed" : 3.5,
		"windDir" : 314,
		"rain" : 1,
		"cloudbase" : null,
		"flyability" : -0,
		"reason" : "orientationsUnknown, rain",
		"timestamp" :1555563600
		},
	"2019-04-18T10:00:00+01:00" : {
		"windSpeed" : 4.7,
		"windDir" : 327,
		"rain" : 1,
		"cloudbase" : 800,
		"flyability" : -0,
		"reason" : "orientationsUnknown, rain",
		"timestamp" :1555574400
		},
	"2019-04-18T13:00:00+01:00" : {
		"windSpeed" : 4.9,
		"windDir" : 336,
		"rain" : 0,
		"cloudbase" : null,
		"flyability" : -50,
		"reason" : "orientationsUnknown",
		"timestamp" :1555585200
		},
	"2019-04-18T16:00:00+01:00" : {
		"windSpeed" : 5.5,
		"windDir" : 348,
		"rain" : 0,
		"cloudbase" : null,
		"flyability" : -0,
		"reason" : "windSpeed, orientationsUnknown",
		"timestamp" :1555596000
		},
	"2019-04-18T19:00:00+01:00" : {
		"windSpeed" : 6,
		"windDir" : 360,
		"rain" : 0,
		"cloudbase" : null,
		"flyability" : -0,
		"reason" : "windSpeed, orientationsUnknown",
		"timestamp" :1555606800
		},
	"2019-04-18T22:00:00+01:00" : {
		"windSpeed" : 6.1,
		"windDir" : 13,
		"rain" : 0,
		"cloudbase" : null,
		"flyability" : -0,
		"reason" : "windSpeed, orientationsUnknown",
		"timestamp" :1555617600
		},
	"2019-04-19T01:00:00+01:00" : {
		"windSpeed" : 5.6,
		"windDir" : 9,
		"rain" : 0,
		"cloudbase" : 1000,
		"flyability" : -0,
		"reason" : "windSpeed, orientationsUnknown",
		"timestamp" :1555628400
		},
	"2019-04-19T04:00:00+01:00" : {
		"windSpeed" : 4.5,
		"windDir" : 26,
		"rain" : 0,
		"cloudbase" : null,
		"flyability" : -50,
		"reason" : "orientationsUnknown",
		"timestamp" :1555639200
		},
	"2019-04-19T07:00:00+01:00" : {
		"windSpeed" : 3.3,
		"windDir" : 60,
		"rain" : 0,
		"cloudbase" : null,
		"flyability" : -50,
		"reason" : "orientationsUnknown",
		"timestamp" :1555650000
		},
	"2019-04-19T10:00:00+01:00" : {
		"windSpeed" : 3.7,
		"windDir" : 66,
		"rain" : 0,
		"cloudbase" : null,
		"flyability" : -50,
		"reason" : "orientationsUnknown",
		"timestamp" :1555660800
		},
	"2019-04-19T13:00:00+01:00" : {
		"windSpeed" : 6,
		"windDir" : 10,
		"rain" : 0,
		"cloudbase" : null,
		"flyability" : -0,
		"reason" : "windSpeed, orientationsUnknown",
		"timestamp" :1555671600
		},
	"2019-04-19T16:00:00+01:00" : {
		"windSpeed" : 7,
		"windDir" : 12,
		"rain" : 0,
		"cloudbase" : null,
		"flyability" : -0,
		"reason" : "windSpeed, orientationsUnknown",
		"timestamp" :1555682400
		},
	"2019-04-19T19:00:00+01:00" : {
		"windSpeed" : 8.3,
		"windDir" : 17,
		"rain" : 0,
		"cloudbase" : null,
		"flyability" : -0,
		"reason" : "windSpeed, orientationsUnknown",
		"timestamp" :1555693200
		},
	"2019-04-19T22:00:00+01:00" : {
		"windSpeed" : 7.2,
		"windDir" : 27,
		"rain" : 0,
		"cloudbase" : null,
		"flyability" : -0,
		"reason" : "windSpeed, orientationsUnknown",
		"timestamp" :1555704000
		},
	"2019-04-20T01:00:00+01:00" : {
		"windSpeed" : 5.4,
		"windDir" : 33,
		"rain" : 0,
		"cloudbase" : null,
		"flyability" : -0,
		"reason" : "windSpeed, orientationsUnknown",
		"timestamp" :1555714800
		},
	"2019-04-20T04:00:00+01:00" : {
		"windSpeed" : 4.3,
		"windDir" : 28,
		"rain" : 0,
		"cloudbase" : null,
		"flyability" : -50,
		"reason" : "orientationsUnknown",
		"timestamp" :1555725600
		},
	"2019-04-20T07:00:00+01:00" : {
		"windSpeed" : 2.9,
		"windDir" : 87,
		"rain" : 0,
		"cloudbase" : null,
		"flyability" : -50,
		"reason" : "orientationsUnknown",
		"timestamp" :1555736400
		},
	"2019-04-20T10:00:00+01:00" : {
		"windSpeed" : 4.2,
		"windDir" : 35,
		"rain" : 1,
		"cloudbase" : null,
		"flyability" : -0,
		"reason" : "orientationsUnknown, rain",
		"timestamp" :1555747200
		},
	"2019-04-20T13:00:00+01:00" : {
		"windSpeed" : 6.1,
		"windDir" : 14,
		"rain" : 0,
		"cloudbase" : null,
		"flyability" : -0,
		"reason" : "windSpeed, orientationsUnknown",
		"timestamp" :1555758000
		},
	"2019-04-20T16:00:00+01:00" : {
		"windSpeed" : 8.5,
		"windDir" : 9,
		"rain" : 0,
		"cloudbase" : null,
		"flyability" : -0,
		"reason" : "windSpeed, orientationsUnknown",
		"timestamp" :1555768800
		},
	"2019-04-20T19:00:00+01:00" : {
		"windSpeed" : 8.9,
		"windDir" : 9,
		"rain" : 0,
		"cloudbase" : null,
		"flyability" : -0,
		"reason" : "windSpeed, orientationsUnknown",
		"timestamp" :1555779600
		},
	"2019-04-20T22:00:00+01:00" : {
		"windSpeed" : 7,
		"windDir" : 20,
		"rain" : 0,
		"cloudbase" : null,
		"flyability" : -0,
		"reason" : "windSpeed, orientationsUnknown",
		"timestamp" :1555790400
		},
	"2019-04-21T01:00:00+01:00" : {
		"windSpeed" : 4.7,
		"windDir" : 31,
		"rain" : 0,
		"cloudbase" : 720,
		"flyability" : -50,
		"reason" : "orientationsUnknown",
		"timestamp" :1555801200
		}
	}
}