{
"site" : "Pukerua Bay escarpment",
"id" : 14647,
"orientations" : "00000000",
"forecasts" : { 
	"2019-04-20T15:00:00+12:00" : {
		"windSpeed" : 7.9,
		"windDir" : 344,
		"rain" : 1,
		"cloudbase" : null,
		"flyability" : -0,
		"reason" : "windSpeed, orientationsUnknown, rain",
		"timestamp" :1555729200
		},
	"2019-04-20T18:00:00+12:00" : {
		"windSpeed" : 7.8,
		"windDir" : 347,
		"rain" : 1,
		"cloudbase" : 8776,
		"flyability" : -0,
		"reason" : "windSpeed, orientationsUnknown, rain",
		"timestamp" :1555740000
		},
	"2019-04-20T21:00:00+12:00" : {
		"windSpeed" : 7.3,
		"windDir" : 345,
		"rain" : 0,
		"cloudbase" : 1277.84,
		"flyability" : -0,
		"reason" : "windSpeed, orientationsUnknown",
		"timestamp" :1555750800
		},
	"2019-04-21T00:00:00+12:00" : {
		"windSpeed" : 8.1,
		"windDir" : 342,
		"rain" : 1,
		"cloudbase" : 689.78000000005,
		"flyability" : -0,
		"reason" : "windSpeed, orientationsUnknown, rain",
		"timestamp" :1555761600
		},
	"2019-04-21T03:00:00+12:00" : {
		"windSpeed" : 8.5,
		"windDir" : 343,
		"rain" : 1,
		"cloudbase" : 693.60400000023,
		"flyability" : -0,
		"reason" : "windSpeed, orientationsUnknown, rain",
		"timestamp" :1555772400
		},
	"2019-04-21T06:00:00+12:00" : {
		"windSpeed" : 8.4,
		"windDir" : 347,
		"rain" : 1,
		"cloudbase" : 494.33800000002,
		"flyability" : -0,
		"reason" : "windSpeed, orientationsUnknown, rain",
		"timestamp" :1555783200
		},
	"2019-04-21T09:00:00+12:00" : {
		"windSpeed" : 8.3,
		"windDir" : 12,
		"rain" : 1,
		"cloudbase" : 640.08800000013,
		"flyability" : -0,
		"reason" : "windSpeed, orientationsUnknown, rain",
		"timestamp" :1555794000
		},
	"2019-04-21T12:00:00+12:00" : {
		"windSpeed" : 7,
		"windDir" : 18,
		"rain" : 1,
		"cloudbase" : 346.57000000004,
		"flyability" : -0,
		"reason" : "windSpeed, orientationsUnknown, rain",
		"timestamp" :1555804800
		},
	"2019-04-21T15:00:00+12:00" : {
		"windSpeed" : 6.2,
		"windDir" : 48,
		"rain" : 1,
		"cloudbase" : 3443.1600000001,
		"flyability" : -0,
		"reason" : "windSpeed, orientationsUnknown, rain",
		"timestamp" :1555815600
		},
	"2019-04-21T18:00:00+12:00" : {
		"windSpeed" : 5.4,
		"windDir" : 33,
		"rain" : 1,
		"cloudbase" : 3855.91,
		"flyability" : -0,
		"reason" : "windSpeed, orientationsUnknown, rain",
		"timestamp" :1555826400
		},
	"2019-04-21T21:00:00+12:00" : {
		"windSpeed" : 5.4,
		"windDir" : 40,
		"rain" : 1,
		"cloudbase" : 3499.1500000002,
		"flyability" : -0,
		"reason" : "windSpeed, orientationsUnknown, rain",
		"timestamp" :1555837200
		},
	"2019-04-22T00:00:00+12:00" : {
		"windSpeed" : 3.1,
		"windDir" : 66,
		"rain" : 1,
		"cloudbase" : 3913.0499999998,
		"flyability" : -0,
		"reason" : "orientationsUnknown, rain",
		"timestamp" :1555848000
		},
	"2019-04-22T03:00:00+12:00" : {
		"windSpeed" : 3.8,
		"windDir" : 83,
		"rain" : 1,
		"cloudbase" : 2241.32,
		"flyability" : -0,
		"reason" : "orientationsUnknown, rain",
		"timestamp" :1555858800
		},
	"2019-04-22T06:00:00+12:00" : {
		"windSpeed" : 4.1,
		"windDir" : 115,
		"rain" : 1,
		"cloudbase" : 6324.82,
		"flyability" : -0,
		"reason" : "orientationsUnknown, rain",
		"timestamp" :1555869600
		},
	"2019-04-22T09:00:00+12:00" : {
		"windSpeed" : 3.3,
		"windDir" : 103,
		"rain" : 0,
		"cloudbase" : 5187,
		"flyability" : -50,
		"reason" : "orientationsUnknown",
		"timestamp" :1555880400
		},
	"2019-04-22T12:00:00+12:00" : {
		"windSpeed" : 1.1,
		"windDir" : 186,
		"rain" : 1,
		"cloudbase" : 2600,
		"flyability" : -0,
		"reason" : "orientationsUnknown, rain",
		"timestamp" :1555891200
		},
	"2019-04-22T15:00:00+12:00" : {
		"windSpeed" : 2.4,
		"windDir" : 174,
		"rain" : 0,
		"cloudbase" : 6017.5,
		"flyability" : -50,
		"reason" : "orientationsUnknown",
		"timestamp" :1555902000
		},
	"2019-04-22T18:00:00+12:00" : {
		"windSpeed" : 3.2,
		"windDir" : 159,
		"rain" : 0,
		"cloudbase" : 6595.1800000001,
		"flyability" : -50,
		"reason" : "orientationsUnknown",
		"timestamp" :1555912800
		},
	"2019-04-22T21:00:00+12:00" : {
		"windSpeed" : 3.9,
		"windDir" : 167,
		"rain" : 1,
		"cloudbase" : 6076.82,
		"flyability" : -0,
		"reason" : "orientationsUnknown, rain",
		"timestamp" :1555923600
		},
	"2019-04-23T00:00:00+12:00" : {
		"windSpeed" : 3.7,
		"windDir" : 164,
		"rain" : 0,
		"cloudbase" : 4035.2500000001,
		"flyability" : -50,
		"reason" : "orientationsUnknown",
		"timestamp" :1555934400
		},
	"2019-04-23T03:00:00+12:00" : {
		"windSpeed" : 3.7,
		"windDir" : 171,
		"rain" : 1,
		"cloudbase" : null,
		"flyability" : -0,
		"reason" : "orientationsUnknown, rain",
		"timestamp" :1555945200
		},
	"2019-04-23T06:00:00+12:00" : {
		"windSpeed" : 4.1,
		"windDir" : 168,
		"rain" : 0,
		"cloudbase" : null,
		"flyability" : -50,
		"reason" : "orientationsUnknown",
		"timestamp" :1555956000
		},
	"2019-04-23T09:00:00+12:00" : {
		"windSpeed" : 4.9,
		"windDir" : 169,
		"rain" : 0,
		"cloudbase" : 245.278,
		"flyability" : -50,
		"reason" : "orientationsUnknown",
		"timestamp" :1555966800
		},
	"2019-04-23T12:00:00+12:00" : {
		"windSpeed" : 6.3,
		"windDir" : 191,
		"rain" : 1,
		"cloudbase" : 1059.252,
		"flyability" : -0,
		"reason" : "windSpeed, orientationsUnknown, rain",
		"timestamp" :1555977600
		},
	"2019-04-23T15:00:00+12:00" : {
		"windSpeed" : 6.5,
		"windDir" : 180,
		"rain" : 1,
		"cloudbase" : 4174.0039999997,
		"flyability" : -0,
		"reason" : "windSpeed, orientationsUnknown, rain",
		"timestamp" :1555988400
		},
	"2019-04-23T18:00:00+12:00" : {
		"windSpeed" : 4.2,
		"windDir" : 177,
		"rain" : 0,
		"cloudbase" : 160,
		"flyability" : -50,
		"reason" : "orientationsUnknown",
		"timestamp" :1555999200
		},
	"2019-04-23T21:00:00+12:00" : {
		"windSpeed" : 3.1,
		"windDir" : 171,
		"rain" : 1,
		"cloudbase" : 150.70000000002,
		"flyability" : -0,
		"reason" : "orientationsUnknown, rain",
		"timestamp" :1556010000
		},
	"2019-04-24T00:00:00+12:00" : {
		"windSpeed" : 2.8,
		"windDir" : 182,
		"rain" : 1,
		"cloudbase" : 159.73700000002,
		"flyability" : -0,
		"reason" : "orientationsUnknown, rain",
		"timestamp" :1556020800
		},
	"2019-04-24T03:00:00+12:00" : {
		"windSpeed" : 2.1,
		"windDir" : 173,
		"rain" : 1,
		"cloudbase" : 85,
		"flyability" : -0,
		"reason" : "orientationsUnknown, rain, cloudbase",
		"timestamp" :1556031600
		},
	"2019-04-24T06:00:00+12:00" : {
		"windSpeed" : 2.9,
		"windDir" : 188,
		"rain" : 1,
		"cloudbase" : 237.60200000001,
		"flyability" : -0,
		"reason" : "orientationsUnknown, rain",
		"timestamp" :1556042400
		},
	"2019-04-24T09:00:00+12:00" : {
		"windSpeed" : 4.3,
		"windDir" : 168,
		"rain" : 1,
		"cloudbase" : null,
		"flyability" : -0,
		"reason" : "orientationsUnknown, rain",
		"timestamp" :1556053200
		},
	"2019-04-24T12:00:00+12:00" : {
		"windSpeed" : 4.3,
		"windDir" : 179,
		"rain" : 1,
		"cloudbase" : 834.44799999999,
		"flyability" : -0,
		"reason" : "orientationsUnknown, rain",
		"timestamp" :1556064000
		},
	"2019-04-24T15:00:00+12:00" : {
		"windSpeed" : 5.7,
		"windDir" : 179,
		"rain" : 1,
		"cloudbase" : null,
		"flyability" : -0,
		"reason" : "windSpeed, orientationsUnknown, rain",
		"timestamp" :1556074800
		},
	"2019-04-24T18:00:00+12:00" : {
		"windSpeed" : 5,
		"windDir" : 163,
		"rain" : 1,
		"cloudbase" : null,
		"flyability" : -0,
		"reason" : "orientationsUnknown, rain",
		"timestamp" :1556085600
		},
	"2019-04-24T21:00:00+12:00" : {
		"windSpeed" : 4.1,
		"windDir" : 167,
		"rain" : 1,
		"cloudbase" : null,
		"flyability" : -0,
		"reason" : "orientationsUnknown, rain",
		"timestamp" :1556096400
		},
	"2019-04-25T00:00:00+12:00" : {
		"windSpeed" : 3.8,
		"windDir" : 171,
		"rain" : 1,
		"cloudbase" : null,
		"flyability" : -0,
		"reason" : "orientationsUnknown, rain",
		"timestamp" :1556107200
		},
	"2019-04-25T03:00:00+12:00" : {
		"windSpeed" : 3,
		"windDir" : 167,
		"rain" : 1,
		"cloudbase" : null,
		"flyability" : -0,
		"reason" : "orientationsUnknown, rain",
		"timestamp" :1556118000
		},
	"2019-04-25T06:00:00+12:00" : {
		"windSpeed" : 2,
		"windDir" : 162,
		"rain" : 0,
		"cloudbase" : null,
		"flyability" : -50,
		"reason" : "orientationsUnknown",
		"timestamp" :1556128800
		},
	"2019-04-25T09:00:00+12:00" : {
		"windSpeed" : 1.1,
		"windDir" : 75,
		"rain" : 0,
		"cloudbase" : null,
		"flyability" : -50,
		"reason" : "orientationsUnknown",
		"timestamp" :1556139600
		},
	"2019-04-25T12:00:00+12:00" : {
		"windSpeed" : 4.2,
		"windDir" : 341,
		"rain" : 0,
		"cloudbase" : 450,
		"flyability" : -50,
		"reason" : "orientationsUnknown",
		"timestamp" :1556150400
		},
	"2019-04-25T15:00:00+12:00" : {
		"windSpeed" : 4.9,
		"windDir" : 348,
		"rain" : 1,
		"cloudbase" : null,
		"flyability" : -0,
		"reason" : "orientationsUnknown, rain",
		"timestamp" :1556161200
		},
	"2019-04-25T18:00:00+12:00" : {
		"windSpeed" : 6.6,
		"windDir" : 352,
		"rain" : 0,
		"cloudbase" : null,
		"flyability" : -0,
		"reason" : "windSpeed, orientationsUnknown",
		"timestamp" :1556172000
		},
	"2019-04-25T21:00:00+12:00" : {
		"windSpeed" : 7.1,
		"windDir" : 349,
		"rain" : 1,
		"cloudbase" : null,
		"flyability" : -0,
		"reason" : "windSpeed, orientationsUnknown, rain",
		"timestamp" :1556182800
		},
	"2019-04-26T00:00:00+12:00" : {
		"windSpeed" : 4.8,
		"windDir" : 12,
		"rain" : 0,
		"cloudbase" : null,
		"flyability" : -50,
		"reason" : "orientationsUnknown",
		"timestamp" :1556193600
		},
	"2019-04-26T03:00:00+12:00" : {
		"windSpeed" : 5.6,
		"windDir" : 26,
		"rain" : 1,
		"cloudbase" : null,
		"flyability" : -0,
		"reason" : "windSpeed, orientationsUnknown, rain",
		"timestamp" :1556204400
		},
	"2019-04-26T06:00:00+12:00" : {
		"windSpeed" : 5.9,
		"windDir" : 36,
		"rain" : 1,
		"cloudbase" : null,
		"flyability" : -0,
		"reason" : "windSpeed, orientationsUnknown, rain",
		"timestamp" :1556215200
		},
	"2019-04-26T09:00:00+12:00" : {
		"windSpeed" : 5,
		"windDir" : 36,
		"rain" : 1,
		"cloudbase" : null,
		"flyability" : -0,
		"reason" : "orientationsUnknown, rain",
		"timestamp" :1556226000
		},
	"2019-04-26T12:00:00+12:00" : {
		"windSpeed" : 5,
		"windDir" : 15,
		"rain" : 0,
		"cloudbase" : null,
		"flyability" : -50,
		"reason" : "orientationsUnknown",
		"timestamp" :1556236800
		}
	}
}