{
"site" : "Little Road",
"id" : 14661,
"orientations" : "00000000",
"forecasts" : { 
	"2019-04-08T10:00:00-05:00" : {
		"windSpeed" : 3.2,
		"windDir" : 310,
		"rain" : 0,
		"cloudbase" : 7254.9768,
		"flyability" : -50,
		"reason" : "orientationsUnknown",
		"timestamp" :1554732000
		},
	"2019-04-08T13:00:00-05:00" : {
		"windSpeed" : 4.1,
		"windDir" : 331,
		"rain" : 0,
		"cloudbase" : null,
		"flyability" : -50,
		"reason" : "orientationsUnknown",
		"timestamp" :1554742800
		},
	"2019-04-08T16:00:00-05:00" : {
		"windSpeed" : 5.3,
		"windDir" : 330,
		"rain" : 0,
		"cloudbase" : 9900,
		"flyability" : -0,
		"reason" : "windSpeed, orientationsUnknown",
		"timestamp" :1554753600
		},
	"2019-04-08T19:00:00-05:00" : {
		"windSpeed" : 1.9,
		"windDir" : 327,
		"rain" : 0,
		"cloudbase" : null,
		"flyability" : -50,
		"reason" : "orientationsUnknown",
		"timestamp" :1554764400
		},
	"2019-04-08T22:00:00-05:00" : {
		"windSpeed" : 1.8,
		"windDir" : 328,
		"rain" : 0,
		"cloudbase" : null,
		"flyability" : -50,
		"reason" : "orientationsUnknown",
		"timestamp" :1554775200
		},
	"2019-04-09T01:00:00-05:00" : {
		"windSpeed" : 1.5,
		"windDir" : 59,
		"rain" : 0,
		"cloudbase" : null,
		"flyability" : -50,
		"reason" : "orientationsUnknown",
		"timestamp" :1554786000
		},
	"2019-04-09T04:00:00-05:00" : {
		"windSpeed" : 2,
		"windDir" : 26,
		"rain" : 0,
		"cloudbase" : null,
		"flyability" : -50,
		"reason" : "orientationsUnknown",
		"timestamp" :1554796800
		},
	"2019-04-09T07:00:00-05:00" : {
		"windSpeed" : 1.2,
		"windDir" : 293,
		"rain" : 0,
		"cloudbase" : null,
		"flyability" : -50,
		"reason" : "orientationsUnknown",
		"timestamp" :1554807600
		},
	"2019-04-09T10:00:00-05:00" : {
		"windSpeed" : 0.9,
		"windDir" : 146,
		"rain" : 0,
		"cloudbase" : null,
		"flyability" : -50,
		"reason" : "orientationsUnknown",
		"timestamp" :1554818400
		},
	"2019-04-09T13:00:00-05:00" : {
		"windSpeed" : 3.4,
		"windDir" : 154,
		"rain" : 0,
		"cloudbase" : null,
		"flyability" : -50,
		"reason" : "orientationsUnknown",
		"timestamp" :1554829200
		},
	"2019-04-09T16:00:00-05:00" : {
		"windSpeed" : 4.5,
		"windDir" : 183,
		"rain" : 0,
		"cloudbase" : null,
		"flyability" : -50,
		"reason" : "orientationsUnknown",
		"timestamp" :1554840000
		},
	"2019-04-09T19:00:00-05:00" : {
		"windSpeed" : 4.6,
		"windDir" : 166,
		"rain" : 0,
		"cloudbase" : null,
		"flyability" : -50,
		"reason" : "orientationsUnknown",
		"timestamp" :1554850800
		},
	"2019-04-09T22:00:00-05:00" : {
		"windSpeed" : 4.2,
		"windDir" : 167,
		"rain" : 0,
		"cloudbase" : null,
		"flyability" : -50,
		"reason" : "orientationsUnknown",
		"timestamp" :1554861600
		},
	"2019-04-10T01:00:00-05:00" : {
		"windSpeed" : 3,
		"windDir" : 152,
		"rain" : 0,
		"cloudbase" : null,
		"flyability" : -50,
		"reason" : "orientationsUnknown",
		"timestamp" :1554872400
		},
	"2019-04-10T04:00:00-05:00" : {
		"windSpeed" : 3,
		"windDir" : 176,
		"rain" : 0,
		"cloudbase" : null,
		"flyability" : -50,
		"reason" : "orientationsUnknown",
		"timestamp" :1554883200
		},
	"2019-04-10T07:00:00-05:00" : {
		"windSpeed" : 3.1,
		"windDir" : 177,
		"rain" : 0,
		"cloudbase" : null,
		"flyability" : -50,
		"reason" : "orientationsUnknown",
		"timestamp" :1554894000
		},
	"2019-04-10T10:00:00-05:00" : {
		"windSpeed" : 4.2,
		"windDir" : 161,
		"rain" : 0,
		"cloudbase" : null,
		"flyability" : -50,
		"reason" : "orientationsUnknown",
		"timestamp" :1554904800
		},
	"2019-04-10T13:00:00-05:00" : {
		"windSpeed" : 8.3,
		"windDir" : 186,
		"rain" : 0,
		"cloudbase" : null,
		"flyability" : -0,
		"reason" : "windSpeed, orientationsUnknown",
		"timestamp" :1554915600
		},
	"2019-04-10T16:00:00-05:00" : {
		"windSpeed" : 9.5,
		"windDir" : 185,
		"rain" : 0,
		"cloudbase" : null,
		"flyability" : -0,
		"reason" : "windSpeed, orientationsUnknown",
		"timestamp" :1554926400
		},
	"2019-04-10T19:00:00-05:00" : {
		"windSpeed" : 8.1,
		"windDir" : 170,
		"rain" : 0,
		"cloudbase" : null,
		"flyability" : -0,
		"reason" : "windSpeed, orientationsUnknown",
		"timestamp" :1554937200
		},
	"2019-04-10T22:00:00-05:00" : {
		"windSpeed" : 8.3,
		"windDir" : 165,
		"rain" : 0,
		"cloudbase" : null,
		"flyability" : -0,
		"reason" : "windSpeed, orientationsUnknown",
		"timestamp" :1554948000
		},
	"2019-04-11T01:00:00-05:00" : {
		"windSpeed" : 6.2,
		"windDir" : 292,
		"rain" : 0,
		"cloudbase" : null,
		"flyability" : -0,
		"reason" : "windSpeed, orientationsUnknown",
		"timestamp" :1554958800
		},
	"2019-04-11T04:00:00-05:00" : {
		"windSpeed" : 3.1,
		"windDir" : 284,
		"rain" : 0,
		"cloudbase" : null,
		"flyability" : -50,
		"reason" : "orientationsUnknown",
		"timestamp" :1554969600
		},
	"2019-04-11T07:00:00-05:00" : {
		"windSpeed" : 2.7,
		"windDir" : 274,
		"rain" : 0,
		"cloudbase" : 8255.8768,
		"flyability" : -50,
		"reason" : "orientationsUnknown",
		"timestamp" :1554980400
		},
	"2019-04-11T10:00:00-05:00" : {
		"windSpeed" : 5,
		"windDir" : 276,
		"rain" : 0,
		"cloudbase" : 8689.4616,
		"flyability" : -50,
		"reason" : "orientationsUnknown",
		"timestamp" :1554991200
		},
	"2019-04-11T13:00:00-05:00" : {
		"windSpeed" : 6.6,
		"windDir" : 280,
		"rain" : 0,
		"cloudbase" : 8300,
		"flyability" : -0,
		"reason" : "windSpeed, orientationsUnknown",
		"timestamp" :1555002000
		},
	"2019-04-11T16:00:00-05:00" : {
		"windSpeed" : 8.1,
		"windDir" : 279,
		"rain" : 0,
		"cloudbase" : null,
		"flyability" : -0,
		"reason" : "windSpeed, orientationsUnknown",
		"timestamp" :1555012800
		},
	"2019-04-11T19:00:00-05:00" : {
		"windSpeed" : 4.1,
		"windDir" : 290,
		"rain" : 0,
		"cloudbase" : null,
		"flyability" : -50,
		"reason" : "orientationsUnknown",
		"timestamp" :1555023600
		},
	"2019-04-11T22:00:00-05:00" : {
		"windSpeed" : 3.5,
		"windDir" : 28,
		"rain" : 0,
		"cloudbase" : null,
		"flyability" : -50,
		"reason" : "orientationsUnknown",
		"timestamp" :1555034400
		},
	"2019-04-12T01:00:00-05:00" : {
		"windSpeed" : 2.1,
		"windDir" : 105,
		"rain" : 0,
		"cloudbase" : null,
		"flyability" : -50,
		"reason" : "orientationsUnknown",
		"timestamp" :1555045200
		},
	"2019-04-12T04:00:00-05:00" : {
		"windSpeed" : 2.7,
		"windDir" : 138,
		"rain" : 0,
		"cloudbase" : null,
		"flyability" : -50,
		"reason" : "orientationsUnknown",
		"timestamp" :1555056000
		},
	"2019-04-12T07:00:00-05:00" : {
		"windSpeed" : 2.1,
		"windDir" : 133,
		"rain" : 0,
		"cloudbase" : null,
		"flyability" : -50,
		"reason" : "orientationsUnknown",
		"timestamp" :1555066800
		},
	"2019-04-12T10:00:00-05:00" : {
		"windSpeed" : 4.9,
		"windDir" : 90,
		"rain" : 0,
		"cloudbase" : null,
		"flyability" : -50,
		"reason" : "orientationsUnknown",
		"timestamp" :1555077600
		},
	"2019-04-12T13:00:00-05:00" : {
		"windSpeed" : 5.9,
		"windDir" : 115,
		"rain" : 0,
		"cloudbase" : null,
		"flyability" : -0,
		"reason" : "windSpeed, orientationsUnknown",
		"timestamp" :1555088400
		},
	"2019-04-12T16:00:00-05:00" : {
		"windSpeed" : 6.3,
		"windDir" : 119,
		"rain" : 0,
		"cloudbase" : null,
		"flyability" : -0,
		"reason" : "windSpeed, orientationsUnknown",
		"timestamp" :1555099200
		},
	"2019-04-12T19:00:00-05:00" : {
		"windSpeed" : 7.3,
		"windDir" : 119,
		"rain" : 0,
		"cloudbase" : null,
		"flyability" : -0,
		"reason" : "windSpeed, orientationsUnknown",
		"timestamp" :1555110000
		},
	"2019-04-12T22:00:00-05:00" : {
		"windSpeed" : 6.1,
		"windDir" : 104,
		"rain" : 0,
		"cloudbase" : null,
		"flyability" : -0,
		"reason" : "windSpeed, orientationsUnknown",
		"timestamp" :1555120800
		},
	"2019-04-13T01:00:00-05:00" : {
		"windSpeed" : 6.1,
		"windDir" : 99,
		"rain" : 0,
		"cloudbase" : null,
		"flyability" : -0,
		"reason" : "windSpeed, orientationsUnknown",
		"timestamp" :1555131600
		},
	"2019-04-13T04:00:00-05:00" : {
		"windSpeed" : 4.5,
		"windDir" : 86,
		"rain" : 0,
		"cloudbase" : 791.65696,
		"flyability" : -50,
		"reason" : "orientationsUnknown",
		"timestamp" :1555142400
		},
	"2019-04-13T07:00:00-05:00" : {
		"windSpeed" : 4,
		"windDir" : 83,
		"rain" : 1,
		"cloudbase" : 493.10232,
		"flyability" : -0,
		"reason" : "orientationsUnknown, rain",
		"timestamp" :1555153200
		},
	"2019-04-13T10:00:00-05:00" : {
		"windSpeed" : 4.3,
		"windDir" : 46,
		"rain" : 1,
		"cloudbase" : 240,
		"flyability" : -0,
		"reason" : "orientationsUnknown, rain, cloudbase",
		"timestamp" :1555164000
		},
	"2019-04-13T13:00:00-05:00" : {
		"windSpeed" : 3.6,
		"windDir" : 27,
		"rain" : 1,
		"cloudbase" : 378.29848,
		"flyability" : -0,
		"reason" : "orientationsUnknown, rain",
		"timestamp" :1555174800
		},
	"2019-04-13T16:00:00-05:00" : {
		"windSpeed" : 5.6,
		"windDir" : 5,
		"rain" : 1,
		"cloudbase" : 678.25376,
		"flyability" : -0,
		"reason" : "windSpeed, orientationsUnknown, rain",
		"timestamp" :1555185600
		},
	"2019-04-13T19:00:00-05:00" : {
		"windSpeed" : 6.1,
		"windDir" : 337,
		"rain" : 0,
		"cloudbase" : 765.69088,
		"flyability" : -0,
		"reason" : "windSpeed, orientationsUnknown",
		"timestamp" :1555196400
		},
	"2019-04-13T22:00:00-05:00" : {
		"windSpeed" : 7,
		"windDir" : 330,
		"rain" : 1,
		"cloudbase" : null,
		"flyability" : -0,
		"reason" : "windSpeed, orientationsUnknown, rain",
		"timestamp" :1555207200
		},
	"2019-04-14T01:00:00-05:00" : {
		"windSpeed" : 6.2,
		"windDir" : 319,
		"rain" : 0,
		"cloudbase" : null,
		"flyability" : -0,
		"reason" : "windSpeed, orientationsUnknown",
		"timestamp" :1555218000
		},
	"2019-04-14T04:00:00-05:00" : {
		"windSpeed" : 5.9,
		"windDir" : 323,
		"rain" : 0,
		"cloudbase" : null,
		"flyability" : -0,
		"reason" : "windSpeed, orientationsUnknown",
		"timestamp" :1555228800
		},
	"2019-04-14T07:00:00-05:00" : {
		"windSpeed" : 5.1,
		"windDir" : 317,
		"rain" : 0,
		"cloudbase" : null,
		"flyability" : -0,
		"reason" : "windSpeed, orientationsUnknown",
		"timestamp" :1555239600
		}
	}
}