{
"site" : "Joggins",
"id" : 14771,
"orientations" : "10000012",
"forecasts" : { 
	"2019-04-21T12:00:00-03:00" : {
		"windSpeed" : 7.1,
		"windDir" : 172,
		"rain" : 1,
		"cloudbase" : 654.66192000001,
		"flyability" : 0,
		"reason" : "windSpeed, windDir, rain",
		"timestamp" :1555858800
		},
	"2019-04-21T15:00:00-03:00" : {
		"windSpeed" : 7.8,
		"windDir" : 201,
		"rain" : 1,
		"cloudbase" : 649.89032,
		"flyability" : 0,
		"reason" : "windSpeed, windDir, rain",
		"timestamp" :1555869600
		},
	"2019-04-21T18:00:00-03:00" : {
		"windSpeed" : 6.1,
		"windDir" : 221,
		"rain" : 1,
		"cloudbase" : 772.9033600001,
		"flyability" : 0,
		"reason" : "windSpeed, windDir, rain",
		"timestamp" :1555880400
		},
	"2019-04-21T21:00:00-03:00" : {
		"windSpeed" : 3.7,
		"windDir" : 216,
		"rain" : 1,
		"cloudbase" : 1180.1962799998,
		"flyability" : 0,
		"reason" : "windDir, rain",
		"timestamp" :1555891200
		},
	"2019-04-22T00:00:00-03:00" : {
		"windSpeed" : 4.5,
		"windDir" : 240,
		"rain" : 1,
		"cloudbase" : 152.89113999999,
		"flyability" : 0,
		"reason" : "windDir, rain",
		"timestamp" :1555902000
		},
	"2019-04-22T03:00:00-03:00" : {
		"windSpeed" : 5.1,
		"windDir" : 218,
		"rain" : 1,
		"cloudbase" : 30,
		"flyability" : 0,
		"reason" : "windSpeed, windDir, rain",
		"timestamp" :1555912800
		},
	"2019-04-22T06:00:00-03:00" : {
		"windSpeed" : 3.7,
		"windDir" : 246,
		"rain" : 1,
		"cloudbase" : 30,
		"flyability" : 0,
		"reason" : "windDir, rain",
		"timestamp" :1555923600
		},
	"2019-04-22T09:00:00-03:00" : {
		"windSpeed" : 2.2,
		"windDir" : 187,
		"rain" : 1,
		"cloudbase" : 36.777580000003,
		"flyability" : 0,
		"reason" : "windDir, rain",
		"timestamp" :1555934400
		},
	"2019-04-22T12:00:00-03:00" : {
		"windSpeed" : 1.5,
		"windDir" : 349,
		"rain" : 1,
		"cloudbase" : 60.662099999993,
		"flyability" : 0,
		"reason" : "rain",
		"timestamp" :1555945200
		},
	"2019-04-22T15:00:00-03:00" : {
		"windSpeed" : 3.3,
		"windDir" : 9,
		"rain" : 1,
		"cloudbase" : 309.50484,
		"flyability" : 0,
		"reason" : "rain",
		"timestamp" :1555956000
		},
	"2019-04-22T18:00:00-03:00" : {
		"windSpeed" : 3.9,
		"windDir" : 31,
		"rain" : 1,
		"cloudbase" : 173.28320000001,
		"flyability" : 0,
		"reason" : "windDir, rain",
		"timestamp" :1555966800
		},
	"2019-04-22T21:00:00-03:00" : {
		"windSpeed" : 4.3,
		"windDir" : 39,
		"rain" : 1,
		"cloudbase" : 773.05947999992,
		"flyability" : 0,
		"reason" : "windDir, rain",
		"timestamp" :1555977600
		},
	"2019-04-23T00:00:00-03:00" : {
		"windSpeed" : 4.4,
		"windDir" : 41,
		"rain" : 1,
		"cloudbase" : 402.08516,
		"flyability" : 0,
		"reason" : "windDir, rain",
		"timestamp" :1555988400
		},
	"2019-04-23T03:00:00-03:00" : {
		"windSpeed" : 4.9,
		"windDir" : 38,
		"rain" : 1,
		"cloudbase" : 475.6742,
		"flyability" : 0,
		"reason" : "windDir, rain",
		"timestamp" :1555999200
		},
	"2019-04-23T06:00:00-03:00" : {
		"windSpeed" : 5.5,
		"windDir" : 38,
		"rain" : 1,
		"cloudbase" : 617.81935999999,
		"flyability" : 0,
		"reason" : "windSpeed, windDir, rain",
		"timestamp" :1556010000
		},
	"2019-04-23T09:00:00-03:00" : {
		"windSpeed" : 4.9,
		"windDir" : 38,
		"rain" : 1,
		"cloudbase" : 260.10803999999,
		"flyability" : 0,
		"reason" : "windDir, rain",
		"timestamp" :1556020800
		},
	"2019-04-23T12:00:00-03:00" : {
		"windSpeed" : 5.2,
		"windDir" : 42,
		"rain" : 1,
		"cloudbase" : 30,
		"flyability" : 0,
		"reason" : "windSpeed, windDir, rain",
		"timestamp" :1556031600
		},
	"2019-04-23T15:00:00-03:00" : {
		"windSpeed" : 5.7,
		"windDir" : 37,
		"rain" : 1,
		"cloudbase" : 99.139519999996,
		"flyability" : 0,
		"reason" : "windSpeed, windDir, rain",
		"timestamp" :1556042400
		},
	"2019-04-23T18:00:00-03:00" : {
		"windSpeed" : 4.9,
		"windDir" : 37,
		"rain" : 1,
		"cloudbase" : 102.85933999999,
		"flyability" : 0,
		"reason" : "windDir, rain",
		"timestamp" :1556053200
		},
	"2019-04-23T21:00:00-03:00" : {
		"windSpeed" : 4,
		"windDir" : 7,
		"rain" : 1,
		"cloudbase" : 61.657260000005,
		"flyability" : 0,
		"reason" : "rain",
		"timestamp" :1556064000
		},
	"2019-04-24T00:00:00-03:00" : {
		"windSpeed" : 4.1,
		"windDir" : 346,
		"rain" : 1,
		"cloudbase" : 54.873060000008,
		"flyability" : 0,
		"reason" : "rain",
		"timestamp" :1556074800
		},
	"2019-04-24T03:00:00-03:00" : {
		"windSpeed" : 4.1,
		"windDir" : 338,
		"rain" : 1,
		"cloudbase" : 122.27790000002,
		"flyability" : 0,
		"reason" : "rain",
		"timestamp" :1556085600
		},
	"2019-04-24T06:00:00-03:00" : {
		"windSpeed" : 3.3,
		"windDir" : 326,
		"rain" : 1,
		"cloudbase" : 115.69210000001,
		"flyability" : 0,
		"reason" : "rain",
		"timestamp" :1556096400
		},
	"2019-04-24T09:00:00-03:00" : {
		"windSpeed" : 2.5,
		"windDir" : 313,
		"rain" : 1,
		"cloudbase" : 130.28694000001,
		"flyability" : 0,
		"reason" : "rain",
		"timestamp" :1556107200
		},
	"2019-04-24T12:00:00-03:00" : {
		"windSpeed" : 1.9,
		"windDir" : 288,
		"rain" : 0,
		"cloudbase" : 230.82032,
		"flyability" : 100,
		"reason" : "",
		"timestamp" :1556118000
		},
	"2019-04-24T15:00:00-03:00" : {
		"windSpeed" : 1.6,
		"windDir" : 336,
		"rain" : 1,
		"cloudbase" : 687.8750800001,
		"flyability" : 0,
		"reason" : "rain",
		"timestamp" :1556128800
		},
	"2019-04-24T18:00:00-03:00" : {
		"windSpeed" : 4.1,
		"windDir" : 20,
		"rain" : 1,
		"cloudbase" : 234.55182000003,
		"flyability" : 0,
		"reason" : "rain",
		"timestamp" :1556139600
		},
	"2019-04-24T21:00:00-03:00" : {
		"windSpeed" : 4.8,
		"windDir" : 33,
		"rain" : 1,
		"cloudbase" : 61.31758,
		"flyability" : 0,
		"reason" : "windDir, rain",
		"timestamp" :1556150400
		},
	"2019-04-25T00:00:00-03:00" : {
		"windSpeed" : 5,
		"windDir" : 5,
		"rain" : 1,
		"cloudbase" : 85.824360000011,
		"flyability" : 0,
		"reason" : "rain",
		"timestamp" :1556161200
		},
	"2019-04-25T03:00:00-03:00" : {
		"windSpeed" : 5.5,
		"windDir" : 344,
		"rain" : 1,
		"cloudbase" : 135.60936000001,
		"flyability" : 0,
		"reason" : "windSpeed, rain",
		"timestamp" :1556172000
		},
	"2019-04-25T06:00:00-03:00" : {
		"windSpeed" : 5.6,
		"windDir" : 345,
		"rain" : 1,
		"cloudbase" : 117.04516000001,
		"flyability" : 0,
		"reason" : "windSpeed, rain",
		"timestamp" :1556182800
		},
	"2019-04-25T09:00:00-03:00" : {
		"windSpeed" : 5.9,
		"windDir" : 354,
		"rain" : 0,
		"cloudbase" : 145.40516,
		"flyability" : 0,
		"reason" : "windSpeed",
		"timestamp" :1556193600
		},
	"2019-04-25T12:00:00-03:00" : {
		"windSpeed" : 5.8,
		"windDir" : 355,
		"rain" : 0,
		"cloudbase" : 204.53032,
		"flyability" : 0,
		"reason" : "windSpeed",
		"timestamp" :1556204400
		},
	"2019-04-25T15:00:00-03:00" : {
		"windSpeed" : 6.4,
		"windDir" : 352,
		"rain" : 0,
		"cloudbase" : 423.24999999999,
		"flyability" : 0,
		"reason" : "windSpeed",
		"timestamp" :1556215200
		},
	"2019-04-25T18:00:00-03:00" : {
		"windSpeed" : 5.9,
		"windDir" : 352,
		"rain" : 0,
		"cloudbase" : 361.86,
		"flyability" : 0,
		"reason" : "windSpeed",
		"timestamp" :1556226000
		},
	"2019-04-25T21:00:00-03:00" : {
		"windSpeed" : 5.2,
		"windDir" : 354,
		"rain" : 0,
		"cloudbase" : 317.28516,
		"flyability" : 0,
		"reason" : "windSpeed",
		"timestamp" :1556236800
		},
	"2019-04-26T00:00:00-03:00" : {
		"windSpeed" : 4.2,
		"windDir" : 353,
		"rain" : 0,
		"cloudbase" : 238.03032,
		"flyability" : 100,
		"reason" : "",
		"timestamp" :1556247600
		},
	"2019-04-26T03:00:00-03:00" : {
		"windSpeed" : 3.5,
		"windDir" : 335,
		"rain" : 0,
		"cloudbase" : 216.46548,
		"flyability" : 100,
		"reason" : "",
		"timestamp" :1556258400
		},
	"2019-04-26T06:00:00-03:00" : {
		"windSpeed" : 3.4,
		"windDir" : 354,
		"rain" : 1,
		"cloudbase" : 195.70032,
		"flyability" : 0,
		"reason" : "rain",
		"timestamp" :1556269200
		},
	"2019-04-26T09:00:00-03:00" : {
		"windSpeed" : 2.1,
		"windDir" : 14,
		"rain" : 0,
		"cloudbase" : 312.61516,
		"flyability" : 100,
		"reason" : "",
		"timestamp" :1556280000
		},
	"2019-04-26T12:00:00-03:00" : {
		"windSpeed" : 0,
		"windDir" : 180,
		"rain" : 1,
		"cloudbase" : 622.89031999999,
		"flyability" : 0,
		"reason" : "windDir, rain",
		"timestamp" :1556290800
		},
	"2019-04-26T15:00:00-03:00" : {
		"windSpeed" : 1.3,
		"windDir" : 297,
		"rain" : 1,
		"cloudbase" : 943.62839999999,
		"flyability" : 0,
		"reason" : "rain",
		"timestamp" :1556301600
		},
	"2019-04-26T18:00:00-03:00" : {
		"windSpeed" : 1.4,
		"windDir" : 296,
		"rain" : 1,
		"cloudbase" : 3154.3662000003,
		"flyability" : 0,
		"reason" : "rain",
		"timestamp" :1556312400
		},
	"2019-04-26T21:00:00-03:00" : {
		"windSpeed" : 3.8,
		"windDir" : 72,
		"rain" : 1,
		"cloudbase" : 2458.4886000001,
		"flyability" : 0,
		"reason" : "windDir, rain",
		"timestamp" :1556323200
		},
	"2019-04-27T00:00:00-03:00" : {
		"windSpeed" : 1.1,
		"windDir" : 93,
		"rain" : 1,
		"cloudbase" : 30,
		"flyability" : 0,
		"reason" : "windDir, rain",
		"timestamp" :1556334000
		},
	"2019-04-27T03:00:00-03:00" : {
		"windSpeed" : 1.4,
		"windDir" : 43,
		"rain" : 1,
		"cloudbase" : 30,
		"flyability" : 0,
		"reason" : "windDir, rain",
		"timestamp" :1556344800
		},
	"2019-04-27T06:00:00-03:00" : {
		"windSpeed" : 1,
		"windDir" : 92,
		"rain" : 1,
		"cloudbase" : 37.297419999999,
		"flyability" : 0,
		"reason" : "windDir, rain",
		"timestamp" :1556355600
		},
	"2019-04-27T09:00:00-03:00" : {
		"windSpeed" : 2.5,
		"windDir" : 232,
		"rain" : 1,
		"cloudbase" : 49.014839999999,
		"flyability" : 0,
		"reason" : "windDir, rain",
		"timestamp" :1556366400
		}
	}
}