{
"site" : "West Bay",
"id" : 14770,
"orientations" : "00121000",
"forecasts" : { 
	"2019-04-21T12:00:00-03:00" : {
		"windSpeed" : 7.3,
		"windDir" : 165,
		"rain" : 1,
		"cloudbase" : 1027.70088,
		"flyability" : 0,
		"reason" : "windSpeed, rain",
		"timestamp" :1555858800
		},
	"2019-04-21T15:00:00-03:00" : {
		"windSpeed" : 7.6,
		"windDir" : 180,
		"rain" : 1,
		"cloudbase" : 2764.4646399998,
		"flyability" : 0,
		"reason" : "windSpeed, rain",
		"timestamp" :1555869600
		},
	"2019-04-21T18:00:00-03:00" : {
		"windSpeed" : 6.7,
		"windDir" : 194,
		"rain" : 1,
		"cloudbase" : 869.09999999998,
		"flyability" : 0,
		"reason" : "windSpeed, rain",
		"timestamp" :1555880400
		},
	"2019-04-21T21:00:00-03:00" : {
		"windSpeed" : 4.2,
		"windDir" : 181,
		"rain" : 1,
		"cloudbase" : 1080.9268,
		"flyability" : 0,
		"reason" : "rain",
		"timestamp" :1555891200
		},
	"2019-04-22T00:00:00-03:00" : {
		"windSpeed" : 4.1,
		"windDir" : 205,
		"rain" : 1,
		"cloudbase" : 552.60772000004,
		"flyability" : 0,
		"reason" : "windDir, rain",
		"timestamp" :1555902000
		},
	"2019-04-22T03:00:00-03:00" : {
		"windSpeed" : 2.5,
		"windDir" : 273,
		"rain" : 1,
		"cloudbase" : 30,
		"flyability" : 0,
		"reason" : "windDir, rain",
		"timestamp" :1555912800
		},
	"2019-04-22T06:00:00-03:00" : {
		"windSpeed" : 2,
		"windDir" : 293,
		"rain" : 1,
		"cloudbase" : 30,
		"flyability" : 0,
		"reason" : "windDir, rain",
		"timestamp" :1555923600
		},
	"2019-04-22T09:00:00-03:00" : {
		"windSpeed" : 1.7,
		"windDir" : 344,
		"rain" : 1,
		"cloudbase" : 30.12558,
		"flyability" : 0,
		"reason" : "windDir, rain",
		"timestamp" :1555934400
		},
	"2019-04-22T12:00:00-03:00" : {
		"windSpeed" : 0.7,
		"windDir" : 44,
		"rain" : 1,
		"cloudbase" : 2678.6584000001,
		"flyability" : 0,
		"reason" : "windDir, rain",
		"timestamp" :1555945200
		},
	"2019-04-22T15:00:00-03:00" : {
		"windSpeed" : 1.5,
		"windDir" : 152,
		"rain" : 1,
		"cloudbase" : 62.386200000024,
		"flyability" : 0,
		"reason" : "rain",
		"timestamp" :1555956000
		},
	"2019-04-22T18:00:00-03:00" : {
		"windSpeed" : 4.1,
		"windDir" : 38,
		"rain" : 1,
		"cloudbase" : 1001.65536,
		"flyability" : 0,
		"reason" : "windDir, rain",
		"timestamp" :1555966800
		},
	"2019-04-22T21:00:00-03:00" : {
		"windSpeed" : 6.1,
		"windDir" : 35,
		"rain" : 1,
		"cloudbase" : 430.35116,
		"flyability" : 0,
		"reason" : "windSpeed, windDir, rain",
		"timestamp" :1555977600
		},
	"2019-04-23T00:00:00-03:00" : {
		"windSpeed" : 5.7,
		"windDir" : 38,
		"rain" : 1,
		"cloudbase" : 292.03464,
		"flyability" : 0,
		"reason" : "windSpeed, windDir, rain",
		"timestamp" :1555988400
		},
	"2019-04-23T03:00:00-03:00" : {
		"windSpeed" : 5.6,
		"windDir" : 38,
		"rain" : 1,
		"cloudbase" : 381.03,
		"flyability" : 0,
		"reason" : "windSpeed, windDir, rain",
		"timestamp" :1555999200
		},
	"2019-04-23T06:00:00-03:00" : {
		"windSpeed" : 6.4,
		"windDir" : 46,
		"rain" : 1,
		"cloudbase" : 486.03768,
		"flyability" : 0,
		"reason" : "windSpeed, windDir, rain",
		"timestamp" :1556010000
		},
	"2019-04-23T09:00:00-03:00" : {
		"windSpeed" : 5.4,
		"windDir" : 59,
		"rain" : 1,
		"cloudbase" : 384.07768,
		"flyability" : 0,
		"reason" : "windSpeed, windDir, rain",
		"timestamp" :1556020800
		},
	"2019-04-23T12:00:00-03:00" : {
		"windSpeed" : 6.2,
		"windDir" : 65,
		"rain" : 1,
		"cloudbase" : 207.91116,
		"flyability" : 0,
		"reason" : "windSpeed, windDir, rain",
		"timestamp" :1556031600
		},
	"2019-04-23T15:00:00-03:00" : {
		"windSpeed" : 6.5,
		"windDir" : 63,
		"rain" : 1,
		"cloudbase" : 208.9242,
		"flyability" : 0,
		"reason" : "windSpeed, windDir, rain",
		"timestamp" :1556042400
		},
	"2019-04-23T18:00:00-03:00" : {
		"windSpeed" : 5.3,
		"windDir" : 76,
		"rain" : 1,
		"cloudbase" : 210.51232,
		"flyability" : 0,
		"reason" : "windSpeed, rain",
		"timestamp" :1556053200
		},
	"2019-04-23T21:00:00-03:00" : {
		"windSpeed" : 4.5,
		"windDir" : 75,
		"rain" : 1,
		"cloudbase" : 45.786520000002,
		"flyability" : 0,
		"reason" : "rain",
		"timestamp" :1556064000
		},
	"2019-04-24T00:00:00-03:00" : {
		"windSpeed" : 2.8,
		"windDir" : 66,
		"rain" : 1,
		"cloudbase" : 30,
		"flyability" : 0,
		"reason" : "windDir, rain",
		"timestamp" :1556074800
		},
	"2019-04-24T03:00:00-03:00" : {
		"windSpeed" : 5,
		"windDir" : 354,
		"rain" : 1,
		"cloudbase" : 237.00652,
		"flyability" : 0,
		"reason" : "windDir, rain",
		"timestamp" :1556085600
		},
	"2019-04-24T06:00:00-03:00" : {
		"windSpeed" : 3.8,
		"windDir" : 328,
		"rain" : 1,
		"cloudbase" : 220.34652,
		"flyability" : 0,
		"reason" : "windDir, rain",
		"timestamp" :1556096400
		},
	"2019-04-24T09:00:00-03:00" : {
		"windSpeed" : 2.8,
		"windDir" : 277,
		"rain" : 1,
		"cloudbase" : 129.31116,
		"flyability" : 0,
		"reason" : "windDir, rain",
		"timestamp" :1556107200
		},
	"2019-04-24T12:00:00-03:00" : {
		"windSpeed" : 3,
		"windDir" : 247,
		"rain" : 1,
		"cloudbase" : 652.39419999997,
		"flyability" : 0,
		"reason" : "windDir, rain",
		"timestamp" :1556118000
		},
	"2019-04-24T15:00:00-03:00" : {
		"windSpeed" : 1,
		"windDir" : 287,
		"rain" : 1,
		"cloudbase" : 1051.2558,
		"flyability" : 0,
		"reason" : "windDir, rain",
		"timestamp" :1556128800
		},
	"2019-04-24T18:00:00-03:00" : {
		"windSpeed" : 4,
		"windDir" : 48,
		"rain" : 1,
		"cloudbase" : 491.01332,
		"flyability" : 0,
		"reason" : "windDir, rain",
		"timestamp" :1556139600
		},
	"2019-04-24T21:00:00-03:00" : {
		"windSpeed" : 5.7,
		"windDir" : 52,
		"rain" : 1,
		"cloudbase" : 295.75768,
		"flyability" : 0,
		"reason" : "windSpeed, windDir, rain",
		"timestamp" :1556150400
		},
	"2019-04-25T00:00:00-03:00" : {
		"windSpeed" : 4.3,
		"windDir" : 29,
		"rain" : 1,
		"cloudbase" : 159.2858,
		"flyability" : 0,
		"reason" : "windDir, rain",
		"timestamp" :1556161200
		},
	"2019-04-25T03:00:00-03:00" : {
		"windSpeed" : 6.9,
		"windDir" : 350,
		"rain" : 1,
		"cloudbase" : 364.83116,
		"flyability" : 0,
		"reason" : "windSpeed, windDir, rain",
		"timestamp" :1556172000
		},
	"2019-04-25T06:00:00-03:00" : {
		"windSpeed" : 6.5,
		"windDir" : 328,
		"rain" : 1,
		"cloudbase" : 133.77232,
		"flyability" : 0,
		"reason" : "windSpeed, windDir, rain",
		"timestamp" :1556182800
		},
	"2019-04-25T09:00:00-03:00" : {
		"windSpeed" : 6.1,
		"windDir" : 334,
		"rain" : 0,
		"cloudbase" : 133.30232,
		"flyability" : 0,
		"reason" : "windSpeed, windDir",
		"timestamp" :1556193600
		},
	"2019-04-25T12:00:00-03:00" : {
		"windSpeed" : 5.3,
		"windDir" : 336,
		"rain" : 0,
		"cloudbase" : 257.74652,
		"flyability" : 0,
		"reason" : "windSpeed, windDir",
		"timestamp" :1556204400
		},
	"2019-04-25T15:00:00-03:00" : {
		"windSpeed" : 6.2,
		"windDir" : 330,
		"rain" : 0,
		"cloudbase" : 420.5958,
		"flyability" : 0,
		"reason" : "windSpeed, windDir",
		"timestamp" :1556215200
		},
	"2019-04-25T18:00:00-03:00" : {
		"windSpeed" : 6.6,
		"windDir" : 339,
		"rain" : 0,
		"cloudbase" : 324.92116,
		"flyability" : 0,
		"reason" : "windSpeed, windDir",
		"timestamp" :1556226000
		},
	"2019-04-25T21:00:00-03:00" : {
		"windSpeed" : 5.4,
		"windDir" : 342,
		"rain" : 0,
		"cloudbase" : 306.3958,
		"flyability" : 0,
		"reason" : "windSpeed, windDir",
		"timestamp" :1556236800
		},
	"2019-04-26T00:00:00-03:00" : {
		"windSpeed" : 4.1,
		"windDir" : 334,
		"rain" : 0,
		"cloudbase" : 211.96,
		"flyability" : 0,
		"reason" : "windDir",
		"timestamp" :1556247600
		},
	"2019-04-26T03:00:00-03:00" : {
		"windSpeed" : 3.9,
		"windDir" : 323,
		"rain" : 0,
		"cloudbase" : 206.91,
		"flyability" : 0,
		"reason" : "windDir",
		"timestamp" :1556258400
		},
	"2019-04-26T06:00:00-03:00" : {
		"windSpeed" : 3.9,
		"windDir" : 350,
		"rain" : 1,
		"cloudbase" : 191.04536,
		"flyability" : 0,
		"reason" : "windDir, rain",
		"timestamp" :1556269200
		},
	"2019-04-26T09:00:00-03:00" : {
		"windSpeed" : 2.1,
		"windDir" : 14,
		"rain" : 1,
		"cloudbase" : 261.64768,
		"flyability" : 0,
		"reason" : "windDir, rain",
		"timestamp" :1556280000
		},
	"2019-04-26T12:00:00-03:00" : {
		"windSpeed" : 2.2,
		"windDir" : 172,
		"rain" : 1,
		"cloudbase" : 667.3884,
		"flyability" : 0,
		"reason" : "rain",
		"timestamp" :1556290800
		},
	"2019-04-26T15:00:00-03:00" : {
		"windSpeed" : 1.2,
		"windDir" : 140,
		"rain" : 1,
		"cloudbase" : 4853.9558,
		"flyability" : 0,
		"reason" : "rain",
		"timestamp" :1556301600
		},
	"2019-04-26T18:00:00-03:00" : {
		"windSpeed" : 3.1,
		"windDir" : 58,
		"rain" : 1,
		"cloudbase" : 3875.8602,
		"flyability" : 0,
		"reason" : "windDir, rain",
		"timestamp" :1556312400
		},
	"2019-04-26T21:00:00-03:00" : {
		"windSpeed" : 4.3,
		"windDir" : 160,
		"rain" : 1,
		"cloudbase" : 2503.1312,
		"flyability" : 0,
		"reason" : "rain",
		"timestamp" :1556323200
		},
	"2019-04-27T00:00:00-03:00" : {
		"windSpeed" : 2.3,
		"windDir" : 87,
		"rain" : 1,
		"cloudbase" : 30,
		"flyability" : 0,
		"reason" : "rain",
		"timestamp" :1556334000
		},
	"2019-04-27T03:00:00-03:00" : {
		"windSpeed" : 3,
		"windDir" : 56,
		"rain" : 1,
		"cloudbase" : 30,
		"flyability" : 0,
		"reason" : "windDir, rain",
		"timestamp" :1556344800
		},
	"2019-04-27T06:00:00-03:00" : {
		"windSpeed" : 1.2,
		"windDir" : 73,
		"rain" : 1,
		"cloudbase" : 61.25326,
		"flyability" : 0,
		"reason" : "rain",
		"timestamp" :1556355600
		},
	"2019-04-27T09:00:00-03:00" : {
		"windSpeed" : 2.5,
		"windDir" : 238,
		"rain" : 0,
		"cloudbase" : 65.57616,
		"flyability" : 0,
		"reason" : "windDir",
		"timestamp" :1556366400
		}
	}
}