{
"site" : "Divcibare",
"id" : 14805,
"orientations" : "00002100",
"forecasts" : { 
	"2019-04-17T05:00:00+02:00" : {
		"windSpeed" : 0.7,
		"windDir" : 317,
		"rain" : 0,
		"cloudbase" : null,
		"flyability" : 0,
		"reason" : "windDir",
		"timestamp" :1555473600
		},
	"2019-04-17T08:00:00+02:00" : {
		"windSpeed" : 1.5,
		"windDir" : 283,
		"rain" : 0,
		"cloudbase" : null,
		"flyability" : 0,
		"reason" : "windDir",
		"timestamp" :1555484400
		},
	"2019-04-17T11:00:00+02:00" : {
		"windSpeed" : 3.5,
		"windDir" : 352,
		"rain" : 0,
		"cloudbase" : 4126.0817,
		"flyability" : 0,
		"reason" : "windDir",
		"timestamp" :1555495200
		},
	"2019-04-17T14:00:00+02:00" : {
		"windSpeed" : 4.6,
		"windDir" : 341,
		"rain" : 0,
		"cloudbase" : 2152.9,
		"flyability" : 0,
		"reason" : "windDir",
		"timestamp" :1555506000
		},
	"2019-04-17T17:00:00+02:00" : {
		"windSpeed" : 4.1,
		"windDir" : 348,
		"rain" : 0,
		"cloudbase" : 1897.43985,
		"flyability" : 0,
		"reason" : "windDir",
		"timestamp" :1555516800
		},
	"2019-04-17T20:00:00+02:00" : {
		"windSpeed" : 3,
		"windDir" : 357,
		"rain" : 0,
		"cloudbase" : 2150,
		"flyability" : 0,
		"reason" : "windDir",
		"timestamp" :1555527600
		},
	"2019-04-17T23:00:00+02:00" : {
		"windSpeed" : 2.5,
		"windDir" : 352,
		"rain" : 1,
		"cloudbase" : 2550,
		"flyability" : 0,
		"reason" : "windDir, rain",
		"timestamp" :1555538400
		},
	"2019-04-18T02:00:00+02:00" : {
		"windSpeed" : 2.4,
		"windDir" : 326,
		"rain" : 1,
		"cloudbase" : null,
		"flyability" : 0,
		"reason" : "windDir, rain",
		"timestamp" :1555549200
		},
	"2019-04-18T05:00:00+02:00" : {
		"windSpeed" : 2.1,
		"windDir" : 315,
		"rain" : 1,
		"cloudbase" : 920,
		"flyability" : 0,
		"reason" : "windDir, rain, cloudbase",
		"timestamp" :1555560000
		},
	"2019-04-18T08:00:00+02:00" : {
		"windSpeed" : 2.5,
		"windDir" : 340,
		"rain" : 1,
		"cloudbase" : 206.70574,
		"flyability" : 0,
		"reason" : "windDir, rain, cloudbase",
		"timestamp" :1555570800
		},
	"2019-04-18T11:00:00+02:00" : {
		"windSpeed" : 2.3,
		"windDir" : 12,
		"rain" : 1,
		"cloudbase" : 169.39599,
		"flyability" : 0,
		"reason" : "windDir, rain, cloudbase",
		"timestamp" :1555581600
		},
	"2019-04-18T14:00:00+02:00" : {
		"windSpeed" : 2.9,
		"windDir" : 24,
		"rain" : 1,
		"cloudbase" : null,
		"flyability" : 0,
		"reason" : "windDir, rain",
		"timestamp" :1555592400
		},
	"2019-04-18T17:00:00+02:00" : {
		"windSpeed" : 2.9,
		"windDir" : 48,
		"rain" : 1,
		"cloudbase" : null,
		"flyability" : 0,
		"reason" : "windDir, rain",
		"timestamp" :1555603200
		},
	"2019-04-18T20:00:00+02:00" : {
		"windSpeed" : 1.7,
		"windDir" : 349,
		"rain" : 0,
		"cloudbase" : null,
		"flyability" : 0,
		"reason" : "windDir",
		"timestamp" :1555614000
		},
	"2019-04-18T23:00:00+02:00" : {
		"windSpeed" : 1.6,
		"windDir" : 342,
		"rain" : 0,
		"cloudbase" : null,
		"flyability" : 0,
		"reason" : "windDir",
		"timestamp" :1555624800
		},
	"2019-04-19T02:00:00+02:00" : {
		"windSpeed" : 2,
		"windDir" : 319,
		"rain" : 0,
		"cloudbase" : null,
		"flyability" : 0,
		"reason" : "windDir",
		"timestamp" :1555635600
		},
	"2019-04-19T05:00:00+02:00" : {
		"windSpeed" : 2.1,
		"windDir" : 315,
		"rain" : 0,
		"cloudbase" : null,
		"flyability" : 0,
		"reason" : "windDir",
		"timestamp" :1555646400
		},
	"2019-04-19T08:00:00+02:00" : {
		"windSpeed" : 2.8,
		"windDir" : 327,
		"rain" : 0,
		"cloudbase" : null,
		"flyability" : 0,
		"reason" : "windDir",
		"timestamp" :1555657200
		},
	"2019-04-19T11:00:00+02:00" : {
		"windSpeed" : 4.2,
		"windDir" : 351,
		"rain" : 0,
		"cloudbase" : null,
		"flyability" : 0,
		"reason" : "windDir",
		"timestamp" :1555668000
		},
	"2019-04-19T14:00:00+02:00" : {
		"windSpeed" : 5.1,
		"windDir" : 350,
		"rain" : 0,
		"cloudbase" : 2000,
		"flyability" : 0,
		"reason" : "windSpeed, windDir",
		"timestamp" :1555678800
		},
	"2019-04-19T17:00:00+02:00" : {
		"windSpeed" : 6,
		"windDir" : 347,
		"rain" : 0,
		"cloudbase" : 2122.2099,
		"flyability" : 0,
		"reason" : "windSpeed, windDir",
		"timestamp" :1555689600
		},
	"2019-04-19T20:00:00+02:00" : {
		"windSpeed" : 2.5,
		"windDir" : 348,
		"rain" : 0,
		"cloudbase" : null,
		"flyability" : 0,
		"reason" : "windDir",
		"timestamp" :1555700400
		},
	"2019-04-19T23:00:00+02:00" : {
		"windSpeed" : 2.2,
		"windDir" : 318,
		"rain" : 0,
		"cloudbase" : null,
		"flyability" : 0,
		"reason" : "windDir",
		"timestamp" :1555711200
		},
	"2019-04-20T02:00:00+02:00" : {
		"windSpeed" : 1.9,
		"windDir" : 329,
		"rain" : 0,
		"cloudbase" : null,
		"flyability" : 0,
		"reason" : "windDir",
		"timestamp" :1555722000
		},
	"2019-04-20T05:00:00+02:00" : {
		"windSpeed" : 2.1,
		"windDir" : 322,
		"rain" : 0,
		"cloudbase" : null,
		"flyability" : 0,
		"reason" : "windDir",
		"timestamp" :1555732800
		},
	"2019-04-20T08:00:00+02:00" : {
		"windSpeed" : 3.6,
		"windDir" : 346,
		"rain" : 0,
		"cloudbase" : null,
		"flyability" : 0,
		"reason" : "windDir",
		"timestamp" :1555743600
		},
	"2019-04-20T11:00:00+02:00" : {
		"windSpeed" : 4.5,
		"windDir" : 360,
		"rain" : 0,
		"cloudbase" : null,
		"flyability" : 0,
		"reason" : "windDir",
		"timestamp" :1555754400
		},
	"2019-04-20T14:00:00+02:00" : {
		"windSpeed" : 4.5,
		"windDir" : 6,
		"rain" : 0,
		"cloudbase" : null,
		"flyability" : 0,
		"reason" : "windDir",
		"timestamp" :1555765200
		},
	"2019-04-20T17:00:00+02:00" : {
		"windSpeed" : 3.6,
		"windDir" : 13,
		"rain" : 0,
		"cloudbase" : null,
		"flyability" : 0,
		"reason" : "windDir",
		"timestamp" :1555776000
		},
	"2019-04-20T20:00:00+02:00" : {
		"windSpeed" : 1.7,
		"windDir" : 28,
		"rain" : 0,
		"cloudbase" : null,
		"flyability" : 0,
		"reason" : "windDir",
		"timestamp" :1555786800
		},
	"2019-04-20T23:00:00+02:00" : {
		"windSpeed" : 1.7,
		"windDir" : 331,
		"rain" : 0,
		"cloudbase" : null,
		"flyability" : 0,
		"reason" : "windDir",
		"timestamp" :1555797600
		},
	"2019-04-21T02:00:00+02:00" : {
		"windSpeed" : 1,
		"windDir" : 303,
		"rain" : 0,
		"cloudbase" : null,
		"flyability" : 0,
		"reason" : "windDir",
		"timestamp" :1555808400
		},
	"2019-04-21T05:00:00+02:00" : {
		"windSpeed" : 1.3,
		"windDir" : 320,
		"rain" : 0,
		"cloudbase" : null,
		"flyability" : 0,
		"reason" : "windDir",
		"timestamp" :1555819200
		},
	"2019-04-21T08:00:00+02:00" : {
		"windSpeed" : 1.6,
		"windDir" : 328,
		"rain" : 0,
		"cloudbase" : null,
		"flyability" : 0,
		"reason" : "windDir",
		"timestamp" :1555830000
		},
	"2019-04-21T11:00:00+02:00" : {
		"windSpeed" : 1.8,
		"windDir" : 5,
		"rain" : 0,
		"cloudbase" : null,
		"flyability" : 0,
		"reason" : "windDir",
		"timestamp" :1555840800
		},
	"2019-04-21T14:00:00+02:00" : {
		"windSpeed" : 2.6,
		"windDir" : 18,
		"rain" : 0,
		"cloudbase" : null,
		"flyability" : 0,
		"reason" : "windDir",
		"timestamp" :1555851600
		},
	"2019-04-21T17:00:00+02:00" : {
		"windSpeed" : 2.9,
		"windDir" : 13,
		"rain" : 1,
		"cloudbase" : null,
		"flyability" : 0,
		"reason" : "windDir, rain",
		"timestamp" :1555862400
		},
	"2019-04-21T20:00:00+02:00" : {
		"windSpeed" : 1.1,
		"windDir" : 133,
		"rain" : 0,
		"cloudbase" : null,
		"flyability" : 0,
		"reason" : "windDir",
		"timestamp" :1555873200
		},
	"2019-04-21T23:00:00+02:00" : {
		"windSpeed" : 1.1,
		"windDir" : 207,
		"rain" : 0,
		"cloudbase" : null,
		"flyability" : 100,
		"reason" : "",
		"timestamp" :1555884000
		},
	"2019-04-22T02:00:00+02:00" : {
		"windSpeed" : 1.8,
		"windDir" : 238,
		"rain" : 0,
		"cloudbase" : null,
		"flyability" : 100,
		"reason" : "",
		"timestamp" :1555894800
		},
	"2019-04-22T05:00:00+02:00" : {
		"windSpeed" : 2.1,
		"windDir" : 271,
		"rain" : 0,
		"cloudbase" : null,
		"flyability" : 0,
		"reason" : "windDir",
		"timestamp" :1555905600
		},
	"2019-04-22T08:00:00+02:00" : {
		"windSpeed" : 0.8,
		"windDir" : 191,
		"rain" : 0,
		"cloudbase" : null,
		"flyability" : 100,
		"reason" : "",
		"timestamp" :1555916400
		},
	"2019-04-22T11:00:00+02:00" : {
		"windSpeed" : 0.6,
		"windDir" : 267,
		"rain" : 1,
		"cloudbase" : null,
		"flyability" : 0,
		"reason" : "windDir, rain",
		"timestamp" :1555927200
		},
	"2019-04-22T14:00:00+02:00" : {
		"windSpeed" : 0.2,
		"windDir" : 360,
		"rain" : 1,
		"cloudbase" : 2100,
		"flyability" : 0,
		"reason" : "windDir, rain",
		"timestamp" :1555938000
		},
	"2019-04-22T17:00:00+02:00" : {
		"windSpeed" : 1,
		"windDir" : 92,
		"rain" : 0,
		"cloudbase" : null,
		"flyability" : 0,
		"reason" : "windDir",
		"timestamp" :1555948800
		},
	"2019-04-22T20:00:00+02:00" : {
		"windSpeed" : 3.3,
		"windDir" : 113,
		"rain" : 1,
		"cloudbase" : 3450,
		"flyability" : 0,
		"reason" : "windDir, rain",
		"timestamp" :1555959600
		},
	"2019-04-22T23:00:00+02:00" : {
		"windSpeed" : 4.3,
		"windDir" : 130,
		"rain" : 1,
		"cloudbase" : null,
		"flyability" : 0,
		"reason" : "windDir, rain",
		"timestamp" :1555970400
		},
	"2019-04-23T02:00:00+02:00" : {
		"windSpeed" : 3.6,
		"windDir" : 140,
		"rain" : 1,
		"cloudbase" : 4600,
		"flyability" : 0,
		"reason" : "windDir, rain",
		"timestamp" :1555981200
		}
	}
}