{
"site" : "Farleys (aka Grants East Ridge)",
"id" : 14816,
"orientations" : "10000122",
"forecasts" : { 
	"2019-04-02T21:00:00-06:00" : {
		"windSpeed" : 3,
		"windDir" : 266,
		"rain" : 0,
		"cloudbase" : null,
		"flyability" : 100,
		"reason" : "",
		"timestamp" :1554260400
		},
	"2019-04-03T00:00:00-06:00" : {
		"windSpeed" : 1,
		"windDir" : 228,
		"rain" : 0,
		"cloudbase" : 6000,
		"flyability" : 100,
		"reason" : "",
		"timestamp" :1554271200
		},
	"2019-04-03T03:00:00-06:00" : {
		"windSpeed" : 2.3,
		"windDir" : 160,
		"rain" : 0,
		"cloudbase" : 6631.4,
		"flyability" : 0,
		"reason" : "windDir",
		"timestamp" :1554282000
		},
	"2019-04-03T06:00:00-06:00" : {
		"windSpeed" : 1.8,
		"windDir" : 146,
		"rain" : 0,
		"cloudbase" : null,
		"flyability" : 0,
		"reason" : "windDir",
		"timestamp" :1554292800
		},
	"2019-04-03T09:00:00-06:00" : {
		"windSpeed" : 1,
		"windDir" : 5,
		"rain" : 0,
		"cloudbase" : 4488.742,
		"flyability" : 100,
		"reason" : "",
		"timestamp" :1554303600
		},
	"2019-04-03T12:00:00-06:00" : {
		"windSpeed" : 7.3,
		"windDir" : 262,
		"rain" : 1,
		"cloudbase" : 3500,
		"flyability" : 0,
		"reason" : "windSpeed, rain",
		"timestamp" :1554314400
		},
	"2019-04-03T15:00:00-06:00" : {
		"windSpeed" : 8,
		"windDir" : 288,
		"rain" : 1,
		"cloudbase" : 2850,
		"flyability" : 0,
		"reason" : "windSpeed, rain",
		"timestamp" :1554325200
		},
	"2019-04-03T18:00:00-06:00" : {
		"windSpeed" : 7.7,
		"windDir" : 299,
		"rain" : 0,
		"cloudbase" : 1899.4,
		"flyability" : 0,
		"reason" : "windSpeed, cloudbase",
		"timestamp" :1554336000
		},
	"2019-04-03T21:00:00-06:00" : {
		"windSpeed" : 4.2,
		"windDir" : 313,
		"rain" : 0,
		"cloudbase" : 1900,
		"flyability" : 0,
		"reason" : "cloudbase",
		"timestamp" :1554346800
		},
	"2019-04-04T00:00:00-06:00" : {
		"windSpeed" : 1.8,
		"windDir" : 332,
		"rain" : 0,
		"cloudbase" : null,
		"flyability" : 100,
		"reason" : "",
		"timestamp" :1554357600
		},
	"2019-04-04T03:00:00-06:00" : {
		"windSpeed" : 2.6,
		"windDir" : 31,
		"rain" : 0,
		"cloudbase" : null,
		"flyability" : 0,
		"reason" : "windDir",
		"timestamp" :1554368400
		},
	"2019-04-04T06:00:00-06:00" : {
		"windSpeed" : 2.8,
		"windDir" : 359,
		"rain" : 0,
		"cloudbase" : null,
		"flyability" : 100,
		"reason" : "",
		"timestamp" :1554379200
		},
	"2019-04-04T09:00:00-06:00" : {
		"windSpeed" : 0.6,
		"windDir" : 23,
		"rain" : 0,
		"cloudbase" : null,
		"flyability" : 0,
		"reason" : "windDir",
		"timestamp" :1554390000
		},
	"2019-04-04T12:00:00-06:00" : {
		"windSpeed" : 1.2,
		"windDir" : 180,
		"rain" : 0,
		"cloudbase" : 6852.028,
		"flyability" : 0,
		"reason" : "windDir",
		"timestamp" :1554400800
		},
	"2019-04-04T15:00:00-06:00" : {
		"windSpeed" : 1.9,
		"windDir" : 199,
		"rain" : 0,
		"cloudbase" : 5200,
		"flyability" : 0,
		"reason" : "windDir",
		"timestamp" :1554411600
		},
	"2019-04-04T18:00:00-06:00" : {
		"windSpeed" : 3.2,
		"windDir" : 187,
		"rain" : 0,
		"cloudbase" : 6019.428,
		"flyability" : 0,
		"reason" : "windDir",
		"timestamp" :1554422400
		},
	"2019-04-04T21:00:00-06:00" : {
		"windSpeed" : 3.9,
		"windDir" : 121,
		"rain" : 0,
		"cloudbase" : null,
		"flyability" : 0,
		"reason" : "windDir",
		"timestamp" :1554433200
		},
	"2019-04-05T00:00:00-06:00" : {
		"windSpeed" : 2.4,
		"windDir" : 145,
		"rain" : 0,
		"cloudbase" : null,
		"flyability" : 0,
		"reason" : "windDir",
		"timestamp" :1554444000
		},
	"2019-04-05T03:00:00-06:00" : {
		"windSpeed" : 1.3,
		"windDir" : 357,
		"rain" : 0,
		"cloudbase" : null,
		"flyability" : 100,
		"reason" : "",
		"timestamp" :1554454800
		},
	"2019-04-05T06:00:00-06:00" : {
		"windSpeed" : 1.6,
		"windDir" : 33,
		"rain" : 0,
		"cloudbase" : 7749.4,
		"flyability" : 0,
		"reason" : "windDir",
		"timestamp" :1554465600
		},
	"2019-04-05T09:00:00-06:00" : {
		"windSpeed" : 0.3,
		"windDir" : 47,
		"rain" : 0,
		"cloudbase" : null,
		"flyability" : 0,
		"reason" : "windDir",
		"timestamp" :1554476400
		},
	"2019-04-05T12:00:00-06:00" : {
		"windSpeed" : 3.7,
		"windDir" : 203,
		"rain" : 0,
		"cloudbase" : 5564,
		"flyability" : 100,
		"reason" : "",
		"timestamp" :1554487200
		},
	"2019-04-05T15:00:00-06:00" : {
		"windSpeed" : 4.4,
		"windDir" : 204,
		"rain" : 0,
		"cloudbase" : 5048.628,
		"flyability" : 100,
		"reason" : "",
		"timestamp" :1554498000
		},
	"2019-04-05T18:00:00-06:00" : {
		"windSpeed" : 4.8,
		"windDir" : 239,
		"rain" : 0,
		"cloudbase" : 4350,
		"flyability" : 100,
		"reason" : "",
		"timestamp" :1554508800
		},
	"2019-04-05T21:00:00-06:00" : {
		"windSpeed" : 2.4,
		"windDir" : 306,
		"rain" : 0,
		"cloudbase" : null,
		"flyability" : 100,
		"reason" : "",
		"timestamp" :1554519600
		},
	"2019-04-06T00:00:00-06:00" : {
		"windSpeed" : 2.6,
		"windDir" : 286,
		"rain" : 0,
		"cloudbase" : null,
		"flyability" : 100,
		"reason" : "",
		"timestamp" :1554530400
		},
	"2019-04-06T03:00:00-06:00" : {
		"windSpeed" : 2.4,
		"windDir" : 343,
		"rain" : 0,
		"cloudbase" : null,
		"flyability" : 100,
		"reason" : "",
		"timestamp" :1554541200
		},
	"2019-04-06T06:00:00-06:00" : {
		"windSpeed" : 3.2,
		"windDir" : 11,
		"rain" : 0,
		"cloudbase" : null,
		"flyability" : 100,
		"reason" : "",
		"timestamp" :1554552000
		},
	"2019-04-06T09:00:00-06:00" : {
		"windSpeed" : 3.8,
		"windDir" : 333,
		"rain" : 0,
		"cloudbase" : 7279.8,
		"flyability" : 100,
		"reason" : "",
		"timestamp" :1554562800
		},
	"2019-04-06T12:00:00-06:00" : {
		"windSpeed" : 6.9,
		"windDir" : 313,
		"rain" : 0,
		"cloudbase" : 1700,
		"flyability" : 0,
		"reason" : "windSpeed, cloudbase",
		"timestamp" :1554573600
		},
	"2019-04-06T15:00:00-06:00" : {
		"windSpeed" : 7.2,
		"windDir" : 304,
		"rain" : 0,
		"cloudbase" : 1852.414,
		"flyability" : 0,
		"reason" : "windSpeed, cloudbase",
		"timestamp" :1554584400
		},
	"2019-04-06T18:00:00-06:00" : {
		"windSpeed" : 7,
		"windDir" : 308,
		"rain" : 0,
		"cloudbase" : 2040.014,
		"flyability" : 0,
		"reason" : "windSpeed, cloudbase",
		"timestamp" :1554595200
		},
	"2019-04-06T21:00:00-06:00" : {
		"windSpeed" : 4.9,
		"windDir" : 296,
		"rain" : 0,
		"cloudbase" : null,
		"flyability" : 100,
		"reason" : "",
		"timestamp" :1554606000
		},
	"2019-04-07T00:00:00-06:00" : {
		"windSpeed" : 5,
		"windDir" : 344,
		"rain" : 0,
		"cloudbase" : null,
		"flyability" : 100,
		"reason" : "",
		"timestamp" :1554616800
		},
	"2019-04-07T03:00:00-06:00" : {
		"windSpeed" : 3.5,
		"windDir" : 351,
		"rain" : 0,
		"cloudbase" : null,
		"flyability" : 100,
		"reason" : "",
		"timestamp" :1554627600
		},
	"2019-04-07T06:00:00-06:00" : {
		"windSpeed" : 3.4,
		"windDir" : 359,
		"rain" : 0,
		"cloudbase" : 7800,
		"flyability" : 100,
		"reason" : "",
		"timestamp" :1554638400
		},
	"2019-04-07T09:00:00-06:00" : {
		"windSpeed" : 4.1,
		"windDir" : 342,
		"rain" : 0,
		"cloudbase" : null,
		"flyability" : 100,
		"reason" : "",
		"timestamp" :1554649200
		},
	"2019-04-07T12:00:00-06:00" : {
		"windSpeed" : 5.8,
		"windDir" : 328,
		"rain" : 0,
		"cloudbase" : null,
		"flyability" : 0,
		"reason" : "windSpeed",
		"timestamp" :1554660000
		},
	"2019-04-07T15:00:00-06:00" : {
		"windSpeed" : 4.2,
		"windDir" : 320,
		"rain" : 0,
		"cloudbase" : null,
		"flyability" : 100,
		"reason" : "",
		"timestamp" :1554670800
		},
	"2019-04-07T18:00:00-06:00" : {
		"windSpeed" : 5.9,
		"windDir" : 298,
		"rain" : 0,
		"cloudbase" : null,
		"flyability" : 0,
		"reason" : "windSpeed",
		"timestamp" :1554681600
		},
	"2019-04-07T21:00:00-06:00" : {
		"windSpeed" : 4.6,
		"windDir" : 289,
		"rain" : 0,
		"cloudbase" : null,
		"flyability" : 100,
		"reason" : "",
		"timestamp" :1554692400
		},
	"2019-04-08T00:00:00-06:00" : {
		"windSpeed" : 2.5,
		"windDir" : 352,
		"rain" : 0,
		"cloudbase" : null,
		"flyability" : 100,
		"reason" : "",
		"timestamp" :1554703200
		},
	"2019-04-08T03:00:00-06:00" : {
		"windSpeed" : 2.8,
		"windDir" : 7,
		"rain" : 0,
		"cloudbase" : null,
		"flyability" : 100,
		"reason" : "",
		"timestamp" :1554714000
		},
	"2019-04-08T06:00:00-06:00" : {
		"windSpeed" : 3.4,
		"windDir" : 7,
		"rain" : 0,
		"cloudbase" : null,
		"flyability" : 100,
		"reason" : "",
		"timestamp" :1554724800
		},
	"2019-04-08T09:00:00-06:00" : {
		"windSpeed" : 4.1,
		"windDir" : 345,
		"rain" : 0,
		"cloudbase" : null,
		"flyability" : 100,
		"reason" : "",
		"timestamp" :1554735600
		},
	"2019-04-08T12:00:00-06:00" : {
		"windSpeed" : 4.7,
		"windDir" : 324,
		"rain" : 0,
		"cloudbase" : null,
		"flyability" : 100,
		"reason" : "",
		"timestamp" :1554746400
		},
	"2019-04-08T15:00:00-06:00" : {
		"windSpeed" : 6.3,
		"windDir" : 312,
		"rain" : 0,
		"cloudbase" : 9164,
		"flyability" : 0,
		"reason" : "windSpeed",
		"timestamp" :1554757200
		},
	"2019-04-08T18:00:00-06:00" : {
		"windSpeed" : 6.7,
		"windDir" : 304,
		"rain" : 0,
		"cloudbase" : 9000,
		"flyability" : 0,
		"reason" : "windSpeed",
		"timestamp" :1554768000
		}
	}
}