{
"site" : "Rybury",
"id" : 14842,
"orientations" : "00000121",
"forecasts" : { 
	"2019-04-21T16:00:00+01:00" : {
		"windSpeed" : 1.8,
		"windDir" : 156,
		"rain" : 0,
		"cloudbase" : null,
		"flyability" : 0,
		"reason" : "windDir",
		"timestamp" :1555855200
		},
	"2019-04-21T19:00:00+01:00" : {
		"windSpeed" : 0.7,
		"windDir" : 215,
		"rain" : 0,
		"cloudbase" : null,
		"flyability" : 100,
		"reason" : "",
		"timestamp" :1555866000
		},
	"2019-04-21T22:00:00+01:00" : {
		"windSpeed" : 2.9,
		"windDir" : 154,
		"rain" : 0,
		"cloudbase" : null,
		"flyability" : 0,
		"reason" : "windDir",
		"timestamp" :1555876800
		},
	"2019-04-22T01:00:00+01:00" : {
		"windSpeed" : 3.1,
		"windDir" : 111,
		"rain" : 0,
		"cloudbase" : null,
		"flyability" : 0,
		"reason" : "windDir",
		"timestamp" :1555887600
		},
	"2019-04-22T04:00:00+01:00" : {
		"windSpeed" : 3.6,
		"windDir" : 104,
		"rain" : 0,
		"cloudbase" : null,
		"flyability" : 0,
		"reason" : "windDir",
		"timestamp" :1555898400
		},
	"2019-04-22T07:00:00+01:00" : {
		"windSpeed" : 3.8,
		"windDir" : 100,
		"rain" : 0,
		"cloudbase" : null,
		"flyability" : 0,
		"reason" : "windDir",
		"timestamp" :1555909200
		},
	"2019-04-22T10:00:00+01:00" : {
		"windSpeed" : 4,
		"windDir" : 98,
		"rain" : 0,
		"cloudbase" : null,
		"flyability" : 0,
		"reason" : "windDir",
		"timestamp" :1555920000
		},
	"2019-04-22T13:00:00+01:00" : {
		"windSpeed" : 4.2,
		"windDir" : 124,
		"rain" : 0,
		"cloudbase" : 9100,
		"flyability" : 0,
		"reason" : "windDir",
		"timestamp" :1555930800
		},
	"2019-04-22T16:00:00+01:00" : {
		"windSpeed" : 4.4,
		"windDir" : 134,
		"rain" : 0,
		"cloudbase" : null,
		"flyability" : 0,
		"reason" : "windDir",
		"timestamp" :1555941600
		},
	"2019-04-22T19:00:00+01:00" : {
		"windSpeed" : 2.9,
		"windDir" : 147,
		"rain" : 0,
		"cloudbase" : 9665.6,
		"flyability" : 0,
		"reason" : "windDir",
		"timestamp" :1555952400
		},
	"2019-04-22T22:00:00+01:00" : {
		"windSpeed" : 2.4,
		"windDir" : 125,
		"rain" : 0,
		"cloudbase" : 3503.8000000001,
		"flyability" : 0,
		"reason" : "windDir",
		"timestamp" :1555963200
		},
	"2019-04-23T01:00:00+01:00" : {
		"windSpeed" : 2.6,
		"windDir" : 110,
		"rain" : 0,
		"cloudbase" : 3287.1,
		"flyability" : 0,
		"reason" : "windDir",
		"timestamp" :1555974000
		},
	"2019-04-23T04:00:00+01:00" : {
		"windSpeed" : 2.7,
		"windDir" : 69,
		"rain" : 0,
		"cloudbase" : 2850,
		"flyability" : 0,
		"reason" : "windDir",
		"timestamp" :1555984800
		},
	"2019-04-23T07:00:00+01:00" : {
		"windSpeed" : 3.4,
		"windDir" : 68,
		"rain" : 0,
		"cloudbase" : null,
		"flyability" : 0,
		"reason" : "windDir",
		"timestamp" :1555995600
		},
	"2019-04-23T10:00:00+01:00" : {
		"windSpeed" : 3,
		"windDir" : 92,
		"rain" : 0,
		"cloudbase" : 9500,
		"flyability" : 0,
		"reason" : "windDir",
		"timestamp" :1556006400
		},
	"2019-04-23T13:00:00+01:00" : {
		"windSpeed" : 3.2,
		"windDir" : 114,
		"rain" : 0,
		"cloudbase" : 10500,
		"flyability" : 0,
		"reason" : "windDir",
		"timestamp" :1556017200
		},
	"2019-04-23T16:00:00+01:00" : {
		"windSpeed" : 2.9,
		"windDir" : 96,
		"rain" : 0,
		"cloudbase" : 9791.6,
		"flyability" : 0,
		"reason" : "windDir",
		"timestamp" :1556028000
		},
	"2019-04-23T19:00:00+01:00" : {
		"windSpeed" : 2.8,
		"windDir" : 90,
		"rain" : 0,
		"cloudbase" : 9400,
		"flyability" : 0,
		"reason" : "windDir",
		"timestamp" :1556038800
		},
	"2019-04-23T22:00:00+01:00" : {
		"windSpeed" : 3.4,
		"windDir" : 102,
		"rain" : 0,
		"cloudbase" : 7674.4,
		"flyability" : 0,
		"reason" : "windDir",
		"timestamp" :1556049600
		},
	"2019-04-24T01:00:00+01:00" : {
		"windSpeed" : 3,
		"windDir" : 91,
		"rain" : 0,
		"cloudbase" : 5300,
		"flyability" : 0,
		"reason" : "windDir",
		"timestamp" :1556060400
		},
	"2019-04-24T04:00:00+01:00" : {
		"windSpeed" : 3.5,
		"windDir" : 83,
		"rain" : 0,
		"cloudbase" : 10500,
		"flyability" : 0,
		"reason" : "windDir",
		"timestamp" :1556071200
		},
	"2019-04-24T07:00:00+01:00" : {
		"windSpeed" : 4.3,
		"windDir" : 103,
		"rain" : 1,
		"cloudbase" : null,
		"flyability" : 0,
		"reason" : "windDir, rain",
		"timestamp" :1556082000
		},
	"2019-04-24T10:00:00+01:00" : {
		"windSpeed" : 6.4,
		"windDir" : 141,
		"rain" : 1,
		"cloudbase" : 2250,
		"flyability" : 0,
		"reason" : "windSpeed, windDir, rain",
		"timestamp" :1556092800
		},
	"2019-04-24T13:00:00+01:00" : {
		"windSpeed" : 7,
		"windDir" : 164,
		"rain" : 1,
		"cloudbase" : 825.38000000009,
		"flyability" : 0,
		"reason" : "windSpeed, windDir, rain",
		"timestamp" :1556103600
		},
	"2019-04-24T16:00:00+01:00" : {
		"windSpeed" : 6.3,
		"windDir" : 208,
		"rain" : 1,
		"cloudbase" : 1398.5,
		"flyability" : 0,
		"reason" : "windSpeed, rain",
		"timestamp" :1556114400
		},
	"2019-04-24T19:00:00+01:00" : {
		"windSpeed" : 4.5,
		"windDir" : 188,
		"rain" : 1,
		"cloudbase" : 2869.9,
		"flyability" : 0,
		"reason" : "windDir, rain",
		"timestamp" :1556125200
		},
	"2019-04-24T22:00:00+01:00" : {
		"windSpeed" : 4.8,
		"windDir" : 148,
		"rain" : 0,
		"cloudbase" : 3089.0000000002,
		"flyability" : 0,
		"reason" : "windDir",
		"timestamp" :1556136000
		},
	"2019-04-25T01:00:00+01:00" : {
		"windSpeed" : 5.4,
		"windDir" : 139,
		"rain" : 1,
		"cloudbase" : null,
		"flyability" : 0,
		"reason" : "windSpeed, windDir, rain",
		"timestamp" :1556146800
		},
	"2019-04-25T04:00:00+01:00" : {
		"windSpeed" : 6.1,
		"windDir" : 143,
		"rain" : 1,
		"cloudbase" : 6354,
		"flyability" : 0,
		"reason" : "windSpeed, windDir, rain",
		"timestamp" :1556157600
		},
	"2019-04-25T07:00:00+01:00" : {
		"windSpeed" : 6.5,
		"windDir" : 131,
		"rain" : 1,
		"cloudbase" : 2539.6000000001,
		"flyability" : 0,
		"reason" : "windSpeed, windDir, rain",
		"timestamp" :1556168400
		},
	"2019-04-25T10:00:00+01:00" : {
		"windSpeed" : 7.9,
		"windDir" : 144,
		"rain" : 1,
		"cloudbase" : 487.12000000001,
		"flyability" : 0,
		"reason" : "windSpeed, windDir, rain",
		"timestamp" :1556179200
		},
	"2019-04-25T13:00:00+01:00" : {
		"windSpeed" : 6.1,
		"windDir" : 174,
		"rain" : 1,
		"cloudbase" : 410,
		"flyability" : 0,
		"reason" : "windSpeed, windDir, rain",
		"timestamp" :1556190000
		},
	"2019-04-25T16:00:00+01:00" : {
		"windSpeed" : 7.3,
		"windDir" : 188,
		"rain" : 1,
		"cloudbase" : null,
		"flyability" : 0,
		"reason" : "windSpeed, windDir, rain",
		"timestamp" :1556200800
		},
	"2019-04-25T19:00:00+01:00" : {
		"windSpeed" : 5.7,
		"windDir" : 185,
		"rain" : 0,
		"cloudbase" : 6200,
		"flyability" : 0,
		"reason" : "windSpeed, windDir",
		"timestamp" :1556211600
		},
	"2019-04-25T22:00:00+01:00" : {
		"windSpeed" : 3.9,
		"windDir" : 180,
		"rain" : 0,
		"cloudbase" : null,
		"flyability" : 0,
		"reason" : "windDir",
		"timestamp" :1556222400
		},
	"2019-04-26T01:00:00+01:00" : {
		"windSpeed" : 3.5,
		"windDir" : 167,
		"rain" : 0,
		"cloudbase" : null,
		"flyability" : 0,
		"reason" : "windDir",
		"timestamp" :1556233200
		},
	"2019-04-26T04:00:00+01:00" : {
		"windSpeed" : 3.5,
		"windDir" : 154,
		"rain" : 1,
		"cloudbase" : null,
		"flyability" : 0,
		"reason" : "windDir, rain",
		"timestamp" :1556244000
		},
	"2019-04-26T07:00:00+01:00" : {
		"windSpeed" : 4.3,
		"windDir" : 148,
		"rain" : 0,
		"cloudbase" : 5668.8,
		"flyability" : 0,
		"reason" : "windDir",
		"timestamp" :1556254800
		},
	"2019-04-26T10:00:00+01:00" : {
		"windSpeed" : 5.4,
		"windDir" : 164,
		"rain" : 1,
		"cloudbase" : 4100,
		"flyability" : 0,
		"reason" : "windSpeed, windDir, rain",
		"timestamp" :1556265600
		},
	"2019-04-26T13:00:00+01:00" : {
		"windSpeed" : 5.5,
		"windDir" : 170,
		"rain" : 1,
		"cloudbase" : 6600,
		"flyability" : 0,
		"reason" : "windSpeed, windDir, rain",
		"timestamp" :1556276400
		},
	"2019-04-26T16:00:00+01:00" : {
		"windSpeed" : 5.3,
		"windDir" : 173,
		"rain" : 1,
		"cloudbase" : 3789.6000000004,
		"flyability" : 0,
		"reason" : "windSpeed, windDir, rain",
		"timestamp" :1556287200
		},
	"2019-04-26T19:00:00+01:00" : {
		"windSpeed" : 3.3,
		"windDir" : 196,
		"rain" : 1,
		"cloudbase" : 420,
		"flyability" : 0,
		"reason" : "windDir, rain",
		"timestamp" :1556298000
		},
	"2019-04-26T22:00:00+01:00" : {
		"windSpeed" : 4.7,
		"windDir" : 253,
		"rain" : 1,
		"cloudbase" : null,
		"flyability" : 0,
		"reason" : "rain",
		"timestamp" :1556308800
		},
	"2019-04-27T01:00:00+01:00" : {
		"windSpeed" : 5.7,
		"windDir" : 236,
		"rain" : 0,
		"cloudbase" : null,
		"flyability" : 0,
		"reason" : "windSpeed",
		"timestamp" :1556319600
		},
	"2019-04-27T04:00:00+01:00" : {
		"windSpeed" : 6.7,
		"windDir" : 189,
		"rain" : 1,
		"cloudbase" : 307.34000000001,
		"flyability" : 0,
		"reason" : "windSpeed, windDir, rain",
		"timestamp" :1556330400
		},
	"2019-04-27T07:00:00+01:00" : {
		"windSpeed" : 7.5,
		"windDir" : 243,
		"rain" : 1,
		"cloudbase" : 1150,
		"flyability" : 0,
		"reason" : "windSpeed, rain",
		"timestamp" :1556341200
		},
	"2019-04-27T10:00:00+01:00" : {
		"windSpeed" : 12.2,
		"windDir" : 233,
		"rain" : 1,
		"cloudbase" : null,
		"flyability" : 0,
		"reason" : "windSpeed, rain",
		"timestamp" :1556352000
		},
	"2019-04-27T13:00:00+01:00" : {
		"windSpeed" : 9.8,
		"windDir" : 247,
		"rain" : 1,
		"cloudbase" : 540,
		"flyability" : 0,
		"reason" : "windSpeed, rain",
		"timestamp" :1556362800
		}
	}
}