{
"site" : "Big Walker",
"id" : 14844,
"orientations" : "20000012",
"forecasts" : { 
	"2019-04-20T23:00:00-04:00" : {
		"windSpeed" : 2.4,
		"windDir" : 272,
		"rain" : 1,
		"cloudbase" : 2874.1873499998,
		"flyability" : 0,
		"reason" : "rain",
		"timestamp" :1555819200
		},
	"2019-04-21T02:00:00-04:00" : {
		"windSpeed" : 2,
		"windDir" : 263,
		"rain" : 1,
		"cloudbase" : 418.78999999999,
		"flyability" : 0,
		"reason" : "rain, cloudbase",
		"timestamp" :1555830000
		},
	"2019-04-21T05:00:00-04:00" : {
		"windSpeed" : 2.5,
		"windDir" : 306,
		"rain" : 0,
		"cloudbase" : null,
		"flyability" : 100,
		"reason" : "",
		"timestamp" :1555840800
		},
	"2019-04-21T08:00:00-04:00" : {
		"windSpeed" : 4.2,
		"windDir" : 315,
		"rain" : 0,
		"cloudbase" : 285.77,
		"flyability" : 0,
		"reason" : "cloudbase",
		"timestamp" :1555851600
		},
	"2019-04-21T11:00:00-04:00" : {
		"windSpeed" : 2.2,
		"windDir" : 313,
		"rain" : 0,
		"cloudbase" : 703.98973999999,
		"flyability" : 0,
		"reason" : "cloudbase",
		"timestamp" :1555862400
		},
	"2019-04-21T14:00:00-04:00" : {
		"windSpeed" : 2.9,
		"windDir" : 330,
		"rain" : 0,
		"cloudbase" : 1471.94145,
		"flyability" : 100,
		"reason" : "",
		"timestamp" :1555873200
		},
	"2019-04-21T17:00:00-04:00" : {
		"windSpeed" : 4,
		"windDir" : 328,
		"rain" : 0,
		"cloudbase" : 1758.4,
		"flyability" : 100,
		"reason" : "",
		"timestamp" :1555884000
		},
	"2019-04-21T20:00:00-04:00" : {
		"windSpeed" : 3.1,
		"windDir" : 309,
		"rain" : 0,
		"cloudbase" : null,
		"flyability" : 100,
		"reason" : "",
		"timestamp" :1555894800
		},
	"2019-04-21T23:00:00-04:00" : {
		"windSpeed" : 2.5,
		"windDir" : 339,
		"rain" : 0,
		"cloudbase" : null,
		"flyability" : 100,
		"reason" : "",
		"timestamp" :1555905600
		},
	"2019-04-22T02:00:00-04:00" : {
		"windSpeed" : 2.4,
		"windDir" : 304,
		"rain" : 0,
		"cloudbase" : null,
		"flyability" : 100,
		"reason" : "",
		"timestamp" :1555916400
		},
	"2019-04-22T05:00:00-04:00" : {
		"windSpeed" : 2.8,
		"windDir" : 310,
		"rain" : 0,
		"cloudbase" : null,
		"flyability" : 100,
		"reason" : "",
		"timestamp" :1555927200
		},
	"2019-04-22T08:00:00-04:00" : {
		"windSpeed" : 3.1,
		"windDir" : 320,
		"rain" : 0,
		"cloudbase" : null,
		"flyability" : 100,
		"reason" : "",
		"timestamp" :1555938000
		},
	"2019-04-22T11:00:00-04:00" : {
		"windSpeed" : 3.7,
		"windDir" : 336,
		"rain" : 0,
		"cloudbase" : null,
		"flyability" : 100,
		"reason" : "",
		"timestamp" :1555948800
		},
	"2019-04-22T14:00:00-04:00" : {
		"windSpeed" : 3.3,
		"windDir" : 334,
		"rain" : 0,
		"cloudbase" : null,
		"flyability" : 100,
		"reason" : "",
		"timestamp" :1555959600
		},
	"2019-04-22T17:00:00-04:00" : {
		"windSpeed" : 3.2,
		"windDir" : 340,
		"rain" : 0,
		"cloudbase" : null,
		"flyability" : 100,
		"reason" : "",
		"timestamp" :1555970400
		},
	"2019-04-22T20:00:00-04:00" : {
		"windSpeed" : 2.4,
		"windDir" : 309,
		"rain" : 0,
		"cloudbase" : null,
		"flyability" : 100,
		"reason" : "",
		"timestamp" :1555981200
		},
	"2019-04-22T23:00:00-04:00" : {
		"windSpeed" : 1.4,
		"windDir" : 307,
		"rain" : 0,
		"cloudbase" : null,
		"flyability" : 100,
		"reason" : "",
		"timestamp" :1555992000
		},
	"2019-04-23T02:00:00-04:00" : {
		"windSpeed" : 1.9,
		"windDir" : 279,
		"rain" : 0,
		"cloudbase" : null,
		"flyability" : 100,
		"reason" : "",
		"timestamp" :1556002800
		},
	"2019-04-23T05:00:00-04:00" : {
		"windSpeed" : 1.4,
		"windDir" : 284,
		"rain" : 0,
		"cloudbase" : null,
		"flyability" : 100,
		"reason" : "",
		"timestamp" :1556013600
		},
	"2019-04-23T08:00:00-04:00" : {
		"windSpeed" : 2.5,
		"windDir" : 269,
		"rain" : 0,
		"cloudbase" : null,
		"flyability" : 100,
		"reason" : "",
		"timestamp" :1556024400
		},
	"2019-04-23T11:00:00-04:00" : {
		"windSpeed" : 3.2,
		"windDir" : 244,
		"rain" : 0,
		"cloudbase" : 10500,
		"flyability" : 0,
		"reason" : "windDir",
		"timestamp" :1556035200
		},
	"2019-04-23T14:00:00-04:00" : {
		"windSpeed" : 3.7,
		"windDir" : 246,
		"rain" : 0,
		"cloudbase" : null,
		"flyability" : 0,
		"reason" : "windDir",
		"timestamp" :1556046000
		},
	"2019-04-23T17:00:00-04:00" : {
		"windSpeed" : 4.2,
		"windDir" : 246,
		"rain" : 0,
		"cloudbase" : null,
		"flyability" : 0,
		"reason" : "windDir",
		"timestamp" :1556056800
		},
	"2019-04-23T20:00:00-04:00" : {
		"windSpeed" : 3.4,
		"windDir" : 237,
		"rain" : 0,
		"cloudbase" : null,
		"flyability" : 0,
		"reason" : "windDir",
		"timestamp" :1556067600
		},
	"2019-04-23T23:00:00-04:00" : {
		"windSpeed" : 3.6,
		"windDir" : 248,
		"rain" : 0,
		"cloudbase" : null,
		"flyability" : 100,
		"reason" : "",
		"timestamp" :1556078400
		},
	"2019-04-24T02:00:00-04:00" : {
		"windSpeed" : 3.6,
		"windDir" : 264,
		"rain" : 0,
		"cloudbase" : null,
		"flyability" : 100,
		"reason" : "",
		"timestamp" :1556089200
		},
	"2019-04-24T05:00:00-04:00" : {
		"windSpeed" : 3.5,
		"windDir" : 263,
		"rain" : 0,
		"cloudbase" : 7093.6829,
		"flyability" : 100,
		"reason" : "",
		"timestamp" :1556100000
		},
	"2019-04-24T08:00:00-04:00" : {
		"windSpeed" : 3.3,
		"windDir" : 256,
		"rain" : 0,
		"cloudbase" : 493.68999999998,
		"flyability" : 0,
		"reason" : "cloudbase",
		"timestamp" :1556110800
		},
	"2019-04-24T11:00:00-04:00" : {
		"windSpeed" : 5.3,
		"windDir" : 294,
		"rain" : 0,
		"cloudbase" : 1250,
		"flyability" : 0,
		"reason" : "windSpeed",
		"timestamp" :1556121600
		},
	"2019-04-24T14:00:00-04:00" : {
		"windSpeed" : 4.9,
		"windDir" : 304,
		"rain" : 1,
		"cloudbase" : 2646.5769500001,
		"flyability" : 0,
		"reason" : "rain",
		"timestamp" :1556132400
		},
	"2019-04-24T17:00:00-04:00" : {
		"windSpeed" : 2.8,
		"windDir" : 300,
		"rain" : 1,
		"cloudbase" : 2188.64145,
		"flyability" : 0,
		"reason" : "rain",
		"timestamp" :1556143200
		},
	"2019-04-24T20:00:00-04:00" : {
		"windSpeed" : 2.6,
		"windDir" : 289,
		"rain" : 1,
		"cloudbase" : 9080.8171,
		"flyability" : 0,
		"reason" : "rain",
		"timestamp" :1556154000
		},
	"2019-04-24T23:00:00-04:00" : {
		"windSpeed" : 2.4,
		"windDir" : 294,
		"rain" : 0,
		"cloudbase" : 8689.1171,
		"flyability" : 100,
		"reason" : "",
		"timestamp" :1556164800
		},
	"2019-04-25T02:00:00-04:00" : {
		"windSpeed" : 1.5,
		"windDir" : 270,
		"rain" : 1,
		"cloudbase" : 2797.3817999997,
		"flyability" : 0,
		"reason" : "rain",
		"timestamp" :1556175600
		},
	"2019-04-25T05:00:00-04:00" : {
		"windSpeed" : 1,
		"windDir" : 241,
		"rain" : 1,
		"cloudbase" : 5192.7674399995,
		"flyability" : 0,
		"reason" : "windDir, rain",
		"timestamp" :1556186400
		},
	"2019-04-25T08:00:00-04:00" : {
		"windSpeed" : 1.7,
		"windDir" : 234,
		"rain" : 0,
		"cloudbase" : 3875.2525999998,
		"flyability" : 0,
		"reason" : "windDir",
		"timestamp" :1556197200
		},
	"2019-04-25T11:00:00-04:00" : {
		"windSpeed" : 3.7,
		"windDir" : 246,
		"rain" : 1,
		"cloudbase" : 3739.3355,
		"flyability" : 0,
		"reason" : "windDir, rain",
		"timestamp" :1556208000
		},
	"2019-04-25T14:00:00-04:00" : {
		"windSpeed" : 3,
		"windDir" : 261,
		"rain" : 1,
		"cloudbase" : 3362.62565,
		"flyability" : 0,
		"reason" : "rain",
		"timestamp" :1556218800
		},
	"2019-04-25T17:00:00-04:00" : {
		"windSpeed" : 2.4,
		"windDir" : 260,
		"rain" : 1,
		"cloudbase" : 3102.49015,
		"flyability" : 0,
		"reason" : "rain",
		"timestamp" :1556229600
		},
	"2019-04-25T20:00:00-04:00" : {
		"windSpeed" : 1.7,
		"windDir" : 243,
		"rain" : 1,
		"cloudbase" : 2536.65855,
		"flyability" : 0,
		"reason" : "windDir, rain",
		"timestamp" :1556240400
		},
	"2019-04-25T23:00:00-04:00" : {
		"windSpeed" : 2,
		"windDir" : 266,
		"rain" : 1,
		"cloudbase" : 2002.27435,
		"flyability" : 0,
		"reason" : "rain",
		"timestamp" :1556251200
		},
	"2019-04-26T02:00:00-04:00" : {
		"windSpeed" : 2.8,
		"windDir" : 269,
		"rain" : 1,
		"cloudbase" : 3087.65,
		"flyability" : 0,
		"reason" : "rain",
		"timestamp" :1556262000
		},
	"2019-04-26T05:00:00-04:00" : {
		"windSpeed" : 2.5,
		"windDir" : 281,
		"rain" : 1,
		"cloudbase" : 2574.4,
		"flyability" : 0,
		"reason" : "rain",
		"timestamp" :1556272800
		},
	"2019-04-26T08:00:00-04:00" : {
		"windSpeed" : 2.1,
		"windDir" : 284,
		"rain" : 1,
		"cloudbase" : 4467.3258499997,
		"flyability" : 0,
		"reason" : "rain",
		"timestamp" :1556283600
		},
	"2019-04-26T11:00:00-04:00" : {
		"windSpeed" : 3.1,
		"windDir" : 307,
		"rain" : 1,
		"cloudbase" : 1042.5369899999,
		"flyability" : 0,
		"reason" : "rain",
		"timestamp" :1556294400
		},
	"2019-04-26T14:00:00-04:00" : {
		"windSpeed" : 4.2,
		"windDir" : 315,
		"rain" : 0,
		"cloudbase" : 8119.1829,
		"flyability" : 100,
		"reason" : "",
		"timestamp" :1556305200
		},
	"2019-04-26T17:00:00-04:00" : {
		"windSpeed" : 3.9,
		"windDir" : 321,
		"rain" : 1,
		"cloudbase" : 9669.3829,
		"flyability" : 0,
		"reason" : "rain",
		"timestamp" :1556316000
		},
	"2019-04-26T20:00:00-04:00" : {
		"windSpeed" : 2.7,
		"windDir" : 318,
		"rain" : 0,
		"cloudbase" : null,
		"flyability" : 100,
		"reason" : "",
		"timestamp" :1556326800
		}
	}
}