{
"site" : "Blue Mountain ",
"id" : 14983,
"orientations" : "21000001",
"forecasts" : { 
	"2019-04-16T23:00:00-04:00" : {
		"windSpeed" : 2.5,
		"windDir" : 6,
		"rain" : 1,
		"cloudbase" : 2277.3,
		"flyability" : 0,
		"reason" : "rain",
		"timestamp" :1555473600
		},
	"2019-04-17T02:00:00-04:00" : {
		"windSpeed" : 2.5,
		"windDir" : 32,
		"rain" : 1,
		"cloudbase" : 2148.55,
		"flyability" : 0,
		"reason" : "rain",
		"timestamp" :1555484400
		},
	"2019-04-17T05:00:00-04:00" : {
		"windSpeed" : 2.5,
		"windDir" : 70,
		"rain" : 1,
		"cloudbase" : 1727,
		"flyability" : 0,
		"reason" : "windDir, rain",
		"timestamp" :1555495200
		},
	"2019-04-17T08:00:00-04:00" : {
		"windSpeed" : 2.2,
		"windDir" : 63,
		"rain" : 0,
		"cloudbase" : 1538.2,
		"flyability" : 100,
		"reason" : "",
		"timestamp" :1555506000
		},
	"2019-04-17T11:00:00-04:00" : {
		"windSpeed" : 2.5,
		"windDir" : 101,
		"rain" : 0,
		"cloudbase" : 9134.6999999995,
		"flyability" : 0,
		"reason" : "windDir",
		"timestamp" :1555516800
		},
	"2019-04-17T14:00:00-04:00" : {
		"windSpeed" : 1.1,
		"windDir" : 154,
		"rain" : 0,
		"cloudbase" : null,
		"flyability" : 0,
		"reason" : "windDir",
		"timestamp" :1555527600
		},
	"2019-04-17T17:00:00-04:00" : {
		"windSpeed" : 1.5,
		"windDir" : 167,
		"rain" : 0,
		"cloudbase" : null,
		"flyability" : 0,
		"reason" : "windDir",
		"timestamp" :1555538400
		},
	"2019-04-17T20:00:00-04:00" : {
		"windSpeed" : 3.1,
		"windDir" : 155,
		"rain" : 0,
		"cloudbase" : 1929.876,
		"flyability" : 0,
		"reason" : "windDir",
		"timestamp" :1555549200
		},
	"2019-04-17T23:00:00-04:00" : {
		"windSpeed" : 2.5,
		"windDir" : 129,
		"rain" : 0,
		"cloudbase" : 2027.848,
		"flyability" : 0,
		"reason" : "windDir",
		"timestamp" :1555560000
		},
	"2019-04-18T02:00:00-04:00" : {
		"windSpeed" : 2.6,
		"windDir" : 103,
		"rain" : 1,
		"cloudbase" : 4139.306,
		"flyability" : 0,
		"reason" : "windDir, rain",
		"timestamp" :1555570800
		},
	"2019-04-18T05:00:00-04:00" : {
		"windSpeed" : 3.6,
		"windDir" : 107,
		"rain" : 1,
		"cloudbase" : 803.74479999999,
		"flyability" : 0,
		"reason" : "windDir, rain",
		"timestamp" :1555581600
		},
	"2019-04-18T08:00:00-04:00" : {
		"windSpeed" : 3.1,
		"windDir" : 101,
		"rain" : 1,
		"cloudbase" : 445.03239999999,
		"flyability" : 0,
		"reason" : "windDir, rain",
		"timestamp" :1555592400
		},
	"2019-04-18T11:00:00-04:00" : {
		"windSpeed" : 3.7,
		"windDir" : 107,
		"rain" : 1,
		"cloudbase" : 217.21239999999,
		"flyability" : 0,
		"reason" : "windDir, rain, cloudbase",
		"timestamp" :1555603200
		},
	"2019-04-18T14:00:00-04:00" : {
		"windSpeed" : 2.8,
		"windDir" : 118,
		"rain" : 1,
		"cloudbase" : 662.62039999997,
		"flyability" : 0,
		"reason" : "windDir, rain",
		"timestamp" :1555614000
		},
	"2019-04-18T17:00:00-04:00" : {
		"windSpeed" : 3.9,
		"windDir" : 167,
		"rain" : 0,
		"cloudbase" : 3507.5660000006,
		"flyability" : 0,
		"reason" : "windDir",
		"timestamp" :1555624800
		},
	"2019-04-18T20:00:00-04:00" : {
		"windSpeed" : 2.6,
		"windDir" : 161,
		"rain" : 0,
		"cloudbase" : 13000,
		"flyability" : 0,
		"reason" : "windDir",
		"timestamp" :1555635600
		},
	"2019-04-18T23:00:00-04:00" : {
		"windSpeed" : 2.7,
		"windDir" : 159,
		"rain" : 0,
		"cloudbase" : 13000,
		"flyability" : 0,
		"reason" : "windDir",
		"timestamp" :1555646400
		},
	"2019-04-19T02:00:00-04:00" : {
		"windSpeed" : 3,
		"windDir" : 180,
		"rain" : 0,
		"cloudbase" : 13500,
		"flyability" : 0,
		"reason" : "windDir",
		"timestamp" :1555657200
		},
	"2019-04-19T05:00:00-04:00" : {
		"windSpeed" : 3.5,
		"windDir" : 188,
		"rain" : 0,
		"cloudbase" : 3036.0499999998,
		"flyability" : 0,
		"reason" : "windDir",
		"timestamp" :1555668000
		},
	"2019-04-19T08:00:00-04:00" : {
		"windSpeed" : 4.5,
		"windDir" : 186,
		"rain" : 0,
		"cloudbase" : 557.37759999999,
		"flyability" : 0,
		"reason" : "windDir",
		"timestamp" :1555678800
		},
	"2019-04-19T11:00:00-04:00" : {
		"windSpeed" : 6.1,
		"windDir" : 190,
		"rain" : 1,
		"cloudbase" : 632.70479999999,
		"flyability" : 0,
		"reason" : "windSpeed, windDir, rain",
		"timestamp" :1555689600
		},
	"2019-04-19T14:00:00-04:00" : {
		"windSpeed" : 5.4,
		"windDir" : 191,
		"rain" : 1,
		"cloudbase" : 2513.5695999995,
		"flyability" : 0,
		"reason" : "windSpeed, windDir, rain",
		"timestamp" :1555700400
		},
	"2019-04-19T17:00:00-04:00" : {
		"windSpeed" : 3.9,
		"windDir" : 173,
		"rain" : 1,
		"cloudbase" : 301.5444,
		"flyability" : 0,
		"reason" : "windDir, rain, cloudbase",
		"timestamp" :1555711200
		},
	"2019-04-19T20:00:00-04:00" : {
		"windSpeed" : 4,
		"windDir" : 191,
		"rain" : 0,
		"cloudbase" : 193.35279999998,
		"flyability" : 0,
		"reason" : "windDir, cloudbase",
		"timestamp" :1555722000
		},
	"2019-04-19T23:00:00-04:00" : {
		"windSpeed" : 5.1,
		"windDir" : 169,
		"rain" : 0,
		"cloudbase" : 122.4648,
		"flyability" : 0,
		"reason" : "windSpeed, windDir, cloudbase",
		"timestamp" :1555732800
		},
	"2019-04-20T02:00:00-04:00" : {
		"windSpeed" : 5.5,
		"windDir" : 155,
		"rain" : 1,
		"cloudbase" : 353.06280000003,
		"flyability" : 0,
		"reason" : "windSpeed, windDir, rain, cloudbase",
		"timestamp" :1555743600
		},
	"2019-04-20T05:00:00-04:00" : {
		"windSpeed" : 5.1,
		"windDir" : 151,
		"rain" : 1,
		"cloudbase" : 238.46759999999,
		"flyability" : 0,
		"reason" : "windSpeed, windDir, rain, cloudbase",
		"timestamp" :1555754400
		},
	"2019-04-20T08:00:00-04:00" : {
		"windSpeed" : 3.7,
		"windDir" : 135,
		"rain" : 1,
		"cloudbase" : 6310.9,
		"flyability" : 0,
		"reason" : "windDir, rain",
		"timestamp" :1555765200
		},
	"2019-04-20T11:00:00-04:00" : {
		"windSpeed" : 6.3,
		"windDir" : 158,
		"rain" : 1,
		"cloudbase" : 3925.2039999998,
		"flyability" : 0,
		"reason" : "windSpeed, windDir, rain",
		"timestamp" :1555776000
		},
	"2019-04-20T14:00:00-04:00" : {
		"windSpeed" : 5.9,
		"windDir" : 160,
		"rain" : 1,
		"cloudbase" : 6465.312,
		"flyability" : 0,
		"reason" : "windSpeed, windDir, rain",
		"timestamp" :1555786800
		},
	"2019-04-20T17:00:00-04:00" : {
		"windSpeed" : 5.7,
		"windDir" : 165,
		"rain" : 0,
		"cloudbase" : 8322.4,
		"flyability" : 0,
		"reason" : "windSpeed, windDir",
		"timestamp" :1555797600
		},
	"2019-04-20T20:00:00-04:00" : {
		"windSpeed" : 4.4,
		"windDir" : 181,
		"rain" : 0,
		"cloudbase" : null,
		"flyability" : 0,
		"reason" : "windDir",
		"timestamp" :1555808400
		},
	"2019-04-20T23:00:00-04:00" : {
		"windSpeed" : 2.7,
		"windDir" : 159,
		"rain" : 0,
		"cloudbase" : null,
		"flyability" : 0,
		"reason" : "windDir",
		"timestamp" :1555819200
		},
	"2019-04-21T02:00:00-04:00" : {
		"windSpeed" : 2.8,
		"windDir" : 135,
		"rain" : 1,
		"cloudbase" : 2197.424,
		"flyability" : 0,
		"reason" : "windDir, rain",
		"timestamp" :1555830000
		},
	"2019-04-21T05:00:00-04:00" : {
		"windSpeed" : 2.1,
		"windDir" : 165,
		"rain" : 0,
		"cloudbase" : null,
		"flyability" : 0,
		"reason" : "windDir",
		"timestamp" :1555840800
		},
	"2019-04-21T08:00:00-04:00" : {
		"windSpeed" : 2.1,
		"windDir" : 166,
		"rain" : 1,
		"cloudbase" : 3389.95,
		"flyability" : 0,
		"reason" : "windDir, rain",
		"timestamp" :1555851600
		},
	"2019-04-21T11:00:00-04:00" : {
		"windSpeed" : 2.1,
		"windDir" : 197,
		"rain" : 1,
		"cloudbase" : 1916.1700000001,
		"flyability" : 0,
		"reason" : "windDir, rain",
		"timestamp" :1555862400
		},
	"2019-04-21T14:00:00-04:00" : {
		"windSpeed" : 3.5,
		"windDir" : 228,
		"rain" : 1,
		"cloudbase" : 1359.1375999999,
		"flyability" : 0,
		"reason" : "windDir, rain",
		"timestamp" :1555873200
		},
	"2019-04-21T17:00:00-04:00" : {
		"windSpeed" : 5.5,
		"windDir" : 264,
		"rain" : 1,
		"cloudbase" : 1636.224,
		"flyability" : 0,
		"reason" : "windSpeed, windDir, rain",
		"timestamp" :1555884000
		},
	"2019-04-21T20:00:00-04:00" : {
		"windSpeed" : 2.7,
		"windDir" : 248,
		"rain" : 1,
		"cloudbase" : null,
		"flyability" : 0,
		"reason" : "windDir, rain",
		"timestamp" :1555894800
		},
	"2019-04-21T23:00:00-04:00" : {
		"windSpeed" : 2.2,
		"windDir" : 284,
		"rain" : 0,
		"cloudbase" : null,
		"flyability" : 0,
		"reason" : "windDir",
		"timestamp" :1555905600
		},
	"2019-04-22T02:00:00-04:00" : {
		"windSpeed" : 1.5,
		"windDir" : 270,
		"rain" : 0,
		"cloudbase" : 2434.338,
		"flyability" : 0,
		"reason" : "windDir",
		"timestamp" :1555916400
		},
	"2019-04-22T05:00:00-04:00" : {
		"windSpeed" : 1.7,
		"windDir" : 248,
		"rain" : 0,
		"cloudbase" : null,
		"flyability" : 0,
		"reason" : "windDir",
		"timestamp" :1555927200
		},
	"2019-04-22T08:00:00-04:00" : {
		"windSpeed" : 1.7,
		"windDir" : 234,
		"rain" : 0,
		"cloudbase" : null,
		"flyability" : 0,
		"reason" : "windDir",
		"timestamp" :1555938000
		},
	"2019-04-22T11:00:00-04:00" : {
		"windSpeed" : 2.8,
		"windDir" : 229,
		"rain" : 0,
		"cloudbase" : null,
		"flyability" : 0,
		"reason" : "windDir",
		"timestamp" :1555948800
		},
	"2019-04-22T14:00:00-04:00" : {
		"windSpeed" : 4.9,
		"windDir" : 270,
		"rain" : 0,
		"cloudbase" : 1391.674,
		"flyability" : 0,
		"reason" : "windDir",
		"timestamp" :1555959600
		},
	"2019-04-22T17:00:00-04:00" : {
		"windSpeed" : 3.5,
		"windDir" : 266,
		"rain" : 0,
		"cloudbase" : 2623.5000000006,
		"flyability" : 0,
		"reason" : "windDir",
		"timestamp" :1555970400
		},
	"2019-04-22T20:00:00-04:00" : {
		"windSpeed" : 3.8,
		"windDir" : 320,
		"rain" : 0,
		"cloudbase" : 7688.4480000002,
		"flyability" : 100,
		"reason" : "",
		"timestamp" :1555981200
		}
	}
}