{
"site" : "Monte Soglio",
"id" : 15311,
"orientations" : "00122100",
"forecasts" : { 
	"2019-04-18T05:00:00+02:00" : {
		"windSpeed" : 1.7,
		"windDir" : 313,
		"rain" : 0,
		"cloudbase" : 8000,
		"flyability" : 0,
		"reason" : "windDir",
		"timestamp" :1555560000
		},
	"2019-04-18T08:00:00+02:00" : {
		"windSpeed" : 1,
		"windDir" : 309,
		"rain" : 0,
		"cloudbase" : null,
		"flyability" : 0,
		"reason" : "windDir",
		"timestamp" :1555570800
		},
	"2019-04-18T11:00:00+02:00" : {
		"windSpeed" : 0.3,
		"windDir" : 96,
		"rain" : 0,
		"cloudbase" : 960,
		"flyability" : 0,
		"reason" : "cloudbase",
		"timestamp" :1555581600
		},
	"2019-04-18T14:00:00+02:00" : {
		"windSpeed" : 1.5,
		"windDir" : 112,
		"rain" : 0,
		"cloudbase" : 2757.2709999998,
		"flyability" : 100,
		"reason" : "",
		"timestamp" :1555592400
		},
	"2019-04-18T17:00:00+02:00" : {
		"windSpeed" : 1.4,
		"windDir" : 114,
		"rain" : 0,
		"cloudbase" : 3005.8069999999,
		"flyability" : 100,
		"reason" : "",
		"timestamp" :1555603200
		},
	"2019-04-18T20:00:00+02:00" : {
		"windSpeed" : 0.5,
		"windDir" : 286,
		"rain" : 0,
		"cloudbase" : 1742.958,
		"flyability" : 0,
		"reason" : "windDir, cloudbase",
		"timestamp" :1555614000
		},
	"2019-04-18T23:00:00+02:00" : {
		"windSpeed" : 1.2,
		"windDir" : 305,
		"rain" : 1,
		"cloudbase" : 1128.4168,
		"flyability" : 0,
		"reason" : "windDir, rain, cloudbase",
		"timestamp" :1555624800
		},
	"2019-04-19T02:00:00+02:00" : {
		"windSpeed" : 0.8,
		"windDir" : 275,
		"rain" : 1,
		"cloudbase" : 1058.0168,
		"flyability" : 0,
		"reason" : "windDir, rain, cloudbase",
		"timestamp" :1555635600
		},
	"2019-04-19T05:00:00+02:00" : {
		"windSpeed" : 1.3,
		"windDir" : 303,
		"rain" : 1,
		"cloudbase" : 1473.616,
		"flyability" : 0,
		"reason" : "windDir, rain, cloudbase",
		"timestamp" :1555646400
		},
	"2019-04-19T08:00:00+02:00" : {
		"windSpeed" : 1.6,
		"windDir" : 306,
		"rain" : 1,
		"cloudbase" : null,
		"flyability" : 0,
		"reason" : "windDir, rain",
		"timestamp" :1555657200
		},
	"2019-04-19T11:00:00+02:00" : {
		"windSpeed" : 0.2,
		"windDir" : 138,
		"rain" : 1,
		"cloudbase" : null,
		"flyability" : 0,
		"reason" : "rain",
		"timestamp" :1555668000
		},
	"2019-04-19T14:00:00+02:00" : {
		"windSpeed" : 1.4,
		"windDir" : 141,
		"rain" : 0,
		"cloudbase" : 1300,
		"flyability" : 0,
		"reason" : "cloudbase",
		"timestamp" :1555678800
		},
	"2019-04-19T17:00:00+02:00" : {
		"windSpeed" : 0.9,
		"windDir" : 142,
		"rain" : 0,
		"cloudbase" : 840,
		"flyability" : 0,
		"reason" : "cloudbase",
		"timestamp" :1555689600
		},
	"2019-04-19T20:00:00+02:00" : {
		"windSpeed" : 0.5,
		"windDir" : 303,
		"rain" : 0,
		"cloudbase" : null,
		"flyability" : 0,
		"reason" : "windDir",
		"timestamp" :1555700400
		},
	"2019-04-19T23:00:00+02:00" : {
		"windSpeed" : 0.9,
		"windDir" : 308,
		"rain" : 0,
		"cloudbase" : null,
		"flyability" : 0,
		"reason" : "windDir",
		"timestamp" :1555711200
		},
	"2019-04-20T02:00:00+02:00" : {
		"windSpeed" : 1,
		"windDir" : 303,
		"rain" : 0,
		"cloudbase" : null,
		"flyability" : 0,
		"reason" : "windDir",
		"timestamp" :1555722000
		},
	"2019-04-20T05:00:00+02:00" : {
		"windSpeed" : 1.2,
		"windDir" : 319,
		"rain" : 0,
		"cloudbase" : null,
		"flyability" : 0,
		"reason" : "windDir",
		"timestamp" :1555732800
		},
	"2019-04-20T08:00:00+02:00" : {
		"windSpeed" : 1.5,
		"windDir" : 308,
		"rain" : 0,
		"cloudbase" : null,
		"flyability" : 0,
		"reason" : "windDir",
		"timestamp" :1555743600
		},
	"2019-04-20T11:00:00+02:00" : {
		"windSpeed" : 1.3,
		"windDir" : 105,
		"rain" : 0,
		"cloudbase" : 6900,
		"flyability" : 100,
		"reason" : "",
		"timestamp" :1555754400
		},
	"2019-04-20T14:00:00+02:00" : {
		"windSpeed" : 2.3,
		"windDir" : 103,
		"rain" : 0,
		"cloudbase" : null,
		"flyability" : 100,
		"reason" : "",
		"timestamp" :1555765200
		},
	"2019-04-20T17:00:00+02:00" : {
		"windSpeed" : 2.1,
		"windDir" : 109,
		"rain" : 0,
		"cloudbase" : null,
		"flyability" : 100,
		"reason" : "",
		"timestamp" :1555776000
		},
	"2019-04-20T20:00:00+02:00" : {
		"windSpeed" : 0.4,
		"windDir" : 15,
		"rain" : 0,
		"cloudbase" : null,
		"flyability" : 0,
		"reason" : "windDir",
		"timestamp" :1555786800
		},
	"2019-04-20T23:00:00+02:00" : {
		"windSpeed" : 1.3,
		"windDir" : 322,
		"rain" : 0,
		"cloudbase" : null,
		"flyability" : 0,
		"reason" : "windDir",
		"timestamp" :1555797600
		},
	"2019-04-21T02:00:00+02:00" : {
		"windSpeed" : 1.7,
		"windDir" : 309,
		"rain" : 0,
		"cloudbase" : 7636.8,
		"flyability" : 0,
		"reason" : "windDir",
		"timestamp" :1555808400
		},
	"2019-04-21T05:00:00+02:00" : {
		"windSpeed" : 1.5,
		"windDir" : 310,
		"rain" : 0,
		"cloudbase" : null,
		"flyability" : 0,
		"reason" : "windDir",
		"timestamp" :1555819200
		},
	"2019-04-21T08:00:00+02:00" : {
		"windSpeed" : 1.5,
		"windDir" : 313,
		"rain" : 0,
		"cloudbase" : 6468.858,
		"flyability" : 0,
		"reason" : "windDir",
		"timestamp" :1555830000
		},
	"2019-04-21T11:00:00+02:00" : {
		"windSpeed" : 1.6,
		"windDir" : 124,
		"rain" : 0,
		"cloudbase" : 7182.755,
		"flyability" : 100,
		"reason" : "",
		"timestamp" :1555840800
		},
	"2019-04-21T14:00:00+02:00" : {
		"windSpeed" : 2.3,
		"windDir" : 126,
		"rain" : 0,
		"cloudbase" : 2502.8769999999,
		"flyability" : 100,
		"reason" : "",
		"timestamp" :1555851600
		},
	"2019-04-21T17:00:00+02:00" : {
		"windSpeed" : 1.4,
		"windDir" : 103,
		"rain" : 0,
		"cloudbase" : 9500,
		"flyability" : 100,
		"reason" : "",
		"timestamp" :1555862400
		},
	"2019-04-21T20:00:00+02:00" : {
		"windSpeed" : 0.5,
		"windDir" : 25,
		"rain" : 0,
		"cloudbase" : null,
		"flyability" : 0,
		"reason" : "windDir",
		"timestamp" :1555873200
		},
	"2019-04-21T23:00:00+02:00" : {
		"windSpeed" : 1.5,
		"windDir" : 311,
		"rain" : 0,
		"cloudbase" : 9809.658,
		"flyability" : 0,
		"reason" : "windDir",
		"timestamp" :1555884000
		},
	"2019-04-22T02:00:00+02:00" : {
		"windSpeed" : 1.3,
		"windDir" : 315,
		"rain" : 0,
		"cloudbase" : 8597.058,
		"flyability" : 0,
		"reason" : "windDir",
		"timestamp" :1555894800
		},
	"2019-04-22T05:00:00+02:00" : {
		"windSpeed" : 0.6,
		"windDir" : 309,
		"rain" : 0,
		"cloudbase" : 5449.039,
		"flyability" : 0,
		"reason" : "windDir",
		"timestamp" :1555905600
		},
	"2019-04-22T08:00:00+02:00" : {
		"windSpeed" : 0.6,
		"windDir" : 308,
		"rain" : 1,
		"cloudbase" : 6062.2,
		"flyability" : 0,
		"reason" : "windDir, rain",
		"timestamp" :1555916400
		},
	"2019-04-22T11:00:00+02:00" : {
		"windSpeed" : 0.9,
		"windDir" : 136,
		"rain" : 0,
		"cloudbase" : 6700,
		"flyability" : 100,
		"reason" : "",
		"timestamp" :1555927200
		},
	"2019-04-22T14:00:00+02:00" : {
		"windSpeed" : 2.9,
		"windDir" : 106,
		"rain" : 0,
		"cloudbase" : null,
		"flyability" : 100,
		"reason" : "",
		"timestamp" :1555938000
		},
	"2019-04-22T17:00:00+02:00" : {
		"windSpeed" : 2.5,
		"windDir" : 99,
		"rain" : 0,
		"cloudbase" : 2112.587,
		"flyability" : 100,
		"reason" : "",
		"timestamp" :1555948800
		},
	"2019-04-22T20:00:00+02:00" : {
		"windSpeed" : 0.1,
		"windDir" : 180,
		"rain" : 0,
		"cloudbase" : 5581.6209999999,
		"flyability" : 100,
		"reason" : "",
		"timestamp" :1555959600
		},
	"2019-04-22T23:00:00+02:00" : {
		"windSpeed" : 1.2,
		"windDir" : 284,
		"rain" : 1,
		"cloudbase" : 2624.6769999999,
		"flyability" : 0,
		"reason" : "windDir, rain",
		"timestamp" :1555970400
		},
	"2019-04-23T02:00:00+02:00" : {
		"windSpeed" : 0.6,
		"windDir" : 15,
		"rain" : 1,
		"cloudbase" : 1538.145,
		"flyability" : 0,
		"reason" : "windDir, rain, cloudbase",
		"timestamp" :1555981200
		},
	"2019-04-23T05:00:00+02:00" : {
		"windSpeed" : 2,
		"windDir" : 310,
		"rain" : 1,
		"cloudbase" : 798.34779999999,
		"flyability" : 0,
		"reason" : "windDir, rain, cloudbase",
		"timestamp" :1555992000
		},
	"2019-04-23T08:00:00+02:00" : {
		"windSpeed" : 1.5,
		"windDir" : 297,
		"rain" : 1,
		"cloudbase" : 751.65039999999,
		"flyability" : 0,
		"reason" : "windDir, rain, cloudbase",
		"timestamp" :1556002800
		},
	"2019-04-23T11:00:00+02:00" : {
		"windSpeed" : 1.4,
		"windDir" : 320,
		"rain" : 1,
		"cloudbase" : 759.07299999999,
		"flyability" : 0,
		"reason" : "windDir, rain, cloudbase",
		"timestamp" :1556013600
		},
	"2019-04-23T14:00:00+02:00" : {
		"windSpeed" : 0.9,
		"windDir" : 320,
		"rain" : 1,
		"cloudbase" : 654.13159999998,
		"flyability" : 0,
		"reason" : "windDir, rain, cloudbase",
		"timestamp" :1556024400
		},
	"2019-04-23T17:00:00+02:00" : {
		"windSpeed" : 1,
		"windDir" : 306,
		"rain" : 1,
		"cloudbase" : 717.83239999999,
		"flyability" : 0,
		"reason" : "windDir, rain, cloudbase",
		"timestamp" :1556035200
		},
	"2019-04-23T20:00:00+02:00" : {
		"windSpeed" : 1.5,
		"windDir" : 302,
		"rain" : 1,
		"cloudbase" : 619.89739999998,
		"flyability" : 0,
		"reason" : "windDir, rain, cloudbase",
		"timestamp" :1556046000
		},
	"2019-04-23T23:00:00+02:00" : {
		"windSpeed" : 0.9,
		"windDir" : 315,
		"rain" : 1,
		"cloudbase" : 688.75359999999,
		"flyability" : 0,
		"reason" : "windDir, rain, cloudbase",
		"timestamp" :1556056800
		},
	"2019-04-24T02:00:00+02:00" : {
		"windSpeed" : 0.7,
		"windDir" : 282,
		"rain" : 1,
		"cloudbase" : 691.27939999998,
		"flyability" : 0,
		"reason" : "windDir, rain, cloudbase",
		"timestamp" :1556067600
		}
	}
}