{
"site" : "Rezniovete - West",
"id" : 15350,
"orientations" : "02220010",
"forecasts" : { 
	"2019-04-17T06:00:00+03:00" : {
		"windSpeed" : 1.7,
		"windDir" : 287,
		"rain" : 0,
		"cloudbase" : null,
		"flyability" : 100,
		"reason" : "",
		"timestamp" :1555470000
		},
	"2019-04-17T09:00:00+03:00" : {
		"windSpeed" : 2.3,
		"windDir" : 312,
		"rain" : 0,
		"cloudbase" : null,
		"flyability" : 0,
		"reason" : "windDir",
		"timestamp" :1555480800
		},
	"2019-04-17T12:00:00+03:00" : {
		"windSpeed" : 2.8,
		"windDir" : 3,
		"rain" : 0,
		"cloudbase" : null,
		"flyability" : 0,
		"reason" : "windDir",
		"timestamp" :1555491600
		},
	"2019-04-17T15:00:00+03:00" : {
		"windSpeed" : 3.1,
		"windDir" : 349,
		"rain" : 0,
		"cloudbase" : 1713.8288,
		"flyability" : 0,
		"reason" : "windDir, cloudbase",
		"timestamp" :1555502400
		},
	"2019-04-17T18:00:00+03:00" : {
		"windSpeed" : 3.1,
		"windDir" : 336,
		"rain" : 1,
		"cloudbase" : 1790.6288,
		"flyability" : 0,
		"reason" : "windDir, rain, cloudbase",
		"timestamp" :1555513200
		},
	"2019-04-17T21:00:00+03:00" : {
		"windSpeed" : 0.4,
		"windDir" : 45,
		"rain" : 0,
		"cloudbase" : null,
		"flyability" : 100,
		"reason" : "",
		"timestamp" :1555524000
		},
	"2019-04-18T00:00:00+03:00" : {
		"windSpeed" : 1.4,
		"windDir" : 58,
		"rain" : 0,
		"cloudbase" : 2300,
		"flyability" : 100,
		"reason" : "",
		"timestamp" :1555534800
		},
	"2019-04-18T03:00:00+03:00" : {
		"windSpeed" : 0.3,
		"windDir" : 23,
		"rain" : 0,
		"cloudbase" : null,
		"flyability" : 100,
		"reason" : "",
		"timestamp" :1555545600
		},
	"2019-04-18T06:00:00+03:00" : {
		"windSpeed" : 0.5,
		"windDir" : 30,
		"rain" : 1,
		"cloudbase" : 954.0933200001,
		"flyability" : 0,
		"reason" : "rain, cloudbase",
		"timestamp" :1555556400
		},
	"2019-04-18T09:00:00+03:00" : {
		"windSpeed" : 2.1,
		"windDir" : 50,
		"rain" : 1,
		"cloudbase" : 460,
		"flyability" : 0,
		"reason" : "rain, cloudbase",
		"timestamp" :1555567200
		},
	"2019-04-18T12:00:00+03:00" : {
		"windSpeed" : 3.3,
		"windDir" : 54,
		"rain" : 1,
		"cloudbase" : null,
		"flyability" : 0,
		"reason" : "rain",
		"timestamp" :1555578000
		},
	"2019-04-18T15:00:00+03:00" : {
		"windSpeed" : 4.1,
		"windDir" : 49,
		"rain" : 1,
		"cloudbase" : null,
		"flyability" : 0,
		"reason" : "rain",
		"timestamp" :1555588800
		},
	"2019-04-18T18:00:00+03:00" : {
		"windSpeed" : 3.8,
		"windDir" : 54,
		"rain" : 1,
		"cloudbase" : 820.02876000022,
		"flyability" : 0,
		"reason" : "rain, cloudbase",
		"timestamp" :1555599600
		},
	"2019-04-18T21:00:00+03:00" : {
		"windSpeed" : 2.1,
		"windDir" : 53,
		"rain" : 1,
		"cloudbase" : 6437.0356000001,
		"flyability" : 0,
		"reason" : "rain",
		"timestamp" :1555610400
		},
	"2019-04-19T00:00:00+03:00" : {
		"windSpeed" : 1.9,
		"windDir" : 38,
		"rain" : 0,
		"cloudbase" : null,
		"flyability" : 100,
		"reason" : "",
		"timestamp" :1555621200
		},
	"2019-04-19T03:00:00+03:00" : {
		"windSpeed" : 1.7,
		"windDir" : 26,
		"rain" : 0,
		"cloudbase" : 1243.8288,
		"flyability" : 0,
		"reason" : "cloudbase",
		"timestamp" :1555632000
		},
	"2019-04-19T06:00:00+03:00" : {
		"windSpeed" : 0.8,
		"windDir" : 25,
		"rain" : 0,
		"cloudbase" : 1100.4288,
		"flyability" : 0,
		"reason" : "cloudbase",
		"timestamp" :1555642800
		},
	"2019-04-19T09:00:00+03:00" : {
		"windSpeed" : 1.2,
		"windDir" : 350,
		"rain" : 0,
		"cloudbase" : 1000,
		"flyability" : 0,
		"reason" : "windDir, cloudbase",
		"timestamp" :1555653600
		},
	"2019-04-19T12:00:00+03:00" : {
		"windSpeed" : 2.7,
		"windDir" : 349,
		"rain" : 0,
		"cloudbase" : 1036.7378,
		"flyability" : 0,
		"reason" : "windDir, cloudbase",
		"timestamp" :1555664400
		},
	"2019-04-19T15:00:00+03:00" : {
		"windSpeed" : 3.7,
		"windDir" : 326,
		"rain" : 1,
		"cloudbase" : 1845.9754,
		"flyability" : 0,
		"reason" : "windDir, rain, cloudbase",
		"timestamp" :1555675200
		},
	"2019-04-19T18:00:00+03:00" : {
		"windSpeed" : 3.4,
		"windDir" : 346,
		"rain" : 1,
		"cloudbase" : 1700,
		"flyability" : 0,
		"reason" : "windDir, rain, cloudbase",
		"timestamp" :1555686000
		},
	"2019-04-19T21:00:00+03:00" : {
		"windSpeed" : 0.5,
		"windDir" : 14,
		"rain" : 1,
		"cloudbase" : 2007.2026000002,
		"flyability" : 0,
		"reason" : "windDir, rain, cloudbase",
		"timestamp" :1555696800
		},
	"2019-04-20T00:00:00+03:00" : {
		"windSpeed" : 0.4,
		"windDir" : 115,
		"rain" : 1,
		"cloudbase" : 1600,
		"flyability" : 0,
		"reason" : "rain, cloudbase",
		"timestamp" :1555707600
		},
	"2019-04-20T03:00:00+03:00" : {
		"windSpeed" : 0.7,
		"windDir" : 23,
		"rain" : 0,
		"cloudbase" : 1736.9644,
		"flyability" : 0,
		"reason" : "cloudbase",
		"timestamp" :1555718400
		},
	"2019-04-20T06:00:00+03:00" : {
		"windSpeed" : 1.3,
		"windDir" : 58,
		"rain" : 0,
		"cloudbase" : 1700,
		"flyability" : 0,
		"reason" : "cloudbase",
		"timestamp" :1555729200
		},
	"2019-04-20T09:00:00+03:00" : {
		"windSpeed" : 2.3,
		"windDir" : 69,
		"rain" : 0,
		"cloudbase" : null,
		"flyability" : 100,
		"reason" : "",
		"timestamp" :1555740000
		},
	"2019-04-20T12:00:00+03:00" : {
		"windSpeed" : 3.5,
		"windDir" : 45,
		"rain" : 1,
		"cloudbase" : null,
		"flyability" : 0,
		"reason" : "rain",
		"timestamp" :1555750800
		},
	"2019-04-20T15:00:00+03:00" : {
		"windSpeed" : 3.4,
		"windDir" : 37,
		"rain" : 0,
		"cloudbase" : 1197.3288,
		"flyability" : 0,
		"reason" : "cloudbase",
		"timestamp" :1555761600
		},
	"2019-04-20T18:00:00+03:00" : {
		"windSpeed" : 3.4,
		"windDir" : 50,
		"rain" : 0,
		"cloudbase" : 1072.2466000001,
		"flyability" : 0,
		"reason" : "cloudbase",
		"timestamp" :1555772400
		},
	"2019-04-20T21:00:00+03:00" : {
		"windSpeed" : 2.2,
		"windDir" : 82,
		"rain" : 0,
		"cloudbase" : null,
		"flyability" : 100,
		"reason" : "",
		"timestamp" :1555783200
		},
	"2019-04-21T00:00:00+03:00" : {
		"windSpeed" : 1.3,
		"windDir" : 110,
		"rain" : 0,
		"cloudbase" : null,
		"flyability" : 100,
		"reason" : "",
		"timestamp" :1555794000
		},
	"2019-04-21T03:00:00+03:00" : {
		"windSpeed" : 0.5,
		"windDir" : 143,
		"rain" : 0,
		"cloudbase" : null,
		"flyability" : 100,
		"reason" : "",
		"timestamp" :1555804800
		},
	"2019-04-21T06:00:00+03:00" : {
		"windSpeed" : 0.2,
		"windDir" : 164,
		"rain" : 0,
		"cloudbase" : null,
		"flyability" : 0,
		"reason" : "windDir",
		"timestamp" :1555815600
		},
	"2019-04-21T09:00:00+03:00" : {
		"windSpeed" : 0.7,
		"windDir" : 296,
		"rain" : 0,
		"cloudbase" : null,
		"flyability" : 0,
		"reason" : "windDir",
		"timestamp" :1555826400
		},
	"2019-04-21T12:00:00+03:00" : {
		"windSpeed" : 2.3,
		"windDir" : 338,
		"rain" : 1,
		"cloudbase" : 1380.5288,
		"flyability" : 0,
		"reason" : "windDir, rain, cloudbase",
		"timestamp" :1555837200
		},
	"2019-04-21T15:00:00+03:00" : {
		"windSpeed" : 3,
		"windDir" : 327,
		"rain" : 0,
		"cloudbase" : 1384.0932,
		"flyability" : 0,
		"reason" : "windDir, cloudbase",
		"timestamp" :1555848000
		},
	"2019-04-21T18:00:00+03:00" : {
		"windSpeed" : 1.2,
		"windDir" : 28,
		"rain" : 1,
		"cloudbase" : 1684.8178,
		"flyability" : 0,
		"reason" : "rain, cloudbase",
		"timestamp" :1555858800
		},
	"2019-04-21T21:00:00+03:00" : {
		"windSpeed" : 0.3,
		"windDir" : 101,
		"rain" : 1,
		"cloudbase" : null,
		"flyability" : 0,
		"reason" : "rain",
		"timestamp" :1555869600
		},
	"2019-04-22T00:00:00+03:00" : {
		"windSpeed" : 0.6,
		"windDir" : 209,
		"rain" : 0,
		"cloudbase" : null,
		"flyability" : 0,
		"reason" : "windDir",
		"timestamp" :1555880400
		},
	"2019-04-22T03:00:00+03:00" : {
		"windSpeed" : 0.8,
		"windDir" : 255,
		"rain" : 1,
		"cloudbase" : null,
		"flyability" : 0,
		"reason" : "rain",
		"timestamp" :1555891200
		},
	"2019-04-22T06:00:00+03:00" : {
		"windSpeed" : 0.3,
		"windDir" : 154,
		"rain" : 0,
		"cloudbase" : 1800,
		"flyability" : 0,
		"reason" : "cloudbase",
		"timestamp" :1555902000
		},
	"2019-04-22T09:00:00+03:00" : {
		"windSpeed" : 0.4,
		"windDir" : 90,
		"rain" : 0,
		"cloudbase" : 1800,
		"flyability" : 0,
		"reason" : "cloudbase",
		"timestamp" :1555912800
		},
	"2019-04-22T12:00:00+03:00" : {
		"windSpeed" : 1.5,
		"windDir" : 51,
		"rain" : 1,
		"cloudbase" : 1500,
		"flyability" : 0,
		"reason" : "rain, cloudbase",
		"timestamp" :1555923600
		},
	"2019-04-22T15:00:00+03:00" : {
		"windSpeed" : 0.9,
		"windDir" : 87,
		"rain" : 1,
		"cloudbase" : 2337.3932,
		"flyability" : 0,
		"reason" : "rain",
		"timestamp" :1555934400
		},
	"2019-04-22T18:00:00+03:00" : {
		"windSpeed" : 1.7,
		"windDir" : 107,
		"rain" : 1,
		"cloudbase" : 2075.1083999998,
		"flyability" : 0,
		"reason" : "rain, cloudbase",
		"timestamp" :1555945200
		},
	"2019-04-22T21:00:00+03:00" : {
		"windSpeed" : 2,
		"windDir" : 110,
		"rain" : 1,
		"cloudbase" : 1743.1068000001,
		"flyability" : 0,
		"reason" : "rain, cloudbase",
		"timestamp" :1555956000
		},
	"2019-04-23T00:00:00+03:00" : {
		"windSpeed" : 2.7,
		"windDir" : 113,
		"rain" : 1,
		"cloudbase" : 403.62042000002,
		"flyability" : 0,
		"reason" : "rain, cloudbase",
		"timestamp" :1555966800
		},
	"2019-04-23T03:00:00+03:00" : {
		"windSpeed" : 2.6,
		"windDir" : 118,
		"rain" : 1,
		"cloudbase" : 262.26670000003,
		"flyability" : 0,
		"reason" : "rain, cloudbase",
		"timestamp" :1555977600
		}
	}
}