{
"site" : "Tofield",
"id" : 15367,
"orientations" : "22122212",
"forecasts" : { 
	"2019-04-19T21:00:00-06:00" : {
		"windSpeed" : 5,
		"windDir" : 246,
		"rain" : 0,
		"cloudbase" : null,
		"flyability" : 100,
		"reason" : "",
		"timestamp" :1555729200
		},
	"2019-04-20T00:00:00-06:00" : {
		"windSpeed" : 5,
		"windDir" : 270,
		"rain" : 0,
		"cloudbase" : null,
		"flyability" : 100,
		"reason" : "",
		"timestamp" :1555740000
		},
	"2019-04-20T03:00:00-06:00" : {
		"windSpeed" : 3.6,
		"windDir" : 302,
		"rain" : 0,
		"cloudbase" : null,
		"flyability" : 100,
		"reason" : "",
		"timestamp" :1555750800
		},
	"2019-04-20T06:00:00-06:00" : {
		"windSpeed" : 4.7,
		"windDir" : 288,
		"rain" : 0,
		"cloudbase" : null,
		"flyability" : 100,
		"reason" : "",
		"timestamp" :1555761600
		},
	"2019-04-20T09:00:00-06:00" : {
		"windSpeed" : 6.1,
		"windDir" : 294,
		"rain" : 0,
		"cloudbase" : null,
		"flyability" : 0,
		"reason" : "windSpeed",
		"timestamp" :1555772400
		},
	"2019-04-20T12:00:00-06:00" : {
		"windSpeed" : 6.9,
		"windDir" : 300,
		"rain" : 0,
		"cloudbase" : null,
		"flyability" : 0,
		"reason" : "windSpeed",
		"timestamp" :1555783200
		},
	"2019-04-20T15:00:00-06:00" : {
		"windSpeed" : 6.9,
		"windDir" : 300,
		"rain" : 0,
		"cloudbase" : 2100,
		"flyability" : 0,
		"reason" : "windSpeed",
		"timestamp" :1555794000
		},
	"2019-04-20T18:00:00-06:00" : {
		"windSpeed" : 5.4,
		"windDir" : 304,
		"rain" : 0,
		"cloudbase" : 2309.042,
		"flyability" : 0,
		"reason" : "windSpeed",
		"timestamp" :1555804800
		},
	"2019-04-20T21:00:00-06:00" : {
		"windSpeed" : 3.2,
		"windDir" : 308,
		"rain" : 0,
		"cloudbase" : null,
		"flyability" : 100,
		"reason" : "",
		"timestamp" :1555815600
		},
	"2019-04-21T00:00:00-06:00" : {
		"windSpeed" : 2.7,
		"windDir" : 339,
		"rain" : 0,
		"cloudbase" : null,
		"flyability" : 100,
		"reason" : "",
		"timestamp" :1555826400
		},
	"2019-04-21T03:00:00-06:00" : {
		"windSpeed" : 1.4,
		"windDir" : 226,
		"rain" : 0,
		"cloudbase" : null,
		"flyability" : 100,
		"reason" : "",
		"timestamp" :1555837200
		},
	"2019-04-21T06:00:00-06:00" : {
		"windSpeed" : 2.2,
		"windDir" : 244,
		"rain" : 0,
		"cloudbase" : null,
		"flyability" : 100,
		"reason" : "",
		"timestamp" :1555848000
		},
	"2019-04-21T09:00:00-06:00" : {
		"windSpeed" : 1.6,
		"windDir" : 252,
		"rain" : 0,
		"cloudbase" : null,
		"flyability" : 100,
		"reason" : "",
		"timestamp" :1555858800
		},
	"2019-04-21T12:00:00-06:00" : {
		"windSpeed" : 2,
		"windDir" : 179,
		"rain" : 0,
		"cloudbase" : null,
		"flyability" : 100,
		"reason" : "",
		"timestamp" :1555869600
		},
	"2019-04-21T15:00:00-06:00" : {
		"windSpeed" : 4,
		"windDir" : 179,
		"rain" : 0,
		"cloudbase" : 6802.2839999999,
		"flyability" : 100,
		"reason" : "",
		"timestamp" :1555880400
		},
	"2019-04-21T18:00:00-06:00" : {
		"windSpeed" : 2,
		"windDir" : 193,
		"rain" : 0,
		"cloudbase" : 5100,
		"flyability" : 100,
		"reason" : "",
		"timestamp" :1555891200
		},
	"2019-04-21T21:00:00-06:00" : {
		"windSpeed" : 2.7,
		"windDir" : 111,
		"rain" : 0,
		"cloudbase" : null,
		"flyability" : 100,
		"reason" : "",
		"timestamp" :1555902000
		},
	"2019-04-22T00:00:00-06:00" : {
		"windSpeed" : 2.9,
		"windDir" : 135,
		"rain" : 0,
		"cloudbase" : 7275.716,
		"flyability" : 100,
		"reason" : "",
		"timestamp" :1555912800
		},
	"2019-04-22T03:00:00-06:00" : {
		"windSpeed" : 4.2,
		"windDir" : 199,
		"rain" : 0,
		"cloudbase" : null,
		"flyability" : 100,
		"reason" : "",
		"timestamp" :1555923600
		},
	"2019-04-22T06:00:00-06:00" : {
		"windSpeed" : 3.2,
		"windDir" : 218,
		"rain" : 0,
		"cloudbase" : null,
		"flyability" : 100,
		"reason" : "",
		"timestamp" :1555934400
		},
	"2019-04-22T09:00:00-06:00" : {
		"windSpeed" : 2.7,
		"windDir" : 202,
		"rain" : 0,
		"cloudbase" : 7900,
		"flyability" : 100,
		"reason" : "",
		"timestamp" :1555945200
		},
	"2019-04-22T12:00:00-06:00" : {
		"windSpeed" : 3,
		"windDir" : 179,
		"rain" : 0,
		"cloudbase" : null,
		"flyability" : 100,
		"reason" : "",
		"timestamp" :1555956000
		},
	"2019-04-22T15:00:00-06:00" : {
		"windSpeed" : 5,
		"windDir" : 180,
		"rain" : 0,
		"cloudbase" : 7400,
		"flyability" : 100,
		"reason" : "",
		"timestamp" :1555966800
		},
	"2019-04-22T18:00:00-06:00" : {
		"windSpeed" : 3.5,
		"windDir" : 181,
		"rain" : 0,
		"cloudbase" : 8498.284,
		"flyability" : 100,
		"reason" : "",
		"timestamp" :1555977600
		},
	"2019-04-22T21:00:00-06:00" : {
		"windSpeed" : 2.7,
		"windDir" : 200,
		"rain" : 0,
		"cloudbase" : 3051.213,
		"flyability" : 100,
		"reason" : "",
		"timestamp" :1555988400
		},
	"2019-04-23T00:00:00-06:00" : {
		"windSpeed" : 3.5,
		"windDir" : 271,
		"rain" : 0,
		"cloudbase" : 3150,
		"flyability" : 100,
		"reason" : "",
		"timestamp" :1555999200
		},
	"2019-04-23T03:00:00-06:00" : {
		"windSpeed" : 5.2,
		"windDir" : 287,
		"rain" : 0,
		"cloudbase" : 2500,
		"flyability" : 0,
		"reason" : "windSpeed",
		"timestamp" :1556010000
		},
	"2019-04-23T06:00:00-06:00" : {
		"windSpeed" : 3.5,
		"windDir" : 270,
		"rain" : 0,
		"cloudbase" : 3306.6,
		"flyability" : 100,
		"reason" : "",
		"timestamp" :1556020800
		},
	"2019-04-23T09:00:00-06:00" : {
		"windSpeed" : 4.4,
		"windDir" : 290,
		"rain" : 0,
		"cloudbase" : null,
		"flyability" : 100,
		"reason" : "",
		"timestamp" :1556031600
		},
	"2019-04-23T12:00:00-06:00" : {
		"windSpeed" : 6.3,
		"windDir" : 298,
		"rain" : 0,
		"cloudbase" : null,
		"flyability" : 0,
		"reason" : "windSpeed",
		"timestamp" :1556042400
		},
	"2019-04-23T15:00:00-06:00" : {
		"windSpeed" : 6.1,
		"windDir" : 294,
		"rain" : 0,
		"cloudbase" : null,
		"flyability" : 0,
		"reason" : "windSpeed",
		"timestamp" :1556053200
		},
	"2019-04-23T18:00:00-06:00" : {
		"windSpeed" : 4.4,
		"windDir" : 323,
		"rain" : 0,
		"cloudbase" : 4847,
		"flyability" : 100,
		"reason" : "",
		"timestamp" :1556064000
		},
	"2019-04-23T21:00:00-06:00" : {
		"windSpeed" : 3.1,
		"windDir" : 251,
		"rain" : 0,
		"cloudbase" : null,
		"flyability" : 100,
		"reason" : "",
		"timestamp" :1556074800
		},
	"2019-04-24T00:00:00-06:00" : {
		"windSpeed" : 3.4,
		"windDir" : 272,
		"rain" : 0,
		"cloudbase" : null,
		"flyability" : 100,
		"reason" : "",
		"timestamp" :1556085600
		},
	"2019-04-24T03:00:00-06:00" : {
		"windSpeed" : 4.4,
		"windDir" : 297,
		"rain" : 0,
		"cloudbase" : null,
		"flyability" : 100,
		"reason" : "",
		"timestamp" :1556096400
		},
	"2019-04-24T06:00:00-06:00" : {
		"windSpeed" : 5.1,
		"windDir" : 299,
		"rain" : 0,
		"cloudbase" : null,
		"flyability" : 0,
		"reason" : "windSpeed",
		"timestamp" :1556107200
		},
	"2019-04-24T09:00:00-06:00" : {
		"windSpeed" : 5.4,
		"windDir" : 292,
		"rain" : 0,
		"cloudbase" : null,
		"flyability" : 0,
		"reason" : "windSpeed",
		"timestamp" :1556118000
		},
	"2019-04-24T12:00:00-06:00" : {
		"windSpeed" : 7.8,
		"windDir" : 296,
		"rain" : 0,
		"cloudbase" : 2109.9,
		"flyability" : 0,
		"reason" : "windSpeed",
		"timestamp" :1556128800
		},
	"2019-04-24T15:00:00-06:00" : {
		"windSpeed" : 8.6,
		"windDir" : 298,
		"rain" : 0,
		"cloudbase" : 2450,
		"flyability" : 0,
		"reason" : "windSpeed",
		"timestamp" :1556139600
		},
	"2019-04-24T18:00:00-06:00" : {
		"windSpeed" : 8.2,
		"windDir" : 317,
		"rain" : 0,
		"cloudbase" : null,
		"flyability" : 0,
		"reason" : "windSpeed",
		"timestamp" :1556150400
		},
	"2019-04-24T21:00:00-06:00" : {
		"windSpeed" : 5.1,
		"windDir" : 330,
		"rain" : 0,
		"cloudbase" : null,
		"flyability" : 0,
		"reason" : "windSpeed",
		"timestamp" :1556161200
		},
	"2019-04-25T00:00:00-06:00" : {
		"windSpeed" : 3.4,
		"windDir" : 297,
		"rain" : 0,
		"cloudbase" : null,
		"flyability" : 100,
		"reason" : "",
		"timestamp" :1556172000
		},
	"2019-04-25T03:00:00-06:00" : {
		"windSpeed" : 5.3,
		"windDir" : 287,
		"rain" : 0,
		"cloudbase" : null,
		"flyability" : 0,
		"reason" : "windSpeed",
		"timestamp" :1556182800
		},
	"2019-04-25T06:00:00-06:00" : {
		"windSpeed" : 6,
		"windDir" : 270,
		"rain" : 0,
		"cloudbase" : null,
		"flyability" : 0,
		"reason" : "windSpeed",
		"timestamp" :1556193600
		},
	"2019-04-25T09:00:00-06:00" : {
		"windSpeed" : 6.1,
		"windDir" : 279,
		"rain" : 0,
		"cloudbase" : null,
		"flyability" : 0,
		"reason" : "windSpeed",
		"timestamp" :1556204400
		},
	"2019-04-25T12:00:00-06:00" : {
		"windSpeed" : 6.3,
		"windDir" : 298,
		"rain" : 0,
		"cloudbase" : null,
		"flyability" : 0,
		"reason" : "windSpeed",
		"timestamp" :1556215200
		},
	"2019-04-25T15:00:00-06:00" : {
		"windSpeed" : 6.7,
		"windDir" : 297,
		"rain" : 0,
		"cloudbase" : null,
		"flyability" : 0,
		"reason" : "windSpeed",
		"timestamp" :1556226000
		},
	"2019-04-25T18:00:00-06:00" : {
		"windSpeed" : 5.3,
		"windDir" : 311,
		"rain" : 1,
		"cloudbase" : null,
		"flyability" : 0,
		"reason" : "windSpeed, rain",
		"timestamp" :1556236800
		}
	}
}