{
"site" : "Puheke",
"id" : 15455,
"orientations" : "20002000",
"forecasts" : { 
	"2019-04-06T15:00:00+12:00" : {
		"windSpeed" : 2.4,
		"windDir" : 72,
		"rain" : 1,
		"cloudbase" : 8356.4,
		"flyability" : 0,
		"reason" : "windDir, rain",
		"timestamp" :1554519600
		},
	"2019-04-06T18:00:00+12:00" : {
		"windSpeed" : 2.8,
		"windDir" : 129,
		"rain" : 1,
		"cloudbase" : 8504.4549999999,
		"flyability" : 0,
		"reason" : "windDir, rain",
		"timestamp" :1554530400
		},
	"2019-04-06T21:00:00+12:00" : {
		"windSpeed" : 3.1,
		"windDir" : 90,
		"rain" : 1,
		"cloudbase" : 9408.7549999999,
		"flyability" : 0,
		"reason" : "windDir, rain",
		"timestamp" :1554541200
		},
	"2019-04-07T00:00:00+12:00" : {
		"windSpeed" : 2.1,
		"windDir" : 128,
		"rain" : 0,
		"cloudbase" : null,
		"flyability" : 0,
		"reason" : "windDir",
		"timestamp" :1554552000
		},
	"2019-04-07T03:00:00+12:00" : {
		"windSpeed" : 3,
		"windDir" : 148,
		"rain" : 1,
		"cloudbase" : 30,
		"flyability" : 0,
		"reason" : "windDir, rain, cloudbase",
		"timestamp" :1554562800
		},
	"2019-04-07T06:00:00+12:00" : {
		"windSpeed" : 3.1,
		"windDir" : 163,
		"rain" : 0,
		"cloudbase" : 40,
		"flyability" : 0,
		"reason" : "cloudbase",
		"timestamp" :1554573600
		},
	"2019-04-07T09:00:00+12:00" : {
		"windSpeed" : 3.7,
		"windDir" : 163,
		"rain" : 0,
		"cloudbase" : null,
		"flyability" : 100,
		"reason" : "",
		"timestamp" :1554584400
		},
	"2019-04-07T12:00:00+12:00" : {
		"windSpeed" : 3.7,
		"windDir" : 161,
		"rain" : 1,
		"cloudbase" : 2450,
		"flyability" : 0,
		"reason" : "rain",
		"timestamp" :1554595200
		},
	"2019-04-07T15:00:00+12:00" : {
		"windSpeed" : 5,
		"windDir" : 183,
		"rain" : 1,
		"cloudbase" : null,
		"flyability" : 0,
		"reason" : "rain",
		"timestamp" :1554606000
		},
	"2019-04-07T18:00:00+12:00" : {
		"windSpeed" : 5.4,
		"windDir" : 181,
		"rain" : 0,
		"cloudbase" : null,
		"flyability" : 0,
		"reason" : "windSpeed",
		"timestamp" :1554616800
		},
	"2019-04-07T21:00:00+12:00" : {
		"windSpeed" : 4.1,
		"windDir" : 184,
		"rain" : 0,
		"cloudbase" : null,
		"flyability" : 100,
		"reason" : "",
		"timestamp" :1554627600
		},
	"2019-04-08T00:00:00+12:00" : {
		"windSpeed" : 2.4,
		"windDir" : 201,
		"rain" : 0,
		"cloudbase" : null,
		"flyability" : 100,
		"reason" : "",
		"timestamp" :1554638400
		},
	"2019-04-08T03:00:00+12:00" : {
		"windSpeed" : 4.3,
		"windDir" : 217,
		"rain" : 0,
		"cloudbase" : null,
		"flyability" : 0,
		"reason" : "windDir",
		"timestamp" :1554649200
		},
	"2019-04-08T06:00:00+12:00" : {
		"windSpeed" : 4.2,
		"windDir" : 218,
		"rain" : 0,
		"cloudbase" : null,
		"flyability" : 0,
		"reason" : "windDir",
		"timestamp" :1554660000
		},
	"2019-04-08T09:00:00+12:00" : {
		"windSpeed" : 5.8,
		"windDir" : 216,
		"rain" : 1,
		"cloudbase" : null,
		"flyability" : 0,
		"reason" : "windSpeed, windDir, rain",
		"timestamp" :1554670800
		},
	"2019-04-08T12:00:00+12:00" : {
		"windSpeed" : 6.8,
		"windDir" : 215,
		"rain" : 1,
		"cloudbase" : 1450,
		"flyability" : 0,
		"reason" : "windSpeed, windDir, rain",
		"timestamp" :1554681600
		},
	"2019-04-08T15:00:00+12:00" : {
		"windSpeed" : 7.1,
		"windDir" : 211,
		"rain" : 0,
		"cloudbase" : 1600,
		"flyability" : 0,
		"reason" : "windSpeed, windDir",
		"timestamp" :1554692400
		},
	"2019-04-08T18:00:00+12:00" : {
		"windSpeed" : 5.5,
		"windDir" : 212,
		"rain" : 0,
		"cloudbase" : null,
		"flyability" : 0,
		"reason" : "windSpeed, windDir",
		"timestamp" :1554703200
		},
	"2019-04-08T21:00:00+12:00" : {
		"windSpeed" : 3.6,
		"windDir" : 198,
		"rain" : 0,
		"cloudbase" : null,
		"flyability" : 100,
		"reason" : "",
		"timestamp" :1554714000
		},
	"2019-04-09T00:00:00+12:00" : {
		"windSpeed" : 2.6,
		"windDir" : 195,
		"rain" : 0,
		"cloudbase" : null,
		"flyability" : 100,
		"reason" : "",
		"timestamp" :1554724800
		},
	"2019-04-09T03:00:00+12:00" : {
		"windSpeed" : 2.8,
		"windDir" : 212,
		"rain" : 0,
		"cloudbase" : null,
		"flyability" : 0,
		"reason" : "windDir",
		"timestamp" :1554735600
		},
	"2019-04-09T06:00:00+12:00" : {
		"windSpeed" : 1.9,
		"windDir" : 170,
		"rain" : 0,
		"cloudbase" : null,
		"flyability" : 100,
		"reason" : "",
		"timestamp" :1554746400
		},
	"2019-04-09T09:00:00+12:00" : {
		"windSpeed" : 1,
		"windDir" : 180,
		"rain" : 0,
		"cloudbase" : null,
		"flyability" : 100,
		"reason" : "",
		"timestamp" :1554757200
		},
	"2019-04-09T12:00:00+12:00" : {
		"windSpeed" : 0.5,
		"windDir" : 38,
		"rain" : 0,
		"cloudbase" : 1550,
		"flyability" : 0,
		"reason" : "windDir",
		"timestamp" :1554768000
		},
	"2019-04-09T15:00:00+12:00" : {
		"windSpeed" : 3.1,
		"windDir" : 326,
		"rain" : 1,
		"cloudbase" : 1700,
		"flyability" : 0,
		"reason" : "windDir, rain",
		"timestamp" :1554778800
		},
	"2019-04-09T18:00:00+12:00" : {
		"windSpeed" : 4,
		"windDir" : 222,
		"rain" : 0,
		"cloudbase" : 9889.9599999999,
		"flyability" : 0,
		"reason" : "windDir",
		"timestamp" :1554789600
		},
	"2019-04-09T21:00:00+12:00" : {
		"windSpeed" : 2.8,
		"windDir" : 195,
		"rain" : 0,
		"cloudbase" : 9500,
		"flyability" : 100,
		"reason" : "",
		"timestamp" :1554800400
		},
	"2019-04-10T00:00:00+12:00" : {
		"windSpeed" : 2.1,
		"windDir" : 166,
		"rain" : 0,
		"cloudbase" : null,
		"flyability" : 100,
		"reason" : "",
		"timestamp" :1554811200
		},
	"2019-04-10T03:00:00+12:00" : {
		"windSpeed" : 1.2,
		"windDir" : 155,
		"rain" : 0,
		"cloudbase" : null,
		"flyability" : 0,
		"reason" : "windDir",
		"timestamp" :1554822000
		},
	"2019-04-10T06:00:00+12:00" : {
		"windSpeed" : 1.4,
		"windDir" : 140,
		"rain" : 0,
		"cloudbase" : 30,
		"flyability" : 0,
		"reason" : "windDir, cloudbase",
		"timestamp" :1554832800
		},
	"2019-04-10T09:00:00+12:00" : {
		"windSpeed" : 1.3,
		"windDir" : 107,
		"rain" : 0,
		"cloudbase" : 30,
		"flyability" : 0,
		"reason" : "windDir, cloudbase",
		"timestamp" :1554843600
		},
	"2019-04-10T12:00:00+12:00" : {
		"windSpeed" : 3.4,
		"windDir" : 3,
		"rain" : 0,
		"cloudbase" : null,
		"flyability" : 100,
		"reason" : "",
		"timestamp" :1554854400
		},
	"2019-04-10T15:00:00+12:00" : {
		"windSpeed" : 4.2,
		"windDir" : 348,
		"rain" : 0,
		"cloudbase" : 1600,
		"flyability" : 100,
		"reason" : "",
		"timestamp" :1554865200
		},
	"2019-04-10T18:00:00+12:00" : {
		"windSpeed" : 3.9,
		"windDir" : 333,
		"rain" : 0,
		"cloudbase" : 1500,
		"flyability" : 0,
		"reason" : "windDir",
		"timestamp" :1554876000
		},
	"2019-04-10T21:00:00+12:00" : {
		"windSpeed" : 4.6,
		"windDir" : 345,
		"rain" : 0,
		"cloudbase" : 9821.245,
		"flyability" : 100,
		"reason" : "",
		"timestamp" :1554886800
		},
	"2019-04-11T00:00:00+12:00" : {
		"windSpeed" : 5.1,
		"windDir" : 343,
		"rain" : 0,
		"cloudbase" : null,
		"flyability" : 0,
		"reason" : "windSpeed",
		"timestamp" :1554897600
		},
	"2019-04-11T03:00:00+12:00" : {
		"windSpeed" : 5.8,
		"windDir" : 326,
		"rain" : 0,
		"cloudbase" : 10500,
		"flyability" : 0,
		"reason" : "windSpeed, windDir",
		"timestamp" :1554908400
		},
	"2019-04-11T06:00:00+12:00" : {
		"windSpeed" : 6.1,
		"windDir" : 337,
		"rain" : 0,
		"cloudbase" : null,
		"flyability" : 0,
		"reason" : "windSpeed, windDir",
		"timestamp" :1554919200
		},
	"2019-04-11T09:00:00+12:00" : {
		"windSpeed" : 7.7,
		"windDir" : 349,
		"rain" : 0,
		"cloudbase" : 4987.9624999999,
		"flyability" : 0,
		"reason" : "windSpeed",
		"timestamp" :1554930000
		},
	"2019-04-11T12:00:00+12:00" : {
		"windSpeed" : 10.9,
		"windDir" : 338,
		"rain" : 1,
		"cloudbase" : 2977.3500000009,
		"flyability" : 0,
		"reason" : "windSpeed, rain",
		"timestamp" :1554940800
		},
	"2019-04-11T15:00:00+12:00" : {
		"windSpeed" : 5.7,
		"windDir" : 237,
		"rain" : 0,
		"cloudbase" : null,
		"flyability" : 0,
		"reason" : "windSpeed, windDir",
		"timestamp" :1554951600
		},
	"2019-04-11T18:00:00+12:00" : {
		"windSpeed" : 5,
		"windDir" : 228,
		"rain" : 0,
		"cloudbase" : null,
		"flyability" : 0,
		"reason" : "windDir",
		"timestamp" :1554962400
		},
	"2019-04-11T21:00:00+12:00" : {
		"windSpeed" : 4.5,
		"windDir" : 223,
		"rain" : 0,
		"cloudbase" : null,
		"flyability" : 0,
		"reason" : "windDir",
		"timestamp" :1554973200
		},
	"2019-04-12T00:00:00+12:00" : {
		"windSpeed" : 5.7,
		"windDir" : 235,
		"rain" : 1,
		"cloudbase" : null,
		"flyability" : 0,
		"reason" : "windSpeed, windDir, rain",
		"timestamp" :1554984000
		},
	"2019-04-12T03:00:00+12:00" : {
		"windSpeed" : 6.7,
		"windDir" : 237,
		"rain" : 0,
		"cloudbase" : null,
		"flyability" : 0,
		"reason" : "windSpeed, windDir",
		"timestamp" :1554994800
		},
	"2019-04-12T06:00:00+12:00" : {
		"windSpeed" : 6.8,
		"windDir" : 236,
		"rain" : 0,
		"cloudbase" : null,
		"flyability" : 0,
		"reason" : "windSpeed, windDir",
		"timestamp" :1555005600
		},
	"2019-04-12T09:00:00+12:00" : {
		"windSpeed" : 6.8,
		"windDir" : 238,
		"rain" : 1,
		"cloudbase" : null,
		"flyability" : 0,
		"reason" : "windSpeed, windDir, rain",
		"timestamp" :1555016400
		},
	"2019-04-12T12:00:00+12:00" : {
		"windSpeed" : 8.4,
		"windDir" : 242,
		"rain" : 1,
		"cloudbase" : null,
		"flyability" : 0,
		"reason" : "windSpeed, windDir, rain",
		"timestamp" :1555027200
		}
	}
}