{
"site" : "Argentenay",
"id" : 15580,
"orientations" : "00001200",
"forecasts" : { 
	"2019-04-22T17:00:00+02:00" : {
		"windSpeed" : 3.1,
		"windDir" : 59,
		"rain" : 0,
		"cloudbase" : 7039.2754,
		"flyability" : 0,
		"reason" : "windDir",
		"timestamp" :1555948800
		},
	"2019-04-22T20:00:00+02:00" : {
		"windSpeed" : 3.1,
		"windDir" : 53,
		"rain" : 0,
		"cloudbase" : null,
		"flyability" : 0,
		"reason" : "windDir",
		"timestamp" :1555959600
		},
	"2019-04-22T23:00:00+02:00" : {
		"windSpeed" : 2.1,
		"windDir" : 76,
		"rain" : 0,
		"cloudbase" : null,
		"flyability" : 0,
		"reason" : "windDir",
		"timestamp" :1555970400
		},
	"2019-04-23T02:00:00+02:00" : {
		"windSpeed" : 1.8,
		"windDir" : 117,
		"rain" : 0,
		"cloudbase" : 8684.0306,
		"flyability" : 0,
		"reason" : "windDir",
		"timestamp" :1555981200
		},
	"2019-04-23T05:00:00+02:00" : {
		"windSpeed" : 1.6,
		"windDir" : 108,
		"rain" : 0,
		"cloudbase" : 7788.9612,
		"flyability" : 0,
		"reason" : "windDir",
		"timestamp" :1555992000
		},
	"2019-04-23T08:00:00+02:00" : {
		"windSpeed" : 1,
		"windDir" : 143,
		"rain" : 0,
		"cloudbase" : 4874.4112,
		"flyability" : 0,
		"reason" : "windDir",
		"timestamp" :1556002800
		},
	"2019-04-23T11:00:00+02:00" : {
		"windSpeed" : 1.5,
		"windDir" : 234,
		"rain" : 0,
		"cloudbase" : 9100,
		"flyability" : 100,
		"reason" : "",
		"timestamp" :1556013600
		},
	"2019-04-23T14:00:00+02:00" : {
		"windSpeed" : 3,
		"windDir" : 232,
		"rain" : 0,
		"cloudbase" : 7098.488,
		"flyability" : 100,
		"reason" : "",
		"timestamp" :1556024400
		},
	"2019-04-23T17:00:00+02:00" : {
		"windSpeed" : 4.4,
		"windDir" : 209,
		"rain" : 0,
		"cloudbase" : 8872.7940000001,
		"flyability" : 100,
		"reason" : "",
		"timestamp" :1556035200
		},
	"2019-04-23T20:00:00+02:00" : {
		"windSpeed" : 1.5,
		"windDir" : 177,
		"rain" : 0,
		"cloudbase" : 8800,
		"flyability" : 100,
		"reason" : "",
		"timestamp" :1556046000
		},
	"2019-04-23T23:00:00+02:00" : {
		"windSpeed" : 2.8,
		"windDir" : 159,
		"rain" : 0,
		"cloudbase" : null,
		"flyability" : 100,
		"reason" : "",
		"timestamp" :1556056800
		},
	"2019-04-24T02:00:00+02:00" : {
		"windSpeed" : 4.3,
		"windDir" : 160,
		"rain" : 0,
		"cloudbase" : null,
		"flyability" : 100,
		"reason" : "",
		"timestamp" :1556067600
		},
	"2019-04-24T05:00:00+02:00" : {
		"windSpeed" : 5,
		"windDir" : 158,
		"rain" : 0,
		"cloudbase" : null,
		"flyability" : 100,
		"reason" : "",
		"timestamp" :1556078400
		},
	"2019-04-24T08:00:00+02:00" : {
		"windSpeed" : 6,
		"windDir" : 162,
		"rain" : 0,
		"cloudbase" : 7600,
		"flyability" : 0,
		"reason" : "windSpeed",
		"timestamp" :1556089200
		},
	"2019-04-24T11:00:00+02:00" : {
		"windSpeed" : 5.9,
		"windDir" : 193,
		"rain" : 1,
		"cloudbase" : 1200,
		"flyability" : 0,
		"reason" : "windSpeed, rain",
		"timestamp" :1556100000
		},
	"2019-04-24T14:00:00+02:00" : {
		"windSpeed" : 5.1,
		"windDir" : 203,
		"rain" : 0,
		"cloudbase" : 3220.3316999999,
		"flyability" : 0,
		"reason" : "windSpeed",
		"timestamp" :1556110800
		},
	"2019-04-24T17:00:00+02:00" : {
		"windSpeed" : 5.7,
		"windDir" : 195,
		"rain" : 1,
		"cloudbase" : 4280.6612,
		"flyability" : 0,
		"reason" : "windSpeed, rain",
		"timestamp" :1556121600
		},
	"2019-04-24T20:00:00+02:00" : {
		"windSpeed" : 5.1,
		"windDir" : 180,
		"rain" : 1,
		"cloudbase" : 6057.7694,
		"flyability" : 0,
		"reason" : "windSpeed, rain",
		"timestamp" :1556132400
		},
	"2019-04-24T23:00:00+02:00" : {
		"windSpeed" : 3.8,
		"windDir" : 147,
		"rain" : 0,
		"cloudbase" : null,
		"flyability" : 0,
		"reason" : "windDir",
		"timestamp" :1556143200
		},
	"2019-04-25T02:00:00+02:00" : {
		"windSpeed" : 6,
		"windDir" : 156,
		"rain" : 0,
		"cloudbase" : 6637.5,
		"flyability" : 0,
		"reason" : "windSpeed",
		"timestamp" :1556154000
		},
	"2019-04-25T05:00:00+02:00" : {
		"windSpeed" : 6.6,
		"windDir" : 158,
		"rain" : 0,
		"cloudbase" : 4973.1235,
		"flyability" : 0,
		"reason" : "windSpeed",
		"timestamp" :1556164800
		},
	"2019-04-25T08:00:00+02:00" : {
		"windSpeed" : 6.7,
		"windDir" : 154,
		"rain" : 1,
		"cloudbase" : 3494.4275999999,
		"flyability" : 0,
		"reason" : "windSpeed, windDir, rain",
		"timestamp" :1556175600
		},
	"2019-04-25T11:00:00+02:00" : {
		"windSpeed" : 7.3,
		"windDir" : 168,
		"rain" : 1,
		"cloudbase" : 1448.2653,
		"flyability" : 0,
		"reason" : "windSpeed, rain",
		"timestamp" :1556186400
		},
	"2019-04-25T14:00:00+02:00" : {
		"windSpeed" : 6.2,
		"windDir" : 210,
		"rain" : 1,
		"cloudbase" : 2586.9694,
		"flyability" : 0,
		"reason" : "windSpeed, rain",
		"timestamp" :1556197200
		},
	"2019-04-25T17:00:00+02:00" : {
		"windSpeed" : 4.2,
		"windDir" : 162,
		"rain" : 1,
		"cloudbase" : 3318.5347,
		"flyability" : 0,
		"reason" : "rain",
		"timestamp" :1556208000
		},
	"2019-04-25T20:00:00+02:00" : {
		"windSpeed" : 4.3,
		"windDir" : 144,
		"rain" : 1,
		"cloudbase" : 4193.4347,
		"flyability" : 0,
		"reason" : "windDir, rain",
		"timestamp" :1556218800
		},
	"2019-04-25T23:00:00+02:00" : {
		"windSpeed" : 4,
		"windDir" : 151,
		"rain" : 1,
		"cloudbase" : 4785.5194000001,
		"flyability" : 0,
		"reason" : "windDir, rain",
		"timestamp" :1556229600
		},
	"2019-04-26T02:00:00+02:00" : {
		"windSpeed" : 4.5,
		"windDir" : 175,
		"rain" : 1,
		"cloudbase" : 5989.7918,
		"flyability" : 0,
		"reason" : "rain",
		"timestamp" :1556240400
		},
	"2019-04-26T05:00:00+02:00" : {
		"windSpeed" : 4,
		"windDir" : 187,
		"rain" : 0,
		"cloudbase" : 7066.8,
		"flyability" : 100,
		"reason" : "",
		"timestamp" :1556251200
		},
	"2019-04-26T08:00:00+02:00" : {
		"windSpeed" : 4.7,
		"windDir" : 193,
		"rain" : 0,
		"cloudbase" : null,
		"flyability" : 100,
		"reason" : "",
		"timestamp" :1556262000
		},
	"2019-04-26T11:00:00+02:00" : {
		"windSpeed" : 7.9,
		"windDir" : 210,
		"rain" : 0,
		"cloudbase" : null,
		"flyability" : 0,
		"reason" : "windSpeed",
		"timestamp" :1556272800
		},
	"2019-04-26T14:00:00+02:00" : {
		"windSpeed" : 6.9,
		"windDir" : 200,
		"rain" : 0,
		"cloudbase" : 3600.8629,
		"flyability" : 0,
		"reason" : "windSpeed",
		"timestamp" :1556283600
		},
	"2019-04-26T17:00:00+02:00" : {
		"windSpeed" : 7.1,
		"windDir" : 236,
		"rain" : 0,
		"cloudbase" : 5288.1306,
		"flyability" : 0,
		"reason" : "windSpeed",
		"timestamp" :1556294400
		},
	"2019-04-26T20:00:00+02:00" : {
		"windSpeed" : 5.7,
		"windDir" : 259,
		"rain" : 1,
		"cloudbase" : 4068.9388,
		"flyability" : 0,
		"reason" : "windSpeed, windDir, rain",
		"timestamp" :1556305200
		},
	"2019-04-26T23:00:00+02:00" : {
		"windSpeed" : 4.8,
		"windDir" : 246,
		"rain" : 1,
		"cloudbase" : 2152.25,
		"flyability" : 0,
		"reason" : "rain",
		"timestamp" :1556316000
		},
	"2019-04-27T02:00:00+02:00" : {
		"windSpeed" : 4.5,
		"windDir" : 244,
		"rain" : 0,
		"cloudbase" : 1573.9959,
		"flyability" : 100,
		"reason" : "",
		"timestamp" :1556326800
		},
	"2019-04-27T05:00:00+02:00" : {
		"windSpeed" : 4.8,
		"windDir" : 226,
		"rain" : 0,
		"cloudbase" : null,
		"flyability" : 100,
		"reason" : "",
		"timestamp" :1556337600
		},
	"2019-04-27T08:00:00+02:00" : {
		"windSpeed" : 5,
		"windDir" : 204,
		"rain" : 0,
		"cloudbase" : 6716.6,
		"flyability" : 100,
		"reason" : "",
		"timestamp" :1556348400
		},
	"2019-04-27T11:00:00+02:00" : {
		"windSpeed" : 8.2,
		"windDir" : 222,
		"rain" : 0,
		"cloudbase" : 622.62612,
		"flyability" : 0,
		"reason" : "windSpeed",
		"timestamp" :1556359200
		},
	"2019-04-27T14:00:00+02:00" : {
		"windSpeed" : 8.8,
		"windDir" : 227,
		"rain" : 1,
		"cloudbase" : 678.72164,
		"flyability" : 0,
		"reason" : "windSpeed, rain",
		"timestamp" :1556370000
		},
	"2019-04-27T17:00:00+02:00" : {
		"windSpeed" : 8.1,
		"windDir" : 232,
		"rain" : 0,
		"cloudbase" : null,
		"flyability" : 0,
		"reason" : "windSpeed",
		"timestamp" :1556380800
		},
	"2019-04-27T20:00:00+02:00" : {
		"windSpeed" : 5,
		"windDir" : 234,
		"rain" : 1,
		"cloudbase" : 2657.1653000001,
		"flyability" : 0,
		"reason" : "rain",
		"timestamp" :1556391600
		},
	"2019-04-27T23:00:00+02:00" : {
		"windSpeed" : 3.4,
		"windDir" : 225,
		"rain" : 1,
		"cloudbase" : 1358.8153,
		"flyability" : 0,
		"reason" : "rain",
		"timestamp" :1556402400
		},
	"2019-04-28T02:00:00+02:00" : {
		"windSpeed" : 3.8,
		"windDir" : 229,
		"rain" : 0,
		"cloudbase" : 1400,
		"flyability" : 100,
		"reason" : "",
		"timestamp" :1556413200
		},
	"2019-04-28T05:00:00+02:00" : {
		"windSpeed" : 4,
		"windDir" : 242,
		"rain" : 0,
		"cloudbase" : null,
		"flyability" : 100,
		"reason" : "",
		"timestamp" :1556424000
		},
	"2019-04-28T08:00:00+02:00" : {
		"windSpeed" : 3.9,
		"windDir" : 249,
		"rain" : 1,
		"cloudbase" : 2414.1992,
		"flyability" : 0,
		"reason" : "windDir, rain",
		"timestamp" :1556434800
		},
	"2019-04-28T11:00:00+02:00" : {
		"windSpeed" : 4.6,
		"windDir" : 259,
		"rain" : 1,
		"cloudbase" : 640.12612,
		"flyability" : 0,
		"reason" : "windDir, rain",
		"timestamp" :1556445600
		},
	"2019-04-28T14:00:00+02:00" : {
		"windSpeed" : 4,
		"windDir" : 276,
		"rain" : 0,
		"cloudbase" : 1300,
		"flyability" : 0,
		"reason" : "windDir",
		"timestamp" :1556456400
		}
	}
}