{
"site" : "Tash Tepe",
"id" : 15581,
"orientations" : "22100012",
"forecasts" : { 
	"2019-04-17T06:00:00+03:00" : {
		"windSpeed" : 1.5,
		"windDir" : 284,
		"rain" : 0,
		"cloudbase" : null,
		"flyability" : 100,
		"reason" : "",
		"timestamp" :1555470000
		},
	"2019-04-17T09:00:00+03:00" : {
		"windSpeed" : 2.3,
		"windDir" : 358,
		"rain" : 0,
		"cloudbase" : null,
		"flyability" : 100,
		"reason" : "",
		"timestamp" :1555480800
		},
	"2019-04-17T12:00:00+03:00" : {
		"windSpeed" : 3.6,
		"windDir" : 17,
		"rain" : 0,
		"cloudbase" : null,
		"flyability" : 100,
		"reason" : "",
		"timestamp" :1555491600
		},
	"2019-04-17T15:00:00+03:00" : {
		"windSpeed" : 3.5,
		"windDir" : 352,
		"rain" : 0,
		"cloudbase" : 2231.0201,
		"flyability" : 100,
		"reason" : "",
		"timestamp" :1555502400
		},
	"2019-04-17T18:00:00+03:00" : {
		"windSpeed" : 3.6,
		"windDir" : 345,
		"rain" : 0,
		"cloudbase" : 2029.5430999999,
		"flyability" : 100,
		"reason" : "",
		"timestamp" :1555513200
		},
	"2019-04-17T21:00:00+03:00" : {
		"windSpeed" : 2,
		"windDir" : 13,
		"rain" : 0,
		"cloudbase" : null,
		"flyability" : 100,
		"reason" : "",
		"timestamp" :1555524000
		},
	"2019-04-18T00:00:00+03:00" : {
		"windSpeed" : 0.9,
		"windDir" : 89,
		"rain" : 0,
		"cloudbase" : 5034.2953999999,
		"flyability" : 100,
		"reason" : "",
		"timestamp" :1555534800
		},
	"2019-04-18T03:00:00+03:00" : {
		"windSpeed" : 0.4,
		"windDir" : 187,
		"rain" : 0,
		"cloudbase" : 4150,
		"flyability" : 0,
		"reason" : "windDir",
		"timestamp" :1555545600
		},
	"2019-04-18T06:00:00+03:00" : {
		"windSpeed" : 0.7,
		"windDir" : 139,
		"rain" : 0,
		"cloudbase" : null,
		"flyability" : 0,
		"reason" : "windDir",
		"timestamp" :1555556400
		},
	"2019-04-18T09:00:00+03:00" : {
		"windSpeed" : 2.4,
		"windDir" : 53,
		"rain" : 0,
		"cloudbase" : 350,
		"flyability" : 0,
		"reason" : "cloudbase",
		"timestamp" :1555567200
		},
	"2019-04-18T12:00:00+03:00" : {
		"windSpeed" : 2.5,
		"windDir" : 38,
		"rain" : 1,
		"cloudbase" : null,
		"flyability" : 0,
		"reason" : "rain",
		"timestamp" :1555578000
		},
	"2019-04-18T15:00:00+03:00" : {
		"windSpeed" : 4,
		"windDir" : 31,
		"rain" : 1,
		"cloudbase" : 5962.3362,
		"flyability" : 0,
		"reason" : "rain",
		"timestamp" :1555588800
		},
	"2019-04-18T18:00:00+03:00" : {
		"windSpeed" : 4.3,
		"windDir" : 36,
		"rain" : 1,
		"cloudbase" : 1742.5004999992,
		"flyability" : 0,
		"reason" : "rain, cloudbase",
		"timestamp" :1555599600
		},
	"2019-04-18T21:00:00+03:00" : {
		"windSpeed" : 3.1,
		"windDir" : 39,
		"rain" : 0,
		"cloudbase" : 5253.0999999999,
		"flyability" : 100,
		"reason" : "",
		"timestamp" :1555610400
		},
	"2019-04-19T00:00:00+03:00" : {
		"windSpeed" : 3,
		"windDir" : 38,
		"rain" : 0,
		"cloudbase" : null,
		"flyability" : 100,
		"reason" : "",
		"timestamp" :1555621200
		},
	"2019-04-19T03:00:00+03:00" : {
		"windSpeed" : 1.6,
		"windDir" : 31,
		"rain" : 0,
		"cloudbase" : 40,
		"flyability" : 0,
		"reason" : "cloudbase",
		"timestamp" :1555632000
		},
	"2019-04-19T06:00:00+03:00" : {
		"windSpeed" : 1.6,
		"windDir" : 33,
		"rain" : 0,
		"cloudbase" : 880,
		"flyability" : 0,
		"reason" : "cloudbase",
		"timestamp" :1555642800
		},
	"2019-04-19T09:00:00+03:00" : {
		"windSpeed" : 3,
		"windDir" : 18,
		"rain" : 0,
		"cloudbase" : null,
		"flyability" : 100,
		"reason" : "",
		"timestamp" :1555653600
		},
	"2019-04-19T12:00:00+03:00" : {
		"windSpeed" : 3.5,
		"windDir" : 8,
		"rain" : 0,
		"cloudbase" : 1118.8046,
		"flyability" : 0,
		"reason" : "cloudbase",
		"timestamp" :1555664400
		},
	"2019-04-19T15:00:00+03:00" : {
		"windSpeed" : 3.8,
		"windDir" : 337,
		"rain" : 0,
		"cloudbase" : 1742.4953999999,
		"flyability" : 0,
		"reason" : "cloudbase",
		"timestamp" :1555675200
		},
	"2019-04-19T18:00:00+03:00" : {
		"windSpeed" : 4.2,
		"windDir" : 339,
		"rain" : 1,
		"cloudbase" : 1250,
		"flyability" : 0,
		"reason" : "rain, cloudbase",
		"timestamp" :1555686000
		},
	"2019-04-19T21:00:00+03:00" : {
		"windSpeed" : 3,
		"windDir" : 350,
		"rain" : 1,
		"cloudbase" : 1850,
		"flyability" : 0,
		"reason" : "rain",
		"timestamp" :1555696800
		},
	"2019-04-20T00:00:00+03:00" : {
		"windSpeed" : 2.5,
		"windDir" : 348,
		"rain" : 1,
		"cloudbase" : 1400,
		"flyability" : 0,
		"reason" : "rain, cloudbase",
		"timestamp" :1555707600
		},
	"2019-04-20T03:00:00+03:00" : {
		"windSpeed" : 1.4,
		"windDir" : 355,
		"rain" : 1,
		"cloudbase" : 1400,
		"flyability" : 0,
		"reason" : "rain, cloudbase",
		"timestamp" :1555718400
		},
	"2019-04-20T06:00:00+03:00" : {
		"windSpeed" : 1.7,
		"windDir" : 31,
		"rain" : 0,
		"cloudbase" : null,
		"flyability" : 100,
		"reason" : "",
		"timestamp" :1555729200
		},
	"2019-04-20T09:00:00+03:00" : {
		"windSpeed" : 2.5,
		"windDir" : 23,
		"rain" : 1,
		"cloudbase" : null,
		"flyability" : 0,
		"reason" : "rain",
		"timestamp" :1555740000
		},
	"2019-04-20T12:00:00+03:00" : {
		"windSpeed" : 2.9,
		"windDir" : 32,
		"rain" : 1,
		"cloudbase" : 1050,
		"flyability" : 0,
		"reason" : "rain, cloudbase",
		"timestamp" :1555750800
		},
	"2019-04-20T15:00:00+03:00" : {
		"windSpeed" : 3.1,
		"windDir" : 19,
		"rain" : 1,
		"cloudbase" : 924.85677999993,
		"flyability" : 0,
		"reason" : "rain, cloudbase",
		"timestamp" :1555761600
		},
	"2019-04-20T18:00:00+03:00" : {
		"windSpeed" : 3.3,
		"windDir" : 27,
		"rain" : 0,
		"cloudbase" : 1047.1453999999,
		"flyability" : 0,
		"reason" : "cloudbase",
		"timestamp" :1555772400
		},
	"2019-04-20T21:00:00+03:00" : {
		"windSpeed" : 2.2,
		"windDir" : 29,
		"rain" : 0,
		"cloudbase" : 987.51815999993,
		"flyability" : 0,
		"reason" : "cloudbase",
		"timestamp" :1555783200
		},
	"2019-04-21T00:00:00+03:00" : {
		"windSpeed" : 1.7,
		"windDir" : 36,
		"rain" : 0,
		"cloudbase" : null,
		"flyability" : 100,
		"reason" : "",
		"timestamp" :1555794000
		},
	"2019-04-21T03:00:00+03:00" : {
		"windSpeed" : 0.5,
		"windDir" : 186,
		"rain" : 0,
		"cloudbase" : null,
		"flyability" : 0,
		"reason" : "windDir",
		"timestamp" :1555804800
		},
	"2019-04-21T06:00:00+03:00" : {
		"windSpeed" : 0,
		"windDir" : 194,
		"rain" : 0,
		"cloudbase" : null,
		"flyability" : 0,
		"reason" : "windDir",
		"timestamp" :1555815600
		},
	"2019-04-21T09:00:00+03:00" : {
		"windSpeed" : 1,
		"windDir" : 334,
		"rain" : 0,
		"cloudbase" : null,
		"flyability" : 100,
		"reason" : "",
		"timestamp" :1555826400
		},
	"2019-04-21T12:00:00+03:00" : {
		"windSpeed" : 2,
		"windDir" : 346,
		"rain" : 0,
		"cloudbase" : 1234.0907999999,
		"flyability" : 0,
		"reason" : "cloudbase",
		"timestamp" :1555837200
		},
	"2019-04-21T15:00:00+03:00" : {
		"windSpeed" : 2.2,
		"windDir" : 333,
		"rain" : 0,
		"cloudbase" : 1471.0046,
		"flyability" : 0,
		"reason" : "cloudbase",
		"timestamp" :1555848000
		},
	"2019-04-21T18:00:00+03:00" : {
		"windSpeed" : 2.9,
		"windDir" : 328,
		"rain" : 0,
		"cloudbase" : 1637.9476999999,
		"flyability" : 0,
		"reason" : "cloudbase",
		"timestamp" :1555858800
		},
	"2019-04-21T21:00:00+03:00" : {
		"windSpeed" : 0.5,
		"windDir" : 181,
		"rain" : 0,
		"cloudbase" : null,
		"flyability" : 0,
		"reason" : "windDir",
		"timestamp" :1555869600
		},
	"2019-04-22T00:00:00+03:00" : {
		"windSpeed" : 0.5,
		"windDir" : 187,
		"rain" : 1,
		"cloudbase" : null,
		"flyability" : 0,
		"reason" : "windDir, rain",
		"timestamp" :1555880400
		},
	"2019-04-22T03:00:00+03:00" : {
		"windSpeed" : 1.8,
		"windDir" : 235,
		"rain" : 0,
		"cloudbase" : null,
		"flyability" : 0,
		"reason" : "windDir",
		"timestamp" :1555891200
		},
	"2019-04-22T06:00:00+03:00" : {
		"windSpeed" : 1.4,
		"windDir" : 225,
		"rain" : 0,
		"cloudbase" : null,
		"flyability" : 0,
		"reason" : "windDir",
		"timestamp" :1555902000
		},
	"2019-04-22T09:00:00+03:00" : {
		"windSpeed" : 0.9,
		"windDir" : 270,
		"rain" : 0,
		"cloudbase" : null,
		"flyability" : 100,
		"reason" : "",
		"timestamp" :1555912800
		},
	"2019-04-22T12:00:00+03:00" : {
		"windSpeed" : 1.3,
		"windDir" : 317,
		"rain" : 1,
		"cloudbase" : null,
		"flyability" : 0,
		"reason" : "rain",
		"timestamp" :1555923600
		},
	"2019-04-22T15:00:00+03:00" : {
		"windSpeed" : 0.9,
		"windDir" : 267,
		"rain" : 1,
		"cloudbase" : 1228.4223999999,
		"flyability" : 0,
		"reason" : "rain, cloudbase",
		"timestamp" :1555934400
		},
	"2019-04-22T18:00:00+03:00" : {
		"windSpeed" : 1.1,
		"windDir" : 85,
		"rain" : 1,
		"cloudbase" : 1601.1298999999,
		"flyability" : 0,
		"reason" : "rain, cloudbase",
		"timestamp" :1555945200
		},
	"2019-04-22T21:00:00+03:00" : {
		"windSpeed" : 1.1,
		"windDir" : 147,
		"rain" : 1,
		"cloudbase" : 3610.4,
		"flyability" : 0,
		"reason" : "windDir, rain",
		"timestamp" :1555956000
		},
	"2019-04-23T00:00:00+03:00" : {
		"windSpeed" : 1.4,
		"windDir" : 159,
		"rain" : 1,
		"cloudbase" : 181.97322,
		"flyability" : 0,
		"reason" : "windDir, rain, cloudbase",
		"timestamp" :1555966800
		},
	"2019-04-23T03:00:00+03:00" : {
		"windSpeed" : 1.9,
		"windDir" : 163,
		"rain" : 1,
		"cloudbase" : 105.05149999997,
		"flyability" : 0,
		"reason" : "windDir, rain, cloudbase",
		"timestamp" :1555977600
		}
	}
}