{
"site" : "Icart",
"id" : 15610,
"orientations" : "00001200",
"forecasts" : { 
	"2019-04-15T04:00:00+01:00" : {
		"windSpeed" : 10.5,
		"windDir" : 121,
		"rain" : 0,
		"cloudbase" : 2106.9552,
		"flyability" : 0,
		"reason" : "windSpeed, windDir",
		"timestamp" :1555293600
		},
	"2019-04-15T07:00:00+01:00" : {
		"windSpeed" : 11.4,
		"windDir" : 113,
		"rain" : 0,
		"cloudbase" : 8700,
		"flyability" : 0,
		"reason" : "windSpeed, windDir",
		"timestamp" :1555304400
		},
	"2019-04-15T10:00:00+01:00" : {
		"windSpeed" : 11.4,
		"windDir" : 123,
		"rain" : 0,
		"cloudbase" : 8500,
		"flyability" : 0,
		"reason" : "windSpeed, windDir",
		"timestamp" :1555315200
		},
	"2019-04-15T13:00:00+01:00" : {
		"windSpeed" : 9.3,
		"windDir" : 115,
		"rain" : 0,
		"cloudbase" : 7300,
		"flyability" : 0,
		"reason" : "windSpeed, windDir",
		"timestamp" :1555326000
		},
	"2019-04-15T16:00:00+01:00" : {
		"windSpeed" : 7.9,
		"windDir" : 111,
		"rain" : 0,
		"cloudbase" : 5741.0032000001,
		"flyability" : 0,
		"reason" : "windSpeed, windDir",
		"timestamp" :1555336800
		},
	"2019-04-15T19:00:00+01:00" : {
		"windSpeed" : 6,
		"windDir" : 130,
		"rain" : 1,
		"cloudbase" : 1960.4328,
		"flyability" : 0,
		"reason" : "windSpeed, windDir, rain",
		"timestamp" :1555347600
		},
	"2019-04-15T22:00:00+01:00" : {
		"windSpeed" : 4.8,
		"windDir" : 155,
		"rain" : 1,
		"cloudbase" : 1750,
		"flyability" : 0,
		"reason" : "windDir, rain",
		"timestamp" :1555358400
		},
	"2019-04-16T01:00:00+01:00" : {
		"windSpeed" : 3.5,
		"windDir" : 145,
		"rain" : 1,
		"cloudbase" : 1747.8328,
		"flyability" : 0,
		"reason" : "windDir, rain",
		"timestamp" :1555369200
		},
	"2019-04-16T04:00:00+01:00" : {
		"windSpeed" : 3.6,
		"windDir" : 250,
		"rain" : 1,
		"cloudbase" : 1614.4776,
		"flyability" : 0,
		"reason" : "windDir, rain",
		"timestamp" :1555380000
		},
	"2019-04-16T07:00:00+01:00" : {
		"windSpeed" : 6,
		"windDir" : 292,
		"rain" : 1,
		"cloudbase" : 5138.3455999997,
		"flyability" : 0,
		"reason" : "windSpeed, windDir, rain",
		"timestamp" :1555390800
		},
	"2019-04-16T10:00:00+01:00" : {
		"windSpeed" : 7,
		"windDir" : 295,
		"rain" : 1,
		"cloudbase" : null,
		"flyability" : 0,
		"reason" : "windSpeed, windDir, rain",
		"timestamp" :1555401600
		},
	"2019-04-16T13:00:00+01:00" : {
		"windSpeed" : 6.1,
		"windDir" : 282,
		"rain" : 0,
		"cloudbase" : null,
		"flyability" : 0,
		"reason" : "windSpeed, windDir",
		"timestamp" :1555412400
		},
	"2019-04-16T16:00:00+01:00" : {
		"windSpeed" : 5.4,
		"windDir" : 274,
		"rain" : 0,
		"cloudbase" : null,
		"flyability" : 0,
		"reason" : "windSpeed, windDir",
		"timestamp" :1555423200
		},
	"2019-04-16T19:00:00+01:00" : {
		"windSpeed" : 3.7,
		"windDir" : 262,
		"rain" : 0,
		"cloudbase" : null,
		"flyability" : 0,
		"reason" : "windDir",
		"timestamp" :1555434000
		},
	"2019-04-16T22:00:00+01:00" : {
		"windSpeed" : 1.3,
		"windDir" : 315,
		"rain" : 0,
		"cloudbase" : null,
		"flyability" : 0,
		"reason" : "windDir",
		"timestamp" :1555444800
		},
	"2019-04-17T01:00:00+01:00" : {
		"windSpeed" : 1.5,
		"windDir" : 185,
		"rain" : 0,
		"cloudbase" : 8100,
		"flyability" : 100,
		"reason" : "",
		"timestamp" :1555455600
		},
	"2019-04-17T04:00:00+01:00" : {
		"windSpeed" : 3,
		"windDir" : 109,
		"rain" : 0,
		"cloudbase" : 7200,
		"flyability" : 0,
		"reason" : "windDir",
		"timestamp" :1555466400
		},
	"2019-04-17T07:00:00+01:00" : {
		"windSpeed" : 6,
		"windDir" : 100,
		"rain" : 0,
		"cloudbase" : 5875.6,
		"flyability" : 0,
		"reason" : "windSpeed, windDir",
		"timestamp" :1555477200
		},
	"2019-04-17T10:00:00+01:00" : {
		"windSpeed" : 6.1,
		"windDir" : 101,
		"rain" : 0,
		"cloudbase" : 8142.8960000001,
		"flyability" : 0,
		"reason" : "windSpeed, windDir",
		"timestamp" :1555488000
		},
	"2019-04-17T13:00:00+01:00" : {
		"windSpeed" : 6.9,
		"windDir" : 86,
		"rain" : 0,
		"cloudbase" : 6392.0176,
		"flyability" : 0,
		"reason" : "windSpeed, windDir",
		"timestamp" :1555498800
		},
	"2019-04-17T16:00:00+01:00" : {
		"windSpeed" : 9,
		"windDir" : 69,
		"rain" : 0,
		"cloudbase" : 6273.4448,
		"flyability" : 0,
		"reason" : "windSpeed, windDir",
		"timestamp" :1555509600
		},
	"2019-04-17T19:00:00+01:00" : {
		"windSpeed" : 10.3,
		"windDir" : 79,
		"rain" : 0,
		"cloudbase" : 7767.8448,
		"flyability" : 0,
		"reason" : "windSpeed, windDir",
		"timestamp" :1555520400
		},
	"2019-04-17T22:00:00+01:00" : {
		"windSpeed" : 9.8,
		"windDir" : 90,
		"rain" : 0,
		"cloudbase" : 10500,
		"flyability" : 0,
		"reason" : "windSpeed, windDir",
		"timestamp" :1555531200
		},
	"2019-04-18T01:00:00+01:00" : {
		"windSpeed" : 9,
		"windDir" : 91,
		"rain" : 0,
		"cloudbase" : 11091.224,
		"flyability" : 0,
		"reason" : "windSpeed, windDir",
		"timestamp" :1555542000
		},
	"2019-04-18T04:00:00+01:00" : {
		"windSpeed" : 8.9,
		"windDir" : 90,
		"rain" : 0,
		"cloudbase" : 5800,
		"flyability" : 0,
		"reason" : "windSpeed, windDir",
		"timestamp" :1555552800
		},
	"2019-04-18T07:00:00+01:00" : {
		"windSpeed" : 8.9,
		"windDir" : 87,
		"rain" : 0,
		"cloudbase" : 9770.2448,
		"flyability" : 0,
		"reason" : "windSpeed, windDir",
		"timestamp" :1555563600
		},
	"2019-04-18T10:00:00+01:00" : {
		"windSpeed" : 7.7,
		"windDir" : 106,
		"rain" : 0,
		"cloudbase" : 9176.1552,
		"flyability" : 0,
		"reason" : "windSpeed, windDir",
		"timestamp" :1555574400
		},
	"2019-04-18T13:00:00+01:00" : {
		"windSpeed" : 6,
		"windDir" : 71,
		"rain" : 0,
		"cloudbase" : 10734.0896,
		"flyability" : 0,
		"reason" : "windSpeed, windDir",
		"timestamp" :1555585200
		},
	"2019-04-18T16:00:00+01:00" : {
		"windSpeed" : 7.2,
		"windDir" : 60,
		"rain" : 0,
		"cloudbase" : 11000,
		"flyability" : 0,
		"reason" : "windSpeed, windDir",
		"timestamp" :1555596000
		},
	"2019-04-18T19:00:00+01:00" : {
		"windSpeed" : 6.7,
		"windDir" : 67,
		"rain" : 0,
		"cloudbase" : 9150.4,
		"flyability" : 0,
		"reason" : "windSpeed, windDir",
		"timestamp" :1555606800
		},
	"2019-04-18T22:00:00+01:00" : {
		"windSpeed" : 6.9,
		"windDir" : 78,
		"rain" : 0,
		"cloudbase" : 9100,
		"flyability" : 0,
		"reason" : "windSpeed, windDir",
		"timestamp" :1555617600
		},
	"2019-04-19T01:00:00+01:00" : {
		"windSpeed" : 6.1,
		"windDir" : 102,
		"rain" : 0,
		"cloudbase" : 9848.8,
		"flyability" : 0,
		"reason" : "windSpeed, windDir",
		"timestamp" :1555628400
		},
	"2019-04-19T04:00:00+01:00" : {
		"windSpeed" : 5.4,
		"windDir" : 112,
		"rain" : 0,
		"cloudbase" : 10626,
		"flyability" : 0,
		"reason" : "windSpeed, windDir",
		"timestamp" :1555639200
		},
	"2019-04-19T07:00:00+01:00" : {
		"windSpeed" : 3.7,
		"windDir" : 127,
		"rain" : 0,
		"cloudbase" : 10500,
		"flyability" : 0,
		"reason" : "windDir",
		"timestamp" :1555650000
		},
	"2019-04-19T10:00:00+01:00" : {
		"windSpeed" : 2.7,
		"windDir" : 77,
		"rain" : 0,
		"cloudbase" : null,
		"flyability" : 0,
		"reason" : "windDir",
		"timestamp" :1555660800
		},
	"2019-04-19T13:00:00+01:00" : {
		"windSpeed" : 4.9,
		"windDir" : 44,
		"rain" : 0,
		"cloudbase" : null,
		"flyability" : 0,
		"reason" : "windDir",
		"timestamp" :1555671600
		},
	"2019-04-19T16:00:00+01:00" : {
		"windSpeed" : 5,
		"windDir" : 37,
		"rain" : 0,
		"cloudbase" : null,
		"flyability" : 0,
		"reason" : "windDir",
		"timestamp" :1555682400
		},
	"2019-04-19T19:00:00+01:00" : {
		"windSpeed" : 6,
		"windDir" : 42,
		"rain" : 0,
		"cloudbase" : null,
		"flyability" : 0,
		"reason" : "windSpeed, windDir",
		"timestamp" :1555693200
		},
	"2019-04-19T22:00:00+01:00" : {
		"windSpeed" : 5.4,
		"windDir" : 65,
		"rain" : 0,
		"cloudbase" : null,
		"flyability" : 0,
		"reason" : "windSpeed, windDir",
		"timestamp" :1555704000
		},
	"2019-04-20T01:00:00+01:00" : {
		"windSpeed" : 4.4,
		"windDir" : 61,
		"rain" : 0,
		"cloudbase" : null,
		"flyability" : 0,
		"reason" : "windDir",
		"timestamp" :1555714800
		},
	"2019-04-20T04:00:00+01:00" : {
		"windSpeed" : 4.9,
		"windDir" : 44,
		"rain" : 0,
		"cloudbase" : null,
		"flyability" : 0,
		"reason" : "windDir",
		"timestamp" :1555725600
		},
	"2019-04-20T07:00:00+01:00" : {
		"windSpeed" : 3.4,
		"windDir" : 61,
		"rain" : 0,
		"cloudbase" : null,
		"flyability" : 0,
		"reason" : "windDir",
		"timestamp" :1555736400
		},
	"2019-04-20T10:00:00+01:00" : {
		"windSpeed" : 3.1,
		"windDir" : 40,
		"rain" : 0,
		"cloudbase" : null,
		"flyability" : 0,
		"reason" : "windDir",
		"timestamp" :1555747200
		},
	"2019-04-20T13:00:00+01:00" : {
		"windSpeed" : 4.9,
		"windDir" : 37,
		"rain" : 0,
		"cloudbase" : null,
		"flyability" : 0,
		"reason" : "windDir",
		"timestamp" :1555758000
		},
	"2019-04-20T16:00:00+01:00" : {
		"windSpeed" : 5.8,
		"windDir" : 25,
		"rain" : 0,
		"cloudbase" : null,
		"flyability" : 0,
		"reason" : "windSpeed, windDir",
		"timestamp" :1555768800
		},
	"2019-04-20T19:00:00+01:00" : {
		"windSpeed" : 5.2,
		"windDir" : 35,
		"rain" : 0,
		"cloudbase" : null,
		"flyability" : 0,
		"reason" : "windSpeed, windDir",
		"timestamp" :1555779600
		},
	"2019-04-20T22:00:00+01:00" : {
		"windSpeed" : 4.5,
		"windDir" : 39,
		"rain" : 0,
		"cloudbase" : null,
		"flyability" : 0,
		"reason" : "windDir",
		"timestamp" :1555790400
		},
	"2019-04-21T01:00:00+01:00" : {
		"windSpeed" : 4.2,
		"windDir" : 44,
		"rain" : 0,
		"cloudbase" : null,
		"flyability" : 0,
		"reason" : "windDir",
		"timestamp" :1555801200
		}
	}
}