{
"site" : "Florencia",
"id" : 15662,
"orientations" : "12101100",
"forecasts" : { 
	"2019-04-04T23:00:00-04:00" : {
		"windSpeed" : 4.2,
		"windDir" : 80,
		"rain" : 1,
		"cloudbase" : 9921.4984,
		"flyability" : 0,
		"reason" : "rain",
		"timestamp" :1554436800
		},
	"2019-04-05T02:00:00-04:00" : {
		"windSpeed" : 3.6,
		"windDir" : 87,
		"rain" : 1,
		"cloudbase" : 9621.4984,
		"flyability" : 0,
		"reason" : "rain",
		"timestamp" :1554447600
		},
	"2019-04-05T05:00:00-04:00" : {
		"windSpeed" : 3.1,
		"windDir" : 75,
		"rain" : 0,
		"cloudbase" : 9739.6,
		"flyability" : 100,
		"reason" : "",
		"timestamp" :1554458400
		},
	"2019-04-05T08:00:00-04:00" : {
		"windSpeed" : 3.7,
		"windDir" : 89,
		"rain" : 0,
		"cloudbase" : null,
		"flyability" : 100,
		"reason" : "",
		"timestamp" :1554469200
		},
	"2019-04-05T11:00:00-04:00" : {
		"windSpeed" : 5.3,
		"windDir" : 90,
		"rain" : 1,
		"cloudbase" : 10500,
		"flyability" : 0,
		"reason" : "windSpeed, rain",
		"timestamp" :1554480000
		},
	"2019-04-05T14:00:00-04:00" : {
		"windSpeed" : 4.6,
		"windDir" : 86,
		"rain" : 1,
		"cloudbase" : 5698.8724799998,
		"flyability" : 0,
		"reason" : "rain",
		"timestamp" :1554490800
		},
	"2019-04-05T17:00:00-04:00" : {
		"windSpeed" : 4.2,
		"windDir" : 73,
		"rain" : 0,
		"cloudbase" : 8823.6519999999,
		"flyability" : 100,
		"reason" : "",
		"timestamp" :1554501600
		},
	"2019-04-05T20:00:00-04:00" : {
		"windSpeed" : 3.7,
		"windDir" : 76,
		"rain" : 1,
		"cloudbase" : 10500,
		"flyability" : 0,
		"reason" : "rain",
		"timestamp" :1554512400
		},
	"2019-04-05T23:00:00-04:00" : {
		"windSpeed" : 3.1,
		"windDir" : 97,
		"rain" : 0,
		"cloudbase" : 9069.8,
		"flyability" : 100,
		"reason" : "",
		"timestamp" :1554523200
		},
	"2019-04-06T02:00:00-04:00" : {
		"windSpeed" : 2.1,
		"windDir" : 98,
		"rain" : 0,
		"cloudbase" : 9000,
		"flyability" : 100,
		"reason" : "",
		"timestamp" :1554534000
		},
	"2019-04-06T05:00:00-04:00" : {
		"windSpeed" : 1.8,
		"windDir" : 100,
		"rain" : 0,
		"cloudbase" : 9000,
		"flyability" : 100,
		"reason" : "",
		"timestamp" :1554544800
		},
	"2019-04-06T08:00:00-04:00" : {
		"windSpeed" : 2.6,
		"windDir" : 98,
		"rain" : 0,
		"cloudbase" : null,
		"flyability" : 100,
		"reason" : "",
		"timestamp" :1554555600
		},
	"2019-04-06T11:00:00-04:00" : {
		"windSpeed" : 4.2,
		"windDir" : 97,
		"rain" : 1,
		"cloudbase" : null,
		"flyability" : 0,
		"reason" : "rain",
		"timestamp" :1554566400
		},
	"2019-04-06T14:00:00-04:00" : {
		"windSpeed" : 4.6,
		"windDir" : 80,
		"rain" : 1,
		"cloudbase" : null,
		"flyability" : 0,
		"reason" : "rain",
		"timestamp" :1554577200
		},
	"2019-04-06T17:00:00-04:00" : {
		"windSpeed" : 5.5,
		"windDir" : 72,
		"rain" : 1,
		"cloudbase" : null,
		"flyability" : 0,
		"reason" : "windSpeed, rain",
		"timestamp" :1554588000
		},
	"2019-04-06T20:00:00-04:00" : {
		"windSpeed" : 4.6,
		"windDir" : 77,
		"rain" : 1,
		"cloudbase" : null,
		"flyability" : 0,
		"reason" : "rain",
		"timestamp" :1554598800
		},
	"2019-04-06T23:00:00-04:00" : {
		"windSpeed" : 2.8,
		"windDir" : 94,
		"rain" : 0,
		"cloudbase" : null,
		"flyability" : 100,
		"reason" : "",
		"timestamp" :1554609600
		},
	"2019-04-07T02:00:00-04:00" : {
		"windSpeed" : 2.3,
		"windDir" : 102,
		"rain" : 0,
		"cloudbase" : null,
		"flyability" : 100,
		"reason" : "",
		"timestamp" :1554620400
		},
	"2019-04-07T05:00:00-04:00" : {
		"windSpeed" : 2.3,
		"windDir" : 95,
		"rain" : 0,
		"cloudbase" : null,
		"flyability" : 100,
		"reason" : "",
		"timestamp" :1554631200
		},
	"2019-04-07T08:00:00-04:00" : {
		"windSpeed" : 3.2,
		"windDir" : 99,
		"rain" : 0,
		"cloudbase" : null,
		"flyability" : 100,
		"reason" : "",
		"timestamp" :1554642000
		},
	"2019-04-07T11:00:00-04:00" : {
		"windSpeed" : 5.1,
		"windDir" : 95,
		"rain" : 1,
		"cloudbase" : null,
		"flyability" : 0,
		"reason" : "windSpeed, rain",
		"timestamp" :1554652800
		},
	"2019-04-07T14:00:00-04:00" : {
		"windSpeed" : 5,
		"windDir" : 81,
		"rain" : 1,
		"cloudbase" : null,
		"flyability" : 0,
		"reason" : "rain",
		"timestamp" :1554663600
		},
	"2019-04-07T17:00:00-04:00" : {
		"windSpeed" : 5,
		"windDir" : 82,
		"rain" : 1,
		"cloudbase" : null,
		"flyability" : 0,
		"reason" : "rain",
		"timestamp" :1554674400
		},
	"2019-04-07T20:00:00-04:00" : {
		"windSpeed" : 3.5,
		"windDir" : 82,
		"rain" : 1,
		"cloudbase" : null,
		"flyability" : 0,
		"reason" : "rain",
		"timestamp" :1554685200
		},
	"2019-04-07T23:00:00-04:00" : {
		"windSpeed" : 3.8,
		"windDir" : 102,
		"rain" : 0,
		"cloudbase" : null,
		"flyability" : 100,
		"reason" : "",
		"timestamp" :1554696000
		},
	"2019-04-08T02:00:00-04:00" : {
		"windSpeed" : 3.3,
		"windDir" : 105,
		"rain" : 0,
		"cloudbase" : null,
		"flyability" : 100,
		"reason" : "",
		"timestamp" :1554706800
		},
	"2019-04-08T05:00:00-04:00" : {
		"windSpeed" : 3.2,
		"windDir" : 110,
		"rain" : 0,
		"cloudbase" : null,
		"flyability" : 100,
		"reason" : "",
		"timestamp" :1554717600
		},
	"2019-04-08T08:00:00-04:00" : {
		"windSpeed" : 3.8,
		"windDir" : 111,
		"rain" : 0,
		"cloudbase" : 11808,
		"flyability" : 100,
		"reason" : "",
		"timestamp" :1554728400
		},
	"2019-04-08T11:00:00-04:00" : {
		"windSpeed" : 4.9,
		"windDir" : 114,
		"rain" : 0,
		"cloudbase" : 11000,
		"flyability" : 0,
		"reason" : "windDir",
		"timestamp" :1554739200
		},
	"2019-04-08T14:00:00-04:00" : {
		"windSpeed" : 3.7,
		"windDir" : 104,
		"rain" : 0,
		"cloudbase" : 11500,
		"flyability" : 100,
		"reason" : "",
		"timestamp" :1554750000
		},
	"2019-04-08T17:00:00-04:00" : {
		"windSpeed" : 5.8,
		"windDir" : 75,
		"rain" : 1,
		"cloudbase" : null,
		"flyability" : 0,
		"reason" : "windSpeed, rain",
		"timestamp" :1554760800
		},
	"2019-04-08T20:00:00-04:00" : {
		"windSpeed" : 4.5,
		"windDir" : 84,
		"rain" : 0,
		"cloudbase" : null,
		"flyability" : 100,
		"reason" : "",
		"timestamp" :1554771600
		},
	"2019-04-08T23:00:00-04:00" : {
		"windSpeed" : 3.3,
		"windDir" : 115,
		"rain" : 0,
		"cloudbase" : null,
		"flyability" : 0,
		"reason" : "windDir",
		"timestamp" :1554782400
		},
	"2019-04-09T02:00:00-04:00" : {
		"windSpeed" : 2.2,
		"windDir" : 133,
		"rain" : 0,
		"cloudbase" : null,
		"flyability" : 0,
		"reason" : "windDir",
		"timestamp" :1554793200
		},
	"2019-04-09T05:00:00-04:00" : {
		"windSpeed" : 1.5,
		"windDir" : 153,
		"rain" : 0,
		"cloudbase" : 11799.492,
		"flyability" : 0,
		"reason" : "windDir",
		"timestamp" :1554804000
		},
	"2019-04-09T08:00:00-04:00" : {
		"windSpeed" : 2.4,
		"windDir" : 164,
		"rain" : 0,
		"cloudbase" : 11607.492,
		"flyability" : 100,
		"reason" : "",
		"timestamp" :1554814800
		},
	"2019-04-09T11:00:00-04:00" : {
		"windSpeed" : 3.3,
		"windDir" : 180,
		"rain" : 0,
		"cloudbase" : 13000,
		"flyability" : 100,
		"reason" : "",
		"timestamp" :1554825600
		},
	"2019-04-09T14:00:00-04:00" : {
		"windSpeed" : 4.6,
		"windDir" : 201,
		"rain" : 1,
		"cloudbase" : 1100,
		"flyability" : 0,
		"reason" : "rain",
		"timestamp" :1554836400
		},
	"2019-04-09T17:00:00-04:00" : {
		"windSpeed" : 5.6,
		"windDir" : 210,
		"rain" : 1,
		"cloudbase" : null,
		"flyability" : 0,
		"reason" : "windSpeed, rain",
		"timestamp" :1554847200
		},
	"2019-04-09T20:00:00-04:00" : {
		"windSpeed" : 3.5,
		"windDir" : 210,
		"rain" : 1,
		"cloudbase" : null,
		"flyability" : 0,
		"reason" : "rain",
		"timestamp" :1554858000
		},
	"2019-04-09T23:00:00-04:00" : {
		"windSpeed" : 1.2,
		"windDir" : 255,
		"rain" : 1,
		"cloudbase" : null,
		"flyability" : 0,
		"reason" : "windDir, rain",
		"timestamp" :1554868800
		},
	"2019-04-10T02:00:00-04:00" : {
		"windSpeed" : 2.8,
		"windDir" : 225,
		"rain" : 0,
		"cloudbase" : 11674.5,
		"flyability" : 100,
		"reason" : "",
		"timestamp" :1554879600
		},
	"2019-04-10T05:00:00-04:00" : {
		"windSpeed" : 3.5,
		"windDir" : 216,
		"rain" : 0,
		"cloudbase" : 11174.5,
		"flyability" : 100,
		"reason" : "",
		"timestamp" :1554890400
		},
	"2019-04-10T08:00:00-04:00" : {
		"windSpeed" : 2.4,
		"windDir" : 232,
		"rain" : 0,
		"cloudbase" : 11000,
		"flyability" : 100,
		"reason" : "",
		"timestamp" :1554901200
		},
	"2019-04-10T11:00:00-04:00" : {
		"windSpeed" : 3.6,
		"windDir" : 252,
		"rain" : 0,
		"cloudbase" : null,
		"flyability" : 0,
		"reason" : "windDir",
		"timestamp" :1554912000
		},
	"2019-04-10T14:00:00-04:00" : {
		"windSpeed" : 3.5,
		"windDir" : 232,
		"rain" : 0,
		"cloudbase" : 5400,
		"flyability" : 100,
		"reason" : "",
		"timestamp" :1554922800
		},
	"2019-04-10T17:00:00-04:00" : {
		"windSpeed" : 0.8,
		"windDir" : 256,
		"rain" : 0,
		"cloudbase" : 1904.2239199998,
		"flyability" : 0,
		"reason" : "windDir",
		"timestamp" :1554933600
		},
	"2019-04-10T20:00:00-04:00" : {
		"windSpeed" : 0.9,
		"windDir" : 30,
		"rain" : 0,
		"cloudbase" : null,
		"flyability" : 100,
		"reason" : "",
		"timestamp" :1554944400
		}
	}
}