{
"site" : "Forestleaveshome",
"id" : 15821,
"orientations" : "00000000",
"forecasts" : { 
	"2019-04-22T05:00:00+02:00" : {
		"windSpeed" : 2.1,
		"windDir" : 61,
		"rain" : 0,
		"cloudbase" : null,
		"flyability" : -50,
		"reason" : "orientationsUnknown",
		"timestamp" :1555905600
		},
	"2019-04-22T08:00:00+02:00" : {
		"windSpeed" : 2.7,
		"windDir" : 67,
		"rain" : 0,
		"cloudbase" : null,
		"flyability" : -50,
		"reason" : "orientationsUnknown",
		"timestamp" :1555916400
		},
	"2019-04-22T11:00:00+02:00" : {
		"windSpeed" : 4,
		"windDir" : 90,
		"rain" : 0,
		"cloudbase" : null,
		"flyability" : -50,
		"reason" : "orientationsUnknown",
		"timestamp" :1555927200
		},
	"2019-04-22T14:00:00+02:00" : {
		"windSpeed" : 5.8,
		"windDir" : 92,
		"rain" : 0,
		"cloudbase" : 9200,
		"flyability" : -0,
		"reason" : "windSpeed, orientationsUnknown",
		"timestamp" :1555938000
		},
	"2019-04-22T17:00:00+02:00" : {
		"windSpeed" : 5.2,
		"windDir" : 90,
		"rain" : 0,
		"cloudbase" : 10167.5,
		"flyability" : -0,
		"reason" : "windSpeed, orientationsUnknown",
		"timestamp" :1555948800
		},
	"2019-04-22T20:00:00+02:00" : {
		"windSpeed" : 3.8,
		"windDir" : 77,
		"rain" : 0,
		"cloudbase" : 9016.5,
		"flyability" : -50,
		"reason" : "orientationsUnknown",
		"timestamp" :1555959600
		},
	"2019-04-22T23:00:00+02:00" : {
		"windSpeed" : 5.3,
		"windDir" : 72,
		"rain" : 0,
		"cloudbase" : 8699.5,
		"flyability" : -0,
		"reason" : "windSpeed, orientationsUnknown",
		"timestamp" :1555970400
		},
	"2019-04-23T02:00:00+02:00" : {
		"windSpeed" : 4.1,
		"windDir" : 76,
		"rain" : 0,
		"cloudbase" : null,
		"flyability" : -50,
		"reason" : "orientationsUnknown",
		"timestamp" :1555981200
		},
	"2019-04-23T05:00:00+02:00" : {
		"windSpeed" : 3.3,
		"windDir" : 66,
		"rain" : 0,
		"cloudbase" : null,
		"flyability" : -50,
		"reason" : "orientationsUnknown",
		"timestamp" :1555992000
		},
	"2019-04-23T08:00:00+02:00" : {
		"windSpeed" : 4.2,
		"windDir" : 74,
		"rain" : 0,
		"cloudbase" : null,
		"flyability" : -50,
		"reason" : "orientationsUnknown",
		"timestamp" :1556002800
		},
	"2019-04-23T11:00:00+02:00" : {
		"windSpeed" : 5.5,
		"windDir" : 90,
		"rain" : 0,
		"cloudbase" : null,
		"flyability" : -0,
		"reason" : "windSpeed, orientationsUnknown",
		"timestamp" :1556013600
		},
	"2019-04-23T14:00:00+02:00" : {
		"windSpeed" : 5,
		"windDir" : 105,
		"rain" : 0,
		"cloudbase" : null,
		"flyability" : -50,
		"reason" : "orientationsUnknown",
		"timestamp" :1556024400
		},
	"2019-04-23T17:00:00+02:00" : {
		"windSpeed" : 3.9,
		"windDir" : 123,
		"rain" : 0,
		"cloudbase" : null,
		"flyability" : -50,
		"reason" : "orientationsUnknown",
		"timestamp" :1556035200
		},
	"2019-04-23T20:00:00+02:00" : {
		"windSpeed" : 1.9,
		"windDir" : 153,
		"rain" : 0,
		"cloudbase" : 6533,
		"flyability" : -50,
		"reason" : "orientationsUnknown",
		"timestamp" :1556046000
		},
	"2019-04-23T23:00:00+02:00" : {
		"windSpeed" : 1.1,
		"windDir" : 274,
		"rain" : 0,
		"cloudbase" : 3999.75,
		"flyability" : -50,
		"reason" : "orientationsUnknown",
		"timestamp" :1556056800
		},
	"2019-04-24T02:00:00+02:00" : {
		"windSpeed" : 2.1,
		"windDir" : 74,
		"rain" : 0,
		"cloudbase" : 7800,
		"flyability" : -50,
		"reason" : "orientationsUnknown",
		"timestamp" :1556067600
		},
	"2019-04-24T05:00:00+02:00" : {
		"windSpeed" : 1.5,
		"windDir" : 66,
		"rain" : 0,
		"cloudbase" : null,
		"flyability" : -50,
		"reason" : "orientationsUnknown",
		"timestamp" :1556078400
		},
	"2019-04-24T08:00:00+02:00" : {
		"windSpeed" : 0.9,
		"windDir" : 112,
		"rain" : 0,
		"cloudbase" : null,
		"flyability" : -50,
		"reason" : "orientationsUnknown",
		"timestamp" :1556089200
		},
	"2019-04-24T11:00:00+02:00" : {
		"windSpeed" : 3.5,
		"windDir" : 255,
		"rain" : 0,
		"cloudbase" : 4350,
		"flyability" : -50,
		"reason" : "orientationsUnknown",
		"timestamp" :1556100000
		},
	"2019-04-24T14:00:00+02:00" : {
		"windSpeed" : 2.1,
		"windDir" : 194,
		"rain" : 1,
		"cloudbase" : null,
		"flyability" : -0,
		"reason" : "orientationsUnknown, rain",
		"timestamp" :1556110800
		},
	"2019-04-24T17:00:00+02:00" : {
		"windSpeed" : 4.4,
		"windDir" : 138,
		"rain" : 0,
		"cloudbase" : 8516.5,
		"flyability" : -50,
		"reason" : "orientationsUnknown",
		"timestamp" :1556121600
		},
	"2019-04-24T20:00:00+02:00" : {
		"windSpeed" : 2.6,
		"windDir" : 228,
		"rain" : 0,
		"cloudbase" : 5339.7499999999,
		"flyability" : -50,
		"reason" : "orientationsUnknown",
		"timestamp" :1556132400
		},
	"2019-04-24T23:00:00+02:00" : {
		"windSpeed" : 4.1,
		"windDir" : 269,
		"rain" : 0,
		"cloudbase" : 3554.0000000001,
		"flyability" : -50,
		"reason" : "orientationsUnknown",
		"timestamp" :1556143200
		},
	"2019-04-25T02:00:00+02:00" : {
		"windSpeed" : 3,
		"windDir" : 212,
		"rain" : 1,
		"cloudbase" : 2033.25,
		"flyability" : -0,
		"reason" : "orientationsUnknown, rain",
		"timestamp" :1556154000
		},
	"2019-04-25T05:00:00+02:00" : {
		"windSpeed" : 2,
		"windDir" : 128,
		"rain" : 1,
		"cloudbase" : 3100,
		"flyability" : -0,
		"reason" : "orientationsUnknown, rain",
		"timestamp" :1556164800
		},
	"2019-04-25T08:00:00+02:00" : {
		"windSpeed" : 1.4,
		"windDir" : 133,
		"rain" : 0,
		"cloudbase" : null,
		"flyability" : -50,
		"reason" : "orientationsUnknown",
		"timestamp" :1556175600
		},
	"2019-04-25T11:00:00+02:00" : {
		"windSpeed" : 3.5,
		"windDir" : 134,
		"rain" : 1,
		"cloudbase" : null,
		"flyability" : -0,
		"reason" : "orientationsUnknown, rain",
		"timestamp" :1556186400
		},
	"2019-04-25T14:00:00+02:00" : {
		"windSpeed" : 4.4,
		"windDir" : 130,
		"rain" : 1,
		"cloudbase" : null,
		"flyability" : -0,
		"reason" : "orientationsUnknown, rain",
		"timestamp" :1556197200
		},
	"2019-04-25T17:00:00+02:00" : {
		"windSpeed" : 3.4,
		"windDir" : 127,
		"rain" : 0,
		"cloudbase" : null,
		"flyability" : -50,
		"reason" : "orientationsUnknown",
		"timestamp" :1556208000
		},
	"2019-04-25T20:00:00+02:00" : {
		"windSpeed" : 1.1,
		"windDir" : 315,
		"rain" : 0,
		"cloudbase" : 3600,
		"flyability" : -50,
		"reason" : "orientationsUnknown",
		"timestamp" :1556218800
		},
	"2019-04-25T23:00:00+02:00" : {
		"windSpeed" : 5.4,
		"windDir" : 288,
		"rain" : 0,
		"cloudbase" : 7933,
		"flyability" : -0,
		"reason" : "windSpeed, orientationsUnknown",
		"timestamp" :1556229600
		},
	"2019-04-26T02:00:00+02:00" : {
		"windSpeed" : 4.7,
		"windDir" : 274,
		"rain" : 0,
		"cloudbase" : 8700,
		"flyability" : -50,
		"reason" : "orientationsUnknown",
		"timestamp" :1556240400
		},
	"2019-04-26T05:00:00+02:00" : {
		"windSpeed" : 3.8,
		"windDir" : 266,
		"rain" : 1,
		"cloudbase" : 1925.5,
		"flyability" : -0,
		"reason" : "orientationsUnknown, rain",
		"timestamp" :1556251200
		},
	"2019-04-26T08:00:00+02:00" : {
		"windSpeed" : 3.9,
		"windDir" : 251,
		"rain" : 1,
		"cloudbase" : 5295.7500000001,
		"flyability" : -0,
		"reason" : "orientationsUnknown, rain",
		"timestamp" :1556262000
		},
	"2019-04-26T11:00:00+02:00" : {
		"windSpeed" : 3.9,
		"windDir" : 268,
		"rain" : 0,
		"cloudbase" : 5150.5,
		"flyability" : -50,
		"reason" : "orientationsUnknown",
		"timestamp" :1556272800
		},
	"2019-04-26T14:00:00+02:00" : {
		"windSpeed" : 4.1,
		"windDir" : 256,
		"rain" : 0,
		"cloudbase" : 3308.7500000001,
		"flyability" : -50,
		"reason" : "orientationsUnknown",
		"timestamp" :1556283600
		},
	"2019-04-26T17:00:00+02:00" : {
		"windSpeed" : 3.9,
		"windDir" : 260,
		"rain" : 0,
		"cloudbase" : 2109.5000000001,
		"flyability" : -50,
		"reason" : "orientationsUnknown",
		"timestamp" :1556294400
		},
	"2019-04-26T20:00:00+02:00" : {
		"windSpeed" : 2.6,
		"windDir" : 253,
		"rain" : 0,
		"cloudbase" : 4908.5,
		"flyability" : -50,
		"reason" : "orientationsUnknown",
		"timestamp" :1556305200
		},
	"2019-04-26T23:00:00+02:00" : {
		"windSpeed" : 2.2,
		"windDir" : 230,
		"rain" : 0,
		"cloudbase" : 5467,
		"flyability" : -50,
		"reason" : "orientationsUnknown",
		"timestamp" :1556316000
		},
	"2019-04-27T02:00:00+02:00" : {
		"windSpeed" : 2.2,
		"windDir" : 230,
		"rain" : 0,
		"cloudbase" : 6267,
		"flyability" : -50,
		"reason" : "orientationsUnknown",
		"timestamp" :1556326800
		},
	"2019-04-27T05:00:00+02:00" : {
		"windSpeed" : 1.8,
		"windDir" : 231,
		"rain" : 0,
		"cloudbase" : 7117,
		"flyability" : -50,
		"reason" : "orientationsUnknown",
		"timestamp" :1556337600
		},
	"2019-04-27T08:00:00+02:00" : {
		"windSpeed" : 2.6,
		"windDir" : 220,
		"rain" : 0,
		"cloudbase" : null,
		"flyability" : -50,
		"reason" : "orientationsUnknown",
		"timestamp" :1556348400
		},
	"2019-04-27T11:00:00+02:00" : {
		"windSpeed" : 3.8,
		"windDir" : 203,
		"rain" : 1,
		"cloudbase" : 1574.6499999999,
		"flyability" : -0,
		"reason" : "orientationsUnknown, rain",
		"timestamp" :1556359200
		},
	"2019-04-27T14:00:00+02:00" : {
		"windSpeed" : 6,
		"windDir" : 229,
		"rain" : 1,
		"cloudbase" : 2048.75,
		"flyability" : -0,
		"reason" : "windSpeed, orientationsUnknown, rain",
		"timestamp" :1556370000
		},
	"2019-04-27T17:00:00+02:00" : {
		"windSpeed" : 6.5,
		"windDir" : 208,
		"rain" : 1,
		"cloudbase" : null,
		"flyability" : -0,
		"reason" : "windSpeed, orientationsUnknown, rain",
		"timestamp" :1556380800
		},
	"2019-04-27T20:00:00+02:00" : {
		"windSpeed" : 5.3,
		"windDir" : 233,
		"rain" : 1,
		"cloudbase" : 3707.75,
		"flyability" : -0,
		"reason" : "windSpeed, orientationsUnknown, rain",
		"timestamp" :1556391600
		},
	"2019-04-27T23:00:00+02:00" : {
		"windSpeed" : 5,
		"windDir" : 211,
		"rain" : 1,
		"cloudbase" : 539.79999999999,
		"flyability" : -0,
		"reason" : "orientationsUnknown, rain",
		"timestamp" :1556402400
		},
	"2019-04-28T02:00:00+02:00" : {
		"windSpeed" : 5.3,
		"windDir" : 259,
		"rain" : 1,
		"cloudbase" : 696.09999999998,
		"flyability" : -0,
		"reason" : "windSpeed, orientationsUnknown, rain",
		"timestamp" :1556413200
		}
	}
}