{
"site" : "Teresopolis -Nova Rampa",
"id" : 15888,
"orientations" : "22210012",
"forecasts" : { 
	"2019-04-06T12:00:00-03:00" : {
		"windSpeed" : 0.3,
		"windDir" : 95,
		"rain" : 0,
		"cloudbase" : 12169.5,
		"flyability" : 100,
		"reason" : "",
		"timestamp" :1554562800
		},
	"2019-04-06T15:00:00-03:00" : {
		"windSpeed" : 0.3,
		"windDir" : 88,
		"rain" : 0,
		"cloudbase" : 11500,
		"flyability" : 100,
		"reason" : "",
		"timestamp" :1554573600
		},
	"2019-04-06T18:00:00-03:00" : {
		"windSpeed" : 0.8,
		"windDir" : 80,
		"rain" : 0,
		"cloudbase" : null,
		"flyability" : 100,
		"reason" : "",
		"timestamp" :1554584400
		},
	"2019-04-06T21:00:00-03:00" : {
		"windSpeed" : 0.3,
		"windDir" : 22,
		"rain" : 0,
		"cloudbase" : 660,
		"flyability" : 0,
		"reason" : "cloudbase",
		"timestamp" :1554595200
		},
	"2019-04-07T00:00:00-03:00" : {
		"windSpeed" : 1.2,
		"windDir" : 344,
		"rain" : 0,
		"cloudbase" : null,
		"flyability" : 100,
		"reason" : "",
		"timestamp" :1554606000
		},
	"2019-04-07T03:00:00-03:00" : {
		"windSpeed" : 1.4,
		"windDir" : 335,
		"rain" : 1,
		"cloudbase" : 14000,
		"flyability" : 0,
		"reason" : "rain",
		"timestamp" :1554616800
		},
	"2019-04-07T06:00:00-03:00" : {
		"windSpeed" : 1.4,
		"windDir" : 334,
		"rain" : 1,
		"cloudbase" : null,
		"flyability" : 0,
		"reason" : "rain",
		"timestamp" :1554627600
		},
	"2019-04-07T09:00:00-03:00" : {
		"windSpeed" : 2,
		"windDir" : 355,
		"rain" : 0,
		"cloudbase" : null,
		"flyability" : 100,
		"reason" : "",
		"timestamp" :1554638400
		},
	"2019-04-07T12:00:00-03:00" : {
		"windSpeed" : 2.5,
		"windDir" : 341,
		"rain" : 1,
		"cloudbase" : null,
		"flyability" : 0,
		"reason" : "rain",
		"timestamp" :1554649200
		},
	"2019-04-07T15:00:00-03:00" : {
		"windSpeed" : 1.4,
		"windDir" : 11,
		"rain" : 0,
		"cloudbase" : null,
		"flyability" : 100,
		"reason" : "",
		"timestamp" :1554660000
		},
	"2019-04-07T18:00:00-03:00" : {
		"windSpeed" : 0.8,
		"windDir" : 355,
		"rain" : 1,
		"cloudbase" : null,
		"flyability" : 0,
		"reason" : "rain",
		"timestamp" :1554670800
		},
	"2019-04-07T21:00:00-03:00" : {
		"windSpeed" : 1.6,
		"windDir" : 342,
		"rain" : 0,
		"cloudbase" : null,
		"flyability" : 100,
		"reason" : "",
		"timestamp" :1554681600
		},
	"2019-04-08T00:00:00-03:00" : {
		"windSpeed" : 2,
		"windDir" : 332,
		"rain" : 0,
		"cloudbase" : null,
		"flyability" : 100,
		"reason" : "",
		"timestamp" :1554692400
		},
	"2019-04-08T03:00:00-03:00" : {
		"windSpeed" : 2.4,
		"windDir" : 340,
		"rain" : 0,
		"cloudbase" : null,
		"flyability" : 100,
		"reason" : "",
		"timestamp" :1554703200
		},
	"2019-04-08T06:00:00-03:00" : {
		"windSpeed" : 2.9,
		"windDir" : 333,
		"rain" : 0,
		"cloudbase" : null,
		"flyability" : 100,
		"reason" : "",
		"timestamp" :1554714000
		},
	"2019-04-08T09:00:00-03:00" : {
		"windSpeed" : 4.2,
		"windDir" : 339,
		"rain" : 0,
		"cloudbase" : null,
		"flyability" : 100,
		"reason" : "",
		"timestamp" :1554724800
		},
	"2019-04-08T12:00:00-03:00" : {
		"windSpeed" : 2.7,
		"windDir" : 330,
		"rain" : 0,
		"cloudbase" : null,
		"flyability" : 100,
		"reason" : "",
		"timestamp" :1554735600
		},
	"2019-04-08T15:00:00-03:00" : {
		"windSpeed" : 0.8,
		"windDir" : 236,
		"rain" : 0,
		"cloudbase" : null,
		"flyability" : 0,
		"reason" : "windDir",
		"timestamp" :1554746400
		},
	"2019-04-08T18:00:00-03:00" : {
		"windSpeed" : 0.6,
		"windDir" : 182,
		"rain" : 0,
		"cloudbase" : 9022.380000001,
		"flyability" : 0,
		"reason" : "windDir",
		"timestamp" :1554757200
		},
	"2019-04-08T21:00:00-03:00" : {
		"windSpeed" : 0.6,
		"windDir" : 21,
		"rain" : 1,
		"cloudbase" : 5850.8076800006,
		"flyability" : 0,
		"reason" : "rain",
		"timestamp" :1554768000
		},
	"2019-04-09T00:00:00-03:00" : {
		"windSpeed" : 1.5,
		"windDir" : 333,
		"rain" : 1,
		"cloudbase" : 8197.1648000001,
		"flyability" : 0,
		"reason" : "rain",
		"timestamp" :1554778800
		},
	"2019-04-09T03:00:00-03:00" : {
		"windSpeed" : 0.9,
		"windDir" : 326,
		"rain" : 1,
		"cloudbase" : 5704.3564000006,
		"flyability" : 0,
		"reason" : "rain",
		"timestamp" :1554789600
		},
	"2019-04-09T06:00:00-03:00" : {
		"windSpeed" : 0.7,
		"windDir" : 293,
		"rain" : 1,
		"cloudbase" : null,
		"flyability" : 0,
		"reason" : "rain",
		"timestamp" :1554800400
		},
	"2019-04-09T09:00:00-03:00" : {
		"windSpeed" : 0.8,
		"windDir" : 228,
		"rain" : 1,
		"cloudbase" : 3467.4076000002,
		"flyability" : 0,
		"reason" : "windDir, rain",
		"timestamp" :1554811200
		},
	"2019-04-09T12:00:00-03:00" : {
		"windSpeed" : 1.4,
		"windDir" : 180,
		"rain" : 1,
		"cloudbase" : 2359.7635999998,
		"flyability" : 0,
		"reason" : "windDir, rain",
		"timestamp" :1554822000
		},
	"2019-04-09T15:00:00-03:00" : {
		"windSpeed" : 1.5,
		"windDir" : 157,
		"rain" : 1,
		"cloudbase" : 523.27575999996,
		"flyability" : 0,
		"reason" : "windDir, rain, cloudbase",
		"timestamp" :1554832800
		},
	"2019-04-09T18:00:00-03:00" : {
		"windSpeed" : 0.7,
		"windDir" : 170,
		"rain" : 1,
		"cloudbase" : 1881.70488,
		"flyability" : 0,
		"reason" : "windDir, rain",
		"timestamp" :1554843600
		},
	"2019-04-09T21:00:00-03:00" : {
		"windSpeed" : 0.6,
		"windDir" : 218,
		"rain" : 1,
		"cloudbase" : 1957.9574800006,
		"flyability" : 0,
		"reason" : "windDir, rain",
		"timestamp" :1554854400
		},
	"2019-04-10T00:00:00-03:00" : {
		"windSpeed" : 1.1,
		"windDir" : 183,
		"rain" : 1,
		"cloudbase" : 185.53468000002,
		"flyability" : 0,
		"reason" : "windDir, rain, cloudbase",
		"timestamp" :1554865200
		},
	"2019-04-10T03:00:00-03:00" : {
		"windSpeed" : 1.9,
		"windDir" : 174,
		"rain" : 1,
		"cloudbase" : 45,
		"flyability" : 0,
		"reason" : "windDir, rain, cloudbase",
		"timestamp" :1554876000
		},
	"2019-04-10T06:00:00-03:00" : {
		"windSpeed" : 1.5,
		"windDir" : 172,
		"rain" : 1,
		"cloudbase" : 172.39900000002,
		"flyability" : 0,
		"reason" : "windDir, rain, cloudbase",
		"timestamp" :1554886800
		},
	"2019-04-10T09:00:00-03:00" : {
		"windSpeed" : 2.3,
		"windDir" : 180,
		"rain" : 1,
		"cloudbase" : 440,
		"flyability" : 0,
		"reason" : "windDir, rain, cloudbase",
		"timestamp" :1554897600
		},
	"2019-04-10T12:00:00-03:00" : {
		"windSpeed" : 2.5,
		"windDir" : 172,
		"rain" : 1,
		"cloudbase" : 180,
		"flyability" : 0,
		"reason" : "windDir, rain, cloudbase",
		"timestamp" :1554908400
		},
	"2019-04-10T15:00:00-03:00" : {
		"windSpeed" : 3,
		"windDir" : 175,
		"rain" : 1,
		"cloudbase" : 45,
		"flyability" : 0,
		"reason" : "windDir, rain, cloudbase",
		"timestamp" :1554919200
		},
	"2019-04-10T18:00:00-03:00" : {
		"windSpeed" : 2,
		"windDir" : 172,
		"rain" : 1,
		"cloudbase" : 528.16004000008,
		"flyability" : 0,
		"reason" : "windDir, rain, cloudbase",
		"timestamp" :1554930000
		},
	"2019-04-10T21:00:00-03:00" : {
		"windSpeed" : 2.2,
		"windDir" : 165,
		"rain" : 1,
		"cloudbase" : 30,
		"flyability" : 0,
		"reason" : "windDir, rain, cloudbase",
		"timestamp" :1554940800
		},
	"2019-04-11T00:00:00-03:00" : {
		"windSpeed" : 1.1,
		"windDir" : 168,
		"rain" : 1,
		"cloudbase" : 30,
		"flyability" : 0,
		"reason" : "windDir, rain, cloudbase",
		"timestamp" :1554951600
		},
	"2019-04-11T03:00:00-03:00" : {
		"windSpeed" : 0.8,
		"windDir" : 151,
		"rain" : 0,
		"cloudbase" : 159.85432000001,
		"flyability" : 0,
		"reason" : "cloudbase",
		"timestamp" :1554962400
		},
	"2019-04-11T06:00:00-03:00" : {
		"windSpeed" : 0.4,
		"windDir" : 163,
		"rain" : 1,
		"cloudbase" : 30,
		"flyability" : 0,
		"reason" : "windDir, rain, cloudbase",
		"timestamp" :1554973200
		},
	"2019-04-11T09:00:00-03:00" : {
		"windSpeed" : 1.4,
		"windDir" : 178,
		"rain" : 0,
		"cloudbase" : 562.77999999997,
		"flyability" : 0,
		"reason" : "windDir, cloudbase",
		"timestamp" :1554984000
		},
	"2019-04-11T12:00:00-03:00" : {
		"windSpeed" : 1.6,
		"windDir" : 175,
		"rain" : 1,
		"cloudbase" : 1150,
		"flyability" : 0,
		"reason" : "windDir, rain",
		"timestamp" :1554994800
		},
	"2019-04-11T15:00:00-03:00" : {
		"windSpeed" : 2.2,
		"windDir" : 165,
		"rain" : 1,
		"cloudbase" : 740,
		"flyability" : 0,
		"reason" : "windDir, rain, cloudbase",
		"timestamp" :1555005600
		},
	"2019-04-11T18:00:00-03:00" : {
		"windSpeed" : 1.3,
		"windDir" : 173,
		"rain" : 1,
		"cloudbase" : 160.06648,
		"flyability" : 0,
		"reason" : "windDir, rain, cloudbase",
		"timestamp" :1555016400
		},
	"2019-04-11T21:00:00-03:00" : {
		"windSpeed" : 0.4,
		"windDir" : 149,
		"rain" : 1,
		"cloudbase" : 274.15344000002,
		"flyability" : 0,
		"reason" : "rain, cloudbase",
		"timestamp" :1555027200
		},
	"2019-04-12T00:00:00-03:00" : {
		"windSpeed" : 0.2,
		"windDir" : 360,
		"rain" : 1,
		"cloudbase" : 35,
		"flyability" : 0,
		"reason" : "rain, cloudbase",
		"timestamp" :1555038000
		},
	"2019-04-12T03:00:00-03:00" : {
		"windSpeed" : 0.7,
		"windDir" : 319,
		"rain" : 1,
		"cloudbase" : 240,
		"flyability" : 0,
		"reason" : "rain, cloudbase",
		"timestamp" :1555048800
		},
	"2019-04-12T06:00:00-03:00" : {
		"windSpeed" : 0.8,
		"windDir" : 335,
		"rain" : 1,
		"cloudbase" : 95,
		"flyability" : 0,
		"reason" : "rain, cloudbase",
		"timestamp" :1555059600
		},
	"2019-04-12T09:00:00-03:00" : {
		"windSpeed" : 0.6,
		"windDir" : 323,
		"rain" : 1,
		"cloudbase" : 700,
		"flyability" : 0,
		"reason" : "rain, cloudbase",
		"timestamp" :1555070400
		}
	}
}