{
"site" : "Kirikabu-yama",
"id" : 15895,
"orientations" : "22100012",
"forecasts" : { 
	"2019-04-07T12:00:00+09:00" : {
		"windSpeed" : 2.2,
		"windDir" : 287,
		"rain" : 0,
		"cloudbase" : 7600,
		"flyability" : 100,
		"reason" : "",
		"timestamp" :1554606000
		},
	"2019-04-07T15:00:00+09:00" : {
		"windSpeed" : 2.9,
		"windDir" : 295,
		"rain" : 0,
		"cloudbase" : null,
		"flyability" : 100,
		"reason" : "",
		"timestamp" :1554616800
		},
	"2019-04-07T18:00:00+09:00" : {
		"windSpeed" : 1.2,
		"windDir" : 314,
		"rain" : 0,
		"cloudbase" : null,
		"flyability" : 100,
		"reason" : "",
		"timestamp" :1554627600
		},
	"2019-04-07T21:00:00+09:00" : {
		"windSpeed" : 1.7,
		"windDir" : 214,
		"rain" : 0,
		"cloudbase" : 5500,
		"flyability" : 0,
		"reason" : "windDir",
		"timestamp" :1554638400
		},
	"2019-04-08T00:00:00+09:00" : {
		"windSpeed" : 2,
		"windDir" : 182,
		"rain" : 1,
		"cloudbase" : null,
		"flyability" : 0,
		"reason" : "windDir, rain",
		"timestamp" :1554649200
		},
	"2019-04-08T03:00:00+09:00" : {
		"windSpeed" : 0.4,
		"windDir" : 226,
		"rain" : 1,
		"cloudbase" : 884.95760000001,
		"flyability" : 0,
		"reason" : "windDir, rain",
		"timestamp" :1554660000
		},
	"2019-04-08T06:00:00+09:00" : {
		"windSpeed" : 1.3,
		"windDir" : 256,
		"rain" : 1,
		"cloudbase" : 136.87279999999,
		"flyability" : 0,
		"reason" : "rain, cloudbase",
		"timestamp" :1554670800
		},
	"2019-04-08T09:00:00+09:00" : {
		"windSpeed" : 2.7,
		"windDir" : 277,
		"rain" : 0,
		"cloudbase" : 520,
		"flyability" : 0,
		"reason" : "cloudbase",
		"timestamp" :1554681600
		},
	"2019-04-08T12:00:00+09:00" : {
		"windSpeed" : 3.5,
		"windDir" : 295,
		"rain" : 0,
		"cloudbase" : null,
		"flyability" : 100,
		"reason" : "",
		"timestamp" :1554692400
		},
	"2019-04-08T15:00:00+09:00" : {
		"windSpeed" : 4,
		"windDir" : 290,
		"rain" : 0,
		"cloudbase" : null,
		"flyability" : 100,
		"reason" : "",
		"timestamp" :1554703200
		},
	"2019-04-08T18:00:00+09:00" : {
		"windSpeed" : 2.6,
		"windDir" : 292,
		"rain" : 0,
		"cloudbase" : null,
		"flyability" : 100,
		"reason" : "",
		"timestamp" :1554714000
		},
	"2019-04-08T21:00:00+09:00" : {
		"windSpeed" : 1.3,
		"windDir" : 234,
		"rain" : 0,
		"cloudbase" : null,
		"flyability" : 0,
		"reason" : "windDir",
		"timestamp" :1554724800
		},
	"2019-04-09T00:00:00+09:00" : {
		"windSpeed" : 1.8,
		"windDir" : 94,
		"rain" : 0,
		"cloudbase" : null,
		"flyability" : 100,
		"reason" : "",
		"timestamp" :1554735600
		},
	"2019-04-09T03:00:00+09:00" : {
		"windSpeed" : 1.5,
		"windDir" : 108,
		"rain" : 0,
		"cloudbase" : 9869.406,
		"flyability" : 100,
		"reason" : "",
		"timestamp" :1554746400
		},
	"2019-04-09T06:00:00+09:00" : {
		"windSpeed" : 2.2,
		"windDir" : 118,
		"rain" : 0,
		"cloudbase" : null,
		"flyability" : 0,
		"reason" : "windDir",
		"timestamp" :1554757200
		},
	"2019-04-09T09:00:00+09:00" : {
		"windSpeed" : 2.4,
		"windDir" : 79,
		"rain" : 0,
		"cloudbase" : 10192.724,
		"flyability" : 100,
		"reason" : "",
		"timestamp" :1554768000
		},
	"2019-04-09T12:00:00+09:00" : {
		"windSpeed" : 2.1,
		"windDir" : 78,
		"rain" : 0,
		"cloudbase" : 6815.494,
		"flyability" : 100,
		"reason" : "",
		"timestamp" :1554778800
		},
	"2019-04-09T15:00:00+09:00" : {
		"windSpeed" : 2.7,
		"windDir" : 97,
		"rain" : 0,
		"cloudbase" : 5328.3,
		"flyability" : 100,
		"reason" : "",
		"timestamp" :1554789600
		},
	"2019-04-09T18:00:00+09:00" : {
		"windSpeed" : 2.5,
		"windDir" : 122,
		"rain" : 1,
		"cloudbase" : 3548.853,
		"flyability" : 0,
		"reason" : "windDir, rain",
		"timestamp" :1554800400
		},
	"2019-04-09T21:00:00+09:00" : {
		"windSpeed" : 4.9,
		"windDir" : 136,
		"rain" : 1,
		"cloudbase" : 2788.406,
		"flyability" : 0,
		"reason" : "windDir, rain",
		"timestamp" :1554811200
		},
	"2019-04-10T00:00:00+09:00" : {
		"windSpeed" : 4.8,
		"windDir" : 112,
		"rain" : 1,
		"cloudbase" : 2470.332,
		"flyability" : 0,
		"reason" : "rain",
		"timestamp" :1554822000
		},
	"2019-04-10T03:00:00+09:00" : {
		"windSpeed" : 6.8,
		"windDir" : 110,
		"rain" : 1,
		"cloudbase" : 1919.824,
		"flyability" : 0,
		"reason" : "windSpeed, rain",
		"timestamp" :1554832800
		},
	"2019-04-10T06:00:00+09:00" : {
		"windSpeed" : 5.6,
		"windDir" : 106,
		"rain" : 1,
		"cloudbase" : 1699.062,
		"flyability" : 0,
		"reason" : "windSpeed, rain",
		"timestamp" :1554843600
		},
	"2019-04-10T09:00:00+09:00" : {
		"windSpeed" : 3.6,
		"windDir" : 109,
		"rain" : 1,
		"cloudbase" : 1065.1492,
		"flyability" : 0,
		"reason" : "rain",
		"timestamp" :1554854400
		},
	"2019-04-10T12:00:00+09:00" : {
		"windSpeed" : 3.9,
		"windDir" : 99,
		"rain" : 1,
		"cloudbase" : 934.52519999995,
		"flyability" : 0,
		"reason" : "rain",
		"timestamp" :1554865200
		},
	"2019-04-10T15:00:00+09:00" : {
		"windSpeed" : 2.5,
		"windDir" : 93,
		"rain" : 1,
		"cloudbase" : 854.05559999998,
		"flyability" : 0,
		"reason" : "rain",
		"timestamp" :1554876000
		},
	"2019-04-10T18:00:00+09:00" : {
		"windSpeed" : 2.4,
		"windDir" : 44,
		"rain" : 1,
		"cloudbase" : 629.19079999999,
		"flyability" : 0,
		"reason" : "rain, cloudbase",
		"timestamp" :1554886800
		},
	"2019-04-10T21:00:00+09:00" : {
		"windSpeed" : 1.9,
		"windDir" : 63,
		"rain" : 1,
		"cloudbase" : 469.80719999998,
		"flyability" : 0,
		"reason" : "rain, cloudbase",
		"timestamp" :1554897600
		},
	"2019-04-11T00:00:00+09:00" : {
		"windSpeed" : 1.3,
		"windDir" : 48,
		"rain" : 1,
		"cloudbase" : 3165.0481999995,
		"flyability" : 0,
		"reason" : "rain",
		"timestamp" :1554908400
		},
	"2019-04-11T03:00:00+09:00" : {
		"windSpeed" : 1.2,
		"windDir" : 20,
		"rain" : 0,
		"cloudbase" : 76.261299999993,
		"flyability" : 0,
		"reason" : "cloudbase",
		"timestamp" :1554919200
		},
	"2019-04-11T06:00:00+09:00" : {
		"windSpeed" : 1.1,
		"windDir" : 25,
		"rain" : 0,
		"cloudbase" : 84.146299999991,
		"flyability" : 0,
		"reason" : "cloudbase",
		"timestamp" :1554930000
		},
	"2019-04-11T09:00:00+09:00" : {
		"windSpeed" : 2.3,
		"windDir" : 30,
		"rain" : 0,
		"cloudbase" : 290.26599999999,
		"flyability" : 0,
		"reason" : "cloudbase",
		"timestamp" :1554940800
		},
	"2019-04-11T12:00:00+09:00" : {
		"windSpeed" : 2.4,
		"windDir" : 10,
		"rain" : 0,
		"cloudbase" : 735.76079999994,
		"flyability" : 100,
		"reason" : "",
		"timestamp" :1554951600
		},
	"2019-04-11T15:00:00+09:00" : {
		"windSpeed" : 2.7,
		"windDir" : 355,
		"rain" : 0,
		"cloudbase" : 5948.4559999997,
		"flyability" : 100,
		"reason" : "",
		"timestamp" :1554962400
		},
	"2019-04-11T18:00:00+09:00" : {
		"windSpeed" : 2.7,
		"windDir" : 18,
		"rain" : 1,
		"cloudbase" : 8756.6,
		"flyability" : 0,
		"reason" : "rain",
		"timestamp" :1554973200
		},
	"2019-04-11T21:00:00+09:00" : {
		"windSpeed" : 2,
		"windDir" : 41,
		"rain" : 0,
		"cloudbase" : 7954.9479999999,
		"flyability" : 100,
		"reason" : "",
		"timestamp" :1554984000
		},
	"2019-04-12T00:00:00+09:00" : {
		"windSpeed" : 1.5,
		"windDir" : 92,
		"rain" : 1,
		"cloudbase" : 7876.812,
		"flyability" : 0,
		"reason" : "rain",
		"timestamp" :1554994800
		},
	"2019-04-12T03:00:00+09:00" : {
		"windSpeed" : 1.8,
		"windDir" : 110,
		"rain" : 0,
		"cloudbase" : 5228.3,
		"flyability" : 100,
		"reason" : "",
		"timestamp" :1555005600
		},
	"2019-04-12T06:00:00+09:00" : {
		"windSpeed" : 1.6,
		"windDir" : 113,
		"rain" : 0,
		"cloudbase" : null,
		"flyability" : 0,
		"reason" : "windDir",
		"timestamp" :1555016400
		},
	"2019-04-12T09:00:00+09:00" : {
		"windSpeed" : 1.8,
		"windDir" : 49,
		"rain" : 0,
		"cloudbase" : null,
		"flyability" : 100,
		"reason" : "",
		"timestamp" :1555027200
		},
	"2019-04-12T12:00:00+09:00" : {
		"windSpeed" : 2.7,
		"windDir" : 348,
		"rain" : 0,
		"cloudbase" : 2100,
		"flyability" : 100,
		"reason" : "",
		"timestamp" :1555038000
		},
	"2019-04-12T15:00:00+09:00" : {
		"windSpeed" : 3.9,
		"windDir" : 339,
		"rain" : 0,
		"cloudbase" : 1640.3,
		"flyability" : 100,
		"reason" : "",
		"timestamp" :1555048800
		},
	"2019-04-12T18:00:00+09:00" : {
		"windSpeed" : 1.8,
		"windDir" : 358,
		"rain" : 0,
		"cloudbase" : null,
		"flyability" : 100,
		"reason" : "",
		"timestamp" :1555059600
		},
	"2019-04-12T21:00:00+09:00" : {
		"windSpeed" : 1.3,
		"windDir" : 58,
		"rain" : 0,
		"cloudbase" : null,
		"flyability" : 100,
		"reason" : "",
		"timestamp" :1555070400
		},
	"2019-04-13T00:00:00+09:00" : {
		"windSpeed" : 1.4,
		"windDir" : 113,
		"rain" : 1,
		"cloudbase" : null,
		"flyability" : 0,
		"reason" : "windDir, rain",
		"timestamp" :1555081200
		},
	"2019-04-13T03:00:00+09:00" : {
		"windSpeed" : 1.2,
		"windDir" : 141,
		"rain" : 0,
		"cloudbase" : null,
		"flyability" : 0,
		"reason" : "windDir",
		"timestamp" :1555092000
		},
	"2019-04-13T06:00:00+09:00" : {
		"windSpeed" : 1,
		"windDir" : 137,
		"rain" : 1,
		"cloudbase" : null,
		"flyability" : 0,
		"reason" : "windDir, rain",
		"timestamp" :1555102800
		},
	"2019-04-13T09:00:00+09:00" : {
		"windSpeed" : 0.8,
		"windDir" : 56,
		"rain" : 1,
		"cloudbase" : null,
		"flyability" : 0,
		"reason" : "rain",
		"timestamp" :1555113600
		}
	}
}