{
"site" : "Croagh Patrick East Site",
"id" : 15956,
"orientations" : "22000002",
"forecasts" : { 
	"2019-04-14T04:00:00+01:00" : {
		"windSpeed" : 8.6,
		"windDir" : 119,
		"rain" : 1,
		"cloudbase" : 202.69700000001,
		"flyability" : 0,
		"reason" : "windSpeed, windDir, rain, cloudbase",
		"timestamp" :1555207200
		},
	"2019-04-14T07:00:00+01:00" : {
		"windSpeed" : 7.9,
		"windDir" : 118,
		"rain" : 1,
		"cloudbase" : 77.167100000014,
		"flyability" : 0,
		"reason" : "windSpeed, windDir, rain, cloudbase",
		"timestamp" :1555218000
		},
	"2019-04-14T10:00:00+01:00" : {
		"windSpeed" : 9,
		"windDir" : 124,
		"rain" : 1,
		"cloudbase" : 262.42700000002,
		"flyability" : 0,
		"reason" : "windSpeed, windDir, rain, cloudbase",
		"timestamp" :1555228800
		},
	"2019-04-14T13:00:00+01:00" : {
		"windSpeed" : 8.2,
		"windDir" : 133,
		"rain" : 1,
		"cloudbase" : 356.51180000001,
		"flyability" : 0,
		"reason" : "windSpeed, windDir, rain, cloudbase",
		"timestamp" :1555239600
		},
	"2019-04-14T16:00:00+01:00" : {
		"windSpeed" : 7.3,
		"windDir" : 125,
		"rain" : 1,
		"cloudbase" : 460.08300000002,
		"flyability" : 0,
		"reason" : "windSpeed, windDir, rain, cloudbase",
		"timestamp" :1555250400
		},
	"2019-04-14T19:00:00+01:00" : {
		"windSpeed" : 6.6,
		"windDir" : 118,
		"rain" : 1,
		"cloudbase" : 477.29700000001,
		"flyability" : 0,
		"reason" : "windSpeed, windDir, rain",
		"timestamp" :1555261200
		},
	"2019-04-14T22:00:00+01:00" : {
		"windSpeed" : 6.8,
		"windDir" : 115,
		"rain" : 1,
		"cloudbase" : 432.66040000001,
		"flyability" : 0,
		"reason" : "windSpeed, windDir, rain, cloudbase",
		"timestamp" :1555272000
		},
	"2019-04-15T01:00:00+01:00" : {
		"windSpeed" : 7.1,
		"windDir" : 114,
		"rain" : 1,
		"cloudbase" : 1435.7838000001,
		"flyability" : 0,
		"reason" : "windSpeed, windDir, rain",
		"timestamp" :1555282800
		},
	"2019-04-15T04:00:00+01:00" : {
		"windSpeed" : 8.1,
		"windDir" : 109,
		"rain" : 1,
		"cloudbase" : 750.74920000001,
		"flyability" : 0,
		"reason" : "windSpeed, windDir, rain",
		"timestamp" :1555293600
		},
	"2019-04-15T07:00:00+01:00" : {
		"windSpeed" : 10.2,
		"windDir" : 113,
		"rain" : 1,
		"cloudbase" : 2582.0340000003,
		"flyability" : 0,
		"reason" : "windSpeed, windDir, rain",
		"timestamp" :1555304400
		},
	"2019-04-15T10:00:00+01:00" : {
		"windSpeed" : 10.5,
		"windDir" : 115,
		"rain" : 1,
		"cloudbase" : 2485.9176000007,
		"flyability" : 0,
		"reason" : "windSpeed, windDir, rain",
		"timestamp" :1555315200
		},
	"2019-04-15T13:00:00+01:00" : {
		"windSpeed" : 10.2,
		"windDir" : 118,
		"rain" : 1,
		"cloudbase" : 2869.1890000001,
		"flyability" : 0,
		"reason" : "windSpeed, windDir, rain",
		"timestamp" :1555326000
		},
	"2019-04-15T16:00:00+01:00" : {
		"windSpeed" : 10.1,
		"windDir" : 120,
		"rain" : 1,
		"cloudbase" : 2879.2230000001,
		"flyability" : 0,
		"reason" : "windSpeed, windDir, rain",
		"timestamp" :1555336800
		},
	"2019-04-15T19:00:00+01:00" : {
		"windSpeed" : 8.9,
		"windDir" : 136,
		"rain" : 0,
		"cloudbase" : 523.14000000002,
		"flyability" : 0,
		"reason" : "windSpeed, windDir",
		"timestamp" :1555347600
		},
	"2019-04-15T22:00:00+01:00" : {
		"windSpeed" : 5.5,
		"windDir" : 135,
		"rain" : 1,
		"cloudbase" : 755.47600000012,
		"flyability" : 0,
		"reason" : "windSpeed, windDir, rain",
		"timestamp" :1555358400
		},
	"2019-04-16T01:00:00+01:00" : {
		"windSpeed" : 3.7,
		"windDir" : 138,
		"rain" : 0,
		"cloudbase" : 3388.033400001,
		"flyability" : 0,
		"reason" : "windDir",
		"timestamp" :1555369200
		},
	"2019-04-16T04:00:00+01:00" : {
		"windSpeed" : 3.2,
		"windDir" : 126,
		"rain" : 1,
		"cloudbase" : 3510.7860000011,
		"flyability" : 0,
		"reason" : "windDir, rain",
		"timestamp" :1555380000
		},
	"2019-04-16T07:00:00+01:00" : {
		"windSpeed" : 3,
		"windDir" : 118,
		"rain" : 0,
		"cloudbase" : 45,
		"flyability" : 0,
		"reason" : "windDir, cloudbase",
		"timestamp" :1555390800
		},
	"2019-04-16T10:00:00+01:00" : {
		"windSpeed" : 3.3,
		"windDir" : 136,
		"rain" : 1,
		"cloudbase" : 300,
		"flyability" : 0,
		"reason" : "windDir, rain, cloudbase",
		"timestamp" :1555401600
		},
	"2019-04-16T13:00:00+01:00" : {
		"windSpeed" : 4,
		"windDir" : 132,
		"rain" : 0,
		"cloudbase" : 946.24120000001,
		"flyability" : 0,
		"reason" : "windDir",
		"timestamp" :1555412400
		},
	"2019-04-16T16:00:00+01:00" : {
		"windSpeed" : 3.1,
		"windDir" : 133,
		"rain" : 0,
		"cloudbase" : 1500,
		"flyability" : 0,
		"reason" : "windDir",
		"timestamp" :1555423200
		},
	"2019-04-16T19:00:00+01:00" : {
		"windSpeed" : 2.4,
		"windDir" : 102,
		"rain" : 1,
		"cloudbase" : 5977.3199999995,
		"flyability" : 0,
		"reason" : "windDir, rain",
		"timestamp" :1555434000
		},
	"2019-04-16T22:00:00+01:00" : {
		"windSpeed" : 4.9,
		"windDir" : 108,
		"rain" : 0,
		"cloudbase" : 6025.988,
		"flyability" : 0,
		"reason" : "windDir",
		"timestamp" :1555444800
		},
	"2019-04-17T01:00:00+01:00" : {
		"windSpeed" : 3.6,
		"windDir" : 118,
		"rain" : 1,
		"cloudbase" : 9100,
		"flyability" : 0,
		"reason" : "windDir, rain",
		"timestamp" :1555455600
		},
	"2019-04-17T04:00:00+01:00" : {
		"windSpeed" : 3.7,
		"windDir" : 115,
		"rain" : 1,
		"cloudbase" : 2165.3510000008,
		"flyability" : 0,
		"reason" : "windDir, rain",
		"timestamp" :1555466400
		},
	"2019-04-17T07:00:00+01:00" : {
		"windSpeed" : 4.3,
		"windDir" : 118,
		"rain" : 0,
		"cloudbase" : 80.07940000001,
		"flyability" : 0,
		"reason" : "windDir, cloudbase",
		"timestamp" :1555477200
		},
	"2019-04-17T10:00:00+01:00" : {
		"windSpeed" : 4.9,
		"windDir" : 129,
		"rain" : 1,
		"cloudbase" : 1450,
		"flyability" : 0,
		"reason" : "windDir, rain",
		"timestamp" :1555488000
		},
	"2019-04-17T13:00:00+01:00" : {
		"windSpeed" : 5,
		"windDir" : 123,
		"rain" : 0,
		"cloudbase" : 3371.853,
		"flyability" : 0,
		"reason" : "windDir",
		"timestamp" :1555498800
		},
	"2019-04-17T16:00:00+01:00" : {
		"windSpeed" : 5,
		"windDir" : 130,
		"rain" : 1,
		"cloudbase" : 6331.0540000001,
		"flyability" : 0,
		"reason" : "windDir, rain",
		"timestamp" :1555509600
		},
	"2019-04-17T19:00:00+01:00" : {
		"windSpeed" : 3.9,
		"windDir" : 121,
		"rain" : 0,
		"cloudbase" : 6130.982,
		"flyability" : 0,
		"reason" : "windDir",
		"timestamp" :1555520400
		},
	"2019-04-17T22:00:00+01:00" : {
		"windSpeed" : 3.6,
		"windDir" : 116,
		"rain" : 0,
		"cloudbase" : 7974.8180000004,
		"flyability" : 0,
		"reason" : "windDir",
		"timestamp" :1555531200
		},
	"2019-04-18T01:00:00+01:00" : {
		"windSpeed" : 4.3,
		"windDir" : 111,
		"rain" : 0,
		"cloudbase" : 8663.5,
		"flyability" : 0,
		"reason" : "windDir",
		"timestamp" :1555542000
		},
	"2019-04-18T04:00:00+01:00" : {
		"windSpeed" : 4.1,
		"windDir" : 101,
		"rain" : 0,
		"cloudbase" : 7025.5000000001,
		"flyability" : 0,
		"reason" : "windDir",
		"timestamp" :1555552800
		},
	"2019-04-18T07:00:00+01:00" : {
		"windSpeed" : 4.4,
		"windDir" : 107,
		"rain" : 0,
		"cloudbase" : 6028.0059999999,
		"flyability" : 0,
		"reason" : "windDir",
		"timestamp" :1555563600
		},
	"2019-04-18T10:00:00+01:00" : {
		"windSpeed" : 4.8,
		"windDir" : 110,
		"rain" : 0,
		"cloudbase" : 7516.0720000002,
		"flyability" : 0,
		"reason" : "windDir",
		"timestamp" :1555574400
		},
	"2019-04-18T13:00:00+01:00" : {
		"windSpeed" : 4.6,
		"windDir" : 126,
		"rain" : 0,
		"cloudbase" : 3692.153,
		"flyability" : 0,
		"reason" : "windDir",
		"timestamp" :1555585200
		},
	"2019-04-18T16:00:00+01:00" : {
		"windSpeed" : 4.8,
		"windDir" : 137,
		"rain" : 1,
		"cloudbase" : null,
		"flyability" : 0,
		"reason" : "windDir, rain",
		"timestamp" :1555596000
		},
	"2019-04-18T19:00:00+01:00" : {
		"windSpeed" : 3.3,
		"windDir" : 136,
		"rain" : 1,
		"cloudbase" : 9197.264,
		"flyability" : 0,
		"reason" : "windDir, rain",
		"timestamp" :1555606800
		},
	"2019-04-18T22:00:00+01:00" : {
		"windSpeed" : 3.1,
		"windDir" : 127,
		"rain" : 1,
		"cloudbase" : 3350,
		"flyability" : 0,
		"reason" : "windDir, rain",
		"timestamp" :1555617600
		},
	"2019-04-19T01:00:00+01:00" : {
		"windSpeed" : 3.2,
		"windDir" : 131,
		"rain" : 1,
		"cloudbase" : 9514.006,
		"flyability" : 0,
		"reason" : "windDir, rain",
		"timestamp" :1555628400
		},
	"2019-04-19T04:00:00+01:00" : {
		"windSpeed" : 2.9,
		"windDir" : 120,
		"rain" : 0,
		"cloudbase" : 7809.612,
		"flyability" : 0,
		"reason" : "windDir",
		"timestamp" :1555639200
		},
	"2019-04-19T07:00:00+01:00" : {
		"windSpeed" : 3,
		"windDir" : 123,
		"rain" : 0,
		"cloudbase" : null,
		"flyability" : 0,
		"reason" : "windDir",
		"timestamp" :1555650000
		},
	"2019-04-19T10:00:00+01:00" : {
		"windSpeed" : 3.4,
		"windDir" : 128,
		"rain" : 0,
		"cloudbase" : null,
		"flyability" : 0,
		"reason" : "windDir",
		"timestamp" :1555660800
		},
	"2019-04-19T13:00:00+01:00" : {
		"windSpeed" : 3.4,
		"windDir" : 159,
		"rain" : 0,
		"cloudbase" : 12317.5,
		"flyability" : 0,
		"reason" : "windDir",
		"timestamp" :1555671600
		},
	"2019-04-19T16:00:00+01:00" : {
		"windSpeed" : 2.8,
		"windDir" : 199,
		"rain" : 0,
		"cloudbase" : 9963.5,
		"flyability" : 0,
		"reason" : "windDir",
		"timestamp" :1555682400
		},
	"2019-04-19T19:00:00+01:00" : {
		"windSpeed" : 1.6,
		"windDir" : 282,
		"rain" : 0,
		"cloudbase" : 11500,
		"flyability" : 0,
		"reason" : "windDir",
		"timestamp" :1555693200
		},
	"2019-04-19T22:00:00+01:00" : {
		"windSpeed" : 1,
		"windDir" : 259,
		"rain" : 0,
		"cloudbase" : 10317.5,
		"flyability" : 0,
		"reason" : "windDir",
		"timestamp" :1555704000
		},
	"2019-04-20T01:00:00+01:00" : {
		"windSpeed" : 1.1,
		"windDir" : 200,
		"rain" : 0,
		"cloudbase" : 9663.5,
		"flyability" : 0,
		"reason" : "windDir",
		"timestamp" :1555714800
		}
	}
}