{
"site" : "Kimmeridge",
"id" : 15970,
"orientations" : "00000200",
"forecasts" : { 
	"2019-04-22T04:00:00+01:00" : {
		"windSpeed" : 4.2,
		"windDir" : 82,
		"rain" : 0,
		"cloudbase" : null,
		"flyability" : 0,
		"reason" : "windDir",
		"timestamp" :1555898400
		},
	"2019-04-22T07:00:00+01:00" : {
		"windSpeed" : 4.5,
		"windDir" : 70,
		"rain" : 0,
		"cloudbase" : null,
		"flyability" : 0,
		"reason" : "windDir",
		"timestamp" :1555909200
		},
	"2019-04-22T10:00:00+01:00" : {
		"windSpeed" : 4.4,
		"windDir" : 97,
		"rain" : 0,
		"cloudbase" : 4350,
		"flyability" : 0,
		"reason" : "windDir",
		"timestamp" :1555920000
		},
	"2019-04-22T13:00:00+01:00" : {
		"windSpeed" : 4.1,
		"windDir" : 122,
		"rain" : 0,
		"cloudbase" : null,
		"flyability" : 0,
		"reason" : "windDir",
		"timestamp" :1555930800
		},
	"2019-04-22T16:00:00+01:00" : {
		"windSpeed" : 2.2,
		"windDir" : 139,
		"rain" : 0,
		"cloudbase" : 8412.6909,
		"flyability" : 0,
		"reason" : "windDir",
		"timestamp" :1555941600
		},
	"2019-04-22T19:00:00+01:00" : {
		"windSpeed" : 2.9,
		"windDir" : 109,
		"rain" : 0,
		"cloudbase" : 3358.85,
		"flyability" : 0,
		"reason" : "windDir",
		"timestamp" :1555952400
		},
	"2019-04-22T22:00:00+01:00" : {
		"windSpeed" : 3.9,
		"windDir" : 75,
		"rain" : 0,
		"cloudbase" : 2993.6909,
		"flyability" : 0,
		"reason" : "windDir",
		"timestamp" :1555963200
		},
	"2019-04-23T01:00:00+01:00" : {
		"windSpeed" : 4.7,
		"windDir" : 66,
		"rain" : 0,
		"cloudbase" : 3100,
		"flyability" : 0,
		"reason" : "windDir",
		"timestamp" :1555974000
		},
	"2019-04-23T04:00:00+01:00" : {
		"windSpeed" : 4.7,
		"windDir" : 45,
		"rain" : 0,
		"cloudbase" : null,
		"flyability" : 0,
		"reason" : "windDir",
		"timestamp" :1555984800
		},
	"2019-04-23T07:00:00+01:00" : {
		"windSpeed" : 4.7,
		"windDir" : 66,
		"rain" : 0,
		"cloudbase" : null,
		"flyability" : 0,
		"reason" : "windDir",
		"timestamp" :1555995600
		},
	"2019-04-23T10:00:00+01:00" : {
		"windSpeed" : 5.3,
		"windDir" : 91,
		"rain" : 0,
		"cloudbase" : 10500,
		"flyability" : 0,
		"reason" : "windSpeed, windDir",
		"timestamp" :1556006400
		},
	"2019-04-23T13:00:00+01:00" : {
		"windSpeed" : 4.4,
		"windDir" : 118,
		"rain" : 0,
		"cloudbase" : 9371.5818,
		"flyability" : 0,
		"reason" : "windDir",
		"timestamp" :1556017200
		},
	"2019-04-23T16:00:00+01:00" : {
		"windSpeed" : 3.4,
		"windDir" : 100,
		"rain" : 0,
		"cloudbase" : 6084.9,
		"flyability" : 0,
		"reason" : "windDir",
		"timestamp" :1556028000
		},
	"2019-04-23T19:00:00+01:00" : {
		"windSpeed" : 3.4,
		"windDir" : 100,
		"rain" : 0,
		"cloudbase" : 4293.45,
		"flyability" : 0,
		"reason" : "windDir",
		"timestamp" :1556038800
		},
	"2019-04-23T22:00:00+01:00" : {
		"windSpeed" : 2.1,
		"windDir" : 116,
		"rain" : 1,
		"cloudbase" : 3701.51365,
		"flyability" : 0,
		"reason" : "windDir, rain",
		"timestamp" :1556049600
		},
	"2019-04-24T01:00:00+01:00" : {
		"windSpeed" : 2,
		"windDir" : 103,
		"rain" : 1,
		"cloudbase" : 2580.1,
		"flyability" : 0,
		"reason" : "windDir, rain",
		"timestamp" :1556060400
		},
	"2019-04-24T04:00:00+01:00" : {
		"windSpeed" : 3,
		"windDir" : 107,
		"rain" : 1,
		"cloudbase" : 4292.7318500001,
		"flyability" : 0,
		"reason" : "windDir, rain",
		"timestamp" :1556071200
		},
	"2019-04-24T07:00:00+01:00" : {
		"windSpeed" : 5.5,
		"windDir" : 105,
		"rain" : 1,
		"cloudbase" : 600.26364,
		"flyability" : 0,
		"reason" : "windSpeed, windDir, rain",
		"timestamp" :1556082000
		},
	"2019-04-24T10:00:00+01:00" : {
		"windSpeed" : 6.4,
		"windDir" : 194,
		"rain" : 1,
		"cloudbase" : 140.56364,
		"flyability" : 0,
		"reason" : "windSpeed, windDir, rain, cloudbase",
		"timestamp" :1556092800
		},
	"2019-04-24T13:00:00+01:00" : {
		"windSpeed" : 7,
		"windDir" : 219,
		"rain" : 1,
		"cloudbase" : null,
		"flyability" : 0,
		"reason" : "windSpeed, rain",
		"timestamp" :1556103600
		},
	"2019-04-24T16:00:00+01:00" : {
		"windSpeed" : 5.1,
		"windDir" : 170,
		"rain" : 0,
		"cloudbase" : 5900,
		"flyability" : 0,
		"reason" : "windSpeed, windDir",
		"timestamp" :1556114400
		},
	"2019-04-24T19:00:00+01:00" : {
		"windSpeed" : 6.5,
		"windDir" : 132,
		"rain" : 1,
		"cloudbase" : 4842.41365,
		"flyability" : 0,
		"reason" : "windSpeed, windDir, rain",
		"timestamp" :1556125200
		},
	"2019-04-24T22:00:00+01:00" : {
		"windSpeed" : 7.9,
		"windDir" : 142,
		"rain" : 1,
		"cloudbase" : null,
		"flyability" : 0,
		"reason" : "windSpeed, windDir, rain",
		"timestamp" :1556136000
		},
	"2019-04-25T01:00:00+01:00" : {
		"windSpeed" : 9.7,
		"windDir" : 153,
		"rain" : 1,
		"cloudbase" : 1774.3,
		"flyability" : 0,
		"reason" : "windSpeed, windDir, rain",
		"timestamp" :1556146800
		},
	"2019-04-25T04:00:00+01:00" : {
		"windSpeed" : 10.3,
		"windDir" : 139,
		"rain" : 0,
		"cloudbase" : 1279.8909,
		"flyability" : 0,
		"reason" : "windSpeed, windDir",
		"timestamp" :1556157600
		},
	"2019-04-25T07:00:00+01:00" : {
		"windSpeed" : 7,
		"windDir" : 174,
		"rain" : 1,
		"cloudbase" : 1101.20455,
		"flyability" : 0,
		"reason" : "windSpeed, windDir, rain",
		"timestamp" :1556168400
		},
	"2019-04-25T10:00:00+01:00" : {
		"windSpeed" : 8.8,
		"windDir" : 183,
		"rain" : 1,
		"cloudbase" : null,
		"flyability" : 0,
		"reason" : "windSpeed, windDir, rain",
		"timestamp" :1556179200
		},
	"2019-04-25T13:00:00+01:00" : {
		"windSpeed" : 7.9,
		"windDir" : 180,
		"rain" : 1,
		"cloudbase" : null,
		"flyability" : 0,
		"reason" : "windSpeed, windDir, rain",
		"timestamp" :1556190000
		},
	"2019-04-25T16:00:00+01:00" : {
		"windSpeed" : 7.3,
		"windDir" : 184,
		"rain" : 1,
		"cloudbase" : null,
		"flyability" : 0,
		"reason" : "windSpeed, windDir, rain",
		"timestamp" :1556200800
		},
	"2019-04-25T19:00:00+01:00" : {
		"windSpeed" : 5.9,
		"windDir" : 189,
		"rain" : 0,
		"cloudbase" : null,
		"flyability" : 0,
		"reason" : "windSpeed, windDir",
		"timestamp" :1556211600
		},
	"2019-04-25T22:00:00+01:00" : {
		"windSpeed" : 5.4,
		"windDir" : 195,
		"rain" : 0,
		"cloudbase" : null,
		"flyability" : 0,
		"reason" : "windSpeed, windDir",
		"timestamp" :1556222400
		},
	"2019-04-26T01:00:00+01:00" : {
		"windSpeed" : 5.1,
		"windDir" : 185,
		"rain" : 0,
		"cloudbase" : null,
		"flyability" : 0,
		"reason" : "windSpeed, windDir",
		"timestamp" :1556233200
		},
	"2019-04-26T04:00:00+01:00" : {
		"windSpeed" : 5.8,
		"windDir" : 193,
		"rain" : 1,
		"cloudbase" : null,
		"flyability" : 0,
		"reason" : "windSpeed, windDir, rain",
		"timestamp" :1556244000
		},
	"2019-04-26T07:00:00+01:00" : {
		"windSpeed" : 5.1,
		"windDir" : 201,
		"rain" : 1,
		"cloudbase" : 5470.66815,
		"flyability" : 0,
		"reason" : "windSpeed, windDir, rain",
		"timestamp" :1556254800
		},
	"2019-04-26T10:00:00+01:00" : {
		"windSpeed" : 6.1,
		"windDir" : 208,
		"rain" : 0,
		"cloudbase" : null,
		"flyability" : 0,
		"reason" : "windSpeed",
		"timestamp" :1556265600
		},
	"2019-04-26T13:00:00+01:00" : {
		"windSpeed" : 7.7,
		"windDir" : 214,
		"rain" : 1,
		"cloudbase" : null,
		"flyability" : 0,
		"reason" : "windSpeed, rain",
		"timestamp" :1556276400
		},
	"2019-04-26T16:00:00+01:00" : {
		"windSpeed" : 7.5,
		"windDir" : 230,
		"rain" : 1,
		"cloudbase" : 6529.3091,
		"flyability" : 0,
		"reason" : "windSpeed, rain",
		"timestamp" :1556287200
		},
	"2019-04-26T19:00:00+01:00" : {
		"windSpeed" : 7.3,
		"windDir" : 259,
		"rain" : 0,
		"cloudbase" : null,
		"flyability" : 0,
		"reason" : "windSpeed, windDir",
		"timestamp" :1556298000
		},
	"2019-04-26T22:00:00+01:00" : {
		"windSpeed" : 7.9,
		"windDir" : 250,
		"rain" : 0,
		"cloudbase" : 7585.1,
		"flyability" : 0,
		"reason" : "windSpeed, windDir",
		"timestamp" :1556308800
		},
	"2019-04-27T01:00:00+01:00" : {
		"windSpeed" : 7.4,
		"windDir" : 219,
		"rain" : 0,
		"cloudbase" : 972.70272999998,
		"flyability" : 0,
		"reason" : "windSpeed",
		"timestamp" :1556319600
		},
	"2019-04-27T04:00:00+01:00" : {
		"windSpeed" : 12,
		"windDir" : 232,
		"rain" : 1,
		"cloudbase" : null,
		"flyability" : 0,
		"reason" : "windSpeed, rain",
		"timestamp" :1556330400
		},
	"2019-04-27T07:00:00+01:00" : {
		"windSpeed" : 12.5,
		"windDir" : 282,
		"rain" : 1,
		"cloudbase" : 760,
		"flyability" : 0,
		"reason" : "windSpeed, windDir, rain",
		"timestamp" :1556341200
		},
	"2019-04-27T10:00:00+01:00" : {
		"windSpeed" : 12.9,
		"windDir" : 308,
		"rain" : 0,
		"cloudbase" : 718.98364,
		"flyability" : 0,
		"reason" : "windSpeed, windDir",
		"timestamp" :1556352000
		},
	"2019-04-27T13:00:00+01:00" : {
		"windSpeed" : 10.5,
		"windDir" : 307,
		"rain" : 1,
		"cloudbase" : null,
		"flyability" : 0,
		"reason" : "windSpeed, windDir, rain",
		"timestamp" :1556362800
		},
	"2019-04-27T16:00:00+01:00" : {
		"windSpeed" : 9.9,
		"windDir" : 303,
		"rain" : 1,
		"cloudbase" : null,
		"flyability" : 0,
		"reason" : "windSpeed, windDir, rain",
		"timestamp" :1556373600
		},
	"2019-04-27T19:00:00+01:00" : {
		"windSpeed" : 8.4,
		"windDir" : 294,
		"rain" : 1,
		"cloudbase" : null,
		"flyability" : 0,
		"reason" : "windSpeed, windDir, rain",
		"timestamp" :1556384400
		},
	"2019-04-27T22:00:00+01:00" : {
		"windSpeed" : 6.3,
		"windDir" : 282,
		"rain" : 0,
		"cloudbase" : 6789.9818,
		"flyability" : 0,
		"reason" : "windSpeed, windDir",
		"timestamp" :1556395200
		},
	"2019-04-28T01:00:00+01:00" : {
		"windSpeed" : 6.1,
		"windDir" : 274,
		"rain" : 0,
		"cloudbase" : 7000,
		"flyability" : 0,
		"reason" : "windSpeed, windDir",
		"timestamp" :1556406000
		}
	}
}