{
"site" : "gavdos",
"id" : 16528,
"orientations" : "22220222",
"forecasts" : { 
	"2019-04-10T18:00:00+03:00" : {
		"windSpeed" : 8.7,
		"windDir" : 275,
		"rain" : 1,
		"cloudbase" : null,
		"flyability" : 0,
		"reason" : "windSpeed, rain",
		"timestamp" :1554908400
		},
	"2019-04-10T21:00:00+03:00" : {
		"windSpeed" : 7.6,
		"windDir" : 286,
		"rain" : 0,
		"cloudbase" : null,
		"flyability" : 0,
		"reason" : "windSpeed",
		"timestamp" :1554919200
		},
	"2019-04-11T00:00:00+03:00" : {
		"windSpeed" : 7.2,
		"windDir" : 289,
		"rain" : 0,
		"cloudbase" : null,
		"flyability" : 0,
		"reason" : "windSpeed",
		"timestamp" :1554930000
		},
	"2019-04-11T03:00:00+03:00" : {
		"windSpeed" : 6.3,
		"windDir" : 274,
		"rain" : 0,
		"cloudbase" : null,
		"flyability" : 0,
		"reason" : "windSpeed",
		"timestamp" :1554940800
		},
	"2019-04-11T06:00:00+03:00" : {
		"windSpeed" : 4.4,
		"windDir" : 253,
		"rain" : 0,
		"cloudbase" : null,
		"flyability" : 100,
		"reason" : "",
		"timestamp" :1554951600
		},
	"2019-04-11T09:00:00+03:00" : {
		"windSpeed" : 4.5,
		"windDir" : 227,
		"rain" : 0,
		"cloudbase" : null,
		"flyability" : 100,
		"reason" : "",
		"timestamp" :1554962400
		},
	"2019-04-11T12:00:00+03:00" : {
		"windSpeed" : 2.3,
		"windDir" : 191,
		"rain" : 0,
		"cloudbase" : null,
		"flyability" : 0,
		"reason" : "windDir",
		"timestamp" :1554973200
		},
	"2019-04-11T15:00:00+03:00" : {
		"windSpeed" : 3.7,
		"windDir" : 78,
		"rain" : 0,
		"cloudbase" : 8400,
		"flyability" : 100,
		"reason" : "",
		"timestamp" :1554984000
		},
	"2019-04-11T18:00:00+03:00" : {
		"windSpeed" : 4.3,
		"windDir" : 94,
		"rain" : 0,
		"cloudbase" : null,
		"flyability" : 100,
		"reason" : "",
		"timestamp" :1554994800
		},
	"2019-04-11T21:00:00+03:00" : {
		"windSpeed" : 5.5,
		"windDir" : 101,
		"rain" : 0,
		"cloudbase" : null,
		"flyability" : 0,
		"reason" : "windSpeed",
		"timestamp" :1555005600
		},
	"2019-04-12T00:00:00+03:00" : {
		"windSpeed" : 5.1,
		"windDir" : 89,
		"rain" : 1,
		"cloudbase" : 6969.1715,
		"flyability" : 0,
		"reason" : "windSpeed, rain",
		"timestamp" :1555016400
		},
	"2019-04-12T03:00:00+03:00" : {
		"windSpeed" : 5.6,
		"windDir" : 79,
		"rain" : 1,
		"cloudbase" : 5462.8480499999,
		"flyability" : 0,
		"reason" : "windSpeed, rain",
		"timestamp" :1555027200
		},
	"2019-04-12T06:00:00+03:00" : {
		"windSpeed" : 6.4,
		"windDir" : 90,
		"rain" : 0,
		"cloudbase" : 4698.8642499999,
		"flyability" : 0,
		"reason" : "windSpeed",
		"timestamp" :1555038000
		},
	"2019-04-12T09:00:00+03:00" : {
		"windSpeed" : 7.1,
		"windDir" : 113,
		"rain" : 0,
		"cloudbase" : null,
		"flyability" : 0,
		"reason" : "windSpeed",
		"timestamp" :1555048800
		},
	"2019-04-12T12:00:00+03:00" : {
		"windSpeed" : 6.5,
		"windDir" : 111,
		"rain" : 0,
		"cloudbase" : null,
		"flyability" : 0,
		"reason" : "windSpeed",
		"timestamp" :1555059600
		},
	"2019-04-12T15:00:00+03:00" : {
		"windSpeed" : 5.2,
		"windDir" : 122,
		"rain" : 0,
		"cloudbase" : 6333.4058,
		"flyability" : 0,
		"reason" : "windSpeed",
		"timestamp" :1555070400
		},
	"2019-04-12T18:00:00+03:00" : {
		"windSpeed" : 7.9,
		"windDir" : 101,
		"rain" : 1,
		"cloudbase" : null,
		"flyability" : 0,
		"reason" : "windSpeed, rain",
		"timestamp" :1555081200
		},
	"2019-04-12T21:00:00+03:00" : {
		"windSpeed" : 10,
		"windDir" : 103,
		"rain" : 0,
		"cloudbase" : null,
		"flyability" : 0,
		"reason" : "windSpeed",
		"timestamp" :1555092000
		},
	"2019-04-13T00:00:00+03:00" : {
		"windSpeed" : 10.8,
		"windDir" : 110,
		"rain" : 0,
		"cloudbase" : null,
		"flyability" : 0,
		"reason" : "windSpeed",
		"timestamp" :1555102800
		},
	"2019-04-13T03:00:00+03:00" : {
		"windSpeed" : 9,
		"windDir" : 115,
		"rain" : 0,
		"cloudbase" : null,
		"flyability" : 0,
		"reason" : "windSpeed",
		"timestamp" :1555113600
		},
	"2019-04-13T06:00:00+03:00" : {
		"windSpeed" : 8.8,
		"windDir" : 124,
		"rain" : 0,
		"cloudbase" : null,
		"flyability" : 0,
		"reason" : "windSpeed",
		"timestamp" :1555124400
		},
	"2019-04-13T09:00:00+03:00" : {
		"windSpeed" : 6.3,
		"windDir" : 126,
		"rain" : 0,
		"cloudbase" : null,
		"flyability" : 0,
		"reason" : "windSpeed",
		"timestamp" :1555135200
		},
	"2019-04-13T12:00:00+03:00" : {
		"windSpeed" : 1.2,
		"windDir" : 107,
		"rain" : 0,
		"cloudbase" : null,
		"flyability" : 100,
		"reason" : "",
		"timestamp" :1555146000
		},
	"2019-04-13T15:00:00+03:00" : {
		"windSpeed" : 5.5,
		"windDir" : 286,
		"rain" : 0,
		"cloudbase" : null,
		"flyability" : 0,
		"reason" : "windSpeed",
		"timestamp" :1555156800
		},
	"2019-04-13T18:00:00+03:00" : {
		"windSpeed" : 10.5,
		"windDir" : 291,
		"rain" : 1,
		"cloudbase" : null,
		"flyability" : 0,
		"reason" : "windSpeed, rain",
		"timestamp" :1555167600
		},
	"2019-04-13T21:00:00+03:00" : {
		"windSpeed" : 9.7,
		"windDir" : 293,
		"rain" : 0,
		"cloudbase" : null,
		"flyability" : 0,
		"reason" : "windSpeed",
		"timestamp" :1555178400
		},
	"2019-04-14T00:00:00+03:00" : {
		"windSpeed" : 9.6,
		"windDir" : 295,
		"rain" : 0,
		"cloudbase" : null,
		"flyability" : 0,
		"reason" : "windSpeed",
		"timestamp" :1555189200
		},
	"2019-04-14T03:00:00+03:00" : {
		"windSpeed" : 10.1,
		"windDir" : 288,
		"rain" : 0,
		"cloudbase" : null,
		"flyability" : 0,
		"reason" : "windSpeed",
		"timestamp" :1555200000
		},
	"2019-04-14T06:00:00+03:00" : {
		"windSpeed" : 9.7,
		"windDir" : 298,
		"rain" : 0,
		"cloudbase" : null,
		"flyability" : 0,
		"reason" : "windSpeed",
		"timestamp" :1555210800
		},
	"2019-04-14T09:00:00+03:00" : {
		"windSpeed" : 9,
		"windDir" : 275,
		"rain" : 1,
		"cloudbase" : 1750,
		"flyability" : 0,
		"reason" : "windSpeed, rain",
		"timestamp" :1555221600
		},
	"2019-04-14T12:00:00+03:00" : {
		"windSpeed" : 7.7,
		"windDir" : 272,
		"rain" : 1,
		"cloudbase" : null,
		"flyability" : 0,
		"reason" : "windSpeed, rain",
		"timestamp" :1555232400
		},
	"2019-04-14T15:00:00+03:00" : {
		"windSpeed" : 7.7,
		"windDir" : 272,
		"rain" : 0,
		"cloudbase" : 6136.2695500001,
		"flyability" : 0,
		"reason" : "windSpeed",
		"timestamp" :1555243200
		},
	"2019-04-14T18:00:00+03:00" : {
		"windSpeed" : 7.2,
		"windDir" : 274,
		"rain" : 0,
		"cloudbase" : 5461.7,
		"flyability" : 0,
		"reason" : "windSpeed",
		"timestamp" :1555254000
		},
	"2019-04-14T21:00:00+03:00" : {
		"windSpeed" : 6.7,
		"windDir" : 277,
		"rain" : 1,
		"cloudbase" : 4789.3999999999,
		"flyability" : 0,
		"reason" : "windSpeed, rain",
		"timestamp" :1555264800
		},
	"2019-04-15T00:00:00+03:00" : {
		"windSpeed" : 6.7,
		"windDir" : 263,
		"rain" : 1,
		"cloudbase" : 5486.5084500001,
		"flyability" : 0,
		"reason" : "windSpeed, rain",
		"timestamp" :1555275600
		},
	"2019-04-15T03:00:00+03:00" : {
		"windSpeed" : 7.3,
		"windDir" : 275,
		"rain" : 1,
		"cloudbase" : 2790.64855,
		"flyability" : 0,
		"reason" : "windSpeed, rain",
		"timestamp" :1555286400
		},
	"2019-04-15T06:00:00+03:00" : {
		"windSpeed" : 6.5,
		"windDir" : 289,
		"rain" : 1,
		"cloudbase" : 6600,
		"flyability" : 0,
		"reason" : "windSpeed, rain",
		"timestamp" :1555297200
		},
	"2019-04-15T09:00:00+03:00" : {
		"windSpeed" : 5.7,
		"windDir" : 275,
		"rain" : 1,
		"cloudbase" : null,
		"flyability" : 0,
		"reason" : "windSpeed, rain",
		"timestamp" :1555308000
		},
	"2019-04-15T12:00:00+03:00" : {
		"windSpeed" : 6.6,
		"windDir" : 259,
		"rain" : 1,
		"cloudbase" : null,
		"flyability" : 0,
		"reason" : "windSpeed, rain",
		"timestamp" :1555318800
		},
	"2019-04-15T15:00:00+03:00" : {
		"windSpeed" : 7.5,
		"windDir" : 264,
		"rain" : 0,
		"cloudbase" : null,
		"flyability" : 0,
		"reason" : "windSpeed",
		"timestamp" :1555329600
		},
	"2019-04-15T18:00:00+03:00" : {
		"windSpeed" : 6.2,
		"windDir" : 255,
		"rain" : 0,
		"cloudbase" : 3800,
		"flyability" : 0,
		"reason" : "windSpeed",
		"timestamp" :1555340400
		},
	"2019-04-15T21:00:00+03:00" : {
		"windSpeed" : 5.5,
		"windDir" : 245,
		"rain" : 1,
		"cloudbase" : 3642.20725,
		"flyability" : 0,
		"reason" : "windSpeed, rain",
		"timestamp" :1555351200
		},
	"2019-04-16T00:00:00+03:00" : {
		"windSpeed" : 2.5,
		"windDir" : 223,
		"rain" : 1,
		"cloudbase" : 1912.9242800003,
		"flyability" : 0,
		"reason" : "rain",
		"timestamp" :1555362000
		},
	"2019-04-16T03:00:00+03:00" : {
		"windSpeed" : 7.5,
		"windDir" : 304,
		"rain" : 0,
		"cloudbase" : null,
		"flyability" : 0,
		"reason" : "windSpeed",
		"timestamp" :1555372800
		},
	"2019-04-16T06:00:00+03:00" : {
		"windSpeed" : 7.2,
		"windDir" : 302,
		"rain" : 1,
		"cloudbase" : null,
		"flyability" : 0,
		"reason" : "windSpeed, rain",
		"timestamp" :1555383600
		},
	"2019-04-16T09:00:00+03:00" : {
		"windSpeed" : 5.7,
		"windDir" : 70,
		"rain" : 0,
		"cloudbase" : null,
		"flyability" : 0,
		"reason" : "windSpeed",
		"timestamp" :1555394400
		},
	"2019-04-16T12:00:00+03:00" : {
		"windSpeed" : 3.4,
		"windDir" : 265,
		"rain" : 0,
		"cloudbase" : null,
		"flyability" : 100,
		"reason" : "",
		"timestamp" :1555405200
		},
	"2019-04-16T15:00:00+03:00" : {
		"windSpeed" : 2.4,
		"windDir" : 263,
		"rain" : 0,
		"cloudbase" : null,
		"flyability" : 100,
		"reason" : "",
		"timestamp" :1555416000
		}
	}
}