{
"site" : "Flugplatz Alsfeld",
"id" : 16662,
"orientations" : "00000000",
"forecasts" : { 
	"2019-04-22T05:00:00+02:00" : {
		"windSpeed" : 3.5,
		"windDir" : 94,
		"rain" : 0,
		"cloudbase" : null,
		"flyability" : -50,
		"reason" : "orientationsUnknown",
		"timestamp" :1555905600
		},
	"2019-04-22T08:00:00+02:00" : {
		"windSpeed" : 4,
		"windDir" : 93,
		"rain" : 0,
		"cloudbase" : null,
		"flyability" : -50,
		"reason" : "orientationsUnknown",
		"timestamp" :1555916400
		},
	"2019-04-22T11:00:00+02:00" : {
		"windSpeed" : 4,
		"windDir" : 83,
		"rain" : 0,
		"cloudbase" : null,
		"flyability" : -50,
		"reason" : "orientationsUnknown",
		"timestamp" :1555927200
		},
	"2019-04-22T14:00:00+02:00" : {
		"windSpeed" : 5.8,
		"windDir" : 90,
		"rain" : 0,
		"cloudbase" : 9902.52612,
		"flyability" : -0,
		"reason" : "windSpeed, orientationsUnknown",
		"timestamp" :1555938000
		},
	"2019-04-22T17:00:00+02:00" : {
		"windSpeed" : 6.1,
		"windDir" : 81,
		"rain" : 0,
		"cloudbase" : 9349.65388,
		"flyability" : -0,
		"reason" : "windSpeed, orientationsUnknown",
		"timestamp" :1555948800
		},
	"2019-04-22T20:00:00+02:00" : {
		"windSpeed" : 6.7,
		"windDir" : 77,
		"rain" : 0,
		"cloudbase" : 10000,
		"flyability" : -0,
		"reason" : "windSpeed, orientationsUnknown",
		"timestamp" :1555959600
		},
	"2019-04-22T23:00:00+02:00" : {
		"windSpeed" : 6.5,
		"windDir" : 86,
		"rain" : 0,
		"cloudbase" : 9179.4261199999,
		"flyability" : -0,
		"reason" : "windSpeed, orientationsUnknown",
		"timestamp" :1555970400
		},
	"2019-04-23T02:00:00+02:00" : {
		"windSpeed" : 5.3,
		"windDir" : 85,
		"rain" : 0,
		"cloudbase" : 9660.45388,
		"flyability" : -0,
		"reason" : "windSpeed, orientationsUnknown",
		"timestamp" :1555981200
		},
	"2019-04-23T05:00:00+02:00" : {
		"windSpeed" : 5.6,
		"windDir" : 80,
		"rain" : 0,
		"cloudbase" : 9799.30776,
		"flyability" : -0,
		"reason" : "windSpeed, orientationsUnknown",
		"timestamp" :1555992000
		},
	"2019-04-23T08:00:00+02:00" : {
		"windSpeed" : 5.6,
		"windDir" : 80,
		"rain" : 0,
		"cloudbase" : null,
		"flyability" : -0,
		"reason" : "windSpeed, orientationsUnknown",
		"timestamp" :1556002800
		},
	"2019-04-23T11:00:00+02:00" : {
		"windSpeed" : 6.5,
		"windDir" : 94,
		"rain" : 0,
		"cloudbase" : null,
		"flyability" : -0,
		"reason" : "windSpeed, orientationsUnknown",
		"timestamp" :1556013600
		},
	"2019-04-23T14:00:00+02:00" : {
		"windSpeed" : 6.2,
		"windDir" : 104,
		"rain" : 0,
		"cloudbase" : null,
		"flyability" : -0,
		"reason" : "windSpeed, orientationsUnknown",
		"timestamp" :1556024400
		},
	"2019-04-23T17:00:00+02:00" : {
		"windSpeed" : 5.4,
		"windDir" : 118,
		"rain" : 0,
		"cloudbase" : null,
		"flyability" : -0,
		"reason" : "windSpeed, orientationsUnknown",
		"timestamp" :1556035200
		},
	"2019-04-23T20:00:00+02:00" : {
		"windSpeed" : 3.8,
		"windDir" : 94,
		"rain" : 0,
		"cloudbase" : null,
		"flyability" : -50,
		"reason" : "orientationsUnknown",
		"timestamp" :1556046000
		},
	"2019-04-23T23:00:00+02:00" : {
		"windSpeed" : 5.3,
		"windDir" : 127,
		"rain" : 0,
		"cloudbase" : null,
		"flyability" : -0,
		"reason" : "windSpeed, orientationsUnknown",
		"timestamp" :1556056800
		},
	"2019-04-24T02:00:00+02:00" : {
		"windSpeed" : 4.8,
		"windDir" : 124,
		"rain" : 0,
		"cloudbase" : null,
		"flyability" : -50,
		"reason" : "orientationsUnknown",
		"timestamp" :1556067600
		},
	"2019-04-24T05:00:00+02:00" : {
		"windSpeed" : 2.7,
		"windDir" : 123,
		"rain" : 0,
		"cloudbase" : 2921.94612,
		"flyability" : -50,
		"reason" : "orientationsUnknown",
		"timestamp" :1556078400
		},
	"2019-04-24T08:00:00+02:00" : {
		"windSpeed" : 2.5,
		"windDir" : 142,
		"rain" : 0,
		"cloudbase" : null,
		"flyability" : -50,
		"reason" : "orientationsUnknown",
		"timestamp" :1556089200
		},
	"2019-04-24T11:00:00+02:00" : {
		"windSpeed" : 2.9,
		"windDir" : 195,
		"rain" : 0,
		"cloudbase" : null,
		"flyability" : -50,
		"reason" : "orientationsUnknown",
		"timestamp" :1556100000
		},
	"2019-04-24T14:00:00+02:00" : {
		"windSpeed" : 4.1,
		"windDir" : 223,
		"rain" : 0,
		"cloudbase" : 8821.96164,
		"flyability" : -50,
		"reason" : "orientationsUnknown",
		"timestamp" :1556110800
		},
	"2019-04-24T17:00:00+02:00" : {
		"windSpeed" : 2.1,
		"windDir" : 126,
		"rain" : 0,
		"cloudbase" : null,
		"flyability" : -50,
		"reason" : "orientationsUnknown",
		"timestamp" :1556121600
		},
	"2019-04-24T20:00:00+02:00" : {
		"windSpeed" : 1.8,
		"windDir" : 106,
		"rain" : 0,
		"cloudbase" : 8500,
		"flyability" : -50,
		"reason" : "orientationsUnknown",
		"timestamp" :1556132400
		},
	"2019-04-24T23:00:00+02:00" : {
		"windSpeed" : 3.3,
		"windDir" : 99,
		"rain" : 0,
		"cloudbase" : 7916.2,
		"flyability" : -50,
		"reason" : "orientationsUnknown",
		"timestamp" :1556143200
		},
	"2019-04-25T02:00:00+02:00" : {
		"windSpeed" : 6,
		"windDir" : 255,
		"rain" : 0,
		"cloudbase" : null,
		"flyability" : -0,
		"reason" : "windSpeed, orientationsUnknown",
		"timestamp" :1556154000
		},
	"2019-04-25T05:00:00+02:00" : {
		"windSpeed" : 3.3,
		"windDir" : 228,
		"rain" : 0,
		"cloudbase" : 5046.78,
		"flyability" : -50,
		"reason" : "orientationsUnknown",
		"timestamp" :1556164800
		},
	"2019-04-25T08:00:00+02:00" : {
		"windSpeed" : 2.6,
		"windDir" : 169,
		"rain" : 1,
		"cloudbase" : 5720.12776,
		"flyability" : -0,
		"reason" : "orientationsUnknown, rain",
		"timestamp" :1556175600
		},
	"2019-04-25T11:00:00+02:00" : {
		"windSpeed" : 1.1,
		"windDir" : 195,
		"rain" : 0,
		"cloudbase" : null,
		"flyability" : -50,
		"reason" : "orientationsUnknown",
		"timestamp" :1556186400
		},
	"2019-04-25T14:00:00+02:00" : {
		"windSpeed" : 3.8,
		"windDir" : 157,
		"rain" : 0,
		"cloudbase" : null,
		"flyability" : -50,
		"reason" : "orientationsUnknown",
		"timestamp" :1556197200
		},
	"2019-04-25T17:00:00+02:00" : {
		"windSpeed" : 3,
		"windDir" : 138,
		"rain" : 0,
		"cloudbase" : null,
		"flyability" : -50,
		"reason" : "orientationsUnknown",
		"timestamp" :1556208000
		},
	"2019-04-25T20:00:00+02:00" : {
		"windSpeed" : 2.1,
		"windDir" : 76,
		"rain" : 0,
		"cloudbase" : null,
		"flyability" : -50,
		"reason" : "orientationsUnknown",
		"timestamp" :1556218800
		},
	"2019-04-25T23:00:00+02:00" : {
		"windSpeed" : 3,
		"windDir" : 90,
		"rain" : 0,
		"cloudbase" : null,
		"flyability" : -50,
		"reason" : "orientationsUnknown",
		"timestamp" :1556229600
		},
	"2019-04-26T02:00:00+02:00" : {
		"windSpeed" : 3.4,
		"windDir" : 106,
		"rain" : 0,
		"cloudbase" : 8500,
		"flyability" : -50,
		"reason" : "orientationsUnknown",
		"timestamp" :1556240400
		},
	"2019-04-26T05:00:00+02:00" : {
		"windSpeed" : 4.5,
		"windDir" : 261,
		"rain" : 0,
		"cloudbase" : 7900,
		"flyability" : -50,
		"reason" : "orientationsUnknown",
		"timestamp" :1556251200
		},
	"2019-04-26T08:00:00+02:00" : {
		"windSpeed" : 4.7,
		"windDir" : 252,
		"rain" : 0,
		"cloudbase" : 833.99077600002,
		"flyability" : -50,
		"reason" : "orientationsUnknown",
		"timestamp" :1556262000
		},
	"2019-04-26T11:00:00+02:00" : {
		"windSpeed" : 4.3,
		"windDir" : 277,
		"rain" : 0,
		"cloudbase" : 881.44677600001,
		"flyability" : -50,
		"reason" : "orientationsUnknown",
		"timestamp" :1556272800
		},
	"2019-04-26T14:00:00+02:00" : {
		"windSpeed" : 4.3,
		"windDir" : 270,
		"rain" : 1,
		"cloudbase" : 1366.72694,
		"flyability" : -0,
		"reason" : "orientationsUnknown, rain",
		"timestamp" :1556283600
		},
	"2019-04-26T17:00:00+02:00" : {
		"windSpeed" : 3.8,
		"windDir" : 270,
		"rain" : 0,
		"cloudbase" : 1631.31776,
		"flyability" : -50,
		"reason" : "orientationsUnknown",
		"timestamp" :1556294400
		},
	"2019-04-26T20:00:00+02:00" : {
		"windSpeed" : 3.6,
		"windDir" : 262,
		"rain" : 1,
		"cloudbase" : 1984.2563400001,
		"flyability" : -0,
		"reason" : "orientationsUnknown, rain",
		"timestamp" :1556305200
		},
	"2019-04-26T23:00:00+02:00" : {
		"windSpeed" : 3.2,
		"windDir" : 209,
		"rain" : 1,
		"cloudbase" : 3584.19694,
		"flyability" : -0,
		"reason" : "orientationsUnknown, rain",
		"timestamp" :1556316000
		},
	"2019-04-27T02:00:00+02:00" : {
		"windSpeed" : 3,
		"windDir" : 221,
		"rain" : 0,
		"cloudbase" : 4118.73306,
		"flyability" : -50,
		"reason" : "orientationsUnknown",
		"timestamp" :1556326800
		},
	"2019-04-27T05:00:00+02:00" : {
		"windSpeed" : 2.7,
		"windDir" : 214,
		"rain" : 0,
		"cloudbase" : 4489.59694,
		"flyability" : -50,
		"reason" : "orientationsUnknown",
		"timestamp" :1556337600
		},
	"2019-04-27T08:00:00+02:00" : {
		"windSpeed" : 3.5,
		"windDir" : 210,
		"rain" : 0,
		"cloudbase" : 5664.71224,
		"flyability" : -50,
		"reason" : "orientationsUnknown",
		"timestamp" :1556348400
		},
	"2019-04-27T11:00:00+02:00" : {
		"windSpeed" : 4.2,
		"windDir" : 208,
		"rain" : 1,
		"cloudbase" : 4925.3510400004,
		"flyability" : -0,
		"reason" : "orientationsUnknown, rain",
		"timestamp" :1556359200
		},
	"2019-04-27T14:00:00+02:00" : {
		"windSpeed" : 5.9,
		"windDir" : 207,
		"rain" : 1,
		"cloudbase" : 4340.9923000003,
		"flyability" : -0,
		"reason" : "windSpeed, orientationsUnknown, rain",
		"timestamp" :1556370000
		},
	"2019-04-27T17:00:00+02:00" : {
		"windSpeed" : 6,
		"windDir" : 228,
		"rain" : 0,
		"cloudbase" : 2157.00918,
		"flyability" : -0,
		"reason" : "windSpeed, orientationsUnknown",
		"timestamp" :1556380800
		},
	"2019-04-27T20:00:00+02:00" : {
		"windSpeed" : 4.7,
		"windDir" : 196,
		"rain" : 1,
		"cloudbase" : null,
		"flyability" : -0,
		"reason" : "orientationsUnknown, rain",
		"timestamp" :1556391600
		},
	"2019-04-27T23:00:00+02:00" : {
		"windSpeed" : 4.3,
		"windDir" : 200,
		"rain" : 1,
		"cloudbase" : null,
		"flyability" : -0,
		"reason" : "orientationsUnknown, rain",
		"timestamp" :1556402400
		},
	"2019-04-28T02:00:00+02:00" : {
		"windSpeed" : 3.7,
		"windDir" : 196,
		"rain" : 0,
		"cloudbase" : 612.665552,
		"flyability" : -50,
		"reason" : "orientationsUnknown",
		"timestamp" :1556413200
		}
	}
}