{
"site" : "Movila lui Burcel",
"id" : 16750,
"orientations" : "00000210",
"forecasts" : { 
	"2019-04-17T06:00:00+03:00" : {
		"windSpeed" : 2.7,
		"windDir" : 326,
		"rain" : 1,
		"cloudbase" : 104.054,
		"flyability" : 0,
		"reason" : "windDir, rain, cloudbase",
		"timestamp" :1555470000
		},
	"2019-04-17T09:00:00+03:00" : {
		"windSpeed" : 3.4,
		"windDir" : 30,
		"rain" : 1,
		"cloudbase" : 170.752,
		"flyability" : 0,
		"reason" : "windDir, rain, cloudbase",
		"timestamp" :1555480800
		},
	"2019-04-17T12:00:00+03:00" : {
		"windSpeed" : 3.2,
		"windDir" : 39,
		"rain" : 1,
		"cloudbase" : 601.92600000001,
		"flyability" : 0,
		"reason" : "windDir, rain",
		"timestamp" :1555491600
		},
	"2019-04-17T15:00:00+03:00" : {
		"windSpeed" : 3,
		"windDir" : 42,
		"rain" : 1,
		"cloudbase" : 784.69199999998,
		"flyability" : 0,
		"reason" : "windDir, rain",
		"timestamp" :1555502400
		},
	"2019-04-17T18:00:00+03:00" : {
		"windSpeed" : 2.5,
		"windDir" : 37,
		"rain" : 1,
		"cloudbase" : 921.45399999999,
		"flyability" : 0,
		"reason" : "windDir, rain",
		"timestamp" :1555513200
		},
	"2019-04-17T21:00:00+03:00" : {
		"windSpeed" : 1.8,
		"windDir" : 352,
		"rain" : 0,
		"cloudbase" : 1550,
		"flyability" : 0,
		"reason" : "windDir",
		"timestamp" :1555524000
		},
	"2019-04-18T00:00:00+03:00" : {
		"windSpeed" : 2.6,
		"windDir" : 331,
		"rain" : 0,
		"cloudbase" : 1452.5,
		"flyability" : 0,
		"reason" : "windDir",
		"timestamp" :1555534800
		},
	"2019-04-18T03:00:00+03:00" : {
		"windSpeed" : 3.2,
		"windDir" : 38,
		"rain" : 1,
		"cloudbase" : 227.16,
		"flyability" : 0,
		"reason" : "windDir, rain, cloudbase",
		"timestamp" :1555545600
		},
	"2019-04-18T06:00:00+03:00" : {
		"windSpeed" : 3.5,
		"windDir" : 45,
		"rain" : 1,
		"cloudbase" : 276.772,
		"flyability" : 0,
		"reason" : "windDir, rain",
		"timestamp" :1555556400
		},
	"2019-04-18T09:00:00+03:00" : {
		"windSpeed" : 3.6,
		"windDir" : 51,
		"rain" : 1,
		"cloudbase" : 460.37599999995,
		"flyability" : 0,
		"reason" : "windDir, rain",
		"timestamp" :1555567200
		},
	"2019-04-18T12:00:00+03:00" : {
		"windSpeed" : 2.6,
		"windDir" : 30,
		"rain" : 1,
		"cloudbase" : 2446.4599999993,
		"flyability" : 0,
		"reason" : "windDir, rain",
		"timestamp" :1555578000
		},
	"2019-04-18T15:00:00+03:00" : {
		"windSpeed" : 5,
		"windDir" : 18,
		"rain" : 1,
		"cloudbase" : 1450,
		"flyability" : 0,
		"reason" : "windDir, rain",
		"timestamp" :1555588800
		},
	"2019-04-18T18:00:00+03:00" : {
		"windSpeed" : 3,
		"windDir" : 20,
		"rain" : 0,
		"cloudbase" : 1897.52,
		"flyability" : 0,
		"reason" : "windDir",
		"timestamp" :1555599600
		},
	"2019-04-18T21:00:00+03:00" : {
		"windSpeed" : 2,
		"windDir" : 29,
		"rain" : 0,
		"cloudbase" : 8757.52,
		"flyability" : 0,
		"reason" : "windDir",
		"timestamp" :1555610400
		},
	"2019-04-19T00:00:00+03:00" : {
		"windSpeed" : 2,
		"windDir" : 360,
		"rain" : 0,
		"cloudbase" : 5654.46,
		"flyability" : 0,
		"reason" : "windDir",
		"timestamp" :1555621200
		},
	"2019-04-19T03:00:00+03:00" : {
		"windSpeed" : 2.3,
		"windDir" : 328,
		"rain" : 0,
		"cloudbase" : null,
		"flyability" : 0,
		"reason" : "windDir",
		"timestamp" :1555632000
		},
	"2019-04-19T06:00:00+03:00" : {
		"windSpeed" : 3.5,
		"windDir" : 321,
		"rain" : 0,
		"cloudbase" : null,
		"flyability" : 0,
		"reason" : "windDir",
		"timestamp" :1555642800
		},
	"2019-04-19T09:00:00+03:00" : {
		"windSpeed" : 4.6,
		"windDir" : 345,
		"rain" : 0,
		"cloudbase" : 2398.5799999999,
		"flyability" : 0,
		"reason" : "windDir",
		"timestamp" :1555653600
		},
	"2019-04-19T12:00:00+03:00" : {
		"windSpeed" : 4,
		"windDir" : 0,
		"rain" : 1,
		"cloudbase" : 1850,
		"flyability" : 0,
		"reason" : "windDir, rain",
		"timestamp" :1555664400
		},
	"2019-04-19T15:00:00+03:00" : {
		"windSpeed" : 3.6,
		"windDir" : 25,
		"rain" : 1,
		"cloudbase" : null,
		"flyability" : 0,
		"reason" : "windDir, rain",
		"timestamp" :1555675200
		},
	"2019-04-19T18:00:00+03:00" : {
		"windSpeed" : 2.5,
		"windDir" : 11,
		"rain" : 1,
		"cloudbase" : 2400,
		"flyability" : 0,
		"reason" : "windDir, rain",
		"timestamp" :1555686000
		},
	"2019-04-19T21:00:00+03:00" : {
		"windSpeed" : 2.7,
		"windDir" : 360,
		"rain" : 1,
		"cloudbase" : null,
		"flyability" : 0,
		"reason" : "windDir, rain",
		"timestamp" :1555696800
		},
	"2019-04-20T00:00:00+03:00" : {
		"windSpeed" : 3.3,
		"windDir" : 9,
		"rain" : 0,
		"cloudbase" : null,
		"flyability" : 0,
		"reason" : "windDir",
		"timestamp" :1555707600
		},
	"2019-04-20T03:00:00+03:00" : {
		"windSpeed" : 2.5,
		"windDir" : 5,
		"rain" : 0,
		"cloudbase" : null,
		"flyability" : 0,
		"reason" : "windDir",
		"timestamp" :1555718400
		},
	"2019-04-20T06:00:00+03:00" : {
		"windSpeed" : 3,
		"windDir" : 4,
		"rain" : 0,
		"cloudbase" : null,
		"flyability" : 0,
		"reason" : "windDir",
		"timestamp" :1555729200
		},
	"2019-04-20T09:00:00+03:00" : {
		"windSpeed" : 3.6,
		"windDir" : 12,
		"rain" : 0,
		"cloudbase" : null,
		"flyability" : 0,
		"reason" : "windDir",
		"timestamp" :1555740000
		},
	"2019-04-20T12:00:00+03:00" : {
		"windSpeed" : 4.5,
		"windDir" : 27,
		"rain" : 0,
		"cloudbase" : 1825.97,
		"flyability" : 0,
		"reason" : "windDir",
		"timestamp" :1555750800
		},
	"2019-04-20T15:00:00+03:00" : {
		"windSpeed" : 4.1,
		"windDir" : 14,
		"rain" : 0,
		"cloudbase" : 1902.79,
		"flyability" : 0,
		"reason" : "windDir",
		"timestamp" :1555761600
		},
	"2019-04-20T18:00:00+03:00" : {
		"windSpeed" : 3.5,
		"windDir" : 1,
		"rain" : 0,
		"cloudbase" : 2096.53,
		"flyability" : 0,
		"reason" : "windDir",
		"timestamp" :1555772400
		},
	"2019-04-20T21:00:00+03:00" : {
		"windSpeed" : 2.2,
		"windDir" : 333,
		"rain" : 0,
		"cloudbase" : 2297.86,
		"flyability" : 0,
		"reason" : "windDir",
		"timestamp" :1555783200
		},
	"2019-04-21T00:00:00+03:00" : {
		"windSpeed" : 2.1,
		"windDir" : 346,
		"rain" : 0,
		"cloudbase" : 2255,
		"flyability" : 0,
		"reason" : "windDir",
		"timestamp" :1555794000
		},
	"2019-04-21T03:00:00+03:00" : {
		"windSpeed" : 1.9,
		"windDir" : 337,
		"rain" : 0,
		"cloudbase" : 5304.42,
		"flyability" : 0,
		"reason" : "windDir",
		"timestamp" :1555804800
		},
	"2019-04-21T06:00:00+03:00" : {
		"windSpeed" : 1.6,
		"windDir" : 340,
		"rain" : 0,
		"cloudbase" : 4213.5599999999,
		"flyability" : 0,
		"reason" : "windDir",
		"timestamp" :1555815600
		},
	"2019-04-21T09:00:00+03:00" : {
		"windSpeed" : 0.5,
		"windDir" : 360,
		"rain" : 0,
		"cloudbase" : 2207.45,
		"flyability" : 0,
		"reason" : "windDir",
		"timestamp" :1555826400
		},
	"2019-04-21T12:00:00+03:00" : {
		"windSpeed" : 1.2,
		"windDir" : 349,
		"rain" : 1,
		"cloudbase" : 1606.53,
		"flyability" : 0,
		"reason" : "windDir, rain",
		"timestamp" :1555837200
		},
	"2019-04-21T15:00:00+03:00" : {
		"windSpeed" : 1,
		"windDir" : 286,
		"rain" : 0,
		"cloudbase" : 1558.67,
		"flyability" : 100,
		"reason" : "",
		"timestamp" :1555848000
		},
	"2019-04-21T18:00:00+03:00" : {
		"windSpeed" : 0.5,
		"windDir" : 4,
		"rain" : 1,
		"cloudbase" : 3278.4100000002,
		"flyability" : 0,
		"reason" : "windDir, rain",
		"timestamp" :1555858800
		},
	"2019-04-21T21:00:00+03:00" : {
		"windSpeed" : 1.3,
		"windDir" : 144,
		"rain" : 0,
		"cloudbase" : 1923.76,
		"flyability" : 0,
		"reason" : "windDir",
		"timestamp" :1555869600
		},
	"2019-04-22T00:00:00+03:00" : {
		"windSpeed" : 2,
		"windDir" : 150,
		"rain" : 1,
		"cloudbase" : 7493.88,
		"flyability" : 0,
		"reason" : "windDir, rain",
		"timestamp" :1555880400
		},
	"2019-04-22T03:00:00+03:00" : {
		"windSpeed" : 1.7,
		"windDir" : 153,
		"rain" : 0,
		"cloudbase" : null,
		"flyability" : 0,
		"reason" : "windDir",
		"timestamp" :1555891200
		},
	"2019-04-22T06:00:00+03:00" : {
		"windSpeed" : 2,
		"windDir" : 95,
		"rain" : 0,
		"cloudbase" : null,
		"flyability" : 0,
		"reason" : "windDir",
		"timestamp" :1555902000
		},
	"2019-04-22T09:00:00+03:00" : {
		"windSpeed" : 2,
		"windDir" : 90,
		"rain" : 0,
		"cloudbase" : null,
		"flyability" : 0,
		"reason" : "windDir",
		"timestamp" :1555912800
		},
	"2019-04-22T12:00:00+03:00" : {
		"windSpeed" : 3.1,
		"windDir" : 125,
		"rain" : 0,
		"cloudbase" : 1850,
		"flyability" : 0,
		"reason" : "windDir",
		"timestamp" :1555923600
		},
	"2019-04-22T15:00:00+03:00" : {
		"windSpeed" : 2.7,
		"windDir" : 124,
		"rain" : 0,
		"cloudbase" : 1850,
		"flyability" : 0,
		"reason" : "windDir",
		"timestamp" :1555934400
		},
	"2019-04-22T18:00:00+03:00" : {
		"windSpeed" : 2,
		"windDir" : 90,
		"rain" : 1,
		"cloudbase" : 1820.7,
		"flyability" : 0,
		"reason" : "windDir, rain",
		"timestamp" :1555945200
		},
	"2019-04-22T21:00:00+03:00" : {
		"windSpeed" : 2.3,
		"windDir" : 140,
		"rain" : 0,
		"cloudbase" : 2550,
		"flyability" : 0,
		"reason" : "windDir",
		"timestamp" :1555956000
		},
	"2019-04-23T00:00:00+03:00" : {
		"windSpeed" : 1.6,
		"windDir" : 114,
		"rain" : 0,
		"cloudbase" : 2522.91,
		"flyability" : 0,
		"reason" : "windDir",
		"timestamp" :1555966800
		},
	"2019-04-23T03:00:00+03:00" : {
		"windSpeed" : 2.1,
		"windDir" : 103,
		"rain" : 0,
		"cloudbase" : null,
		"flyability" : 0,
		"reason" : "windDir",
		"timestamp" :1555977600
		}
	}
}