{
"site" : "Monte Veneretta",
"id" : 16926,
"orientations" : "01222200",
"forecasts" : { 
	"2019-04-20T17:00:00+02:00" : {
		"windSpeed" : 1.5,
		"windDir" : 182,
		"rain" : 0,
		"cloudbase" : 6136.9983999998,
		"flyability" : 100,
		"reason" : "",
		"timestamp" :1555776000
		},
	"2019-04-20T20:00:00+02:00" : {
		"windSpeed" : 0.2,
		"windDir" : 247,
		"rain" : 0,
		"cloudbase" : 5898.7999999998,
		"flyability" : 100,
		"reason" : "",
		"timestamp" :1555786800
		},
	"2019-04-20T23:00:00+02:00" : {
		"windSpeed" : 1.4,
		"windDir" : 218,
		"rain" : 1,
		"cloudbase" : 7573.4528,
		"flyability" : 0,
		"reason" : "rain",
		"timestamp" :1555797600
		},
	"2019-04-21T02:00:00+02:00" : {
		"windSpeed" : 1.4,
		"windDir" : 191,
		"rain" : 0,
		"cloudbase" : 6481.8975999996,
		"flyability" : 100,
		"reason" : "",
		"timestamp" :1555808400
		},
	"2019-04-21T05:00:00+02:00" : {
		"windSpeed" : 1.2,
		"windDir" : 91,
		"rain" : 1,
		"cloudbase" : 6822.6527999995,
		"flyability" : 0,
		"reason" : "rain",
		"timestamp" :1555819200
		},
	"2019-04-21T08:00:00+02:00" : {
		"windSpeed" : 3.2,
		"windDir" : 135,
		"rain" : 1,
		"cloudbase" : 8021.3503999999,
		"flyability" : 0,
		"reason" : "rain",
		"timestamp" :1555830000
		},
	"2019-04-21T11:00:00+02:00" : {
		"windSpeed" : 4.9,
		"windDir" : 139,
		"rain" : 0,
		"cloudbase" : 5053.7503999999,
		"flyability" : 100,
		"reason" : "",
		"timestamp" :1555840800
		},
	"2019-04-21T14:00:00+02:00" : {
		"windSpeed" : 5.7,
		"windDir" : 138,
		"rain" : 0,
		"cloudbase" : 4287.5103999993,
		"flyability" : 0,
		"reason" : "windSpeed",
		"timestamp" :1555851600
		},
	"2019-04-21T17:00:00+02:00" : {
		"windSpeed" : 5.4,
		"windDir" : 138,
		"rain" : 1,
		"cloudbase" : 3434.3279999988,
		"flyability" : 0,
		"reason" : "windSpeed, rain",
		"timestamp" :1555862400
		},
	"2019-04-21T20:00:00+02:00" : {
		"windSpeed" : 3.9,
		"windDir" : 137,
		"rain" : 1,
		"cloudbase" : 5294.3312000004,
		"flyability" : 0,
		"reason" : "rain",
		"timestamp" :1555873200
		},
	"2019-04-21T23:00:00+02:00" : {
		"windSpeed" : 4,
		"windDir" : 135,
		"rain" : 1,
		"cloudbase" : 7440,
		"flyability" : 0,
		"reason" : "rain",
		"timestamp" :1555884000
		},
	"2019-04-22T02:00:00+02:00" : {
		"windSpeed" : 4.3,
		"windDir" : 131,
		"rain" : 1,
		"cloudbase" : 11602.752,
		"flyability" : 0,
		"reason" : "rain",
		"timestamp" :1555894800
		},
	"2019-04-22T05:00:00+02:00" : {
		"windSpeed" : 4.7,
		"windDir" : 129,
		"rain" : 1,
		"cloudbase" : null,
		"flyability" : 0,
		"reason" : "rain",
		"timestamp" :1555905600
		},
	"2019-04-22T08:00:00+02:00" : {
		"windSpeed" : 5.8,
		"windDir" : 132,
		"rain" : 1,
		"cloudbase" : 3414.7663999993,
		"flyability" : 0,
		"reason" : "windSpeed, rain",
		"timestamp" :1555916400
		},
	"2019-04-22T11:00:00+02:00" : {
		"windSpeed" : 5.6,
		"windDir" : 128,
		"rain" : 1,
		"cloudbase" : 1659.3507199995,
		"flyability" : 0,
		"reason" : "windSpeed, rain",
		"timestamp" :1555927200
		},
	"2019-04-22T14:00:00+02:00" : {
		"windSpeed" : 5.6,
		"windDir" : 135,
		"rain" : 1,
		"cloudbase" : 2122.1820799998,
		"flyability" : 0,
		"reason" : "windSpeed, rain",
		"timestamp" :1555938000
		},
	"2019-04-22T17:00:00+02:00" : {
		"windSpeed" : 4.4,
		"windDir" : 122,
		"rain" : 1,
		"cloudbase" : 2200,
		"flyability" : 0,
		"reason" : "rain",
		"timestamp" :1555948800
		},
	"2019-04-22T20:00:00+02:00" : {
		"windSpeed" : 4.9,
		"windDir" : 105,
		"rain" : 1,
		"cloudbase" : null,
		"flyability" : 0,
		"reason" : "rain",
		"timestamp" :1555959600
		},
	"2019-04-22T23:00:00+02:00" : {
		"windSpeed" : 6.6,
		"windDir" : 112,
		"rain" : 1,
		"cloudbase" : 744.67615999984,
		"flyability" : 0,
		"reason" : "windSpeed, rain, cloudbase",
		"timestamp" :1555970400
		},
	"2019-04-23T02:00:00+02:00" : {
		"windSpeed" : 5.4,
		"windDir" : 105,
		"rain" : 1,
		"cloudbase" : 820,
		"flyability" : 0,
		"reason" : "windSpeed, rain",
		"timestamp" :1555981200
		},
	"2019-04-23T05:00:00+02:00" : {
		"windSpeed" : 3.9,
		"windDir" : 90,
		"rain" : 1,
		"cloudbase" : null,
		"flyability" : 0,
		"reason" : "rain",
		"timestamp" :1555992000
		},
	"2019-04-23T08:00:00+02:00" : {
		"windSpeed" : 2.4,
		"windDir" : 98,
		"rain" : 1,
		"cloudbase" : null,
		"flyability" : 0,
		"reason" : "rain",
		"timestamp" :1556002800
		},
	"2019-04-23T11:00:00+02:00" : {
		"windSpeed" : 1.1,
		"windDir" : 108,
		"rain" : 1,
		"cloudbase" : 8385.3375999982,
		"flyability" : 0,
		"reason" : "rain",
		"timestamp" :1556013600
		},
	"2019-04-23T14:00:00+02:00" : {
		"windSpeed" : 1.9,
		"windDir" : 100,
		"rain" : 0,
		"cloudbase" : null,
		"flyability" : 100,
		"reason" : "",
		"timestamp" :1556024400
		},
	"2019-04-23T17:00:00+02:00" : {
		"windSpeed" : 1.4,
		"windDir" : 57,
		"rain" : 0,
		"cloudbase" : null,
		"flyability" : 100,
		"reason" : "",
		"timestamp" :1556035200
		},
	"2019-04-23T20:00:00+02:00" : {
		"windSpeed" : 1.1,
		"windDir" : 16,
		"rain" : 1,
		"cloudbase" : null,
		"flyability" : 0,
		"reason" : "windDir, rain",
		"timestamp" :1556046000
		},
	"2019-04-23T23:00:00+02:00" : {
		"windSpeed" : 1.5,
		"windDir" : 343,
		"rain" : 0,
		"cloudbase" : 10500,
		"flyability" : 0,
		"reason" : "windDir",
		"timestamp" :1556056800
		},
	"2019-04-24T02:00:00+02:00" : {
		"windSpeed" : 1.4,
		"windDir" : 353,
		"rain" : 0,
		"cloudbase" : null,
		"flyability" : 0,
		"reason" : "windDir",
		"timestamp" :1556067600
		},
	"2019-04-24T05:00:00+02:00" : {
		"windSpeed" : 0.1,
		"windDir" : 23,
		"rain" : 0,
		"cloudbase" : 9100,
		"flyability" : 100,
		"reason" : "",
		"timestamp" :1556078400
		},
	"2019-04-24T08:00:00+02:00" : {
		"windSpeed" : 0.5,
		"windDir" : 270,
		"rain" : 0,
		"cloudbase" : null,
		"flyability" : 0,
		"reason" : "windDir",
		"timestamp" :1556089200
		},
	"2019-04-24T11:00:00+02:00" : {
		"windSpeed" : 1.8,
		"windDir" : 180,
		"rain" : 0,
		"cloudbase" : null,
		"flyability" : 100,
		"reason" : "",
		"timestamp" :1556100000
		},
	"2019-04-24T14:00:00+02:00" : {
		"windSpeed" : 2.2,
		"windDir" : 189,
		"rain" : 0,
		"cloudbase" : null,
		"flyability" : 100,
		"reason" : "",
		"timestamp" :1556110800
		},
	"2019-04-24T17:00:00+02:00" : {
		"windSpeed" : 1.9,
		"windDir" : 201,
		"rain" : 0,
		"cloudbase" : 9700,
		"flyability" : 100,
		"reason" : "",
		"timestamp" :1556121600
		},
	"2019-04-24T20:00:00+02:00" : {
		"windSpeed" : 1.2,
		"windDir" : 277,
		"rain" : 0,
		"cloudbase" : 8113.5007999999,
		"flyability" : 0,
		"reason" : "windDir",
		"timestamp" :1556132400
		},
	"2019-04-24T23:00:00+02:00" : {
		"windSpeed" : 0.8,
		"windDir" : 236,
		"rain" : 0,
		"cloudbase" : 8666.4511999999,
		"flyability" : 100,
		"reason" : "",
		"timestamp" :1556143200
		},
	"2019-04-25T02:00:00+02:00" : {
		"windSpeed" : 2.8,
		"windDir" : 316,
		"rain" : 0,
		"cloudbase" : null,
		"flyability" : 0,
		"reason" : "windDir",
		"timestamp" :1556154000
		},
	"2019-04-25T05:00:00+02:00" : {
		"windSpeed" : 1.7,
		"windDir" : 328,
		"rain" : 0,
		"cloudbase" : 7728.4992,
		"flyability" : 0,
		"reason" : "windDir",
		"timestamp" :1556164800
		},
	"2019-04-25T08:00:00+02:00" : {
		"windSpeed" : 1.3,
		"windDir" : 255,
		"rain" : 0,
		"cloudbase" : null,
		"flyability" : 0,
		"reason" : "windDir",
		"timestamp" :1556175600
		},
	"2019-04-25T11:00:00+02:00" : {
		"windSpeed" : 2.1,
		"windDir" : 149,
		"rain" : 0,
		"cloudbase" : null,
		"flyability" : 100,
		"reason" : "",
		"timestamp" :1556186400
		},
	"2019-04-25T14:00:00+02:00" : {
		"windSpeed" : 0.9,
		"windDir" : 246,
		"rain" : 0,
		"cloudbase" : null,
		"flyability" : 100,
		"reason" : "",
		"timestamp" :1556197200
		},
	"2019-04-25T17:00:00+02:00" : {
		"windSpeed" : 0.2,
		"windDir" : 310,
		"rain" : 0,
		"cloudbase" : null,
		"flyability" : 0,
		"reason" : "windDir",
		"timestamp" :1556208000
		},
	"2019-04-25T20:00:00+02:00" : {
		"windSpeed" : 2,
		"windDir" : 233,
		"rain" : 0,
		"cloudbase" : null,
		"flyability" : 100,
		"reason" : "",
		"timestamp" :1556218800
		},
	"2019-04-25T23:00:00+02:00" : {
		"windSpeed" : 1.5,
		"windDir" : 246,
		"rain" : 1,
		"cloudbase" : null,
		"flyability" : 0,
		"reason" : "rain",
		"timestamp" :1556229600
		},
	"2019-04-26T02:00:00+02:00" : {
		"windSpeed" : 0.4,
		"windDir" : 244,
		"rain" : 1,
		"cloudbase" : null,
		"flyability" : 0,
		"reason" : "rain",
		"timestamp" :1556240400
		},
	"2019-04-26T05:00:00+02:00" : {
		"windSpeed" : 0.4,
		"windDir" : 278,
		"rain" : 0,
		"cloudbase" : null,
		"flyability" : 0,
		"reason" : "windDir",
		"timestamp" :1556251200
		},
	"2019-04-26T08:00:00+02:00" : {
		"windSpeed" : 0.3,
		"windDir" : 28,
		"rain" : 0,
		"cloudbase" : null,
		"flyability" : 100,
		"reason" : "",
		"timestamp" :1556262000
		},
	"2019-04-26T11:00:00+02:00" : {
		"windSpeed" : 1.5,
		"windDir" : 127,
		"rain" : 0,
		"cloudbase" : null,
		"flyability" : 100,
		"reason" : "",
		"timestamp" :1556272800
		},
	"2019-04-26T14:00:00+02:00" : {
		"windSpeed" : 1.6,
		"windDir" : 145,
		"rain" : 0,
		"cloudbase" : null,
		"flyability" : 100,
		"reason" : "",
		"timestamp" :1556283600
		}
	}
}