{
"site" : "Paros",
"id" : 16920,
"orientations" : "00000000",
"forecasts" : { 
	"2019-04-21T05:00:00+02:00" : {
		"windSpeed" : 1.7,
		"windDir" : 32,
		"rain" : 1,
		"cloudbase" : 2976.6362,
		"flyability" : -0,
		"reason" : "orientationsUnknown, rain",
		"timestamp" :1555819200
		},
	"2019-04-21T08:00:00+02:00" : {
		"windSpeed" : 2.3,
		"windDir" : 38,
		"rain" : 1,
		"cloudbase" : 2600.2066,
		"flyability" : -0,
		"reason" : "orientationsUnknown, rain",
		"timestamp" :1555830000
		},
	"2019-04-21T11:00:00+02:00" : {
		"windSpeed" : 1.6,
		"windDir" : 33,
		"rain" : 1,
		"cloudbase" : 2067.5704,
		"flyability" : -0,
		"reason" : "orientationsUnknown, rain",
		"timestamp" :1555840800
		},
	"2019-04-21T14:00:00+02:00" : {
		"windSpeed" : 5.2,
		"windDir" : 105,
		"rain" : 1,
		"cloudbase" : 1309.4612,
		"flyability" : -0,
		"reason" : "windSpeed, orientationsUnknown, rain",
		"timestamp" :1555851600
		},
	"2019-04-21T17:00:00+02:00" : {
		"windSpeed" : 3.2,
		"windDir" : 105,
		"rain" : 1,
		"cloudbase" : 1700.456,
		"flyability" : -0,
		"reason" : "orientationsUnknown, rain",
		"timestamp" :1555862400
		},
	"2019-04-21T20:00:00+02:00" : {
		"windSpeed" : 2.2,
		"windDir" : 81,
		"rain" : 0,
		"cloudbase" : 2297.1158,
		"flyability" : -50,
		"reason" : "orientationsUnknown",
		"timestamp" :1555873200
		},
	"2019-04-21T23:00:00+02:00" : {
		"windSpeed" : 1.8,
		"windDir" : 65,
		"rain" : 0,
		"cloudbase" : 8916.6316,
		"flyability" : -50,
		"reason" : "orientationsUnknown",
		"timestamp" :1555884000
		},
	"2019-04-22T02:00:00+02:00" : {
		"windSpeed" : 2.8,
		"windDir" : 88,
		"rain" : 0,
		"cloudbase" : 9300,
		"flyability" : -50,
		"reason" : "orientationsUnknown",
		"timestamp" :1555894800
		},
	"2019-04-22T05:00:00+02:00" : {
		"windSpeed" : 1.8,
		"windDir" : 41,
		"rain" : 1,
		"cloudbase" : 7494.2316,
		"flyability" : -0,
		"reason" : "orientationsUnknown, rain",
		"timestamp" :1555905600
		},
	"2019-04-22T08:00:00+02:00" : {
		"windSpeed" : 2.4,
		"windDir" : 42,
		"rain" : 1,
		"cloudbase" : 9259.8816,
		"flyability" : -0,
		"reason" : "orientationsUnknown, rain",
		"timestamp" :1555916400
		},
	"2019-04-22T11:00:00+02:00" : {
		"windSpeed" : 3.3,
		"windDir" : 95,
		"rain" : 1,
		"cloudbase" : 7269.5408,
		"flyability" : -0,
		"reason" : "orientationsUnknown, rain",
		"timestamp" :1555927200
		},
	"2019-04-22T14:00:00+02:00" : {
		"windSpeed" : 4.5,
		"windDir" : 124,
		"rain" : 0,
		"cloudbase" : 8069.4908,
		"flyability" : -50,
		"reason" : "orientationsUnknown",
		"timestamp" :1555938000
		},
	"2019-04-22T17:00:00+02:00" : {
		"windSpeed" : 4.2,
		"windDir" : 133,
		"rain" : 1,
		"cloudbase" : 1800,
		"flyability" : -0,
		"reason" : "orientationsUnknown, rain",
		"timestamp" :1555948800
		},
	"2019-04-22T20:00:00+02:00" : {
		"windSpeed" : 2.5,
		"windDir" : 181,
		"rain" : 0,
		"cloudbase" : 7487.5724,
		"flyability" : -50,
		"reason" : "orientationsUnknown",
		"timestamp" :1555959600
		},
	"2019-04-22T23:00:00+02:00" : {
		"windSpeed" : 2.4,
		"windDir" : 117,
		"rain" : 1,
		"cloudbase" : 6648.2948,
		"flyability" : -0,
		"reason" : "orientationsUnknown, rain",
		"timestamp" :1555970400
		},
	"2019-04-23T02:00:00+02:00" : {
		"windSpeed" : 1.9,
		"windDir" : 88,
		"rain" : 1,
		"cloudbase" : 2448.0224,
		"flyability" : -0,
		"reason" : "orientationsUnknown, rain",
		"timestamp" :1555981200
		},
	"2019-04-23T05:00:00+02:00" : {
		"windSpeed" : 3,
		"windDir" : 102,
		"rain" : 1,
		"cloudbase" : 1255.975,
		"flyability" : -0,
		"reason" : "orientationsUnknown, rain",
		"timestamp" :1555992000
		},
	"2019-04-23T08:00:00+02:00" : {
		"windSpeed" : 2.7,
		"windDir" : 102,
		"rain" : 1,
		"cloudbase" : 1777.8102,
		"flyability" : -0,
		"reason" : "orientationsUnknown, rain",
		"timestamp" :1556002800
		},
	"2019-04-23T11:00:00+02:00" : {
		"windSpeed" : 5.2,
		"windDir" : 118,
		"rain" : 1,
		"cloudbase" : 6993.3580000001,
		"flyability" : -0,
		"reason" : "windSpeed, orientationsUnknown, rain",
		"timestamp" :1556013600
		},
	"2019-04-23T14:00:00+02:00" : {
		"windSpeed" : 6.1,
		"windDir" : 123,
		"rain" : 1,
		"cloudbase" : 3886.8263200003,
		"flyability" : -0,
		"reason" : "windSpeed, orientationsUnknown, rain",
		"timestamp" :1556024400
		},
	"2019-04-23T17:00:00+02:00" : {
		"windSpeed" : 5.1,
		"windDir" : 112,
		"rain" : 1,
		"cloudbase" : 1676.1658,
		"flyability" : -0,
		"reason" : "windSpeed, orientationsUnknown, rain",
		"timestamp" :1556035200
		},
	"2019-04-23T20:00:00+02:00" : {
		"windSpeed" : 4.7,
		"windDir" : 115,
		"rain" : 1,
		"cloudbase" : 988.65020000007,
		"flyability" : -0,
		"reason" : "orientationsUnknown, rain",
		"timestamp" :1556046000
		},
	"2019-04-23T23:00:00+02:00" : {
		"windSpeed" : 6.2,
		"windDir" : 124,
		"rain" : 1,
		"cloudbase" : 285.71784000002,
		"flyability" : -0,
		"reason" : "windSpeed, orientationsUnknown, rain, cloudbase",
		"timestamp" :1556056800
		},
	"2019-04-24T02:00:00+02:00" : {
		"windSpeed" : 6.1,
		"windDir" : 137,
		"rain" : 1,
		"cloudbase" : 73.174540000004,
		"flyability" : -0,
		"reason" : "windSpeed, orientationsUnknown, rain, cloudbase",
		"timestamp" :1556067600
		},
	"2019-04-24T05:00:00+02:00" : {
		"windSpeed" : 6.2,
		"windDir" : 137,
		"rain" : 1,
		"cloudbase" : 54.321780000003,
		"flyability" : -0,
		"reason" : "windSpeed, orientationsUnknown, rain, cloudbase",
		"timestamp" :1556078400
		},
	"2019-04-24T08:00:00+02:00" : {
		"windSpeed" : 7.6,
		"windDir" : 148,
		"rain" : 1,
		"cloudbase" : 2537.7660800002,
		"flyability" : -0,
		"reason" : "windSpeed, orientationsUnknown, rain",
		"timestamp" :1556089200
		},
	"2019-04-24T11:00:00+02:00" : {
		"windSpeed" : 7,
		"windDir" : 141,
		"rain" : 1,
		"cloudbase" : 156.30132000001,
		"flyability" : -0,
		"reason" : "windSpeed, orientationsUnknown, rain, cloudbase",
		"timestamp" :1556100000
		},
	"2019-04-24T14:00:00+02:00" : {
		"windSpeed" : 7.2,
		"windDir" : 151,
		"rain" : 1,
		"cloudbase" : 30,
		"flyability" : -0,
		"reason" : "windSpeed, orientationsUnknown, rain, cloudbase",
		"timestamp" :1556110800
		},
	"2019-04-24T17:00:00+02:00" : {
		"windSpeed" : 6.8,
		"windDir" : 152,
		"rain" : 1,
		"cloudbase" : 180,
		"flyability" : -0,
		"reason" : "windSpeed, orientationsUnknown, rain, cloudbase",
		"timestamp" :1556121600
		},
	"2019-04-24T20:00:00+02:00" : {
		"windSpeed" : 6.1,
		"windDir" : 133,
		"rain" : 1,
		"cloudbase" : 150,
		"flyability" : -0,
		"reason" : "windSpeed, orientationsUnknown, rain, cloudbase",
		"timestamp" :1556132400
		},
	"2019-04-24T23:00:00+02:00" : {
		"windSpeed" : 7.2,
		"windDir" : 129,
		"rain" : 0,
		"cloudbase" : 95.643620000005,
		"flyability" : -0,
		"reason" : "windSpeed, orientationsUnknown, cloudbase",
		"timestamp" :1556143200
		},
	"2019-04-25T02:00:00+02:00" : {
		"windSpeed" : 9.1,
		"windDir" : 131,
		"rain" : 1,
		"cloudbase" : 125.86934,
		"flyability" : -0,
		"reason" : "windSpeed, orientationsUnknown, rain, cloudbase",
		"timestamp" :1556154000
		},
	"2019-04-25T05:00:00+02:00" : {
		"windSpeed" : 7.6,
		"windDir" : 134,
		"rain" : 1,
		"cloudbase" : 182.72268000001,
		"flyability" : -0,
		"reason" : "windSpeed, orientationsUnknown, rain, cloudbase",
		"timestamp" :1556164800
		},
	"2019-04-25T08:00:00+02:00" : {
		"windSpeed" : 8.4,
		"windDir" : 133,
		"rain" : 1,
		"cloudbase" : 243.15940000001,
		"flyability" : -0,
		"reason" : "windSpeed, orientationsUnknown, rain, cloudbase",
		"timestamp" :1556175600
		},
	"2019-04-25T11:00:00+02:00" : {
		"windSpeed" : 9.3,
		"windDir" : 135,
		"rain" : 1,
		"cloudbase" : 190.58500000001,
		"flyability" : -0,
		"reason" : "windSpeed, orientationsUnknown, rain, cloudbase",
		"timestamp" :1556186400
		},
	"2019-04-25T14:00:00+02:00" : {
		"windSpeed" : 9.4,
		"windDir" : 143,
		"rain" : 1,
		"cloudbase" : 461.40072000003,
		"flyability" : -0,
		"reason" : "windSpeed, orientationsUnknown, rain, cloudbase",
		"timestamp" :1556197200
		},
	"2019-04-25T17:00:00+02:00" : {
		"windSpeed" : 6.6,
		"windDir" : 149,
		"rain" : 1,
		"cloudbase" : 360.89316000002,
		"flyability" : -0,
		"reason" : "windSpeed, orientationsUnknown, rain, cloudbase",
		"timestamp" :1556208000
		},
	"2019-04-25T20:00:00+02:00" : {
		"windSpeed" : 3.1,
		"windDir" : 230,
		"rain" : 1,
		"cloudbase" : 279.66224,
		"flyability" : -0,
		"reason" : "orientationsUnknown, rain, cloudbase",
		"timestamp" :1556218800
		},
	"2019-04-25T23:00:00+02:00" : {
		"windSpeed" : 1.5,
		"windDir" : 214,
		"rain" : 0,
		"cloudbase" : null,
		"flyability" : -50,
		"reason" : "orientationsUnknown",
		"timestamp" :1556229600
		},
	"2019-04-26T02:00:00+02:00" : {
		"windSpeed" : 1.1,
		"windDir" : 101,
		"rain" : 1,
		"cloudbase" : null,
		"flyability" : -0,
		"reason" : "orientationsUnknown, rain",
		"timestamp" :1556240400
		},
	"2019-04-26T05:00:00+02:00" : {
		"windSpeed" : 1.4,
		"windDir" : 3,
		"rain" : 1,
		"cloudbase" : 2896.5351999998,
		"flyability" : -0,
		"reason" : "orientationsUnknown, rain",
		"timestamp" :1556251200
		},
	"2019-04-26T08:00:00+02:00" : {
		"windSpeed" : 1.2,
		"windDir" : 300,
		"rain" : 0,
		"cloudbase" : 2946.6345999998,
		"flyability" : -50,
		"reason" : "orientationsUnknown",
		"timestamp" :1556262000
		},
	"2019-04-26T11:00:00+02:00" : {
		"windSpeed" : 4.7,
		"windDir" : 297,
		"rain" : 0,
		"cloudbase" : null,
		"flyability" : -50,
		"reason" : "orientationsUnknown",
		"timestamp" :1556272800
		},
	"2019-04-26T14:00:00+02:00" : {
		"windSpeed" : 5.4,
		"windDir" : 288,
		"rain" : 1,
		"cloudbase" : null,
		"flyability" : -0,
		"reason" : "windSpeed, orientationsUnknown, rain",
		"timestamp" :1556283600
		},
	"2019-04-26T17:00:00+02:00" : {
		"windSpeed" : 6.5,
		"windDir" : 290,
		"rain" : 0,
		"cloudbase" : 4984.2872000002,
		"flyability" : -0,
		"reason" : "windSpeed, orientationsUnknown",
		"timestamp" :1556294400
		},
	"2019-04-26T20:00:00+02:00" : {
		"windSpeed" : 4.1,
		"windDir" : 294,
		"rain" : 1,
		"cloudbase" : null,
		"flyability" : -0,
		"reason" : "orientationsUnknown, rain",
		"timestamp" :1556305200
		},
	"2019-04-26T23:00:00+02:00" : {
		"windSpeed" : 3.2,
		"windDir" : 312,
		"rain" : 1,
		"cloudbase" : null,
		"flyability" : -0,
		"reason" : "orientationsUnknown, rain",
		"timestamp" :1556316000
		},
	"2019-04-27T02:00:00+02:00" : {
		"windSpeed" : 2.7,
		"windDir" : 312,
		"rain" : 0,
		"cloudbase" : 430,
		"flyability" : -0,
		"reason" : "orientationsUnknown, cloudbase",
		"timestamp" :1556326800
		}
	}
}