{
"site" : "Trentishoe Cliffs",
"id" : 17203,
"orientations" : "00000000",
"forecasts" : { 
	"2019-04-22T04:00:00+01:00" : {
		"windSpeed" : 3.7,
		"windDir" : 145,
		"rain" : 0,
		"cloudbase" : null,
		"flyability" : -50,
		"reason" : "orientationsUnknown",
		"timestamp" :1555898400
		},
	"2019-04-22T07:00:00+01:00" : {
		"windSpeed" : 5.2,
		"windDir" : 127,
		"rain" : 0,
		"cloudbase" : null,
		"flyability" : -0,
		"reason" : "windSpeed, orientationsUnknown",
		"timestamp" :1555909200
		},
	"2019-04-22T10:00:00+01:00" : {
		"windSpeed" : 5.5,
		"windDir" : 116,
		"rain" : 0,
		"cloudbase" : null,
		"flyability" : -0,
		"reason" : "windSpeed, orientationsUnknown",
		"timestamp" :1555920000
		},
	"2019-04-22T13:00:00+01:00" : {
		"windSpeed" : 5.8,
		"windDir" : 116,
		"rain" : 0,
		"cloudbase" : 6972.7921999998,
		"flyability" : -0,
		"reason" : "windSpeed, orientationsUnknown",
		"timestamp" :1555930800
		},
	"2019-04-22T16:00:00+01:00" : {
		"windSpeed" : 4.9,
		"windDir" : 128,
		"rain" : 0,
		"cloudbase" : null,
		"flyability" : -50,
		"reason" : "orientationsUnknown",
		"timestamp" :1555941600
		},
	"2019-04-22T19:00:00+01:00" : {
		"windSpeed" : 4.5,
		"windDir" : 158,
		"rain" : 0,
		"cloudbase" : 7000,
		"flyability" : -50,
		"reason" : "orientationsUnknown",
		"timestamp" :1555952400
		},
	"2019-04-22T22:00:00+01:00" : {
		"windSpeed" : 4.5,
		"windDir" : 141,
		"rain" : 0,
		"cloudbase" : 2939.2684,
		"flyability" : -50,
		"reason" : "orientationsUnknown",
		"timestamp" :1555963200
		},
	"2019-04-23T01:00:00+01:00" : {
		"windSpeed" : 5.8,
		"windDir" : 116,
		"rain" : 0,
		"cloudbase" : 3421,
		"flyability" : -0,
		"reason" : "windSpeed, orientationsUnknown",
		"timestamp" :1555974000
		},
	"2019-04-23T04:00:00+01:00" : {
		"windSpeed" : 4.4,
		"windDir" : 92,
		"rain" : 1,
		"cloudbase" : 4242.9917999999,
		"flyability" : -0,
		"reason" : "orientationsUnknown, rain",
		"timestamp" :1555984800
		},
	"2019-04-23T07:00:00+01:00" : {
		"windSpeed" : 6.1,
		"windDir" : 90,
		"rain" : 0,
		"cloudbase" : 2847.3342,
		"flyability" : -0,
		"reason" : "windSpeed, orientationsUnknown",
		"timestamp" :1555995600
		},
	"2019-04-23T10:00:00+01:00" : {
		"windSpeed" : 4.9,
		"windDir" : 91,
		"rain" : 1,
		"cloudbase" : null,
		"flyability" : -0,
		"reason" : "orientationsUnknown, rain",
		"timestamp" :1556006400
		},
	"2019-04-23T13:00:00+01:00" : {
		"windSpeed" : 3.8,
		"windDir" : 108,
		"rain" : 0,
		"cloudbase" : null,
		"flyability" : -50,
		"reason" : "orientationsUnknown",
		"timestamp" :1556017200
		},
	"2019-04-23T16:00:00+01:00" : {
		"windSpeed" : 4,
		"windDir" : 119,
		"rain" : 0,
		"cloudbase" : 9118.6,
		"flyability" : -50,
		"reason" : "orientationsUnknown",
		"timestamp" :1556028000
		},
	"2019-04-23T19:00:00+01:00" : {
		"windSpeed" : 3.7,
		"windDir" : 152,
		"rain" : 0,
		"cloudbase" : 5570.6,
		"flyability" : -50,
		"reason" : "orientationsUnknown",
		"timestamp" :1556038800
		},
	"2019-04-23T22:00:00+01:00" : {
		"windSpeed" : 3.4,
		"windDir" : 133,
		"rain" : 1,
		"cloudbase" : 2669.6974,
		"flyability" : -0,
		"reason" : "orientationsUnknown, rain",
		"timestamp" :1556049600
		},
	"2019-04-24T01:00:00+01:00" : {
		"windSpeed" : 5.3,
		"windDir" : 147,
		"rain" : 1,
		"cloudbase" : 2994.3368,
		"flyability" : -0,
		"reason" : "windSpeed, orientationsUnknown, rain",
		"timestamp" :1556060400
		},
	"2019-04-24T04:00:00+01:00" : {
		"windSpeed" : 3.9,
		"windDir" : 134,
		"rain" : 1,
		"cloudbase" : 3042.5103999999,
		"flyability" : -0,
		"reason" : "orientationsUnknown, rain",
		"timestamp" :1556071200
		},
	"2019-04-24T07:00:00+01:00" : {
		"windSpeed" : 4.1,
		"windDir" : 103,
		"rain" : 1,
		"cloudbase" : 2485.7342,
		"flyability" : -0,
		"reason" : "orientationsUnknown, rain",
		"timestamp" :1556082000
		},
	"2019-04-24T10:00:00+01:00" : {
		"windSpeed" : 4.5,
		"windDir" : 146,
		"rain" : 1,
		"cloudbase" : 489.91472,
		"flyability" : -0,
		"reason" : "orientationsUnknown, rain",
		"timestamp" :1556092800
		},
	"2019-04-24T13:00:00+01:00" : {
		"windSpeed" : 4.8,
		"windDir" : 203,
		"rain" : 1,
		"cloudbase" : 1864.4736000001,
		"flyability" : -0,
		"reason" : "orientationsUnknown, rain",
		"timestamp" :1556103600
		},
	"2019-04-24T16:00:00+01:00" : {
		"windSpeed" : 6.6,
		"windDir" : 188,
		"rain" : 0,
		"cloudbase" : 1400,
		"flyability" : -0,
		"reason" : "windSpeed, orientationsUnknown",
		"timestamp" :1556114400
		},
	"2019-04-24T19:00:00+01:00" : {
		"windSpeed" : 5.5,
		"windDir" : 146,
		"rain" : 0,
		"cloudbase" : 6655.8,
		"flyability" : -0,
		"reason" : "windSpeed, orientationsUnknown",
		"timestamp" :1556125200
		},
	"2019-04-24T22:00:00+01:00" : {
		"windSpeed" : 6.2,
		"windDir" : 129,
		"rain" : 1,
		"cloudbase" : null,
		"flyability" : -0,
		"reason" : "windSpeed, orientationsUnknown, rain",
		"timestamp" :1556136000
		},
	"2019-04-25T01:00:00+01:00" : {
		"windSpeed" : 7.7,
		"windDir" : 138,
		"rain" : 0,
		"cloudbase" : 4526.8026,
		"flyability" : -0,
		"reason" : "windSpeed, orientationsUnknown",
		"timestamp" :1556146800
		},
	"2019-04-25T04:00:00+01:00" : {
		"windSpeed" : 7.4,
		"windDir" : 141,
		"rain" : 1,
		"cloudbase" : 3033.4008399997,
		"flyability" : -0,
		"reason" : "windSpeed, orientationsUnknown, rain",
		"timestamp" :1556157600
		},
	"2019-04-25T07:00:00+01:00" : {
		"windSpeed" : 5.4,
		"windDir" : 153,
		"rain" : 1,
		"cloudbase" : 5441.2,
		"flyability" : -0,
		"reason" : "windSpeed, orientationsUnknown, rain",
		"timestamp" :1556168400
		},
	"2019-04-25T10:00:00+01:00" : {
		"windSpeed" : 6,
		"windDir" : 172,
		"rain" : 1,
		"cloudbase" : 6000,
		"flyability" : -0,
		"reason" : "windSpeed, orientationsUnknown, rain",
		"timestamp" :1556179200
		},
	"2019-04-25T13:00:00+01:00" : {
		"windSpeed" : 7.1,
		"windDir" : 171,
		"rain" : 1,
		"cloudbase" : null,
		"flyability" : -0,
		"reason" : "windSpeed, orientationsUnknown, rain",
		"timestamp" :1556190000
		},
	"2019-04-25T16:00:00+01:00" : {
		"windSpeed" : 6.2,
		"windDir" : 162,
		"rain" : 1,
		"cloudbase" : 5900,
		"flyability" : -0,
		"reason" : "windSpeed, orientationsUnknown, rain",
		"timestamp" :1556200800
		},
	"2019-04-25T19:00:00+01:00" : {
		"windSpeed" : 4.9,
		"windDir" : 162,
		"rain" : 1,
		"cloudbase" : null,
		"flyability" : -0,
		"reason" : "orientationsUnknown, rain",
		"timestamp" :1556211600
		},
	"2019-04-25T22:00:00+01:00" : {
		"windSpeed" : 4.9,
		"windDir" : 164,
		"rain" : 0,
		"cloudbase" : 6900,
		"flyability" : -50,
		"reason" : "orientationsUnknown",
		"timestamp" :1556222400
		},
	"2019-04-26T01:00:00+01:00" : {
		"windSpeed" : 5.2,
		"windDir" : 163,
		"rain" : 0,
		"cloudbase" : 6129.5368,
		"flyability" : -0,
		"reason" : "windSpeed, orientationsUnknown",
		"timestamp" :1556233200
		},
	"2019-04-26T04:00:00+01:00" : {
		"windSpeed" : 5,
		"windDir" : 163,
		"rain" : 0,
		"cloudbase" : 4491.3342,
		"flyability" : -50,
		"reason" : "orientationsUnknown",
		"timestamp" :1556244000
		},
	"2019-04-26T07:00:00+01:00" : {
		"windSpeed" : 5.6,
		"windDir" : 169,
		"rain" : 0,
		"cloudbase" : null,
		"flyability" : -0,
		"reason" : "windSpeed, orientationsUnknown",
		"timestamp" :1556254800
		},
	"2019-04-26T10:00:00+01:00" : {
		"windSpeed" : 5.9,
		"windDir" : 193,
		"rain" : 1,
		"cloudbase" : 354.84840000001,
		"flyability" : -0,
		"reason" : "windSpeed, orientationsUnknown, rain",
		"timestamp" :1556265600
		},
	"2019-04-26T13:00:00+01:00" : {
		"windSpeed" : 7.2,
		"windDir" : 249,
		"rain" : 1,
		"cloudbase" : 1850,
		"flyability" : -0,
		"reason" : "windSpeed, orientationsUnknown, rain",
		"timestamp" :1556276400
		},
	"2019-04-26T16:00:00+01:00" : {
		"windSpeed" : 9.4,
		"windDir" : 262,
		"rain" : 1,
		"cloudbase" : null,
		"flyability" : -0,
		"reason" : "windSpeed, orientationsUnknown, rain",
		"timestamp" :1556287200
		},
	"2019-04-26T19:00:00+01:00" : {
		"windSpeed" : 8.3,
		"windDir" : 255,
		"rain" : 1,
		"cloudbase" : null,
		"flyability" : -0,
		"reason" : "windSpeed, orientationsUnknown, rain",
		"timestamp" :1556298000
		},
	"2019-04-26T22:00:00+01:00" : {
		"windSpeed" : 5,
		"windDir" : 223,
		"rain" : 1,
		"cloudbase" : 4116.6086000004,
		"flyability" : -0,
		"reason" : "orientationsUnknown, rain",
		"timestamp" :1556308800
		},
	"2019-04-27T01:00:00+01:00" : {
		"windSpeed" : 7,
		"windDir" : 154,
		"rain" : 1,
		"cloudbase" : 734.21264000001,
		"flyability" : -0,
		"reason" : "windSpeed, orientationsUnknown, rain",
		"timestamp" :1556319600
		},
	"2019-04-27T04:00:00+01:00" : {
		"windSpeed" : 3.9,
		"windDir" : 169,
		"rain" : 1,
		"cloudbase" : 384.78260000001,
		"flyability" : -0,
		"reason" : "orientationsUnknown, rain",
		"timestamp" :1556330400
		},
	"2019-04-27T07:00:00+01:00" : {
		"windSpeed" : 9.7,
		"windDir" : 324,
		"rain" : 1,
		"cloudbase" : 499.99419999999,
		"flyability" : -0,
		"reason" : "windSpeed, orientationsUnknown, rain",
		"timestamp" :1556341200
		},
	"2019-04-27T10:00:00+01:00" : {
		"windSpeed" : 10,
		"windDir" : 308,
		"rain" : 1,
		"cloudbase" : 420,
		"flyability" : -0,
		"reason" : "windSpeed, orientationsUnknown, rain",
		"timestamp" :1556352000
		},
	"2019-04-27T13:00:00+01:00" : {
		"windSpeed" : 10.2,
		"windDir" : 300,
		"rain" : 0,
		"cloudbase" : null,
		"flyability" : -0,
		"reason" : "windSpeed, orientationsUnknown",
		"timestamp" :1556362800
		},
	"2019-04-27T16:00:00+01:00" : {
		"windSpeed" : 10.2,
		"windDir" : 293,
		"rain" : 1,
		"cloudbase" : 6505.6052,
		"flyability" : -0,
		"reason" : "windSpeed, orientationsUnknown, rain",
		"timestamp" :1556373600
		},
	"2019-04-27T19:00:00+01:00" : {
		"windSpeed" : 7.7,
		"windDir" : 281,
		"rain" : 1,
		"cloudbase" : 7048.1368,
		"flyability" : -0,
		"reason" : "windSpeed, orientationsUnknown, rain",
		"timestamp" :1556384400
		},
	"2019-04-27T22:00:00+01:00" : {
		"windSpeed" : 6.4,
		"windDir" : 271,
		"rain" : 0,
		"cloudbase" : 5648.1368,
		"flyability" : -0,
		"reason" : "windSpeed, orientationsUnknown",
		"timestamp" :1556395200
		},
	"2019-04-28T01:00:00+01:00" : {
		"windSpeed" : 4.6,
		"windDir" : 251,
		"rain" : 0,
		"cloudbase" : 7900,
		"flyability" : -50,
		"reason" : "orientationsUnknown",
		"timestamp" :1556406000
		}
	}
}