{
"site" : "Dinmore",
"id" : 17288,
"orientations" : "00000000",
"forecasts" : { 
	"2019-04-21T13:00:00+10:00" : {
		"windSpeed" : 4.8,
		"windDir" : 108,
		"rain" : 1,
		"cloudbase" : null,
		"flyability" : -0,
		"reason" : "orientationsUnknown, rain",
		"timestamp" :1555812000
		},
	"2019-04-21T16:00:00+10:00" : {
		"windSpeed" : 5.4,
		"windDir" : 97,
		"rain" : 1,
		"cloudbase" : null,
		"flyability" : -0,
		"reason" : "windSpeed, orientationsUnknown, rain",
		"timestamp" :1555822800
		},
	"2019-04-21T19:00:00+10:00" : {
		"windSpeed" : 3.2,
		"windDir" : 110,
		"rain" : 0,
		"cloudbase" : null,
		"flyability" : -50,
		"reason" : "orientationsUnknown",
		"timestamp" :1555833600
		},
	"2019-04-21T22:00:00+10:00" : {
		"windSpeed" : 2.6,
		"windDir" : 141,
		"rain" : 0,
		"cloudbase" : null,
		"flyability" : -50,
		"reason" : "orientationsUnknown",
		"timestamp" :1555844400
		},
	"2019-04-22T01:00:00+10:00" : {
		"windSpeed" : 2.2,
		"windDir" : 163,
		"rain" : 0,
		"cloudbase" : 11000,
		"flyability" : -50,
		"reason" : "orientationsUnknown",
		"timestamp" :1555855200
		},
	"2019-04-22T04:00:00+10:00" : {
		"windSpeed" : 2.3,
		"windDir" : 149,
		"rain" : 1,
		"cloudbase" : 9681.4999999986,
		"flyability" : -0,
		"reason" : "orientationsUnknown, rain",
		"timestamp" :1555866000
		},
	"2019-04-22T07:00:00+10:00" : {
		"windSpeed" : 3.1,
		"windDir" : 161,
		"rain" : 1,
		"cloudbase" : 10500,
		"flyability" : -0,
		"reason" : "orientationsUnknown, rain",
		"timestamp" :1555876800
		},
	"2019-04-22T10:00:00+10:00" : {
		"windSpeed" : 5.1,
		"windDir" : 115,
		"rain" : 0,
		"cloudbase" : 5598.0999999998,
		"flyability" : -0,
		"reason" : "windSpeed, orientationsUnknown",
		"timestamp" :1555887600
		},
	"2019-04-22T13:00:00+10:00" : {
		"windSpeed" : 4.8,
		"windDir" : 110,
		"rain" : 0,
		"cloudbase" : 3237.9000000003,
		"flyability" : -50,
		"reason" : "orientationsUnknown",
		"timestamp" :1555898400
		},
	"2019-04-22T16:00:00+10:00" : {
		"windSpeed" : 4.2,
		"windDir" : 106,
		"rain" : 0,
		"cloudbase" : 9300,
		"flyability" : -50,
		"reason" : "orientationsUnknown",
		"timestamp" :1555909200
		},
	"2019-04-22T19:00:00+10:00" : {
		"windSpeed" : 2.6,
		"windDir" : 128,
		"rain" : 0,
		"cloudbase" : 9300,
		"flyability" : -50,
		"reason" : "orientationsUnknown",
		"timestamp" :1555920000
		},
	"2019-04-22T22:00:00+10:00" : {
		"windSpeed" : 1.8,
		"windDir" : 151,
		"rain" : 0,
		"cloudbase" : 11500,
		"flyability" : -50,
		"reason" : "orientationsUnknown",
		"timestamp" :1555930800
		},
	"2019-04-23T01:00:00+10:00" : {
		"windSpeed" : 2.5,
		"windDir" : 165,
		"rain" : 0,
		"cloudbase" : null,
		"flyability" : -50,
		"reason" : "orientationsUnknown",
		"timestamp" :1555941600
		},
	"2019-04-23T04:00:00+10:00" : {
		"windSpeed" : 2.5,
		"windDir" : 177,
		"rain" : 0,
		"cloudbase" : 9690,
		"flyability" : -50,
		"reason" : "orientationsUnknown",
		"timestamp" :1555952400
		},
	"2019-04-23T07:00:00+10:00" : {
		"windSpeed" : 2.6,
		"windDir" : 169,
		"rain" : 0,
		"cloudbase" : 8400,
		"flyability" : -50,
		"reason" : "orientationsUnknown",
		"timestamp" :1555963200
		},
	"2019-04-23T10:00:00+10:00" : {
		"windSpeed" : 5.2,
		"windDir" : 107,
		"rain" : 0,
		"cloudbase" : 1305,
		"flyability" : -0,
		"reason" : "windSpeed, orientationsUnknown",
		"timestamp" :1555974000
		},
	"2019-04-23T13:00:00+10:00" : {
		"windSpeed" : 4.1,
		"windDir" : 104,
		"rain" : 1,
		"cloudbase" : 8700,
		"flyability" : -0,
		"reason" : "orientationsUnknown, rain",
		"timestamp" :1555984800
		},
	"2019-04-23T16:00:00+10:00" : {
		"windSpeed" : 4.1,
		"windDir" : 99,
		"rain" : 0,
		"cloudbase" : 8700,
		"flyability" : -50,
		"reason" : "orientationsUnknown",
		"timestamp" :1555995600
		},
	"2019-04-23T19:00:00+10:00" : {
		"windSpeed" : 3,
		"windDir" : 123,
		"rain" : 0,
		"cloudbase" : 8700,
		"flyability" : -50,
		"reason" : "orientationsUnknown",
		"timestamp" :1556006400
		},
	"2019-04-23T22:00:00+10:00" : {
		"windSpeed" : 2.2,
		"windDir" : 152,
		"rain" : 1,
		"cloudbase" : null,
		"flyability" : -0,
		"reason" : "orientationsUnknown, rain",
		"timestamp" :1556017200
		},
	"2019-04-24T01:00:00+10:00" : {
		"windSpeed" : 2.1,
		"windDir" : 179,
		"rain" : 1,
		"cloudbase" : null,
		"flyability" : -0,
		"reason" : "orientationsUnknown, rain",
		"timestamp" :1556028000
		},
	"2019-04-24T04:00:00+10:00" : {
		"windSpeed" : 1.7,
		"windDir" : 164,
		"rain" : 1,
		"cloudbase" : null,
		"flyability" : -0,
		"reason" : "orientationsUnknown, rain",
		"timestamp" :1556038800
		},
	"2019-04-24T07:00:00+10:00" : {
		"windSpeed" : 2.4,
		"windDir" : 181,
		"rain" : 0,
		"cloudbase" : null,
		"flyability" : -50,
		"reason" : "orientationsUnknown",
		"timestamp" :1556049600
		},
	"2019-04-24T10:00:00+10:00" : {
		"windSpeed" : 3.5,
		"windDir" : 125,
		"rain" : 0,
		"cloudbase" : null,
		"flyability" : -50,
		"reason" : "orientationsUnknown",
		"timestamp" :1556060400
		},
	"2019-04-24T13:00:00+10:00" : {
		"windSpeed" : 3.1,
		"windDir" : 100,
		"rain" : 0,
		"cloudbase" : 2050,
		"flyability" : -50,
		"reason" : "orientationsUnknown",
		"timestamp" :1556071200
		},
	"2019-04-24T16:00:00+10:00" : {
		"windSpeed" : 3.5,
		"windDir" : 100,
		"rain" : 1,
		"cloudbase" : null,
		"flyability" : -0,
		"reason" : "orientationsUnknown, rain",
		"timestamp" :1556082000
		},
	"2019-04-24T19:00:00+10:00" : {
		"windSpeed" : 2.6,
		"windDir" : 115,
		"rain" : 0,
		"cloudbase" : 2950,
		"flyability" : -50,
		"reason" : "orientationsUnknown",
		"timestamp" :1556092800
		},
	"2019-04-24T22:00:00+10:00" : {
		"windSpeed" : 1.6,
		"windDir" : 133,
		"rain" : 0,
		"cloudbase" : null,
		"flyability" : -50,
		"reason" : "orientationsUnknown",
		"timestamp" :1556103600
		},
	"2019-04-25T01:00:00+10:00" : {
		"windSpeed" : 1.7,
		"windDir" : 215,
		"rain" : 0,
		"cloudbase" : null,
		"flyability" : -50,
		"reason" : "orientationsUnknown",
		"timestamp" :1556114400
		},
	"2019-04-25T04:00:00+10:00" : {
		"windSpeed" : 1.8,
		"windDir" : 211,
		"rain" : 0,
		"cloudbase" : null,
		"flyability" : -50,
		"reason" : "orientationsUnknown",
		"timestamp" :1556125200
		},
	"2019-04-25T07:00:00+10:00" : {
		"windSpeed" : 1.4,
		"windDir" : 220,
		"rain" : 0,
		"cloudbase" : null,
		"flyability" : -50,
		"reason" : "orientationsUnknown",
		"timestamp" :1556136000
		},
	"2019-04-25T10:00:00+10:00" : {
		"windSpeed" : 1.4,
		"windDir" : 135,
		"rain" : 1,
		"cloudbase" : null,
		"flyability" : -0,
		"reason" : "orientationsUnknown, rain",
		"timestamp" :1556146800
		},
	"2019-04-25T13:00:00+10:00" : {
		"windSpeed" : 1.7,
		"windDir" : 107,
		"rain" : 0,
		"cloudbase" : null,
		"flyability" : -50,
		"reason" : "orientationsUnknown",
		"timestamp" :1556157600
		},
	"2019-04-25T16:00:00+10:00" : {
		"windSpeed" : 4.1,
		"windDir" : 73,
		"rain" : 0,
		"cloudbase" : null,
		"flyability" : -50,
		"reason" : "orientationsUnknown",
		"timestamp" :1556168400
		},
	"2019-04-25T19:00:00+10:00" : {
		"windSpeed" : 2,
		"windDir" : 87,
		"rain" : 0,
		"cloudbase" : null,
		"flyability" : -50,
		"reason" : "orientationsUnknown",
		"timestamp" :1556179200
		},
	"2019-04-25T22:00:00+10:00" : {
		"windSpeed" : 1.5,
		"windDir" : 177,
		"rain" : 0,
		"cloudbase" : null,
		"flyability" : -50,
		"reason" : "orientationsUnknown",
		"timestamp" :1556190000
		},
	"2019-04-26T01:00:00+10:00" : {
		"windSpeed" : 1.2,
		"windDir" : 236,
		"rain" : 0,
		"cloudbase" : null,
		"flyability" : -50,
		"reason" : "orientationsUnknown",
		"timestamp" :1556200800
		},
	"2019-04-26T04:00:00+10:00" : {
		"windSpeed" : 1.1,
		"windDir" : 266,
		"rain" : 0,
		"cloudbase" : 2183.4999999997,
		"flyability" : -50,
		"reason" : "orientationsUnknown",
		"timestamp" :1556211600
		},
	"2019-04-26T07:00:00+10:00" : {
		"windSpeed" : 1,
		"windDir" : 263,
		"rain" : 0,
		"cloudbase" : 321.4999999998,
		"flyability" : -50,
		"reason" : "orientationsUnknown",
		"timestamp" :1556222400
		},
	"2019-04-26T10:00:00+10:00" : {
		"windSpeed" : 0.6,
		"windDir" : 265,
		"rain" : 0,
		"cloudbase" : 10000,
		"flyability" : -50,
		"reason" : "orientationsUnknown",
		"timestamp" :1556233200
		},
	"2019-04-26T13:00:00+10:00" : {
		"windSpeed" : 0.7,
		"windDir" : 38,
		"rain" : 0,
		"cloudbase" : 9997.8,
		"flyability" : -50,
		"reason" : "orientationsUnknown",
		"timestamp" :1556244000
		},
	"2019-04-26T16:00:00+10:00" : {
		"windSpeed" : 2.6,
		"windDir" : 36,
		"rain" : 0,
		"cloudbase" : 10000,
		"flyability" : -50,
		"reason" : "orientationsUnknown",
		"timestamp" :1556254800
		},
	"2019-04-26T19:00:00+10:00" : {
		"windSpeed" : 2.5,
		"windDir" : 47,
		"rain" : 0,
		"cloudbase" : null,
		"flyability" : -50,
		"reason" : "orientationsUnknown",
		"timestamp" :1556265600
		},
	"2019-04-26T22:00:00+10:00" : {
		"windSpeed" : 0.4,
		"windDir" : 2,
		"rain" : 0,
		"cloudbase" : null,
		"flyability" : -50,
		"reason" : "orientationsUnknown",
		"timestamp" :1556276400
		},
	"2019-04-27T01:00:00+10:00" : {
		"windSpeed" : 1.1,
		"windDir" : 294,
		"rain" : 0,
		"cloudbase" : null,
		"flyability" : -50,
		"reason" : "orientationsUnknown",
		"timestamp" :1556287200
		},
	"2019-04-27T04:00:00+10:00" : {
		"windSpeed" : 2.1,
		"windDir" : 271,
		"rain" : 0,
		"cloudbase" : null,
		"flyability" : -50,
		"reason" : "orientationsUnknown",
		"timestamp" :1556298000
		},
	"2019-04-27T07:00:00+10:00" : {
		"windSpeed" : 1.7,
		"windDir" : 252,
		"rain" : 0,
		"cloudbase" : 2750,
		"flyability" : -50,
		"reason" : "orientationsUnknown",
		"timestamp" :1556308800
		},
	"2019-04-27T10:00:00+10:00" : {
		"windSpeed" : 1.2,
		"windDir" : 155,
		"rain" : 0,
		"cloudbase" : null,
		"flyability" : -50,
		"reason" : "orientationsUnknown",
		"timestamp" :1556319600
		}
	}
}