{
"site" : "Maulin Mtn (Kerry Head",
"id" : 17409,
"orientations" : "02000000",
"forecasts" : { 
	"2019-04-20T04:00:00+01:00" : {
		"windSpeed" : 0.8,
		"windDir" : 282,
		"rain" : 0,
		"cloudbase" : 30,
		"flyability" : 0,
		"reason" : "windDir, cloudbase",
		"timestamp" :1555725600
		},
	"2019-04-20T07:00:00+01:00" : {
		"windSpeed" : 1.1,
		"windDir" : 121,
		"rain" : 0,
		"cloudbase" : 30,
		"flyability" : 0,
		"reason" : "windDir, cloudbase",
		"timestamp" :1555736400
		},
	"2019-04-20T10:00:00+01:00" : {
		"windSpeed" : 0.7,
		"windDir" : 308,
		"rain" : 0,
		"cloudbase" : 96.639999999999,
		"flyability" : 0,
		"reason" : "windDir, cloudbase",
		"timestamp" :1555747200
		},
	"2019-04-20T13:00:00+01:00" : {
		"windSpeed" : 1.1,
		"windDir" : 313,
		"rain" : 0,
		"cloudbase" : 181.90399999999,
		"flyability" : 0,
		"reason" : "windDir",
		"timestamp" :1555758000
		},
	"2019-04-20T16:00:00+01:00" : {
		"windSpeed" : 2.8,
		"windDir" : 315,
		"rain" : 0,
		"cloudbase" : 9452.6720000002,
		"flyability" : 0,
		"reason" : "windDir",
		"timestamp" :1555768800
		},
	"2019-04-20T19:00:00+01:00" : {
		"windSpeed" : 1.7,
		"windDir" : 295,
		"rain" : 0,
		"cloudbase" : 8467.8399999995,
		"flyability" : 0,
		"reason" : "windDir",
		"timestamp" :1555779600
		},
	"2019-04-20T22:00:00+01:00" : {
		"windSpeed" : 1.3,
		"windDir" : 229,
		"rain" : 0,
		"cloudbase" : 1539.8239999997,
		"flyability" : 0,
		"reason" : "windDir",
		"timestamp" :1555790400
		},
	"2019-04-21T01:00:00+01:00" : {
		"windSpeed" : 1.9,
		"windDir" : 182,
		"rain" : 0,
		"cloudbase" : 30,
		"flyability" : 0,
		"reason" : "windDir, cloudbase",
		"timestamp" :1555801200
		},
	"2019-04-21T04:00:00+01:00" : {
		"windSpeed" : 2.4,
		"windDir" : 168,
		"rain" : 0,
		"cloudbase" : 30,
		"flyability" : 0,
		"reason" : "windDir, cloudbase",
		"timestamp" :1555812000
		},
	"2019-04-21T07:00:00+01:00" : {
		"windSpeed" : 3.4,
		"windDir" : 177,
		"rain" : 0,
		"cloudbase" : 53.347200000007,
		"flyability" : 0,
		"reason" : "windDir, cloudbase",
		"timestamp" :1555822800
		},
	"2019-04-21T10:00:00+01:00" : {
		"windSpeed" : 5.3,
		"windDir" : 203,
		"rain" : 0,
		"cloudbase" : 281.6928,
		"flyability" : 0,
		"reason" : "windSpeed, windDir",
		"timestamp" :1555833600
		},
	"2019-04-21T13:00:00+01:00" : {
		"windSpeed" : 5.4,
		"windDir" : 199,
		"rain" : 1,
		"cloudbase" : 497.57439999998,
		"flyability" : 0,
		"reason" : "windSpeed, windDir, rain",
		"timestamp" :1555844400
		},
	"2019-04-21T16:00:00+01:00" : {
		"windSpeed" : 5.8,
		"windDir" : 191,
		"rain" : 1,
		"cloudbase" : 393.9488,
		"flyability" : 0,
		"reason" : "windSpeed, windDir, rain",
		"timestamp" :1555855200
		},
	"2019-04-21T19:00:00+01:00" : {
		"windSpeed" : 5.7,
		"windDir" : 176,
		"rain" : 1,
		"cloudbase" : 324.64639999999,
		"flyability" : 0,
		"reason" : "windSpeed, windDir, rain",
		"timestamp" :1555866000
		},
	"2019-04-21T22:00:00+01:00" : {
		"windSpeed" : 6.7,
		"windDir" : 172,
		"rain" : 1,
		"cloudbase" : 302.9472,
		"flyability" : 0,
		"reason" : "windSpeed, windDir, rain",
		"timestamp" :1555876800
		},
	"2019-04-22T01:00:00+01:00" : {
		"windSpeed" : 7.2,
		"windDir" : 168,
		"rain" : 0,
		"cloudbase" : 518.98880000004,
		"flyability" : 0,
		"reason" : "windSpeed, windDir",
		"timestamp" :1555887600
		},
	"2019-04-22T04:00:00+01:00" : {
		"windSpeed" : 6.9,
		"windDir" : 161,
		"rain" : 0,
		"cloudbase" : 4614.1695999998,
		"flyability" : 0,
		"reason" : "windSpeed, windDir",
		"timestamp" :1555898400
		},
	"2019-04-22T07:00:00+01:00" : {
		"windSpeed" : 7.2,
		"windDir" : 156,
		"rain" : 0,
		"cloudbase" : 6878.4,
		"flyability" : 0,
		"reason" : "windSpeed, windDir",
		"timestamp" :1555909200
		},
	"2019-04-22T10:00:00+01:00" : {
		"windSpeed" : 6.5,
		"windDir" : 150,
		"rain" : 0,
		"cloudbase" : 6238.9439999999,
		"flyability" : 0,
		"reason" : "windSpeed, windDir",
		"timestamp" :1555920000
		},
	"2019-04-22T13:00:00+01:00" : {
		"windSpeed" : 5.7,
		"windDir" : 163,
		"rain" : 0,
		"cloudbase" : 6167.4879999999,
		"flyability" : 0,
		"reason" : "windSpeed, windDir",
		"timestamp" :1555930800
		},
	"2019-04-22T16:00:00+01:00" : {
		"windSpeed" : 6.1,
		"windDir" : 166,
		"rain" : 0,
		"cloudbase" : 6288.128,
		"flyability" : 0,
		"reason" : "windSpeed, windDir",
		"timestamp" :1555941600
		},
	"2019-04-22T19:00:00+01:00" : {
		"windSpeed" : 4.6,
		"windDir" : 147,
		"rain" : 0,
		"cloudbase" : 7101.0559999999,
		"flyability" : 0,
		"reason" : "windDir",
		"timestamp" :1555952400
		},
	"2019-04-22T22:00:00+01:00" : {
		"windSpeed" : 5.8,
		"windDir" : 135,
		"rain" : 0,
		"cloudbase" : 3804.912,
		"flyability" : 0,
		"reason" : "windSpeed, windDir",
		"timestamp" :1555963200
		},
	"2019-04-23T01:00:00+01:00" : {
		"windSpeed" : 5.2,
		"windDir" : 159,
		"rain" : 0,
		"cloudbase" : 2899.9040000002,
		"flyability" : 0,
		"reason" : "windSpeed, windDir",
		"timestamp" :1555974000
		},
	"2019-04-23T04:00:00+01:00" : {
		"windSpeed" : 3.7,
		"windDir" : 185,
		"rain" : 0,
		"cloudbase" : null,
		"flyability" : 0,
		"reason" : "windDir",
		"timestamp" :1555984800
		},
	"2019-04-23T07:00:00+01:00" : {
		"windSpeed" : 2.3,
		"windDir" : 223,
		"rain" : 0,
		"cloudbase" : null,
		"flyability" : 0,
		"reason" : "windDir",
		"timestamp" :1555995600
		},
	"2019-04-23T10:00:00+01:00" : {
		"windSpeed" : 2.6,
		"windDir" : 306,
		"rain" : 0,
		"cloudbase" : 1533.4976000001,
		"flyability" : 0,
		"reason" : "windDir",
		"timestamp" :1556006400
		},
	"2019-04-23T13:00:00+01:00" : {
		"windSpeed" : 2.7,
		"windDir" : 339,
		"rain" : 0,
		"cloudbase" : 676.46080000001,
		"flyability" : 0,
		"reason" : "windDir",
		"timestamp" :1556017200
		},
	"2019-04-23T16:00:00+01:00" : {
		"windSpeed" : 3.9,
		"windDir" : 350,
		"rain" : 1,
		"cloudbase" : 998.45760000002,
		"flyability" : 0,
		"reason" : "windDir, rain",
		"timestamp" :1556028000
		},
	"2019-04-23T19:00:00+01:00" : {
		"windSpeed" : 3.6,
		"windDir" : 14,
		"rain" : 0,
		"cloudbase" : 951.0144,
		"flyability" : 0,
		"reason" : "windDir",
		"timestamp" :1556038800
		},
	"2019-04-23T22:00:00+01:00" : {
		"windSpeed" : 2.3,
		"windDir" : 31,
		"rain" : 0,
		"cloudbase" : 564.32000000001,
		"flyability" : 100,
		"reason" : "",
		"timestamp" :1556049600
		},
	"2019-04-24T01:00:00+01:00" : {
		"windSpeed" : 1.8,
		"windDir" : 156,
		"rain" : 1,
		"cloudbase" : 2583.6640000001,
		"flyability" : 0,
		"reason" : "windDir, rain",
		"timestamp" :1556060400
		},
	"2019-04-24T04:00:00+01:00" : {
		"windSpeed" : 1.6,
		"windDir" : 163,
		"rain" : 1,
		"cloudbase" : 501.43359999994,
		"flyability" : 0,
		"reason" : "windDir, rain",
		"timestamp" :1556071200
		},
	"2019-04-24T07:00:00+01:00" : {
		"windSpeed" : 2.3,
		"windDir" : 217,
		"rain" : 1,
		"cloudbase" : 331.01760000001,
		"flyability" : 0,
		"reason" : "windDir, rain",
		"timestamp" :1556082000
		},
	"2019-04-24T10:00:00+01:00" : {
		"windSpeed" : 1.6,
		"windDir" : 212,
		"rain" : 1,
		"cloudbase" : 400.65280000001,
		"flyability" : 0,
		"reason" : "windDir, rain",
		"timestamp" :1556092800
		},
	"2019-04-24T13:00:00+01:00" : {
		"windSpeed" : 2.7,
		"windDir" : 167,
		"rain" : 1,
		"cloudbase" : 927.73119999998,
		"flyability" : 0,
		"reason" : "windDir, rain",
		"timestamp" :1556103600
		},
	"2019-04-24T16:00:00+01:00" : {
		"windSpeed" : 2,
		"windDir" : 290,
		"rain" : 1,
		"cloudbase" : 930.4,
		"flyability" : 0,
		"reason" : "windDir, rain",
		"timestamp" :1556114400
		},
	"2019-04-24T19:00:00+01:00" : {
		"windSpeed" : 2.1,
		"windDir" : 14,
		"rain" : 1,
		"cloudbase" : 669.47840000004,
		"flyability" : 0,
		"reason" : "windDir, rain",
		"timestamp" :1556125200
		},
	"2019-04-24T22:00:00+01:00" : {
		"windSpeed" : 2.1,
		"windDir" : 15,
		"rain" : 1,
		"cloudbase" : 612.60800000005,
		"flyability" : 0,
		"reason" : "windDir, rain",
		"timestamp" :1556136000
		},
	"2019-04-25T01:00:00+01:00" : {
		"windSpeed" : 1.4,
		"windDir" : 346,
		"rain" : 1,
		"cloudbase" : 2219.1199999999,
		"flyability" : 0,
		"reason" : "windDir, rain",
		"timestamp" :1556146800
		},
	"2019-04-25T04:00:00+01:00" : {
		"windSpeed" : 2.8,
		"windDir" : 43,
		"rain" : 1,
		"cloudbase" : 920.14719999999,
		"flyability" : 0,
		"reason" : "rain",
		"timestamp" :1556157600
		},
	"2019-04-25T07:00:00+01:00" : {
		"windSpeed" : 4.3,
		"windDir" : 81,
		"rain" : 1,
		"cloudbase" : 383.48160000001,
		"flyability" : 0,
		"reason" : "windDir, rain",
		"timestamp" :1556168400
		},
	"2019-04-25T10:00:00+01:00" : {
		"windSpeed" : 7.4,
		"windDir" : 196,
		"rain" : 1,
		"cloudbase" : 521.38240000002,
		"flyability" : 0,
		"reason" : "windSpeed, windDir, rain",
		"timestamp" :1556179200
		},
	"2019-04-25T13:00:00+01:00" : {
		"windSpeed" : 10.1,
		"windDir" : 204,
		"rain" : 1,
		"cloudbase" : 2479.2287999998,
		"flyability" : 0,
		"reason" : "windSpeed, windDir, rain",
		"timestamp" :1556190000
		},
	"2019-04-25T16:00:00+01:00" : {
		"windSpeed" : 8.5,
		"windDir" : 237,
		"rain" : 1,
		"cloudbase" : 1158.4319999999,
		"flyability" : 0,
		"reason" : "windSpeed, windDir, rain",
		"timestamp" :1556200800
		},
	"2019-04-25T19:00:00+01:00" : {
		"windSpeed" : 6.2,
		"windDir" : 236,
		"rain" : 1,
		"cloudbase" : 4747.1680000001,
		"flyability" : 0,
		"reason" : "windSpeed, windDir, rain",
		"timestamp" :1556211600
		},
	"2019-04-25T22:00:00+01:00" : {
		"windSpeed" : 6,
		"windDir" : 224,
		"rain" : 1,
		"cloudbase" : 5519.072,
		"flyability" : 0,
		"reason" : "windSpeed, windDir, rain",
		"timestamp" :1556222400
		},
	"2019-04-26T01:00:00+01:00" : {
		"windSpeed" : 6.8,
		"windDir" : 252,
		"rain" : 1,
		"cloudbase" : 5650.2080000003,
		"flyability" : 0,
		"reason" : "windSpeed, windDir, rain",
		"timestamp" :1556233200
		}
	}
}