{
"site" : "Pirulo",
"id" : 17427,
"orientations" : "22220022",
"forecasts" : { 
	"2019-04-03T23:00:00-04:00" : {
		"windSpeed" : 2.3,
		"windDir" : 85,
		"rain" : 1,
		"cloudbase" : null,
		"flyability" : 0,
		"reason" : "rain",
		"timestamp" :1554350400
		},
	"2019-04-04T02:00:00-04:00" : {
		"windSpeed" : 2.5,
		"windDir" : 79,
		"rain" : 1,
		"cloudbase" : null,
		"flyability" : 0,
		"reason" : "rain",
		"timestamp" :1554361200
		},
	"2019-04-04T05:00:00-04:00" : {
		"windSpeed" : 2.5,
		"windDir" : 85,
		"rain" : 1,
		"cloudbase" : null,
		"flyability" : 0,
		"reason" : "rain",
		"timestamp" :1554372000
		},
	"2019-04-04T08:00:00-04:00" : {
		"windSpeed" : 2.6,
		"windDir" : 74,
		"rain" : 0,
		"cloudbase" : null,
		"flyability" : 100,
		"reason" : "",
		"timestamp" :1554382800
		},
	"2019-04-04T11:00:00-04:00" : {
		"windSpeed" : 4.4,
		"windDir" : 52,
		"rain" : 0,
		"cloudbase" : 1950,
		"flyability" : 100,
		"reason" : "",
		"timestamp" :1554393600
		},
	"2019-04-04T14:00:00-04:00" : {
		"windSpeed" : 4.7,
		"windDir" : 58,
		"rain" : 1,
		"cloudbase" : 2600,
		"flyability" : 0,
		"reason" : "rain",
		"timestamp" :1554404400
		},
	"2019-04-04T17:00:00-04:00" : {
		"windSpeed" : 3.6,
		"windDir" : 65,
		"rain" : 1,
		"cloudbase" : null,
		"flyability" : 0,
		"reason" : "rain",
		"timestamp" :1554415200
		},
	"2019-04-04T20:00:00-04:00" : {
		"windSpeed" : 3.1,
		"windDir" : 77,
		"rain" : 0,
		"cloudbase" : null,
		"flyability" : 100,
		"reason" : "",
		"timestamp" :1554426000
		},
	"2019-04-04T23:00:00-04:00" : {
		"windSpeed" : 2.8,
		"windDir" : 90,
		"rain" : 0,
		"cloudbase" : null,
		"flyability" : 100,
		"reason" : "",
		"timestamp" :1554436800
		},
	"2019-04-05T02:00:00-04:00" : {
		"windSpeed" : 2.3,
		"windDir" : 97,
		"rain" : 1,
		"cloudbase" : null,
		"flyability" : 0,
		"reason" : "rain",
		"timestamp" :1554447600
		},
	"2019-04-05T05:00:00-04:00" : {
		"windSpeed" : 2.5,
		"windDir" : 85,
		"rain" : 0,
		"cloudbase" : null,
		"flyability" : 100,
		"reason" : "",
		"timestamp" :1554458400
		},
	"2019-04-05T08:00:00-04:00" : {
		"windSpeed" : 2.9,
		"windDir" : 76,
		"rain" : 0,
		"cloudbase" : null,
		"flyability" : 100,
		"reason" : "",
		"timestamp" :1554469200
		},
	"2019-04-05T11:00:00-04:00" : {
		"windSpeed" : 5.1,
		"windDir" : 55,
		"rain" : 0,
		"cloudbase" : null,
		"flyability" : 0,
		"reason" : "windSpeed",
		"timestamp" :1554480000
		},
	"2019-04-05T14:00:00-04:00" : {
		"windSpeed" : 5.3,
		"windDir" : 62,
		"rain" : 0,
		"cloudbase" : null,
		"flyability" : 0,
		"reason" : "windSpeed",
		"timestamp" :1554490800
		},
	"2019-04-05T17:00:00-04:00" : {
		"windSpeed" : 4.5,
		"windDir" : 63,
		"rain" : 0,
		"cloudbase" : null,
		"flyability" : 100,
		"reason" : "",
		"timestamp" :1554501600
		},
	"2019-04-05T20:00:00-04:00" : {
		"windSpeed" : 3.2,
		"windDir" : 81,
		"rain" : 0,
		"cloudbase" : null,
		"flyability" : 100,
		"reason" : "",
		"timestamp" :1554512400
		},
	"2019-04-05T23:00:00-04:00" : {
		"windSpeed" : 3.3,
		"windDir" : 90,
		"rain" : 0,
		"cloudbase" : null,
		"flyability" : 100,
		"reason" : "",
		"timestamp" :1554523200
		},
	"2019-04-06T02:00:00-04:00" : {
		"windSpeed" : 2.5,
		"windDir" : 97,
		"rain" : 0,
		"cloudbase" : null,
		"flyability" : 100,
		"reason" : "",
		"timestamp" :1554534000
		},
	"2019-04-06T05:00:00-04:00" : {
		"windSpeed" : 2.5,
		"windDir" : 90,
		"rain" : 1,
		"cloudbase" : 130,
		"flyability" : 0,
		"reason" : "rain, cloudbase",
		"timestamp" :1554544800
		},
	"2019-04-06T08:00:00-04:00" : {
		"windSpeed" : 2.9,
		"windDir" : 76,
		"rain" : 0,
		"cloudbase" : null,
		"flyability" : 100,
		"reason" : "",
		"timestamp" :1554555600
		},
	"2019-04-06T11:00:00-04:00" : {
		"windSpeed" : 5.3,
		"windDir" : 57,
		"rain" : 0,
		"cloudbase" : null,
		"flyability" : 0,
		"reason" : "windSpeed",
		"timestamp" :1554566400
		},
	"2019-04-06T14:00:00-04:00" : {
		"windSpeed" : 5.9,
		"windDir" : 63,
		"rain" : 0,
		"cloudbase" : 11472.902200001,
		"flyability" : 0,
		"reason" : "windSpeed",
		"timestamp" :1554577200
		},
	"2019-04-06T17:00:00-04:00" : {
		"windSpeed" : 5.6,
		"windDir" : 67,
		"rain" : 0,
		"cloudbase" : null,
		"flyability" : 0,
		"reason" : "windSpeed",
		"timestamp" :1554588000
		},
	"2019-04-06T20:00:00-04:00" : {
		"windSpeed" : 3.7,
		"windDir" : 84,
		"rain" : 0,
		"cloudbase" : null,
		"flyability" : 100,
		"reason" : "",
		"timestamp" :1554598800
		},
	"2019-04-06T23:00:00-04:00" : {
		"windSpeed" : 3,
		"windDir" : 96,
		"rain" : 0,
		"cloudbase" : null,
		"flyability" : 100,
		"reason" : "",
		"timestamp" :1554609600
		},
	"2019-04-07T02:00:00-04:00" : {
		"windSpeed" : 2.5,
		"windDir" : 90,
		"rain" : 0,
		"cloudbase" : null,
		"flyability" : 100,
		"reason" : "",
		"timestamp" :1554620400
		},
	"2019-04-07T05:00:00-04:00" : {
		"windSpeed" : 2.5,
		"windDir" : 85,
		"rain" : 0,
		"cloudbase" : null,
		"flyability" : 100,
		"reason" : "",
		"timestamp" :1554631200
		},
	"2019-04-07T08:00:00-04:00" : {
		"windSpeed" : 3.1,
		"windDir" : 77,
		"rain" : 0,
		"cloudbase" : null,
		"flyability" : 100,
		"reason" : "",
		"timestamp" :1554642000
		},
	"2019-04-07T11:00:00-04:00" : {
		"windSpeed" : 5.4,
		"windDir" : 60,
		"rain" : 0,
		"cloudbase" : 14976.022200001,
		"flyability" : 0,
		"reason" : "windSpeed",
		"timestamp" :1554652800
		},
	"2019-04-07T14:00:00-04:00" : {
		"windSpeed" : 5.8,
		"windDir" : 64,
		"rain" : 1,
		"cloudbase" : 3350,
		"flyability" : 0,
		"reason" : "windSpeed, rain",
		"timestamp" :1554663600
		},
	"2019-04-07T17:00:00-04:00" : {
		"windSpeed" : 5.5,
		"windDir" : 66,
		"rain" : 0,
		"cloudbase" : null,
		"flyability" : 0,
		"reason" : "windSpeed",
		"timestamp" :1554674400
		},
	"2019-04-07T20:00:00-04:00" : {
		"windSpeed" : 3.8,
		"windDir" : 79,
		"rain" : 0,
		"cloudbase" : null,
		"flyability" : 100,
		"reason" : "",
		"timestamp" :1554685200
		},
	"2019-04-07T23:00:00-04:00" : {
		"windSpeed" : 3,
		"windDir" : 96,
		"rain" : 0,
		"cloudbase" : null,
		"flyability" : 100,
		"reason" : "",
		"timestamp" :1554696000
		},
	"2019-04-08T02:00:00-04:00" : {
		"windSpeed" : 3,
		"windDir" : 90,
		"rain" : 0,
		"cloudbase" : null,
		"flyability" : 100,
		"reason" : "",
		"timestamp" :1554706800
		},
	"2019-04-08T05:00:00-04:00" : {
		"windSpeed" : 2.7,
		"windDir" : 96,
		"rain" : 0,
		"cloudbase" : null,
		"flyability" : 100,
		"reason" : "",
		"timestamp" :1554717600
		},
	"2019-04-08T08:00:00-04:00" : {
		"windSpeed" : 2.7,
		"windDir" : 86,
		"rain" : 0,
		"cloudbase" : null,
		"flyability" : 100,
		"reason" : "",
		"timestamp" :1554728400
		},
	"2019-04-08T11:00:00-04:00" : {
		"windSpeed" : 4.9,
		"windDir" : 59,
		"rain" : 0,
		"cloudbase" : 11998.5,
		"flyability" : 100,
		"reason" : "",
		"timestamp" :1554739200
		},
	"2019-04-08T14:00:00-04:00" : {
		"windSpeed" : 4.3,
		"windDir" : 59,
		"rain" : 1,
		"cloudbase" : 9273.0762000007,
		"flyability" : 0,
		"reason" : "rain",
		"timestamp" :1554750000
		},
	"2019-04-08T17:00:00-04:00" : {
		"windSpeed" : 3.5,
		"windDir" : 65,
		"rain" : 1,
		"cloudbase" : 11498.5,
		"flyability" : 0,
		"reason" : "rain",
		"timestamp" :1554760800
		},
	"2019-04-08T20:00:00-04:00" : {
		"windSpeed" : 3.3,
		"windDir" : 78,
		"rain" : 0,
		"cloudbase" : 11979.828,
		"flyability" : 100,
		"reason" : "",
		"timestamp" :1554771600
		},
	"2019-04-08T23:00:00-04:00" : {
		"windSpeed" : 3,
		"windDir" : 86,
		"rain" : 0,
		"cloudbase" : 30,
		"flyability" : 0,
		"reason" : "cloudbase",
		"timestamp" :1554782400
		},
	"2019-04-09T02:00:00-04:00" : {
		"windSpeed" : 3,
		"windDir" : 90,
		"rain" : 0,
		"cloudbase" : null,
		"flyability" : 100,
		"reason" : "",
		"timestamp" :1554793200
		},
	"2019-04-09T05:00:00-04:00" : {
		"windSpeed" : 2.7,
		"windDir" : 96,
		"rain" : 0,
		"cloudbase" : 12997,
		"flyability" : 100,
		"reason" : "",
		"timestamp" :1554804000
		},
	"2019-04-09T08:00:00-04:00" : {
		"windSpeed" : 3,
		"windDir" : 81,
		"rain" : 0,
		"cloudbase" : 12204.5,
		"flyability" : 100,
		"reason" : "",
		"timestamp" :1554814800
		},
	"2019-04-09T11:00:00-04:00" : {
		"windSpeed" : 4.9,
		"windDir" : 59,
		"rain" : 0,
		"cloudbase" : 9798.8144000001,
		"flyability" : 100,
		"reason" : "",
		"timestamp" :1554825600
		},
	"2019-04-09T14:00:00-04:00" : {
		"windSpeed" : 4.2,
		"windDir" : 62,
		"rain" : 1,
		"cloudbase" : 3145.0624000001,
		"flyability" : 0,
		"reason" : "rain",
		"timestamp" :1554836400
		},
	"2019-04-09T17:00:00-04:00" : {
		"windSpeed" : 4.1,
		"windDir" : 65,
		"rain" : 1,
		"cloudbase" : 2188.6512,
		"flyability" : 0,
		"reason" : "rain",
		"timestamp" :1554847200
		},
	"2019-04-09T20:00:00-04:00" : {
		"windSpeed" : 2.5,
		"windDir" : 79,
		"rain" : 0,
		"cloudbase" : null,
		"flyability" : 100,
		"reason" : "",
		"timestamp" :1554858000
		}
	}
}