{
"site" : "The Paps",
"id" : 17438,
"orientations" : "22011222",
"forecasts" : { 
	"2019-04-20T04:00:00+01:00" : {
		"windSpeed" : 1,
		"windDir" : 249,
		"rain" : 0,
		"cloudbase" : 4340.3699999992,
		"flyability" : 100,
		"reason" : "",
		"timestamp" :1555725600
		},
	"2019-04-20T07:00:00+01:00" : {
		"windSpeed" : 0.6,
		"windDir" : 8,
		"rain" : 0,
		"cloudbase" : 30,
		"flyability" : 0,
		"reason" : "cloudbase",
		"timestamp" :1555736400
		},
	"2019-04-20T10:00:00+01:00" : {
		"windSpeed" : 0.5,
		"windDir" : 353,
		"rain" : 0,
		"cloudbase" : 8660.6249999998,
		"flyability" : 100,
		"reason" : "",
		"timestamp" :1555747200
		},
	"2019-04-20T13:00:00+01:00" : {
		"windSpeed" : 0.5,
		"windDir" : 103,
		"rain" : 0,
		"cloudbase" : 7165.5,
		"flyability" : 0,
		"reason" : "windDir",
		"timestamp" :1555758000
		},
	"2019-04-20T16:00:00+01:00" : {
		"windSpeed" : 1.9,
		"windDir" : 182,
		"rain" : 0,
		"cloudbase" : 4991.9999999999,
		"flyability" : 100,
		"reason" : "",
		"timestamp" :1555768800
		},
	"2019-04-20T19:00:00+01:00" : {
		"windSpeed" : 1.8,
		"windDir" : 241,
		"rain" : 0,
		"cloudbase" : 8549.8499999999,
		"flyability" : 100,
		"reason" : "",
		"timestamp" :1555779600
		},
	"2019-04-20T22:00:00+01:00" : {
		"windSpeed" : 1.6,
		"windDir" : 334,
		"rain" : 0,
		"cloudbase" : 5458.5000000003,
		"flyability" : 100,
		"reason" : "",
		"timestamp" :1555790400
		},
	"2019-04-21T01:00:00+01:00" : {
		"windSpeed" : 1,
		"windDir" : 294,
		"rain" : 0,
		"cloudbase" : 3052.1899999998,
		"flyability" : 100,
		"reason" : "",
		"timestamp" :1555801200
		},
	"2019-04-21T04:00:00+01:00" : {
		"windSpeed" : 0.6,
		"windDir" : 239,
		"rain" : 0,
		"cloudbase" : 30,
		"flyability" : 0,
		"reason" : "cloudbase",
		"timestamp" :1555812000
		},
	"2019-04-21T07:00:00+01:00" : {
		"windSpeed" : 1.6,
		"windDir" : 215,
		"rain" : 0,
		"cloudbase" : 30,
		"flyability" : 0,
		"reason" : "cloudbase",
		"timestamp" :1555822800
		},
	"2019-04-21T10:00:00+01:00" : {
		"windSpeed" : 2.8,
		"windDir" : 224,
		"rain" : 0,
		"cloudbase" : 142.50499999999,
		"flyability" : 0,
		"reason" : "cloudbase",
		"timestamp" :1555833600
		},
	"2019-04-21T13:00:00+01:00" : {
		"windSpeed" : 3.6,
		"windDir" : 214,
		"rain" : 0,
		"cloudbase" : 380.77999999999,
		"flyability" : 0,
		"reason" : "cloudbase",
		"timestamp" :1555844400
		},
	"2019-04-21T16:00:00+01:00" : {
		"windSpeed" : 3.7,
		"windDir" : 199,
		"rain" : 1,
		"cloudbase" : 280.40499999998,
		"flyability" : 0,
		"reason" : "rain, cloudbase",
		"timestamp" :1555855200
		},
	"2019-04-21T19:00:00+01:00" : {
		"windSpeed" : 3.5,
		"windDir" : 188,
		"rain" : 1,
		"cloudbase" : 140.78499999999,
		"flyability" : 0,
		"reason" : "rain, cloudbase",
		"timestamp" :1555866000
		},
	"2019-04-21T22:00:00+01:00" : {
		"windSpeed" : 4.7,
		"windDir" : 161,
		"rain" : 1,
		"cloudbase" : 37.507500000001,
		"flyability" : 0,
		"reason" : "rain, cloudbase",
		"timestamp" :1555876800
		},
	"2019-04-22T01:00:00+01:00" : {
		"windSpeed" : 5.4,
		"windDir" : 157,
		"rain" : 1,
		"cloudbase" : 30.5775,
		"flyability" : 0,
		"reason" : "windSpeed, rain, cloudbase",
		"timestamp" :1555887600
		},
	"2019-04-22T04:00:00+01:00" : {
		"windSpeed" : 5.2,
		"windDir" : 162,
		"rain" : 0,
		"cloudbase" : 202.15000000004,
		"flyability" : 0,
		"reason" : "windSpeed, cloudbase",
		"timestamp" :1555898400
		},
	"2019-04-22T07:00:00+01:00" : {
		"windSpeed" : 5.4,
		"windDir" : 157,
		"rain" : 0,
		"cloudbase" : null,
		"flyability" : 0,
		"reason" : "windSpeed",
		"timestamp" :1555909200
		},
	"2019-04-22T10:00:00+01:00" : {
		"windSpeed" : 6.3,
		"windDir" : 152,
		"rain" : 0,
		"cloudbase" : 9600,
		"flyability" : 0,
		"reason" : "windSpeed",
		"timestamp" :1555920000
		},
	"2019-04-22T13:00:00+01:00" : {
		"windSpeed" : 6.5,
		"windDir" : 161,
		"rain" : 0,
		"cloudbase" : 9300,
		"flyability" : 0,
		"reason" : "windSpeed",
		"timestamp" :1555930800
		},
	"2019-04-22T16:00:00+01:00" : {
		"windSpeed" : 6.4,
		"windDir" : 160,
		"rain" : 1,
		"cloudbase" : 9540.4,
		"flyability" : 0,
		"reason" : "windSpeed, rain",
		"timestamp" :1555941600
		},
	"2019-04-22T19:00:00+01:00" : {
		"windSpeed" : 4.3,
		"windDir" : 143,
		"rain" : 1,
		"cloudbase" : 9500,
		"flyability" : 0,
		"reason" : "rain",
		"timestamp" :1555952400
		},
	"2019-04-22T22:00:00+01:00" : {
		"windSpeed" : 3.9,
		"windDir" : 129,
		"rain" : 0,
		"cloudbase" : 138.09,
		"flyability" : 0,
		"reason" : "cloudbase",
		"timestamp" :1555963200
		},
	"2019-04-23T01:00:00+01:00" : {
		"windSpeed" : 3.9,
		"windDir" : 149,
		"rain" : 1,
		"cloudbase" : 56.835000000006,
		"flyability" : 0,
		"reason" : "rain, cloudbase",
		"timestamp" :1555974000
		},
	"2019-04-23T04:00:00+01:00" : {
		"windSpeed" : 2.5,
		"windDir" : 164,
		"rain" : 1,
		"cloudbase" : 86.169999999994,
		"flyability" : 0,
		"reason" : "rain, cloudbase",
		"timestamp" :1555984800
		},
	"2019-04-23T07:00:00+01:00" : {
		"windSpeed" : 1.1,
		"windDir" : 297,
		"rain" : 1,
		"cloudbase" : 870.5350000002,
		"flyability" : 0,
		"reason" : "rain",
		"timestamp" :1555995600
		},
	"2019-04-23T10:00:00+01:00" : {
		"windSpeed" : 1.1,
		"windDir" : 23,
		"rain" : 0,
		"cloudbase" : 942.85000000019,
		"flyability" : 100,
		"reason" : "",
		"timestamp" :1556006400
		},
	"2019-04-23T13:00:00+01:00" : {
		"windSpeed" : 1.5,
		"windDir" : 52,
		"rain" : 1,
		"cloudbase" : 620,
		"flyability" : 0,
		"reason" : "rain, cloudbase",
		"timestamp" :1556017200
		},
	"2019-04-23T16:00:00+01:00" : {
		"windSpeed" : 1.2,
		"windDir" : 74,
		"rain" : 1,
		"cloudbase" : 599.63999999999,
		"flyability" : 0,
		"reason" : "windDir, rain, cloudbase",
		"timestamp" :1556028000
		},
	"2019-04-23T19:00:00+01:00" : {
		"windSpeed" : 0.8,
		"windDir" : 337,
		"rain" : 1,
		"cloudbase" : null,
		"flyability" : 0,
		"reason" : "rain",
		"timestamp" :1556038800
		},
	"2019-04-23T22:00:00+01:00" : {
		"windSpeed" : 2.6,
		"windDir" : 128,
		"rain" : 1,
		"cloudbase" : 431.59500000001,
		"flyability" : 0,
		"reason" : "rain, cloudbase",
		"timestamp" :1556049600
		},
	"2019-04-24T01:00:00+01:00" : {
		"windSpeed" : 3,
		"windDir" : 146,
		"rain" : 1,
		"cloudbase" : 266.04750000005,
		"flyability" : 0,
		"reason" : "rain, cloudbase",
		"timestamp" :1556060400
		},
	"2019-04-24T04:00:00+01:00" : {
		"windSpeed" : 2.7,
		"windDir" : 143,
		"rain" : 1,
		"cloudbase" : 107.05500000002,
		"flyability" : 0,
		"reason" : "rain, cloudbase",
		"timestamp" :1556071200
		},
	"2019-04-24T07:00:00+01:00" : {
		"windSpeed" : 2.5,
		"windDir" : 144,
		"rain" : 1,
		"cloudbase" : 71.935000000011,
		"flyability" : 0,
		"reason" : "rain, cloudbase",
		"timestamp" :1556082000
		},
	"2019-04-24T10:00:00+01:00" : {
		"windSpeed" : 3.7,
		"windDir" : 150,
		"rain" : 1,
		"cloudbase" : 238.42750000004,
		"flyability" : 0,
		"reason" : "rain, cloudbase",
		"timestamp" :1556092800
		},
	"2019-04-24T13:00:00+01:00" : {
		"windSpeed" : 5,
		"windDir" : 155,
		"rain" : 1,
		"cloudbase" : 526.375,
		"flyability" : 0,
		"reason" : "rain, cloudbase",
		"timestamp" :1556103600
		},
	"2019-04-24T16:00:00+01:00" : {
		"windSpeed" : 4.6,
		"windDir" : 151,
		"rain" : 1,
		"cloudbase" : 1454.825,
		"flyability" : 0,
		"reason" : "rain",
		"timestamp" :1556114400
		},
	"2019-04-24T19:00:00+01:00" : {
		"windSpeed" : 1.6,
		"windDir" : 162,
		"rain" : 1,
		"cloudbase" : 943.83000000004,
		"flyability" : 0,
		"reason" : "rain",
		"timestamp" :1556125200
		},
	"2019-04-24T22:00:00+01:00" : {
		"windSpeed" : 0.7,
		"windDir" : 235,
		"rain" : 1,
		"cloudbase" : 1021.715,
		"flyability" : 0,
		"reason" : "rain",
		"timestamp" :1556136000
		},
	"2019-04-25T01:00:00+01:00" : {
		"windSpeed" : 1.6,
		"windDir" : 113,
		"rain" : 1,
		"cloudbase" : 587.60000000004,
		"flyability" : 0,
		"reason" : "rain, cloudbase",
		"timestamp" :1556146800
		},
	"2019-04-25T04:00:00+01:00" : {
		"windSpeed" : 2.2,
		"windDir" : 68,
		"rain" : 1,
		"cloudbase" : 231.36500000002,
		"flyability" : 0,
		"reason" : "windDir, rain, cloudbase",
		"timestamp" :1556157600
		},
	"2019-04-25T07:00:00+01:00" : {
		"windSpeed" : 4.5,
		"windDir" : 173,
		"rain" : 1,
		"cloudbase" : 501.03500000001,
		"flyability" : 0,
		"reason" : "rain, cloudbase",
		"timestamp" :1556168400
		},
	"2019-04-25T10:00:00+01:00" : {
		"windSpeed" : 4.7,
		"windDir" : 187,
		"rain" : 1,
		"cloudbase" : 430,
		"flyability" : 0,
		"reason" : "rain, cloudbase",
		"timestamp" :1556179200
		},
	"2019-04-25T13:00:00+01:00" : {
		"windSpeed" : 5.2,
		"windDir" : 195,
		"rain" : 1,
		"cloudbase" : 430,
		"flyability" : 0,
		"reason" : "windSpeed, rain, cloudbase",
		"timestamp" :1556190000
		},
	"2019-04-25T16:00:00+01:00" : {
		"windSpeed" : 4.3,
		"windDir" : 224,
		"rain" : 1,
		"cloudbase" : 3995.7749999997,
		"flyability" : 0,
		"reason" : "rain",
		"timestamp" :1556200800
		},
	"2019-04-25T19:00:00+01:00" : {
		"windSpeed" : 3.3,
		"windDir" : 245,
		"rain" : 1,
		"cloudbase" : 6198.05,
		"flyability" : 0,
		"reason" : "rain",
		"timestamp" :1556211600
		},
	"2019-04-25T22:00:00+01:00" : {
		"windSpeed" : 2.6,
		"windDir" : 227,
		"rain" : 1,
		"cloudbase" : 5221.15,
		"flyability" : 0,
		"reason" : "rain",
		"timestamp" :1556222400
		},
	"2019-04-26T01:00:00+01:00" : {
		"windSpeed" : 2.7,
		"windDir" : 247,
		"rain" : 0,
		"cloudbase" : 5521.1,
		"flyability" : 100,
		"reason" : "",
		"timestamp" :1556233200
		}
	}
}