{
"site" : "Coomduff",
"id" : 17450,
"orientations" : "00000220",
"forecasts" : { 
	"2019-04-20T04:00:00+01:00" : {
		"windSpeed" : 0.7,
		"windDir" : 8,
		"rain" : 0,
		"cloudbase" : 30,
		"flyability" : 0,
		"reason" : "windDir, cloudbase",
		"timestamp" :1555725600
		},
	"2019-04-20T07:00:00+01:00" : {
		"windSpeed" : 0.9,
		"windDir" : 51,
		"rain" : 0,
		"cloudbase" : 30,
		"flyability" : 0,
		"reason" : "windDir, cloudbase",
		"timestamp" :1555736400
		},
	"2019-04-20T10:00:00+01:00" : {
		"windSpeed" : 1.1,
		"windDir" : 11,
		"rain" : 0,
		"cloudbase" : 88.903059999996,
		"flyability" : 0,
		"reason" : "windDir, cloudbase",
		"timestamp" :1555747200
		},
	"2019-04-20T13:00:00+01:00" : {
		"windSpeed" : 1.4,
		"windDir" : 16,
		"rain" : 0,
		"cloudbase" : 2787.6799999996,
		"flyability" : 0,
		"reason" : "windDir",
		"timestamp" :1555758000
		},
	"2019-04-20T16:00:00+01:00" : {
		"windSpeed" : 2,
		"windDir" : 287,
		"rain" : 0,
		"cloudbase" : 7099.9219999998,
		"flyability" : 100,
		"reason" : "",
		"timestamp" :1555768800
		},
	"2019-04-20T19:00:00+01:00" : {
		"windSpeed" : 2.2,
		"windDir" : 305,
		"rain" : 0,
		"cloudbase" : 9972.2308,
		"flyability" : 0,
		"reason" : "windDir",
		"timestamp" :1555779600
		},
	"2019-04-20T22:00:00+01:00" : {
		"windSpeed" : 1.4,
		"windDir" : 313,
		"rain" : 0,
		"cloudbase" : 2134.7473799997,
		"flyability" : 0,
		"reason" : "windDir",
		"timestamp" :1555790400
		},
	"2019-04-21T01:00:00+01:00" : {
		"windSpeed" : 0.2,
		"windDir" : 67,
		"rain" : 0,
		"cloudbase" : 2368.5695999996,
		"flyability" : 0,
		"reason" : "windDir",
		"timestamp" :1555801200
		},
	"2019-04-21T04:00:00+01:00" : {
		"windSpeed" : 1.5,
		"windDir" : 177,
		"rain" : 0,
		"cloudbase" : 30,
		"flyability" : 0,
		"reason" : "windDir, cloudbase",
		"timestamp" :1555812000
		},
	"2019-04-21T07:00:00+01:00" : {
		"windSpeed" : 3,
		"windDir" : 186,
		"rain" : 0,
		"cloudbase" : 30,
		"flyability" : 0,
		"reason" : "windDir, cloudbase",
		"timestamp" :1555822800
		},
	"2019-04-21T10:00:00+01:00" : {
		"windSpeed" : 4.1,
		"windDir" : 194,
		"rain" : 1,
		"cloudbase" : 65.849240000004,
		"flyability" : 0,
		"reason" : "windDir, rain, cloudbase",
		"timestamp" :1555833600
		},
	"2019-04-21T13:00:00+01:00" : {
		"windSpeed" : 5,
		"windDir" : 190,
		"rain" : 1,
		"cloudbase" : 89.085400000005,
		"flyability" : 0,
		"reason" : "windDir, rain, cloudbase",
		"timestamp" :1555844400
		},
	"2019-04-21T16:00:00+01:00" : {
		"windSpeed" : 5.5,
		"windDir" : 188,
		"rain" : 1,
		"cloudbase" : 80.943080000004,
		"flyability" : 0,
		"reason" : "windSpeed, windDir, rain, cloudbase",
		"timestamp" :1555855200
		},
	"2019-04-21T19:00:00+01:00" : {
		"windSpeed" : 5.7,
		"windDir" : 178,
		"rain" : 1,
		"cloudbase" : 61.823840000002,
		"flyability" : 0,
		"reason" : "windSpeed, windDir, rain, cloudbase",
		"timestamp" :1555866000
		},
	"2019-04-21T22:00:00+01:00" : {
		"windSpeed" : 6.6,
		"windDir" : 171,
		"rain" : 1,
		"cloudbase" : 38.154620000001,
		"flyability" : 0,
		"reason" : "windSpeed, windDir, rain, cloudbase",
		"timestamp" :1555876800
		},
	"2019-04-22T01:00:00+01:00" : {
		"windSpeed" : 7,
		"windDir" : 164,
		"rain" : 1,
		"cloudbase" : 58.650760000003,
		"flyability" : 0,
		"reason" : "windSpeed, windDir, rain, cloudbase",
		"timestamp" :1555887600
		},
	"2019-04-22T04:00:00+01:00" : {
		"windSpeed" : 7,
		"windDir" : 159,
		"rain" : 1,
		"cloudbase" : 54.945380000002,
		"flyability" : 0,
		"reason" : "windSpeed, windDir, rain, cloudbase",
		"timestamp" :1555898400
		},
	"2019-04-22T07:00:00+01:00" : {
		"windSpeed" : 6.9,
		"windDir" : 156,
		"rain" : 0,
		"cloudbase" : 6419.6,
		"flyability" : 0,
		"reason" : "windSpeed, windDir",
		"timestamp" :1555909200
		},
	"2019-04-22T10:00:00+01:00" : {
		"windSpeed" : 7.4,
		"windDir" : 158,
		"rain" : 0,
		"cloudbase" : 5624.1384,
		"flyability" : 0,
		"reason" : "windSpeed, windDir",
		"timestamp" :1555920000
		},
	"2019-04-22T13:00:00+01:00" : {
		"windSpeed" : 7,
		"windDir" : 156,
		"rain" : 0,
		"cloudbase" : 5247.3692,
		"flyability" : 0,
		"reason" : "windSpeed, windDir",
		"timestamp" :1555930800
		},
	"2019-04-22T16:00:00+01:00" : {
		"windSpeed" : 6.6,
		"windDir" : 155,
		"rain" : 0,
		"cloudbase" : 5374.8308,
		"flyability" : 0,
		"reason" : "windSpeed, windDir",
		"timestamp" :1555941600
		},
	"2019-04-22T19:00:00+01:00" : {
		"windSpeed" : 5.5,
		"windDir" : 143,
		"rain" : 0,
		"cloudbase" : 5858.8616,
		"flyability" : 0,
		"reason" : "windSpeed, windDir",
		"timestamp" :1555952400
		},
	"2019-04-22T22:00:00+01:00" : {
		"windSpeed" : 4.6,
		"windDir" : 141,
		"rain" : 0,
		"cloudbase" : 1009.8861200001,
		"flyability" : 0,
		"reason" : "windDir",
		"timestamp" :1555963200
		},
	"2019-04-23T01:00:00+01:00" : {
		"windSpeed" : 4.2,
		"windDir" : 183,
		"rain" : 0,
		"cloudbase" : 50,
		"flyability" : 0,
		"reason" : "windDir, cloudbase",
		"timestamp" :1555974000
		},
	"2019-04-23T04:00:00+01:00" : {
		"windSpeed" : 2.5,
		"windDir" : 184,
		"rain" : 0,
		"cloudbase" : null,
		"flyability" : 0,
		"reason" : "windDir",
		"timestamp" :1555984800
		},
	"2019-04-23T07:00:00+01:00" : {
		"windSpeed" : 1.9,
		"windDir" : 293,
		"rain" : 0,
		"cloudbase" : 1850,
		"flyability" : 0,
		"reason" : "windDir",
		"timestamp" :1555995600
		},
	"2019-04-23T10:00:00+01:00" : {
		"windSpeed" : 2.3,
		"windDir" : 347,
		"rain" : 0,
		"cloudbase" : 984.1664,
		"flyability" : 0,
		"reason" : "windDir",
		"timestamp" :1556006400
		},
	"2019-04-23T13:00:00+01:00" : {
		"windSpeed" : 2.6,
		"windDir" : 23,
		"rain" : 0,
		"cloudbase" : 670.38152,
		"flyability" : 0,
		"reason" : "windDir",
		"timestamp" :1556017200
		},
	"2019-04-23T16:00:00+01:00" : {
		"windSpeed" : 3.6,
		"windDir" : 11,
		"rain" : 1,
		"cloudbase" : 1236.15232,
		"flyability" : 0,
		"reason" : "windDir, rain",
		"timestamp" :1556028000
		},
	"2019-04-23T19:00:00+01:00" : {
		"windSpeed" : 2.9,
		"windDir" : 26,
		"rain" : 1,
		"cloudbase" : 1038.8692,
		"flyability" : 0,
		"reason" : "windDir, rain",
		"timestamp" :1556038800
		},
	"2019-04-23T22:00:00+01:00" : {
		"windSpeed" : 2.2,
		"windDir" : 53,
		"rain" : 1,
		"cloudbase" : 719.21232,
		"flyability" : 0,
		"reason" : "windDir, rain",
		"timestamp" :1556049600
		},
	"2019-04-24T01:00:00+01:00" : {
		"windSpeed" : 1.9,
		"windDir" : 165,
		"rain" : 1,
		"cloudbase" : 242.54616,
		"flyability" : 0,
		"reason" : "windDir, rain",
		"timestamp" :1556060400
		},
	"2019-04-24T04:00:00+01:00" : {
		"windSpeed" : 1.9,
		"windDir" : 215,
		"rain" : 1,
		"cloudbase" : 331.57235999998,
		"flyability" : 0,
		"reason" : "rain",
		"timestamp" :1556071200
		},
	"2019-04-24T07:00:00+01:00" : {
		"windSpeed" : 1.6,
		"windDir" : 198,
		"rain" : 1,
		"cloudbase" : 553.48624000001,
		"flyability" : 0,
		"reason" : "windDir, rain",
		"timestamp" :1556082000
		},
	"2019-04-24T10:00:00+01:00" : {
		"windSpeed" : 2.4,
		"windDir" : 150,
		"rain" : 1,
		"cloudbase" : 788.94152,
		"flyability" : 0,
		"reason" : "windDir, rain",
		"timestamp" :1556092800
		},
	"2019-04-24T13:00:00+01:00" : {
		"windSpeed" : 5,
		"windDir" : 161,
		"rain" : 0,
		"cloudbase" : 593.85232000001,
		"flyability" : 0,
		"reason" : "windDir",
		"timestamp" :1556103600
		},
	"2019-04-24T16:00:00+01:00" : {
		"windSpeed" : 4.3,
		"windDir" : 163,
		"rain" : 1,
		"cloudbase" : 625.75696000001,
		"flyability" : 0,
		"reason" : "windDir, rain",
		"timestamp" :1556114400
		},
	"2019-04-24T19:00:00+01:00" : {
		"windSpeed" : 2.5,
		"windDir" : 153,
		"rain" : 1,
		"cloudbase" : 2004.6,
		"flyability" : 0,
		"reason" : "windDir, rain",
		"timestamp" :1556125200
		},
	"2019-04-24T22:00:00+01:00" : {
		"windSpeed" : 1.3,
		"windDir" : 158,
		"rain" : 1,
		"cloudbase" : 2013.9462,
		"flyability" : 0,
		"reason" : "windDir, rain",
		"timestamp" :1556136000
		},
	"2019-04-25T01:00:00+01:00" : {
		"windSpeed" : 1.1,
		"windDir" : 69,
		"rain" : 1,
		"cloudbase" : 5226.1154000004,
		"flyability" : 0,
		"reason" : "windDir, rain",
		"timestamp" :1556146800
		},
	"2019-04-25T04:00:00+01:00" : {
		"windSpeed" : 0.4,
		"windDir" : 43,
		"rain" : 1,
		"cloudbase" : 888.70151999999,
		"flyability" : 0,
		"reason" : "windDir, rain",
		"timestamp" :1556157600
		},
	"2019-04-25T07:00:00+01:00" : {
		"windSpeed" : 3.3,
		"windDir" : 186,
		"rain" : 1,
		"cloudbase" : 588.62464000001,
		"flyability" : 0,
		"reason" : "windDir, rain",
		"timestamp" :1556168400
		},
	"2019-04-25T10:00:00+01:00" : {
		"windSpeed" : 5.7,
		"windDir" : 212,
		"rain" : 1,
		"cloudbase" : 627.19999999999,
		"flyability" : 0,
		"reason" : "windSpeed, rain",
		"timestamp" :1556179200
		},
	"2019-04-25T13:00:00+01:00" : {
		"windSpeed" : 7.7,
		"windDir" : 236,
		"rain" : 1,
		"cloudbase" : 1072.74484,
		"flyability" : 0,
		"reason" : "windSpeed, rain",
		"timestamp" :1556190000
		},
	"2019-04-25T16:00:00+01:00" : {
		"windSpeed" : 5.5,
		"windDir" : 248,
		"rain" : 1,
		"cloudbase" : 3392.9689999999,
		"flyability" : 0,
		"reason" : "windSpeed, rain",
		"timestamp" :1556200800
		},
	"2019-04-25T19:00:00+01:00" : {
		"windSpeed" : 5,
		"windDir" : 244,
		"rain" : 1,
		"cloudbase" : 5059.5,
		"flyability" : 0,
		"reason" : "rain",
		"timestamp" :1556211600
		},
	"2019-04-25T22:00:00+01:00" : {
		"windSpeed" : 4.1,
		"windDir" : 231,
		"rain" : 1,
		"cloudbase" : 4782.1318000001,
		"flyability" : 0,
		"reason" : "rain",
		"timestamp" :1556222400
		},
	"2019-04-26T01:00:00+01:00" : {
		"windSpeed" : 5.1,
		"windDir" : 262,
		"rain" : 1,
		"cloudbase" : 7100,
		"flyability" : 0,
		"reason" : "windSpeed, rain",
		"timestamp" :1556233200
		}
	}
}