{
"site" : "Mweelrea",
"id" : 17507,
"orientations" : "00000022",
"forecasts" : { 
	"2019-04-14T04:00:00+01:00" : {
		"windSpeed" : 8.8,
		"windDir" : 123,
		"rain" : 1,
		"cloudbase" : 475.07172000018,
		"flyability" : 0,
		"reason" : "windSpeed, windDir, rain, cloudbase",
		"timestamp" :1555207200
		},
	"2019-04-14T07:00:00+01:00" : {
		"windSpeed" : 8.6,
		"windDir" : 124,
		"rain" : 1,
		"cloudbase" : 328.87190000018,
		"flyability" : 0,
		"reason" : "windSpeed, windDir, rain, cloudbase",
		"timestamp" :1555218000
		},
	"2019-04-14T10:00:00+01:00" : {
		"windSpeed" : 8.5,
		"windDir" : 132,
		"rain" : 1,
		"cloudbase" : 431.01720000008,
		"flyability" : 0,
		"reason" : "windSpeed, windDir, rain, cloudbase",
		"timestamp" :1555228800
		},
	"2019-04-14T13:00:00+01:00" : {
		"windSpeed" : 8.8,
		"windDir" : 144,
		"rain" : 1,
		"cloudbase" : 432.12000000002,
		"flyability" : 0,
		"reason" : "windSpeed, windDir, rain, cloudbase",
		"timestamp" :1555239600
		},
	"2019-04-14T16:00:00+01:00" : {
		"windSpeed" : 6.8,
		"windDir" : 129,
		"rain" : 1,
		"cloudbase" : 512.22000000003,
		"flyability" : 0,
		"reason" : "windSpeed, windDir, rain, cloudbase",
		"timestamp" :1555250400
		},
	"2019-04-14T19:00:00+01:00" : {
		"windSpeed" : 6.1,
		"windDir" : 118,
		"rain" : 1,
		"cloudbase" : 627.49472000005,
		"flyability" : 0,
		"reason" : "windSpeed, windDir, rain, cloudbase",
		"timestamp" :1555261200
		},
	"2019-04-14T22:00:00+01:00" : {
		"windSpeed" : 6.6,
		"windDir" : 118,
		"rain" : 1,
		"cloudbase" : 752.77452000012,
		"flyability" : 0,
		"reason" : "windSpeed, windDir, rain, cloudbase",
		"timestamp" :1555272000
		},
	"2019-04-15T01:00:00+01:00" : {
		"windSpeed" : 7.5,
		"windDir" : 118,
		"rain" : 1,
		"cloudbase" : 1404.9330000001,
		"flyability" : 0,
		"reason" : "windSpeed, windDir, rain",
		"timestamp" :1555282800
		},
	"2019-04-15T04:00:00+01:00" : {
		"windSpeed" : 8.5,
		"windDir" : 111,
		"rain" : 0,
		"cloudbase" : 1917.6538000001,
		"flyability" : 0,
		"reason" : "windSpeed, windDir",
		"timestamp" :1555293600
		},
	"2019-04-15T07:00:00+01:00" : {
		"windSpeed" : 10.7,
		"windDir" : 115,
		"rain" : 1,
		"cloudbase" : 2482.8660000002,
		"flyability" : 0,
		"reason" : "windSpeed, windDir, rain",
		"timestamp" :1555304400
		},
	"2019-04-15T10:00:00+01:00" : {
		"windSpeed" : 10.6,
		"windDir" : 117,
		"rain" : 1,
		"cloudbase" : 2717.1028000006,
		"flyability" : 0,
		"reason" : "windSpeed, windDir, rain",
		"timestamp" :1555315200
		},
	"2019-04-15T13:00:00+01:00" : {
		"windSpeed" : 11.1,
		"windDir" : 122,
		"rain" : 1,
		"cloudbase" : 2667.9302,
		"flyability" : 0,
		"reason" : "windSpeed, windDir, rain",
		"timestamp" :1555326000
		},
	"2019-04-15T16:00:00+01:00" : {
		"windSpeed" : 10.5,
		"windDir" : 124,
		"rain" : 1,
		"cloudbase" : 3065.8688000006,
		"flyability" : 0,
		"reason" : "windSpeed, windDir, rain",
		"timestamp" :1555336800
		},
	"2019-04-15T19:00:00+01:00" : {
		"windSpeed" : 9.5,
		"windDir" : 142,
		"rain" : 1,
		"cloudbase" : 522.55284000008,
		"flyability" : 0,
		"reason" : "windSpeed, windDir, rain, cloudbase",
		"timestamp" :1555347600
		},
	"2019-04-15T22:00:00+01:00" : {
		"windSpeed" : 6,
		"windDir" : 151,
		"rain" : 1,
		"cloudbase" : 645.58112,
		"flyability" : 0,
		"reason" : "windSpeed, windDir, rain, cloudbase",
		"timestamp" :1555358400
		},
	"2019-04-16T01:00:00+01:00" : {
		"windSpeed" : 4,
		"windDir" : 150,
		"rain" : 1,
		"cloudbase" : 1686.0099600004,
		"flyability" : 0,
		"reason" : "windDir, rain",
		"timestamp" :1555369200
		},
	"2019-04-16T04:00:00+01:00" : {
		"windSpeed" : 3.7,
		"windDir" : 139,
		"rain" : 0,
		"cloudbase" : 7648.5584000003,
		"flyability" : 0,
		"reason" : "windDir",
		"timestamp" :1555380000
		},
	"2019-04-16T07:00:00+01:00" : {
		"windSpeed" : 3.3,
		"windDir" : 134,
		"rain" : 0,
		"cloudbase" : 30,
		"flyability" : 0,
		"reason" : "windDir, cloudbase",
		"timestamp" :1555390800
		},
	"2019-04-16T10:00:00+01:00" : {
		"windSpeed" : 3.7,
		"windDir" : 140,
		"rain" : 1,
		"cloudbase" : 220,
		"flyability" : 0,
		"reason" : "windDir, rain, cloudbase",
		"timestamp" :1555401600
		},
	"2019-04-16T13:00:00+01:00" : {
		"windSpeed" : 3.8,
		"windDir" : 155,
		"rain" : 0,
		"cloudbase" : 1809.7290000005,
		"flyability" : 0,
		"reason" : "windDir",
		"timestamp" :1555412400
		},
	"2019-04-16T16:00:00+01:00" : {
		"windSpeed" : 3.2,
		"windDir" : 176,
		"rain" : 1,
		"cloudbase" : 1553.1,
		"flyability" : 0,
		"reason" : "windDir, rain",
		"timestamp" :1555423200
		},
	"2019-04-16T19:00:00+01:00" : {
		"windSpeed" : 1.5,
		"windDir" : 88,
		"rain" : 1,
		"cloudbase" : 6799.5111999998,
		"flyability" : 0,
		"reason" : "windDir, rain",
		"timestamp" :1555434000
		},
	"2019-04-16T22:00:00+01:00" : {
		"windSpeed" : 5,
		"windDir" : 104,
		"rain" : 0,
		"cloudbase" : 7878.1451999999,
		"flyability" : 0,
		"reason" : "windDir",
		"timestamp" :1555444800
		},
	"2019-04-17T01:00:00+01:00" : {
		"windSpeed" : 3.7,
		"windDir" : 131,
		"rain" : 0,
		"cloudbase" : 8336.8848000003,
		"flyability" : 0,
		"reason" : "windDir",
		"timestamp" :1555455600
		},
	"2019-04-17T04:00:00+01:00" : {
		"windSpeed" : 4.2,
		"windDir" : 121,
		"rain" : 1,
		"cloudbase" : 3556.3829200012,
		"flyability" : 0,
		"reason" : "windDir, rain",
		"timestamp" :1555466400
		},
	"2019-04-17T07:00:00+01:00" : {
		"windSpeed" : 5.1,
		"windDir" : 125,
		"rain" : 0,
		"cloudbase" : 107.37736000002,
		"flyability" : 0,
		"reason" : "windSpeed, windDir, cloudbase",
		"timestamp" :1555477200
		},
	"2019-04-17T10:00:00+01:00" : {
		"windSpeed" : 5.4,
		"windDir" : 132,
		"rain" : 1,
		"cloudbase" : 4146.1,
		"flyability" : 0,
		"reason" : "windSpeed, windDir, rain",
		"timestamp" :1555488000
		},
	"2019-04-17T13:00:00+01:00" : {
		"windSpeed" : 5.1,
		"windDir" : 128,
		"rain" : 1,
		"cloudbase" : 2853.7632,
		"flyability" : 0,
		"reason" : "windSpeed, windDir, rain",
		"timestamp" :1555498800
		},
	"2019-04-17T16:00:00+01:00" : {
		"windSpeed" : 4.9,
		"windDir" : 135,
		"rain" : 0,
		"cloudbase" : 7424.0736000001,
		"flyability" : 0,
		"reason" : "windDir",
		"timestamp" :1555509600
		},
	"2019-04-17T19:00:00+01:00" : {
		"windSpeed" : 3.9,
		"windDir" : 121,
		"rain" : 0,
		"cloudbase" : 8066.7207999998,
		"flyability" : 0,
		"reason" : "windDir",
		"timestamp" :1555520400
		},
	"2019-04-17T22:00:00+01:00" : {
		"windSpeed" : 4.1,
		"windDir" : 118,
		"rain" : 1,
		"cloudbase" : 8726.0132000001,
		"flyability" : 0,
		"reason" : "windDir, rain",
		"timestamp" :1555531200
		},
	"2019-04-18T01:00:00+01:00" : {
		"windSpeed" : 5,
		"windDir" : 114,
		"rain" : 0,
		"cloudbase" : 8623.5736,
		"flyability" : 0,
		"reason" : "windDir",
		"timestamp" :1555542000
		},
	"2019-04-18T04:00:00+01:00" : {
		"windSpeed" : 4.9,
		"windDir" : 109,
		"rain" : 0,
		"cloudbase" : 5788.9340000001,
		"flyability" : 0,
		"reason" : "windDir",
		"timestamp" :1555552800
		},
	"2019-04-18T07:00:00+01:00" : {
		"windSpeed" : 5.1,
		"windDir" : 114,
		"rain" : 0,
		"cloudbase" : 5800.2075999999,
		"flyability" : 0,
		"reason" : "windSpeed, windDir",
		"timestamp" :1555563600
		},
	"2019-04-18T10:00:00+01:00" : {
		"windSpeed" : 5.1,
		"windDir" : 114,
		"rain" : 0,
		"cloudbase" : null,
		"flyability" : 0,
		"reason" : "windSpeed, windDir",
		"timestamp" :1555574400
		},
	"2019-04-18T13:00:00+01:00" : {
		"windSpeed" : 5,
		"windDir" : 136,
		"rain" : 0,
		"cloudbase" : null,
		"flyability" : 0,
		"reason" : "windDir",
		"timestamp" :1555585200
		},
	"2019-04-18T16:00:00+01:00" : {
		"windSpeed" : 5.1,
		"windDir" : 141,
		"rain" : 0,
		"cloudbase" : null,
		"flyability" : 0,
		"reason" : "windSpeed, windDir",
		"timestamp" :1555596000
		},
	"2019-04-18T19:00:00+01:00" : {
		"windSpeed" : 3.5,
		"windDir" : 147,
		"rain" : 1,
		"cloudbase" : 6514.1168000005,
		"flyability" : 0,
		"reason" : "windDir, rain",
		"timestamp" :1555606800
		},
	"2019-04-18T22:00:00+01:00" : {
		"windSpeed" : 3.4,
		"windDir" : 137,
		"rain" : 1,
		"cloudbase" : null,
		"flyability" : 0,
		"reason" : "windDir, rain",
		"timestamp" :1555617600
		},
	"2019-04-19T01:00:00+01:00" : {
		"windSpeed" : 4.1,
		"windDir" : 135,
		"rain" : 0,
		"cloudbase" : 9280.1868,
		"flyability" : 0,
		"reason" : "windDir",
		"timestamp" :1555628400
		},
	"2019-04-19T04:00:00+01:00" : {
		"windSpeed" : 4,
		"windDir" : 138,
		"rain" : 1,
		"cloudbase" : 7725.4,
		"flyability" : 0,
		"reason" : "windDir, rain",
		"timestamp" :1555639200
		},
	"2019-04-19T07:00:00+01:00" : {
		"windSpeed" : 3.8,
		"windDir" : 137,
		"rain" : 1,
		"cloudbase" : null,
		"flyability" : 0,
		"reason" : "windDir, rain",
		"timestamp" :1555650000
		},
	"2019-04-19T10:00:00+01:00" : {
		"windSpeed" : 4.2,
		"windDir" : 146,
		"rain" : 0,
		"cloudbase" : null,
		"flyability" : 0,
		"reason" : "windDir",
		"timestamp" :1555660800
		},
	"2019-04-19T13:00:00+01:00" : {
		"windSpeed" : 4.4,
		"windDir" : 167,
		"rain" : 0,
		"cloudbase" : 12058.934,
		"flyability" : 0,
		"reason" : "windDir",
		"timestamp" :1555671600
		},
	"2019-04-19T16:00:00+01:00" : {
		"windSpeed" : 3.8,
		"windDir" : 191,
		"rain" : 0,
		"cloudbase" : 9725.5132,
		"flyability" : 0,
		"reason" : "windDir",
		"timestamp" :1555682400
		},
	"2019-04-19T19:00:00+01:00" : {
		"windSpeed" : 1.5,
		"windDir" : 235,
		"rain" : 0,
		"cloudbase" : 11342,
		"flyability" : 0,
		"reason" : "windDir",
		"timestamp" :1555693200
		},
	"2019-04-19T22:00:00+01:00" : {
		"windSpeed" : 0.5,
		"windDir" : 13,
		"rain" : 0,
		"cloudbase" : 10285.566,
		"flyability" : 0,
		"reason" : "windDir",
		"timestamp" :1555704000
		},
	"2019-04-20T01:00:00+01:00" : {
		"windSpeed" : 1.7,
		"windDir" : 175,
		"rain" : 0,
		"cloudbase" : 9657.1132,
		"flyability" : 0,
		"reason" : "windDir",
		"timestamp" :1555714800
		}
	}
}