{
"site" : "Empire Bluff ",
"id" : 17515,
"orientations" : "00000122",
"forecasts" : { 
	"2019-04-20T11:00:00-04:00" : {
		"windSpeed" : 4.7,
		"windDir" : 25,
		"rain" : 0,
		"cloudbase" : null,
		"flyability" : 0,
		"reason" : "windDir",
		"timestamp" :1555776000
		},
	"2019-04-20T14:00:00-04:00" : {
		"windSpeed" : 4.7,
		"windDir" : 12,
		"rain" : 0,
		"cloudbase" : null,
		"flyability" : 0,
		"reason" : "windDir",
		"timestamp" :1555786800
		},
	"2019-04-20T17:00:00-04:00" : {
		"windSpeed" : 4.1,
		"windDir" : 12,
		"rain" : 0,
		"cloudbase" : null,
		"flyability" : 0,
		"reason" : "windDir",
		"timestamp" :1555797600
		},
	"2019-04-20T20:00:00-04:00" : {
		"windSpeed" : 2.4,
		"windDir" : 46,
		"rain" : 0,
		"cloudbase" : null,
		"flyability" : 0,
		"reason" : "windDir",
		"timestamp" :1555808400
		},
	"2019-04-20T23:00:00-04:00" : {
		"windSpeed" : 1.2,
		"windDir" : 47,
		"rain" : 0,
		"cloudbase" : null,
		"flyability" : 0,
		"reason" : "windDir",
		"timestamp" :1555819200
		},
	"2019-04-21T02:00:00-04:00" : {
		"windSpeed" : 1.9,
		"windDir" : 180,
		"rain" : 0,
		"cloudbase" : null,
		"flyability" : 0,
		"reason" : "windDir",
		"timestamp" :1555830000
		},
	"2019-04-21T05:00:00-04:00" : {
		"windSpeed" : 3.4,
		"windDir" : 189,
		"rain" : 0,
		"cloudbase" : null,
		"flyability" : 0,
		"reason" : "windDir",
		"timestamp" :1555840800
		},
	"2019-04-21T08:00:00-04:00" : {
		"windSpeed" : 3.5,
		"windDir" : 197,
		"rain" : 0,
		"cloudbase" : null,
		"flyability" : 0,
		"reason" : "windDir",
		"timestamp" :1555851600
		},
	"2019-04-21T11:00:00-04:00" : {
		"windSpeed" : 3.4,
		"windDir" : 213,
		"rain" : 1,
		"cloudbase" : null,
		"flyability" : 0,
		"reason" : "rain",
		"timestamp" :1555862400
		},
	"2019-04-21T14:00:00-04:00" : {
		"windSpeed" : 3.9,
		"windDir" : 235,
		"rain" : 1,
		"cloudbase" : 7000,
		"flyability" : 0,
		"reason" : "rain",
		"timestamp" :1555873200
		},
	"2019-04-21T17:00:00-04:00" : {
		"windSpeed" : 3.3,
		"windDir" : 241,
		"rain" : 0,
		"cloudbase" : null,
		"flyability" : 100,
		"reason" : "",
		"timestamp" :1555884000
		},
	"2019-04-21T20:00:00-04:00" : {
		"windSpeed" : 1.1,
		"windDir" : 53,
		"rain" : 0,
		"cloudbase" : null,
		"flyability" : 0,
		"reason" : "windDir",
		"timestamp" :1555894800
		},
	"2019-04-21T23:00:00-04:00" : {
		"windSpeed" : 3.9,
		"windDir" : 97,
		"rain" : 0,
		"cloudbase" : 4542.95,
		"flyability" : 0,
		"reason" : "windDir",
		"timestamp" :1555905600
		},
	"2019-04-22T02:00:00-04:00" : {
		"windSpeed" : 4.1,
		"windDir" : 161,
		"rain" : 0,
		"cloudbase" : null,
		"flyability" : 0,
		"reason" : "windDir",
		"timestamp" :1555916400
		},
	"2019-04-22T05:00:00-04:00" : {
		"windSpeed" : 5.1,
		"windDir" : 159,
		"rain" : 0,
		"cloudbase" : 7000,
		"flyability" : 0,
		"reason" : "windSpeed, windDir",
		"timestamp" :1555927200
		},
	"2019-04-22T08:00:00-04:00" : {
		"windSpeed" : 5,
		"windDir" : 164,
		"rain" : 0,
		"cloudbase" : 8459.0982,
		"flyability" : 0,
		"reason" : "windDir",
		"timestamp" :1555938000
		},
	"2019-04-22T11:00:00-04:00" : {
		"windSpeed" : 4.1,
		"windDir" : 192,
		"rain" : 0,
		"cloudbase" : 4950,
		"flyability" : 0,
		"reason" : "windDir",
		"timestamp" :1555948800
		},
	"2019-04-22T14:00:00-04:00" : {
		"windSpeed" : 4.3,
		"windDir" : 211,
		"rain" : 0,
		"cloudbase" : null,
		"flyability" : 100,
		"reason" : "",
		"timestamp" :1555959600
		},
	"2019-04-22T17:00:00-04:00" : {
		"windSpeed" : 6.8,
		"windDir" : 219,
		"rain" : 1,
		"cloudbase" : 10500,
		"flyability" : 0,
		"reason" : "windSpeed, rain",
		"timestamp" :1555970400
		},
	"2019-04-22T20:00:00-04:00" : {
		"windSpeed" : 4.7,
		"windDir" : 203,
		"rain" : 1,
		"cloudbase" : 2493.05,
		"flyability" : 0,
		"reason" : "rain",
		"timestamp" :1555981200
		},
	"2019-04-22T23:00:00-04:00" : {
		"windSpeed" : 3.8,
		"windDir" : 193,
		"rain" : 1,
		"cloudbase" : 917.30099,
		"flyability" : 0,
		"reason" : "windDir, rain",
		"timestamp" :1555992000
		},
	"2019-04-23T02:00:00-04:00" : {
		"windSpeed" : 1.5,
		"windDir" : 3,
		"rain" : 1,
		"cloudbase" : 30.944230000001,
		"flyability" : 0,
		"reason" : "windDir, rain, cloudbase",
		"timestamp" :1556002800
		},
	"2019-04-23T05:00:00-04:00" : {
		"windSpeed" : 3.8,
		"windDir" : 350,
		"rain" : 1,
		"cloudbase" : 42.189955,
		"flyability" : 0,
		"reason" : "windDir, rain, cloudbase",
		"timestamp" :1556013600
		},
	"2019-04-23T08:00:00-04:00" : {
		"windSpeed" : 5.8,
		"windDir" : 349,
		"rain" : 1,
		"cloudbase" : 429.08035999999,
		"flyability" : 0,
		"reason" : "windSpeed, windDir, rain",
		"timestamp" :1556024400
		},
	"2019-04-23T11:00:00-04:00" : {
		"windSpeed" : 6.5,
		"windDir" : 347,
		"rain" : 1,
		"cloudbase" : 358.59982,
		"flyability" : 0,
		"reason" : "windSpeed, windDir, rain",
		"timestamp" :1556035200
		},
	"2019-04-23T14:00:00-04:00" : {
		"windSpeed" : 5.3,
		"windDir" : 332,
		"rain" : 0,
		"cloudbase" : 9118.3152999999,
		"flyability" : 0,
		"reason" : "windSpeed",
		"timestamp" :1556046000
		},
	"2019-04-23T17:00:00-04:00" : {
		"windSpeed" : 5.4,
		"windDir" : 342,
		"rain" : 1,
		"cloudbase" : null,
		"flyability" : 0,
		"reason" : "windSpeed, windDir, rain",
		"timestamp" :1556056800
		},
	"2019-04-23T20:00:00-04:00" : {
		"windSpeed" : 5.8,
		"windDir" : 349,
		"rain" : 0,
		"cloudbase" : null,
		"flyability" : 0,
		"reason" : "windSpeed, windDir",
		"timestamp" :1556067600
		},
	"2019-04-23T23:00:00-04:00" : {
		"windSpeed" : 5.7,
		"windDir" : 360,
		"rain" : 0,
		"cloudbase" : null,
		"flyability" : 0,
		"reason" : "windSpeed, windDir",
		"timestamp" :1556078400
		},
	"2019-04-24T02:00:00-04:00" : {
		"windSpeed" : 2.4,
		"windDir" : 360,
		"rain" : 0,
		"cloudbase" : null,
		"flyability" : 0,
		"reason" : "windDir",
		"timestamp" :1556089200
		},
	"2019-04-24T05:00:00-04:00" : {
		"windSpeed" : 2.2,
		"windDir" : 333,
		"rain" : 1,
		"cloudbase" : null,
		"flyability" : 0,
		"reason" : "rain",
		"timestamp" :1556100000
		},
	"2019-04-24T08:00:00-04:00" : {
		"windSpeed" : 1.3,
		"windDir" : 336,
		"rain" : 0,
		"cloudbase" : null,
		"flyability" : 100,
		"reason" : "",
		"timestamp" :1556110800
		},
	"2019-04-24T11:00:00-04:00" : {
		"windSpeed" : 1.9,
		"windDir" : 285,
		"rain" : 0,
		"cloudbase" : null,
		"flyability" : 100,
		"reason" : "",
		"timestamp" :1556121600
		},
	"2019-04-24T14:00:00-04:00" : {
		"windSpeed" : 2.6,
		"windDir" : 284,
		"rain" : 1,
		"cloudbase" : 10500,
		"flyability" : 0,
		"reason" : "rain",
		"timestamp" :1556132400
		},
	"2019-04-24T17:00:00-04:00" : {
		"windSpeed" : 3.7,
		"windDir" : 234,
		"rain" : 1,
		"cloudbase" : null,
		"flyability" : 0,
		"reason" : "rain",
		"timestamp" :1556143200
		},
	"2019-04-24T20:00:00-04:00" : {
		"windSpeed" : 3.3,
		"windDir" : 189,
		"rain" : 0,
		"cloudbase" : null,
		"flyability" : 0,
		"reason" : "windDir",
		"timestamp" :1556154000
		},
	"2019-04-24T23:00:00-04:00" : {
		"windSpeed" : 4,
		"windDir" : 193,
		"rain" : 0,
		"cloudbase" : 9768.7009,
		"flyability" : 0,
		"reason" : "windDir",
		"timestamp" :1556164800
		},
	"2019-04-25T02:00:00-04:00" : {
		"windSpeed" : 4.3,
		"windDir" : 187,
		"rain" : 1,
		"cloudbase" : 9698.3991,
		"flyability" : 0,
		"reason" : "windDir, rain",
		"timestamp" :1556175600
		},
	"2019-04-25T05:00:00-04:00" : {
		"windSpeed" : 4.5,
		"windDir" : 193,
		"rain" : 1,
		"cloudbase" : null,
		"flyability" : 0,
		"reason" : "windDir, rain",
		"timestamp" :1556186400
		},
	"2019-04-25T08:00:00-04:00" : {
		"windSpeed" : 4.1,
		"windDir" : 199,
		"rain" : 0,
		"cloudbase" : 6927.7991,
		"flyability" : 0,
		"reason" : "windDir",
		"timestamp" :1556197200
		},
	"2019-04-25T11:00:00-04:00" : {
		"windSpeed" : 4.8,
		"windDir" : 212,
		"rain" : 1,
		"cloudbase" : 1700,
		"flyability" : 0,
		"reason" : "rain",
		"timestamp" :1556208000
		},
	"2019-04-25T14:00:00-04:00" : {
		"windSpeed" : 4.9,
		"windDir" : 220,
		"rain" : 0,
		"cloudbase" : 6223.7215999999,
		"flyability" : 100,
		"reason" : "",
		"timestamp" :1556218800
		},
	"2019-04-25T17:00:00-04:00" : {
		"windSpeed" : 3.5,
		"windDir" : 238,
		"rain" : 1,
		"cloudbase" : 956.36811000001,
		"flyability" : 0,
		"reason" : "rain",
		"timestamp" :1556229600
		},
	"2019-04-25T20:00:00-04:00" : {
		"windSpeed" : 1.6,
		"windDir" : 308,
		"rain" : 1,
		"cloudbase" : 4474.2260999999,
		"flyability" : 0,
		"reason" : "rain",
		"timestamp" :1556240400
		},
	"2019-04-25T23:00:00-04:00" : {
		"windSpeed" : 2.9,
		"windDir" : 25,
		"rain" : 1,
		"cloudbase" : 4878.5900499998,
		"flyability" : 0,
		"reason" : "windDir, rain",
		"timestamp" :1556251200
		},
	"2019-04-26T02:00:00-04:00" : {
		"windSpeed" : 2,
		"windDir" : 360,
		"rain" : 1,
		"cloudbase" : 30,
		"flyability" : 0,
		"reason" : "windDir, rain, cloudbase",
		"timestamp" :1556262000
		},
	"2019-04-26T05:00:00-04:00" : {
		"windSpeed" : 0.7,
		"windDir" : 241,
		"rain" : 1,
		"cloudbase" : 30,
		"flyability" : 0,
		"reason" : "rain, cloudbase",
		"timestamp" :1556272800
		},
	"2019-04-26T08:00:00-04:00" : {
		"windSpeed" : 3,
		"windDir" : 222,
		"rain" : 0,
		"cloudbase" : 30,
		"flyability" : 0,
		"reason" : "cloudbase",
		"timestamp" :1556283600
		}
	}
}