{
"site" : "Barreiros, Monte Comado",
"id" : 17566,
"orientations" : "12000000",
"forecasts" : { 
	"2019-04-05T05:00:00+02:00" : {
		"windSpeed" : 4.4,
		"windDir" : 203,
		"rain" : 1,
		"cloudbase" : 4100.10405,
		"flyability" : 0,
		"reason" : "windDir, rain",
		"timestamp" :1554436800
		},
	"2019-04-05T08:00:00+02:00" : {
		"windSpeed" : 4.8,
		"windDir" : 200,
		"rain" : 1,
		"cloudbase" : null,
		"flyability" : 0,
		"reason" : "windDir, rain",
		"timestamp" :1554447600
		},
	"2019-04-05T11:00:00+02:00" : {
		"windSpeed" : 7.5,
		"windDir" : 206,
		"rain" : 0,
		"cloudbase" : 5632.1,
		"flyability" : 0,
		"reason" : "windSpeed, windDir",
		"timestamp" :1554458400
		},
	"2019-04-05T14:00:00+02:00" : {
		"windSpeed" : 7.5,
		"windDir" : 218,
		"rain" : 0,
		"cloudbase" : 3936.54595,
		"flyability" : 0,
		"reason" : "windSpeed, windDir",
		"timestamp" :1554469200
		},
	"2019-04-05T17:00:00+02:00" : {
		"windSpeed" : 6.8,
		"windDir" : 231,
		"rain" : 1,
		"cloudbase" : 6181.9,
		"flyability" : 0,
		"reason" : "windSpeed, windDir, rain",
		"timestamp" :1554480000
		},
	"2019-04-05T20:00:00+02:00" : {
		"windSpeed" : 3.9,
		"windDir" : 229,
		"rain" : 1,
		"cloudbase" : 7000,
		"flyability" : 0,
		"reason" : "windDir, rain",
		"timestamp" :1554490800
		},
	"2019-04-05T23:00:00+02:00" : {
		"windSpeed" : 5.4,
		"windDir" : 200,
		"rain" : 0,
		"cloudbase" : 6314,
		"flyability" : 0,
		"reason" : "windSpeed, windDir",
		"timestamp" :1554501600
		},
	"2019-04-06T02:00:00+02:00" : {
		"windSpeed" : 6.6,
		"windDir" : 202,
		"rain" : 1,
		"cloudbase" : 6900,
		"flyability" : 0,
		"reason" : "windSpeed, windDir, rain",
		"timestamp" :1554512400
		},
	"2019-04-06T05:00:00+02:00" : {
		"windSpeed" : 7.2,
		"windDir" : 196,
		"rain" : 1,
		"cloudbase" : 3788.9554499999,
		"flyability" : 0,
		"reason" : "windSpeed, windDir, rain",
		"timestamp" :1554523200
		},
	"2019-04-06T08:00:00+02:00" : {
		"windSpeed" : 5.3,
		"windDir" : 184,
		"rain" : 0,
		"cloudbase" : 5200,
		"flyability" : 0,
		"reason" : "windSpeed, windDir",
		"timestamp" :1554534000
		},
	"2019-04-06T11:00:00+02:00" : {
		"windSpeed" : 5.5,
		"windDir" : 207,
		"rain" : 0,
		"cloudbase" : 760,
		"flyability" : 0,
		"reason" : "windSpeed, windDir",
		"timestamp" :1554544800
		},
	"2019-04-06T14:00:00+02:00" : {
		"windSpeed" : 2.5,
		"windDir" : 328,
		"rain" : 1,
		"cloudbase" : 920,
		"flyability" : 0,
		"reason" : "windDir, rain",
		"timestamp" :1554555600
		},
	"2019-04-06T17:00:00+02:00" : {
		"windSpeed" : 4.9,
		"windDir" : 299,
		"rain" : 0,
		"cloudbase" : 640,
		"flyability" : 0,
		"reason" : "windDir",
		"timestamp" :1554566400
		},
	"2019-04-06T20:00:00+02:00" : {
		"windSpeed" : 4.1,
		"windDir" : 270,
		"rain" : 1,
		"cloudbase" : null,
		"flyability" : 0,
		"reason" : "windDir, rain",
		"timestamp" :1554577200
		},
	"2019-04-06T23:00:00+02:00" : {
		"windSpeed" : 3.1,
		"windDir" : 205,
		"rain" : 0,
		"cloudbase" : null,
		"flyability" : 0,
		"reason" : "windDir",
		"timestamp" :1554588000
		},
	"2019-04-07T02:00:00+02:00" : {
		"windSpeed" : 3.6,
		"windDir" : 208,
		"rain" : 0,
		"cloudbase" : null,
		"flyability" : 0,
		"reason" : "windDir",
		"timestamp" :1554598800
		},
	"2019-04-07T05:00:00+02:00" : {
		"windSpeed" : 3.7,
		"windDir" : 206,
		"rain" : 0,
		"cloudbase" : null,
		"flyability" : 0,
		"reason" : "windDir",
		"timestamp" :1554609600
		},
	"2019-04-07T08:00:00+02:00" : {
		"windSpeed" : 4.7,
		"windDir" : 208,
		"rain" : 0,
		"cloudbase" : 8351.1081,
		"flyability" : 0,
		"reason" : "windDir",
		"timestamp" :1554620400
		},
	"2019-04-07T11:00:00+02:00" : {
		"windSpeed" : 5.8,
		"windDir" : 211,
		"rain" : 0,
		"cloudbase" : 5960.6785,
		"flyability" : 0,
		"reason" : "windSpeed, windDir",
		"timestamp" :1554631200
		},
	"2019-04-07T14:00:00+02:00" : {
		"windSpeed" : 6.5,
		"windDir" : 206,
		"rain" : 1,
		"cloudbase" : 1139.8419,
		"flyability" : 0,
		"reason" : "windSpeed, windDir, rain",
		"timestamp" :1554642000
		},
	"2019-04-07T17:00:00+02:00" : {
		"windSpeed" : 4,
		"windDir" : 201,
		"rain" : 1,
		"cloudbase" : 2197.40405,
		"flyability" : 0,
		"reason" : "windDir, rain",
		"timestamp" :1554652800
		},
	"2019-04-07T20:00:00+02:00" : {
		"windSpeed" : 3.4,
		"windDir" : 163,
		"rain" : 1,
		"cloudbase" : 2535.36355,
		"flyability" : 0,
		"reason" : "windDir, rain",
		"timestamp" :1554663600
		},
	"2019-04-07T23:00:00+02:00" : {
		"windSpeed" : 5.2,
		"windDir" : 209,
		"rain" : 1,
		"cloudbase" : 2794.15405,
		"flyability" : 0,
		"reason" : "windSpeed, windDir, rain",
		"timestamp" :1554674400
		},
	"2019-04-08T02:00:00+02:00" : {
		"windSpeed" : 4.2,
		"windDir" : 219,
		"rain" : 0,
		"cloudbase" : null,
		"flyability" : 0,
		"reason" : "windDir",
		"timestamp" :1554685200
		},
	"2019-04-08T05:00:00+02:00" : {
		"windSpeed" : 6.3,
		"windDir" : 213,
		"rain" : 0,
		"cloudbase" : null,
		"flyability" : 0,
		"reason" : "windSpeed, windDir",
		"timestamp" :1554696000
		},
	"2019-04-08T08:00:00+02:00" : {
		"windSpeed" : 6.9,
		"windDir" : 214,
		"rain" : 0,
		"cloudbase" : null,
		"flyability" : 0,
		"reason" : "windSpeed, windDir",
		"timestamp" :1554706800
		},
	"2019-04-08T11:00:00+02:00" : {
		"windSpeed" : 7.7,
		"windDir" : 211,
		"rain" : 0,
		"cloudbase" : null,
		"flyability" : 0,
		"reason" : "windSpeed, windDir",
		"timestamp" :1554717600
		},
	"2019-04-08T14:00:00+02:00" : {
		"windSpeed" : 9,
		"windDir" : 210,
		"rain" : 0,
		"cloudbase" : null,
		"flyability" : 0,
		"reason" : "windSpeed, windDir",
		"timestamp" :1554728400
		},
	"2019-04-08T17:00:00+02:00" : {
		"windSpeed" : 8.4,
		"windDir" : 213,
		"rain" : 1,
		"cloudbase" : 6752.0838,
		"flyability" : 0,
		"reason" : "windSpeed, windDir, rain",
		"timestamp" :1554739200
		},
	"2019-04-08T20:00:00+02:00" : {
		"windSpeed" : 8.1,
		"windDir" : 204,
		"rain" : 1,
		"cloudbase" : 6851.1081,
		"flyability" : 0,
		"reason" : "windSpeed, windDir, rain",
		"timestamp" :1554750000
		},
	"2019-04-08T23:00:00+02:00" : {
		"windSpeed" : 6.8,
		"windDir" : 200,
		"rain" : 1,
		"cloudbase" : 1050,
		"flyability" : 0,
		"reason" : "windSpeed, windDir, rain",
		"timestamp" :1554760800
		},
	"2019-04-09T02:00:00+02:00" : {
		"windSpeed" : 6.3,
		"windDir" : 198,
		"rain" : 0,
		"cloudbase" : null,
		"flyability" : 0,
		"reason" : "windSpeed, windDir",
		"timestamp" :1554771600
		},
	"2019-04-09T05:00:00+02:00" : {
		"windSpeed" : 6.8,
		"windDir" : 201,
		"rain" : 1,
		"cloudbase" : 6409.5704,
		"flyability" : 0,
		"reason" : "windSpeed, windDir, rain",
		"timestamp" :1554782400
		},
	"2019-04-09T08:00:00+02:00" : {
		"windSpeed" : 7.2,
		"windDir" : 197,
		"rain" : 0,
		"cloudbase" : null,
		"flyability" : 0,
		"reason" : "windSpeed, windDir",
		"timestamp" :1554793200
		},
	"2019-04-09T11:00:00+02:00" : {
		"windSpeed" : 7.1,
		"windDir" : 239,
		"rain" : 1,
		"cloudbase" : 6493.7405,
		"flyability" : 0,
		"reason" : "windSpeed, windDir, rain",
		"timestamp" :1554804000
		},
	"2019-04-09T14:00:00+02:00" : {
		"windSpeed" : 7.9,
		"windDir" : 239,
		"rain" : 1,
		"cloudbase" : null,
		"flyability" : 0,
		"reason" : "windSpeed, windDir, rain",
		"timestamp" :1554814800
		},
	"2019-04-09T17:00:00+02:00" : {
		"windSpeed" : 7.3,
		"windDir" : 245,
		"rain" : 1,
		"cloudbase" : 1800,
		"flyability" : 0,
		"reason" : "windSpeed, windDir, rain",
		"timestamp" :1554825600
		},
	"2019-04-09T20:00:00+02:00" : {
		"windSpeed" : 5.7,
		"windDir" : 234,
		"rain" : 1,
		"cloudbase" : 5503.3081,
		"flyability" : 0,
		"reason" : "windSpeed, windDir, rain",
		"timestamp" :1554836400
		},
	"2019-04-09T23:00:00+02:00" : {
		"windSpeed" : 4.7,
		"windDir" : 237,
		"rain" : 1,
		"cloudbase" : null,
		"flyability" : 0,
		"reason" : "windDir, rain",
		"timestamp" :1554847200
		},
	"2019-04-10T02:00:00+02:00" : {
		"windSpeed" : 4.6,
		"windDir" : 228,
		"rain" : 1,
		"cloudbase" : null,
		"flyability" : 0,
		"reason" : "windDir, rain",
		"timestamp" :1554858000
		},
	"2019-04-10T05:00:00+02:00" : {
		"windSpeed" : 4.1,
		"windDir" : 225,
		"rain" : 0,
		"cloudbase" : null,
		"flyability" : 0,
		"reason" : "windDir",
		"timestamp" :1554868800
		},
	"2019-04-10T08:00:00+02:00" : {
		"windSpeed" : 3.5,
		"windDir" : 225,
		"rain" : 1,
		"cloudbase" : null,
		"flyability" : 0,
		"reason" : "windDir, rain",
		"timestamp" :1554879600
		},
	"2019-04-10T11:00:00+02:00" : {
		"windSpeed" : 5.1,
		"windDir" : 273,
		"rain" : 1,
		"cloudbase" : null,
		"flyability" : 0,
		"reason" : "windSpeed, windDir, rain",
		"timestamp" :1554890400
		},
	"2019-04-10T14:00:00+02:00" : {
		"windSpeed" : 4.2,
		"windDir" : 283,
		"rain" : 1,
		"cloudbase" : 3086.2918999999,
		"flyability" : 0,
		"reason" : "windDir, rain",
		"timestamp" :1554901200
		},
	"2019-04-10T17:00:00+02:00" : {
		"windSpeed" : 3.4,
		"windDir" : 296,
		"rain" : 1,
		"cloudbase" : 1799.3076299999,
		"flyability" : 0,
		"reason" : "windDir, rain",
		"timestamp" :1554912000
		},
	"2019-04-10T20:00:00+02:00" : {
		"windSpeed" : 2.1,
		"windDir" : 254,
		"rain" : 1,
		"cloudbase" : 4480.2162,
		"flyability" : 0,
		"reason" : "windDir, rain",
		"timestamp" :1554922800
		},
	"2019-04-10T23:00:00+02:00" : {
		"windSpeed" : 3.3,
		"windDir" : 201,
		"rain" : 0,
		"cloudbase" : 3627.65,
		"flyability" : 0,
		"reason" : "windDir",
		"timestamp" :1554933600
		},
	"2019-04-11T02:00:00+02:00" : {
		"windSpeed" : 4.9,
		"windDir" : 205,
		"rain" : 0,
		"cloudbase" : 6118.01185,
		"flyability" : 0,
		"reason" : "windDir",
		"timestamp" :1554944400
		}
	}
}