{
"site" : "Domusnovas",
"id" : 18009,
"orientations" : "00022200",
"forecasts" : { 
	"2019-04-18T05:00:00+02:00" : {
		"windSpeed" : 4,
		"windDir" : 68,
		"rain" : 0,
		"cloudbase" : 6847.6149999999,
		"flyability" : 0,
		"reason" : "windDir",
		"timestamp" :1555560000
		},
	"2019-04-18T08:00:00+02:00" : {
		"windSpeed" : 4.4,
		"windDir" : 71,
		"rain" : 0,
		"cloudbase" : 9099.8499999999,
		"flyability" : 0,
		"reason" : "windDir",
		"timestamp" :1555570800
		},
	"2019-04-18T11:00:00+02:00" : {
		"windSpeed" : 6.4,
		"windDir" : 95,
		"rain" : 0,
		"cloudbase" : 9698.9,
		"flyability" : 0,
		"reason" : "windSpeed, windDir",
		"timestamp" :1555581600
		},
	"2019-04-18T14:00:00+02:00" : {
		"windSpeed" : 7.4,
		"windDir" : 98,
		"rain" : 0,
		"cloudbase" : 8933.6,
		"flyability" : 0,
		"reason" : "windSpeed, windDir",
		"timestamp" :1555592400
		},
	"2019-04-18T17:00:00+02:00" : {
		"windSpeed" : 7.4,
		"windDir" : 95,
		"rain" : 0,
		"cloudbase" : 8591,
		"flyability" : 0,
		"reason" : "windSpeed, windDir",
		"timestamp" :1555603200
		},
	"2019-04-18T20:00:00+02:00" : {
		"windSpeed" : 6,
		"windDir" : 82,
		"rain" : 0,
		"cloudbase" : 10500,
		"flyability" : 0,
		"reason" : "windSpeed, windDir",
		"timestamp" :1555614000
		},
	"2019-04-18T23:00:00+02:00" : {
		"windSpeed" : 6.1,
		"windDir" : 77,
		"rain" : 0,
		"cloudbase" : 6600,
		"flyability" : 0,
		"reason" : "windSpeed, windDir",
		"timestamp" :1555624800
		},
	"2019-04-19T02:00:00+02:00" : {
		"windSpeed" : 6,
		"windDir" : 78,
		"rain" : 0,
		"cloudbase" : 10241.5,
		"flyability" : 0,
		"reason" : "windSpeed, windDir",
		"timestamp" :1555635600
		},
	"2019-04-19T05:00:00+02:00" : {
		"windSpeed" : 5.9,
		"windDir" : 77,
		"rain" : 1,
		"cloudbase" : 8270.5000000001,
		"flyability" : 0,
		"reason" : "windSpeed, windDir, rain",
		"timestamp" :1555646400
		},
	"2019-04-19T08:00:00+02:00" : {
		"windSpeed" : 6.2,
		"windDir" : 79,
		"rain" : 0,
		"cloudbase" : 6123.6,
		"flyability" : 0,
		"reason" : "windSpeed, windDir",
		"timestamp" :1555657200
		},
	"2019-04-19T11:00:00+02:00" : {
		"windSpeed" : 7.8,
		"windDir" : 99,
		"rain" : 0,
		"cloudbase" : null,
		"flyability" : 0,
		"reason" : "windSpeed, windDir",
		"timestamp" :1555668000
		},
	"2019-04-19T14:00:00+02:00" : {
		"windSpeed" : 7.9,
		"windDir" : 101,
		"rain" : 0,
		"cloudbase" : null,
		"flyability" : 0,
		"reason" : "windSpeed, windDir",
		"timestamp" :1555678800
		},
	"2019-04-19T17:00:00+02:00" : {
		"windSpeed" : 7.6,
		"windDir" : 94,
		"rain" : 0,
		"cloudbase" : 10574.9,
		"flyability" : 0,
		"reason" : "windSpeed, windDir",
		"timestamp" :1555689600
		},
	"2019-04-19T20:00:00+02:00" : {
		"windSpeed" : 6.6,
		"windDir" : 85,
		"rain" : 0,
		"cloudbase" : null,
		"flyability" : 0,
		"reason" : "windSpeed, windDir",
		"timestamp" :1555700400
		},
	"2019-04-19T23:00:00+02:00" : {
		"windSpeed" : 6.1,
		"windDir" : 84,
		"rain" : 0,
		"cloudbase" : 8189.4,
		"flyability" : 0,
		"reason" : "windSpeed, windDir",
		"timestamp" :1555711200
		},
	"2019-04-20T02:00:00+02:00" : {
		"windSpeed" : 6,
		"windDir" : 80,
		"rain" : 0,
		"cloudbase" : 8272.8000000001,
		"flyability" : 0,
		"reason" : "windSpeed, windDir",
		"timestamp" :1555722000
		},
	"2019-04-20T05:00:00+02:00" : {
		"windSpeed" : 6.1,
		"windDir" : 80,
		"rain" : 0,
		"cloudbase" : 6014.7,
		"flyability" : 0,
		"reason" : "windSpeed, windDir",
		"timestamp" :1555732800
		},
	"2019-04-20T08:00:00+02:00" : {
		"windSpeed" : 6,
		"windDir" : 81,
		"rain" : 1,
		"cloudbase" : 6531.6,
		"flyability" : 0,
		"reason" : "windSpeed, windDir, rain",
		"timestamp" :1555743600
		},
	"2019-04-20T11:00:00+02:00" : {
		"windSpeed" : 7.8,
		"windDir" : 88,
		"rain" : 0,
		"cloudbase" : 6832.2,
		"flyability" : 0,
		"reason" : "windSpeed, windDir",
		"timestamp" :1555754400
		},
	"2019-04-20T14:00:00+02:00" : {
		"windSpeed" : 9.1,
		"windDir" : 94,
		"rain" : 0,
		"cloudbase" : 5176.3,
		"flyability" : 0,
		"reason" : "windSpeed, windDir",
		"timestamp" :1555765200
		},
	"2019-04-20T17:00:00+02:00" : {
		"windSpeed" : 9.4,
		"windDir" : 89,
		"rain" : 0,
		"cloudbase" : 5476.3,
		"flyability" : 0,
		"reason" : "windSpeed, windDir",
		"timestamp" :1555776000
		},
	"2019-04-20T20:00:00+02:00" : {
		"windSpeed" : 8.5,
		"windDir" : 84,
		"rain" : 1,
		"cloudbase" : 5800,
		"flyability" : 0,
		"reason" : "windSpeed, windDir, rain",
		"timestamp" :1555786800
		},
	"2019-04-20T23:00:00+02:00" : {
		"windSpeed" : 8.5,
		"windDir" : 93,
		"rain" : 0,
		"cloudbase" : 8040.6,
		"flyability" : 0,
		"reason" : "windSpeed, windDir",
		"timestamp" :1555797600
		},
	"2019-04-21T02:00:00+02:00" : {
		"windSpeed" : 7.8,
		"windDir" : 87,
		"rain" : 1,
		"cloudbase" : 8488.2,
		"flyability" : 0,
		"reason" : "windSpeed, windDir, rain",
		"timestamp" :1555808400
		},
	"2019-04-21T05:00:00+02:00" : {
		"windSpeed" : 8.1,
		"windDir" : 84,
		"rain" : 0,
		"cloudbase" : 9300.7,
		"flyability" : 0,
		"reason" : "windSpeed, windDir",
		"timestamp" :1555819200
		},
	"2019-04-21T08:00:00+02:00" : {
		"windSpeed" : 8.8,
		"windDir" : 91,
		"rain" : 0,
		"cloudbase" : 9679.9,
		"flyability" : 0,
		"reason" : "windSpeed, windDir",
		"timestamp" :1555830000
		},
	"2019-04-21T11:00:00+02:00" : {
		"windSpeed" : 10.5,
		"windDir" : 97,
		"rain" : 1,
		"cloudbase" : 10031.5,
		"flyability" : 0,
		"reason" : "windSpeed, windDir, rain",
		"timestamp" :1555840800
		},
	"2019-04-21T14:00:00+02:00" : {
		"windSpeed" : 10.8,
		"windDir" : 100,
		"rain" : 0,
		"cloudbase" : 9976.3,
		"flyability" : 0,
		"reason" : "windSpeed, windDir",
		"timestamp" :1555851600
		},
	"2019-04-21T17:00:00+02:00" : {
		"windSpeed" : 10.3,
		"windDir" : 96,
		"rain" : 0,
		"cloudbase" : 8960,
		"flyability" : 0,
		"reason" : "windSpeed, windDir",
		"timestamp" :1555862400
		},
	"2019-04-21T20:00:00+02:00" : {
		"windSpeed" : 8.8,
		"windDir" : 87,
		"rain" : 0,
		"cloudbase" : 7470,
		"flyability" : 0,
		"reason" : "windSpeed, windDir",
		"timestamp" :1555873200
		},
	"2019-04-21T23:00:00+02:00" : {
		"windSpeed" : 8.5,
		"windDir" : 87,
		"rain" : 0,
		"cloudbase" : null,
		"flyability" : 0,
		"reason" : "windSpeed, windDir",
		"timestamp" :1555884000
		},
	"2019-04-22T02:00:00+02:00" : {
		"windSpeed" : 8.3,
		"windDir" : 90,
		"rain" : 0,
		"cloudbase" : null,
		"flyability" : 0,
		"reason" : "windSpeed, windDir",
		"timestamp" :1555894800
		},
	"2019-04-22T05:00:00+02:00" : {
		"windSpeed" : 8.9,
		"windDir" : 83,
		"rain" : 0,
		"cloudbase" : null,
		"flyability" : 0,
		"reason" : "windSpeed, windDir",
		"timestamp" :1555905600
		},
	"2019-04-22T08:00:00+02:00" : {
		"windSpeed" : 9.4,
		"windDir" : 81,
		"rain" : 0,
		"cloudbase" : null,
		"flyability" : 0,
		"reason" : "windSpeed, windDir",
		"timestamp" :1555916400
		},
	"2019-04-22T11:00:00+02:00" : {
		"windSpeed" : 10.6,
		"windDir" : 95,
		"rain" : 0,
		"cloudbase" : null,
		"flyability" : 0,
		"reason" : "windSpeed, windDir",
		"timestamp" :1555927200
		},
	"2019-04-22T14:00:00+02:00" : {
		"windSpeed" : 7.9,
		"windDir" : 100,
		"rain" : 0,
		"cloudbase" : null,
		"flyability" : 0,
		"reason" : "windSpeed, windDir",
		"timestamp" :1555938000
		},
	"2019-04-22T17:00:00+02:00" : {
		"windSpeed" : 3,
		"windDir" : 145,
		"rain" : 0,
		"cloudbase" : null,
		"flyability" : 100,
		"reason" : "",
		"timestamp" :1555948800
		},
	"2019-04-22T20:00:00+02:00" : {
		"windSpeed" : 1,
		"windDir" : 249,
		"rain" : 0,
		"cloudbase" : null,
		"flyability" : 0,
		"reason" : "windDir",
		"timestamp" :1555959600
		},
	"2019-04-22T23:00:00+02:00" : {
		"windSpeed" : 1.9,
		"windDir" : 238,
		"rain" : 1,
		"cloudbase" : 938.90000000012,
		"flyability" : 0,
		"reason" : "rain",
		"timestamp" :1555970400
		},
	"2019-04-23T02:00:00+02:00" : {
		"windSpeed" : 2.6,
		"windDir" : 225,
		"rain" : 1,
		"cloudbase" : 35.940000000001,
		"flyability" : 0,
		"reason" : "rain, cloudbase",
		"timestamp" :1555981200
		},
	"2019-04-23T05:00:00+02:00" : {
		"windSpeed" : 3,
		"windDir" : 236,
		"rain" : 1,
		"cloudbase" : 144.345,
		"flyability" : 0,
		"reason" : "rain, cloudbase",
		"timestamp" :1555992000
		},
	"2019-04-23T08:00:00+02:00" : {
		"windSpeed" : 3.7,
		"windDir" : 233,
		"rain" : 1,
		"cloudbase" : 180,
		"flyability" : 0,
		"reason" : "rain, cloudbase",
		"timestamp" :1556002800
		},
	"2019-04-23T11:00:00+02:00" : {
		"windSpeed" : 3.6,
		"windDir" : 235,
		"rain" : 1,
		"cloudbase" : 223.94,
		"flyability" : 0,
		"reason" : "rain, cloudbase",
		"timestamp" :1556013600
		},
	"2019-04-23T14:00:00+02:00" : {
		"windSpeed" : 4.4,
		"windDir" : 234,
		"rain" : 1,
		"cloudbase" : 540,
		"flyability" : 0,
		"reason" : "rain",
		"timestamp" :1556024400
		},
	"2019-04-23T17:00:00+02:00" : {
		"windSpeed" : 3.9,
		"windDir" : 229,
		"rain" : 1,
		"cloudbase" : null,
		"flyability" : 0,
		"reason" : "rain",
		"timestamp" :1556035200
		},
	"2019-04-23T20:00:00+02:00" : {
		"windSpeed" : 1,
		"windDir" : 206,
		"rain" : 1,
		"cloudbase" : null,
		"flyability" : 0,
		"reason" : "rain",
		"timestamp" :1556046000
		},
	"2019-04-23T23:00:00+02:00" : {
		"windSpeed" : 1.5,
		"windDir" : 58,
		"rain" : 0,
		"cloudbase" : null,
		"flyability" : 0,
		"reason" : "windDir",
		"timestamp" :1556056800
		},
	"2019-04-24T02:00:00+02:00" : {
		"windSpeed" : 2.3,
		"windDir" : 72,
		"rain" : 0,
		"cloudbase" : 9676.3,
		"flyability" : 0,
		"reason" : "windDir",
		"timestamp" :1556067600
		}
	}
}