{
"site" : "Ploaghe",
"id" : 18011,
"orientations" : "00000120",
"forecasts" : { 
	"2019-04-09T17:00:00+02:00" : {
		"windSpeed" : 5.9,
		"windDir" : 250,
		"rain" : 1,
		"cloudbase" : 3872.2399999999,
		"flyability" : 0,
		"reason" : "windSpeed, rain",
		"timestamp" :1554825600
		},
	"2019-04-09T20:00:00+02:00" : {
		"windSpeed" : 1.8,
		"windDir" : 190,
		"rain" : 1,
		"cloudbase" : null,
		"flyability" : 0,
		"reason" : "windDir, rain",
		"timestamp" :1554836400
		},
	"2019-04-09T23:00:00+02:00" : {
		"windSpeed" : 4,
		"windDir" : 206,
		"rain" : 1,
		"cloudbase" : 170,
		"flyability" : 0,
		"reason" : "rain, cloudbase",
		"timestamp" :1554847200
		},
	"2019-04-10T02:00:00+02:00" : {
		"windSpeed" : 4.5,
		"windDir" : 227,
		"rain" : 1,
		"cloudbase" : 134.82239999998,
		"flyability" : 0,
		"reason" : "rain, cloudbase",
		"timestamp" :1554858000
		},
	"2019-04-10T05:00:00+02:00" : {
		"windSpeed" : 4.2,
		"windDir" : 252,
		"rain" : 1,
		"cloudbase" : 192.59199999999,
		"flyability" : 0,
		"reason" : "rain, cloudbase",
		"timestamp" :1554868800
		},
	"2019-04-10T08:00:00+02:00" : {
		"windSpeed" : 4,
		"windDir" : 220,
		"rain" : 1,
		"cloudbase" : 4646.4479999995,
		"flyability" : 0,
		"reason" : "rain",
		"timestamp" :1554879600
		},
	"2019-04-10T11:00:00+02:00" : {
		"windSpeed" : 5.8,
		"windDir" : 214,
		"rain" : 1,
		"cloudbase" : 879.73439999976,
		"flyability" : 0,
		"reason" : "windSpeed, rain",
		"timestamp" :1554890400
		},
	"2019-04-10T14:00:00+02:00" : {
		"windSpeed" : 5.8,
		"windDir" : 249,
		"rain" : 1,
		"cloudbase" : 1331.728,
		"flyability" : 0,
		"reason" : "windSpeed, rain",
		"timestamp" :1554901200
		},
	"2019-04-10T17:00:00+02:00" : {
		"windSpeed" : 3.4,
		"windDir" : 264,
		"rain" : 1,
		"cloudbase" : 246.09279999999,
		"flyability" : 0,
		"reason" : "rain, cloudbase",
		"timestamp" :1554912000
		},
	"2019-04-10T20:00:00+02:00" : {
		"windSpeed" : 2.5,
		"windDir" : 258,
		"rain" : 1,
		"cloudbase" : null,
		"flyability" : 0,
		"reason" : "rain",
		"timestamp" :1554922800
		},
	"2019-04-10T23:00:00+02:00" : {
		"windSpeed" : 1.4,
		"windDir" : 223,
		"rain" : 1,
		"cloudbase" : null,
		"flyability" : 0,
		"reason" : "rain",
		"timestamp" :1554933600
		},
	"2019-04-11T02:00:00+02:00" : {
		"windSpeed" : 1.1,
		"windDir" : 222,
		"rain" : 0,
		"cloudbase" : 5600,
		"flyability" : 100,
		"reason" : "",
		"timestamp" :1554944400
		},
	"2019-04-11T05:00:00+02:00" : {
		"windSpeed" : 1.6,
		"windDir" : 229,
		"rain" : 1,
		"cloudbase" : 230,
		"flyability" : 0,
		"reason" : "rain, cloudbase",
		"timestamp" :1554955200
		},
	"2019-04-11T08:00:00+02:00" : {
		"windSpeed" : 1.7,
		"windDir" : 217,
		"rain" : 1,
		"cloudbase" : 7100,
		"flyability" : 0,
		"reason" : "rain",
		"timestamp" :1554966000
		},
	"2019-04-11T11:00:00+02:00" : {
		"windSpeed" : 2.2,
		"windDir" : 249,
		"rain" : 1,
		"cloudbase" : 309.31199999997,
		"flyability" : 0,
		"reason" : "rain, cloudbase",
		"timestamp" :1554976800
		},
	"2019-04-11T14:00:00+02:00" : {
		"windSpeed" : 3.8,
		"windDir" : 288,
		"rain" : 1,
		"cloudbase" : 380.33279999995,
		"flyability" : 0,
		"reason" : "rain, cloudbase",
		"timestamp" :1554987600
		},
	"2019-04-11T17:00:00+02:00" : {
		"windSpeed" : 2.4,
		"windDir" : 318,
		"rain" : 1,
		"cloudbase" : 6619.0400000006,
		"flyability" : 0,
		"reason" : "windDir, rain",
		"timestamp" :1554998400
		},
	"2019-04-11T20:00:00+02:00" : {
		"windSpeed" : 1.7,
		"windDir" : 334,
		"rain" : 1,
		"cloudbase" : 8000,
		"flyability" : 0,
		"reason" : "windDir, rain",
		"timestamp" :1555009200
		},
	"2019-04-11T23:00:00+02:00" : {
		"windSpeed" : 1.1,
		"windDir" : 295,
		"rain" : 1,
		"cloudbase" : 350,
		"flyability" : 0,
		"reason" : "windDir, rain, cloudbase",
		"timestamp" :1555020000
		},
	"2019-04-12T02:00:00+02:00" : {
		"windSpeed" : 1.2,
		"windDir" : 232,
		"rain" : 0,
		"cloudbase" : 30,
		"flyability" : 0,
		"reason" : "cloudbase",
		"timestamp" :1555030800
		},
	"2019-04-12T05:00:00+02:00" : {
		"windSpeed" : 0.9,
		"windDir" : 212,
		"rain" : 0,
		"cloudbase" : 45.3888,
		"flyability" : 0,
		"reason" : "cloudbase",
		"timestamp" :1555041600
		},
	"2019-04-12T08:00:00+02:00" : {
		"windSpeed" : 1,
		"windDir" : 141,
		"rain" : 0,
		"cloudbase" : 1405.1328000006,
		"flyability" : 0,
		"reason" : "windDir",
		"timestamp" :1555052400
		},
	"2019-04-12T11:00:00+02:00" : {
		"windSpeed" : 0.1,
		"windDir" : 301,
		"rain" : 0,
		"cloudbase" : 7000,
		"flyability" : 0,
		"reason" : "windDir",
		"timestamp" :1555063200
		},
	"2019-04-12T14:00:00+02:00" : {
		"windSpeed" : 3.9,
		"windDir" : 281,
		"rain" : 1,
		"cloudbase" : 5070.0479999999,
		"flyability" : 0,
		"reason" : "rain",
		"timestamp" :1555074000
		},
	"2019-04-12T17:00:00+02:00" : {
		"windSpeed" : 2,
		"windDir" : 306,
		"rain" : 1,
		"cloudbase" : 5281.5039999997,
		"flyability" : 0,
		"reason" : "windDir, rain",
		"timestamp" :1555084800
		},
	"2019-04-12T20:00:00+02:00" : {
		"windSpeed" : 0.7,
		"windDir" : 310,
		"rain" : 1,
		"cloudbase" : 7584.4480000002,
		"flyability" : 0,
		"reason" : "windDir, rain",
		"timestamp" :1555095600
		},
	"2019-04-12T23:00:00+02:00" : {
		"windSpeed" : 1.4,
		"windDir" : 291,
		"rain" : 0,
		"cloudbase" : null,
		"flyability" : 100,
		"reason" : "",
		"timestamp" :1555106400
		},
	"2019-04-13T02:00:00+02:00" : {
		"windSpeed" : 1.4,
		"windDir" : 294,
		"rain" : 1,
		"cloudbase" : 160,
		"flyability" : 0,
		"reason" : "windDir, rain, cloudbase",
		"timestamp" :1555117200
		},
	"2019-04-13T05:00:00+02:00" : {
		"windSpeed" : 2.2,
		"windDir" : 311,
		"rain" : 1,
		"cloudbase" : 110.78080000002,
		"flyability" : 0,
		"reason" : "windDir, rain, cloudbase",
		"timestamp" :1555128000
		},
	"2019-04-13T08:00:00+02:00" : {
		"windSpeed" : 2.7,
		"windDir" : 292,
		"rain" : 1,
		"cloudbase" : 213.60000000002,
		"flyability" : 0,
		"reason" : "rain, cloudbase",
		"timestamp" :1555138800
		},
	"2019-04-13T11:00:00+02:00" : {
		"windSpeed" : 2.2,
		"windDir" : 295,
		"rain" : 0,
		"cloudbase" : null,
		"flyability" : 0,
		"reason" : "windDir",
		"timestamp" :1555149600
		},
	"2019-04-13T14:00:00+02:00" : {
		"windSpeed" : 4.2,
		"windDir" : 277,
		"rain" : 1,
		"cloudbase" : 470,
		"flyability" : 0,
		"reason" : "rain, cloudbase",
		"timestamp" :1555160400
		},
	"2019-04-13T17:00:00+02:00" : {
		"windSpeed" : 5.7,
		"windDir" : 290,
		"rain" : 1,
		"cloudbase" : null,
		"flyability" : 0,
		"reason" : "windSpeed, rain",
		"timestamp" :1555171200
		},
	"2019-04-13T20:00:00+02:00" : {
		"windSpeed" : 4.5,
		"windDir" : 269,
		"rain" : 0,
		"cloudbase" : 880,
		"flyability" : 100,
		"reason" : "",
		"timestamp" :1555182000
		},
	"2019-04-13T23:00:00+02:00" : {
		"windSpeed" : 4,
		"windDir" : 249,
		"rain" : 0,
		"cloudbase" : null,
		"flyability" : 100,
		"reason" : "",
		"timestamp" :1555192800
		},
	"2019-04-14T02:00:00+02:00" : {
		"windSpeed" : 4.9,
		"windDir" : 245,
		"rain" : 0,
		"cloudbase" : null,
		"flyability" : 100,
		"reason" : "",
		"timestamp" :1555203600
		},
	"2019-04-14T05:00:00+02:00" : {
		"windSpeed" : 4.8,
		"windDir" : 264,
		"rain" : 0,
		"cloudbase" : null,
		"flyability" : 100,
		"reason" : "",
		"timestamp" :1555214400
		},
	"2019-04-14T08:00:00+02:00" : {
		"windSpeed" : 7.7,
		"windDir" : 256,
		"rain" : 0,
		"cloudbase" : null,
		"flyability" : 0,
		"reason" : "windSpeed",
		"timestamp" :1555225200
		},
	"2019-04-14T11:00:00+02:00" : {
		"windSpeed" : 9.1,
		"windDir" : 275,
		"rain" : 0,
		"cloudbase" : 1050,
		"flyability" : 0,
		"reason" : "windSpeed",
		"timestamp" :1555236000
		},
	"2019-04-14T14:00:00+02:00" : {
		"windSpeed" : 6,
		"windDir" : 307,
		"rain" : 1,
		"cloudbase" : 806.6048,
		"flyability" : 0,
		"reason" : "windSpeed, windDir, rain",
		"timestamp" :1555246800
		},
	"2019-04-14T17:00:00+02:00" : {
		"windSpeed" : 4.9,
		"windDir" : 15,
		"rain" : 1,
		"cloudbase" : null,
		"flyability" : 0,
		"reason" : "windDir, rain",
		"timestamp" :1555257600
		},
	"2019-04-14T20:00:00+02:00" : {
		"windSpeed" : 5.1,
		"windDir" : 20,
		"rain" : 0,
		"cloudbase" : null,
		"flyability" : 0,
		"reason" : "windSpeed, windDir",
		"timestamp" :1555268400
		},
	"2019-04-14T23:00:00+02:00" : {
		"windSpeed" : 3.2,
		"windDir" : 28,
		"rain" : 0,
		"cloudbase" : null,
		"flyability" : 0,
		"reason" : "windDir",
		"timestamp" :1555279200
		},
	"2019-04-15T02:00:00+02:00" : {
		"windSpeed" : 2.5,
		"windDir" : 11,
		"rain" : 0,
		"cloudbase" : null,
		"flyability" : 0,
		"reason" : "windDir",
		"timestamp" :1555290000
		},
	"2019-04-15T05:00:00+02:00" : {
		"windSpeed" : 2.1,
		"windDir" : 36,
		"rain" : 0,
		"cloudbase" : null,
		"flyability" : 0,
		"reason" : "windDir",
		"timestamp" :1555300800
		},
	"2019-04-15T08:00:00+02:00" : {
		"windSpeed" : 0.2,
		"windDir" : 200,
		"rain" : 0,
		"cloudbase" : null,
		"flyability" : 0,
		"reason" : "windDir",
		"timestamp" :1555311600
		},
	"2019-04-15T11:00:00+02:00" : {
		"windSpeed" : 0.8,
		"windDir" : 107,
		"rain" : 0,
		"cloudbase" : null,
		"flyability" : 0,
		"reason" : "windDir",
		"timestamp" :1555322400
		},
	"2019-04-15T14:00:00+02:00" : {
		"windSpeed" : 1.8,
		"windDir" : 292,
		"rain" : 1,
		"cloudbase" : 1735.5200000001,
		"flyability" : 0,
		"reason" : "rain",
		"timestamp" :1555333200
		}
	}
}