{
"site" : "Alabama Hills",
"id" : 18039,
"orientations" : "20000000",
"forecasts" : { 
	"2019-04-04T20:00:00-07:00" : {
		"windSpeed" : 1.1,
		"windDir" : 161,
		"rain" : 0,
		"cloudbase" : 5877.595,
		"flyability" : 0,
		"reason" : "windDir",
		"timestamp" :1554436800
		},
	"2019-04-04T23:00:00-07:00" : {
		"windSpeed" : 1.8,
		"windDir" : 146,
		"rain" : 0,
		"cloudbase" : 3050,
		"flyability" : 0,
		"reason" : "windDir",
		"timestamp" :1554447600
		},
	"2019-04-05T02:00:00-07:00" : {
		"windSpeed" : 0.8,
		"windDir" : 204,
		"rain" : 0,
		"cloudbase" : 7227.4900000002,
		"flyability" : 0,
		"reason" : "windDir",
		"timestamp" :1554458400
		},
	"2019-04-05T05:00:00-07:00" : {
		"windSpeed" : 0.1,
		"windDir" : 212,
		"rain" : 0,
		"cloudbase" : null,
		"flyability" : 0,
		"reason" : "windDir",
		"timestamp" :1554469200
		},
	"2019-04-05T08:00:00-07:00" : {
		"windSpeed" : 0,
		"windDir" : 180,
		"rain" : 0,
		"cloudbase" : 10160.79,
		"flyability" : 0,
		"reason" : "windDir",
		"timestamp" :1554480000
		},
	"2019-04-05T11:00:00-07:00" : {
		"windSpeed" : 0.3,
		"windDir" : 120,
		"rain" : 0,
		"cloudbase" : null,
		"flyability" : 0,
		"reason" : "windDir",
		"timestamp" :1554490800
		},
	"2019-04-05T14:00:00-07:00" : {
		"windSpeed" : 0.2,
		"windDir" : 84,
		"rain" : 0,
		"cloudbase" : 5331.1000000001,
		"flyability" : 0,
		"reason" : "windDir",
		"timestamp" :1554501600
		},
	"2019-04-05T17:00:00-07:00" : {
		"windSpeed" : 1.4,
		"windDir" : 309,
		"rain" : 1,
		"cloudbase" : 2607.815,
		"flyability" : 0,
		"reason" : "windDir, rain",
		"timestamp" :1554512400
		},
	"2019-04-05T20:00:00-07:00" : {
		"windSpeed" : 1.1,
		"windDir" : 248,
		"rain" : 1,
		"cloudbase" : null,
		"flyability" : 0,
		"reason" : "windDir, rain",
		"timestamp" :1554523200
		},
	"2019-04-05T23:00:00-07:00" : {
		"windSpeed" : 0.7,
		"windDir" : 262,
		"rain" : 0,
		"cloudbase" : null,
		"flyability" : 0,
		"reason" : "windDir",
		"timestamp" :1554534000
		},
	"2019-04-06T02:00:00-07:00" : {
		"windSpeed" : 0.2,
		"windDir" : 167,
		"rain" : 0,
		"cloudbase" : null,
		"flyability" : 0,
		"reason" : "windDir",
		"timestamp" :1554544800
		},
	"2019-04-06T05:00:00-07:00" : {
		"windSpeed" : 0.7,
		"windDir" : 136,
		"rain" : 0,
		"cloudbase" : 6247.91,
		"flyability" : 0,
		"reason" : "windDir",
		"timestamp" :1554555600
		},
	"2019-04-06T08:00:00-07:00" : {
		"windSpeed" : 0.5,
		"windDir" : 101,
		"rain" : 0,
		"cloudbase" : 8100,
		"flyability" : 0,
		"reason" : "windDir",
		"timestamp" :1554566400
		},
	"2019-04-06T11:00:00-07:00" : {
		"windSpeed" : 0.8,
		"windDir" : 125,
		"rain" : 0,
		"cloudbase" : 5843.54,
		"flyability" : 0,
		"reason" : "windDir",
		"timestamp" :1554577200
		},
	"2019-04-06T14:00:00-07:00" : {
		"windSpeed" : 0.4,
		"windDir" : 179,
		"rain" : 0,
		"cloudbase" : 5488.23,
		"flyability" : 0,
		"reason" : "windDir",
		"timestamp" :1554588000
		},
	"2019-04-06T17:00:00-07:00" : {
		"windSpeed" : 0.7,
		"windDir" : 318,
		"rain" : 0,
		"cloudbase" : null,
		"flyability" : 0,
		"reason" : "windDir",
		"timestamp" :1554598800
		},
	"2019-04-06T20:00:00-07:00" : {
		"windSpeed" : 0.8,
		"windDir" : 263,
		"rain" : 0,
		"cloudbase" : null,
		"flyability" : 0,
		"reason" : "windDir",
		"timestamp" :1554609600
		},
	"2019-04-06T23:00:00-07:00" : {
		"windSpeed" : 1.1,
		"windDir" : 237,
		"rain" : 0,
		"cloudbase" : 9791.28,
		"flyability" : 0,
		"reason" : "windDir",
		"timestamp" :1554620400
		},
	"2019-04-07T02:00:00-07:00" : {
		"windSpeed" : 0.6,
		"windDir" : 206,
		"rain" : 0,
		"cloudbase" : null,
		"flyability" : 0,
		"reason" : "windDir",
		"timestamp" :1554631200
		},
	"2019-04-07T05:00:00-07:00" : {
		"windSpeed" : 0.2,
		"windDir" : 127,
		"rain" : 0,
		"cloudbase" : 7997.4,
		"flyability" : 0,
		"reason" : "windDir",
		"timestamp" :1554642000
		},
	"2019-04-07T08:00:00-07:00" : {
		"windSpeed" : 0.3,
		"windDir" : 110,
		"rain" : 0,
		"cloudbase" : 8320.47,
		"flyability" : 0,
		"reason" : "windDir",
		"timestamp" :1554652800
		},
	"2019-04-07T11:00:00-07:00" : {
		"windSpeed" : 0.5,
		"windDir" : 212,
		"rain" : 0,
		"cloudbase" : 8878.87,
		"flyability" : 0,
		"reason" : "windDir",
		"timestamp" :1554663600
		},
	"2019-04-07T14:00:00-07:00" : {
		"windSpeed" : 0.5,
		"windDir" : 205,
		"rain" : 0,
		"cloudbase" : 8065.8,
		"flyability" : 0,
		"reason" : "windDir",
		"timestamp" :1554674400
		},
	"2019-04-07T17:00:00-07:00" : {
		"windSpeed" : 1.1,
		"windDir" : 291,
		"rain" : 0,
		"cloudbase" : null,
		"flyability" : 0,
		"reason" : "windDir",
		"timestamp" :1554685200
		},
	"2019-04-07T20:00:00-07:00" : {
		"windSpeed" : 2,
		"windDir" : 251,
		"rain" : 0,
		"cloudbase" : 7982.41,
		"flyability" : 0,
		"reason" : "windDir",
		"timestamp" :1554696000
		},
	"2019-04-07T23:00:00-07:00" : {
		"windSpeed" : 1.3,
		"windDir" : 263,
		"rain" : 0,
		"cloudbase" : 11000,
		"flyability" : 0,
		"reason" : "windDir",
		"timestamp" :1554706800
		},
	"2019-04-08T02:00:00-07:00" : {
		"windSpeed" : 0.7,
		"windDir" : 258,
		"rain" : 0,
		"cloudbase" : 6198.21,
		"flyability" : 0,
		"reason" : "windDir",
		"timestamp" :1554717600
		},
	"2019-04-08T05:00:00-07:00" : {
		"windSpeed" : 0.6,
		"windDir" : 202,
		"rain" : 0,
		"cloudbase" : 6272.24,
		"flyability" : 0,
		"reason" : "windDir",
		"timestamp" :1554728400
		},
	"2019-04-08T08:00:00-07:00" : {
		"windSpeed" : 0.1,
		"windDir" : 231,
		"rain" : 0,
		"cloudbase" : 6986.74,
		"flyability" : 0,
		"reason" : "windDir",
		"timestamp" :1554739200
		},
	"2019-04-08T11:00:00-07:00" : {
		"windSpeed" : 0.8,
		"windDir" : 193,
		"rain" : 0,
		"cloudbase" : 7813.3900000001,
		"flyability" : 0,
		"reason" : "windDir",
		"timestamp" :1554750000
		},
	"2019-04-08T14:00:00-07:00" : {
		"windSpeed" : 0.8,
		"windDir" : 231,
		"rain" : 0,
		"cloudbase" : 9284.18,
		"flyability" : 0,
		"reason" : "windDir",
		"timestamp" :1554760800
		},
	"2019-04-08T17:00:00-07:00" : {
		"windSpeed" : 1.3,
		"windDir" : 278,
		"rain" : 0,
		"cloudbase" : 9646.44,
		"flyability" : 0,
		"reason" : "windDir",
		"timestamp" :1554771600
		},
	"2019-04-08T20:00:00-07:00" : {
		"windSpeed" : 2.1,
		"windDir" : 257,
		"rain" : 0,
		"cloudbase" : null,
		"flyability" : 0,
		"reason" : "windDir",
		"timestamp" :1554782400
		},
	"2019-04-08T23:00:00-07:00" : {
		"windSpeed" : 1.5,
		"windDir" : 254,
		"rain" : 0,
		"cloudbase" : null,
		"flyability" : 0,
		"reason" : "windDir",
		"timestamp" :1554793200
		},
	"2019-04-09T02:00:00-07:00" : {
		"windSpeed" : 0.9,
		"windDir" : 218,
		"rain" : 0,
		"cloudbase" : null,
		"flyability" : 0,
		"reason" : "windDir",
		"timestamp" :1554804000
		},
	"2019-04-09T05:00:00-07:00" : {
		"windSpeed" : 1.2,
		"windDir" : 105,
		"rain" : 1,
		"cloudbase" : 580,
		"flyability" : 0,
		"reason" : "windDir, rain, cloudbase",
		"timestamp" :1554814800
		},
	"2019-04-09T08:00:00-07:00" : {
		"windSpeed" : 2,
		"windDir" : 123,
		"rain" : 1,
		"cloudbase" : 1050,
		"flyability" : 0,
		"reason" : "windDir, rain, cloudbase",
		"timestamp" :1554825600
		},
	"2019-04-09T11:00:00-07:00" : {
		"windSpeed" : 3,
		"windDir" : 336,
		"rain" : 1,
		"cloudbase" : null,
		"flyability" : 0,
		"reason" : "windDir, rain",
		"timestamp" :1554836400
		},
	"2019-04-09T14:00:00-07:00" : {
		"windSpeed" : 3.9,
		"windDir" : 9,
		"rain" : 0,
		"cloudbase" : null,
		"flyability" : 100,
		"reason" : "",
		"timestamp" :1554847200
		},
	"2019-04-09T17:00:00-07:00" : {
		"windSpeed" : 2.1,
		"windDir" : 3,
		"rain" : 0,
		"cloudbase" : null,
		"flyability" : 100,
		"reason" : "",
		"timestamp" :1554858000
		},
	"2019-04-09T20:00:00-07:00" : {
		"windSpeed" : 1,
		"windDir" : 13,
		"rain" : 0,
		"cloudbase" : null,
		"flyability" : 100,
		"reason" : "",
		"timestamp" :1554868800
		},
	"2019-04-09T23:00:00-07:00" : {
		"windSpeed" : 1.2,
		"windDir" : 27,
		"rain" : 0,
		"cloudbase" : null,
		"flyability" : 0,
		"reason" : "windDir",
		"timestamp" :1554879600
		},
	"2019-04-10T02:00:00-07:00" : {
		"windSpeed" : 0.9,
		"windDir" : 85,
		"rain" : 0,
		"cloudbase" : null,
		"flyability" : 0,
		"reason" : "windDir",
		"timestamp" :1554890400
		},
	"2019-04-10T05:00:00-07:00" : {
		"windSpeed" : 0.9,
		"windDir" : 99,
		"rain" : 0,
		"cloudbase" : null,
		"flyability" : 0,
		"reason" : "windDir",
		"timestamp" :1554901200
		},
	"2019-04-10T08:00:00-07:00" : {
		"windSpeed" : 0.9,
		"windDir" : 68,
		"rain" : 0,
		"cloudbase" : null,
		"flyability" : 0,
		"reason" : "windDir",
		"timestamp" :1554912000
		},
	"2019-04-10T11:00:00-07:00" : {
		"windSpeed" : 1.6,
		"windDir" : 7,
		"rain" : 0,
		"cloudbase" : null,
		"flyability" : 100,
		"reason" : "",
		"timestamp" :1554922800
		},
	"2019-04-10T14:00:00-07:00" : {
		"windSpeed" : 1.3,
		"windDir" : 13,
		"rain" : 0,
		"cloudbase" : null,
		"flyability" : 100,
		"reason" : "",
		"timestamp" :1554933600
		},
	"2019-04-10T17:00:00-07:00" : {
		"windSpeed" : 0.9,
		"windDir" : 7,
		"rain" : 1,
		"cloudbase" : null,
		"flyability" : 0,
		"reason" : "rain",
		"timestamp" :1554944400
		}
	}
}