{
"site" : "Le Grand Morne",
"id" : 18354,
"orientations" : "00000121",
"forecasts" : { 
	"2019-04-07T23:00:00-04:00" : {
		"windSpeed" : 2.5,
		"windDir" : 37,
		"rain" : 0,
		"cloudbase" : 7537.2,
		"flyability" : 0,
		"reason" : "windDir",
		"timestamp" :1554696000
		},
	"2019-04-08T02:00:00-04:00" : {
		"windSpeed" : 4.5,
		"windDir" : 75,
		"rain" : 0,
		"cloudbase" : 2274.5127,
		"flyability" : 0,
		"reason" : "windDir",
		"timestamp" :1554706800
		},
	"2019-04-08T05:00:00-04:00" : {
		"windSpeed" : 4.2,
		"windDir" : 81,
		"rain" : 0,
		"cloudbase" : 1668.55,
		"flyability" : 0,
		"reason" : "windDir",
		"timestamp" :1554717600
		},
	"2019-04-08T08:00:00-04:00" : {
		"windSpeed" : 5.7,
		"windDir" : 89,
		"rain" : 0,
		"cloudbase" : 786.11762000003,
		"flyability" : 0,
		"reason" : "windSpeed, windDir",
		"timestamp" :1554728400
		},
	"2019-04-08T11:00:00-04:00" : {
		"windSpeed" : 6.2,
		"windDir" : 91,
		"rain" : 0,
		"cloudbase" : 413.68135,
		"flyability" : 0,
		"reason" : "windSpeed, windDir, cloudbase",
		"timestamp" :1554739200
		},
	"2019-04-08T14:00:00-04:00" : {
		"windSpeed" : 6.2,
		"windDir" : 91,
		"rain" : 0,
		"cloudbase" : 392.64,
		"flyability" : 0,
		"reason" : "windSpeed, windDir, cloudbase",
		"timestamp" :1554750000
		},
	"2019-04-08T17:00:00-04:00" : {
		"windSpeed" : 5.7,
		"windDir" : 82,
		"rain" : 0,
		"cloudbase" : 576.00745999998,
		"flyability" : 0,
		"reason" : "windSpeed, windDir, cloudbase",
		"timestamp" :1554760800
		},
	"2019-04-08T20:00:00-04:00" : {
		"windSpeed" : 5.3,
		"windDir" : 89,
		"rain" : 0,
		"cloudbase" : 664.70508000001,
		"flyability" : 0,
		"reason" : "windSpeed, windDir",
		"timestamp" :1554771600
		},
	"2019-04-08T23:00:00-04:00" : {
		"windSpeed" : 4.1,
		"windDir" : 64,
		"rain" : 0,
		"cloudbase" : 341.29508,
		"flyability" : 0,
		"reason" : "windDir, cloudbase",
		"timestamp" :1554782400
		},
	"2019-04-09T02:00:00-04:00" : {
		"windSpeed" : 3.9,
		"windDir" : 65,
		"rain" : 0,
		"cloudbase" : 287.41627,
		"flyability" : 0,
		"reason" : "windDir, cloudbase",
		"timestamp" :1554793200
		},
	"2019-04-09T05:00:00-04:00" : {
		"windSpeed" : 3.6,
		"windDir" : 77,
		"rain" : 0,
		"cloudbase" : 247.42746,
		"flyability" : 0,
		"reason" : "windDir, cloudbase",
		"timestamp" :1554804000
		},
	"2019-04-09T08:00:00-04:00" : {
		"windSpeed" : 4.2,
		"windDir" : 81,
		"rain" : 0,
		"cloudbase" : 281.31119,
		"flyability" : 0,
		"reason" : "windDir, cloudbase",
		"timestamp" :1554814800
		},
	"2019-04-09T11:00:00-04:00" : {
		"windSpeed" : 4.5,
		"windDir" : 92,
		"rain" : 0,
		"cloudbase" : 782.71491999999,
		"flyability" : 0,
		"reason" : "windDir",
		"timestamp" :1554825600
		},
	"2019-04-09T14:00:00-04:00" : {
		"windSpeed" : 4,
		"windDir" : 97,
		"rain" : 0,
		"cloudbase" : 805.00508,
		"flyability" : 0,
		"reason" : "windDir",
		"timestamp" :1554836400
		},
	"2019-04-09T17:00:00-04:00" : {
		"windSpeed" : 4.2,
		"windDir" : 86,
		"rain" : 0,
		"cloudbase" : 570.65459999998,
		"flyability" : 0,
		"reason" : "windDir, cloudbase",
		"timestamp" :1554847200
		},
	"2019-04-09T20:00:00-04:00" : {
		"windSpeed" : 3.7,
		"windDir" : 69,
		"rain" : 0,
		"cloudbase" : 749.42508000001,
		"flyability" : 0,
		"reason" : "windDir",
		"timestamp" :1554858000
		},
	"2019-04-09T23:00:00-04:00" : {
		"windSpeed" : 3.5,
		"windDir" : 59,
		"rain" : 0,
		"cloudbase" : 297.56746,
		"flyability" : 0,
		"reason" : "windDir, cloudbase",
		"timestamp" :1554868800
		},
	"2019-04-10T02:00:00-04:00" : {
		"windSpeed" : 3.3,
		"windDir" : 57,
		"rain" : 0,
		"cloudbase" : 252.50746,
		"flyability" : 0,
		"reason" : "windDir, cloudbase",
		"timestamp" :1554879600
		},
	"2019-04-10T05:00:00-04:00" : {
		"windSpeed" : 3.3,
		"windDir" : 45,
		"rain" : 0,
		"cloudbase" : 388.38762000001,
		"flyability" : 0,
		"reason" : "windDir, cloudbase",
		"timestamp" :1554890400
		},
	"2019-04-10T08:00:00-04:00" : {
		"windSpeed" : 3.2,
		"windDir" : 55,
		"rain" : 0,
		"cloudbase" : 440,
		"flyability" : 0,
		"reason" : "windDir, cloudbase",
		"timestamp" :1554901200
		},
	"2019-04-10T11:00:00-04:00" : {
		"windSpeed" : 1.7,
		"windDir" : 28,
		"rain" : 0,
		"cloudbase" : 900,
		"flyability" : 0,
		"reason" : "windDir",
		"timestamp" :1554912000
		},
	"2019-04-10T14:00:00-04:00" : {
		"windSpeed" : 2.5,
		"windDir" : 349,
		"rain" : 0,
		"cloudbase" : 1499.8373,
		"flyability" : 0,
		"reason" : "windDir",
		"timestamp" :1554922800
		},
	"2019-04-10T17:00:00-04:00" : {
		"windSpeed" : 1.9,
		"windDir" : 322,
		"rain" : 0,
		"cloudbase" : 1800,
		"flyability" : 100,
		"reason" : "",
		"timestamp" :1554933600
		},
	"2019-04-10T20:00:00-04:00" : {
		"windSpeed" : 3.5,
		"windDir" : 295,
		"rain" : 0,
		"cloudbase" : null,
		"flyability" : 100,
		"reason" : "",
		"timestamp" :1554944400
		},
	"2019-04-10T23:00:00-04:00" : {
		"windSpeed" : 2.7,
		"windDir" : 304,
		"rain" : 0,
		"cloudbase" : null,
		"flyability" : 100,
		"reason" : "",
		"timestamp" :1554955200
		},
	"2019-04-11T02:00:00-04:00" : {
		"windSpeed" : 2.9,
		"windDir" : 290,
		"rain" : 0,
		"cloudbase" : null,
		"flyability" : 100,
		"reason" : "",
		"timestamp" :1554966000
		},
	"2019-04-11T05:00:00-04:00" : {
		"windSpeed" : 3.2,
		"windDir" : 270,
		"rain" : 1,
		"cloudbase" : null,
		"flyability" : 0,
		"reason" : "rain",
		"timestamp" :1554976800
		},
	"2019-04-11T08:00:00-04:00" : {
		"windSpeed" : 2.7,
		"windDir" : 270,
		"rain" : 1,
		"cloudbase" : null,
		"flyability" : 0,
		"reason" : "rain",
		"timestamp" :1554987600
		},
	"2019-04-11T11:00:00-04:00" : {
		"windSpeed" : 3.5,
		"windDir" : 278,
		"rain" : 1,
		"cloudbase" : null,
		"flyability" : 0,
		"reason" : "rain",
		"timestamp" :1554998400
		},
	"2019-04-11T14:00:00-04:00" : {
		"windSpeed" : 3.5,
		"windDir" : 278,
		"rain" : 0,
		"cloudbase" : null,
		"flyability" : 100,
		"reason" : "",
		"timestamp" :1555009200
		},
	"2019-04-11T17:00:00-04:00" : {
		"windSpeed" : 3,
		"windDir" : 279,
		"rain" : 0,
		"cloudbase" : null,
		"flyability" : 100,
		"reason" : "",
		"timestamp" :1555020000
		},
	"2019-04-11T20:00:00-04:00" : {
		"windSpeed" : 3,
		"windDir" : 276,
		"rain" : 0,
		"cloudbase" : null,
		"flyability" : 100,
		"reason" : "",
		"timestamp" :1555030800
		},
	"2019-04-11T23:00:00-04:00" : {
		"windSpeed" : 3,
		"windDir" : 283,
		"rain" : 0,
		"cloudbase" : 7799.9627,
		"flyability" : 100,
		"reason" : "",
		"timestamp" :1555041600
		},
	"2019-04-12T02:00:00-04:00" : {
		"windSpeed" : 2.7,
		"windDir" : 274,
		"rain" : 0,
		"cloudbase" : 5784.7000000001,
		"flyability" : 100,
		"reason" : "",
		"timestamp" :1555052400
		},
	"2019-04-12T05:00:00-04:00" : {
		"windSpeed" : 1.8,
		"windDir" : 253,
		"rain" : 0,
		"cloudbase" : 3937.18135,
		"flyability" : 100,
		"reason" : "",
		"timestamp" :1555063200
		},
	"2019-04-12T08:00:00-04:00" : {
		"windSpeed" : 0.8,
		"windDir" : 205,
		"rain" : 0,
		"cloudbase" : 5713.2119,
		"flyability" : 100,
		"reason" : "",
		"timestamp" :1555074000
		},
	"2019-04-12T11:00:00-04:00" : {
		"windSpeed" : 1.4,
		"windDir" : 120,
		"rain" : 0,
		"cloudbase" : 2331.2627,
		"flyability" : 0,
		"reason" : "windDir",
		"timestamp" :1555084800
		},
	"2019-04-12T14:00:00-04:00" : {
		"windSpeed" : 3.4,
		"windDir" : 119,
		"rain" : 0,
		"cloudbase" : 1112.1254,
		"flyability" : 0,
		"reason" : "windDir",
		"timestamp" :1555095600
		},
	"2019-04-12T17:00:00-04:00" : {
		"windSpeed" : 3.5,
		"windDir" : 113,
		"rain" : 1,
		"cloudbase" : 832.46,
		"flyability" : 0,
		"reason" : "windDir, rain",
		"timestamp" :1555106400
		},
	"2019-04-12T20:00:00-04:00" : {
		"windSpeed" : 3.4,
		"windDir" : 111,
		"rain" : 1,
		"cloudbase" : 850.10206,
		"flyability" : 0,
		"reason" : "windDir, rain",
		"timestamp" :1555117200
		},
	"2019-04-12T23:00:00-04:00" : {
		"windSpeed" : 3,
		"windDir" : 115,
		"rain" : 1,
		"cloudbase" : 767.21563000001,
		"flyability" : 0,
		"reason" : "windDir, rain",
		"timestamp" :1555128000
		},
	"2019-04-13T02:00:00-04:00" : {
		"windSpeed" : 2.4,
		"windDir" : 122,
		"rain" : 1,
		"cloudbase" : 1718.6627,
		"flyability" : 0,
		"reason" : "windDir, rain",
		"timestamp" :1555138800
		},
	"2019-04-13T05:00:00-04:00" : {
		"windSpeed" : 4.3,
		"windDir" : 221,
		"rain" : 1,
		"cloudbase" : 502.59627,
		"flyability" : 0,
		"reason" : "rain, cloudbase",
		"timestamp" :1555149600
		},
	"2019-04-13T08:00:00-04:00" : {
		"windSpeed" : 3.7,
		"windDir" : 223,
		"rain" : 0,
		"cloudbase" : 167.583215,
		"flyability" : 0,
		"reason" : "cloudbase",
		"timestamp" :1555160400
		},
	"2019-04-13T11:00:00-04:00" : {
		"windSpeed" : 6.7,
		"windDir" : 243,
		"rain" : 0,
		"cloudbase" : null,
		"flyability" : 0,
		"reason" : "windSpeed",
		"timestamp" :1555171200
		},
	"2019-04-13T14:00:00-04:00" : {
		"windSpeed" : 7,
		"windDir" : 249,
		"rain" : 0,
		"cloudbase" : 1268.66865,
		"flyability" : 0,
		"reason" : "windSpeed",
		"timestamp" :1555182000
		},
	"2019-04-13T17:00:00-04:00" : {
		"windSpeed" : 5.4,
		"windDir" : 259,
		"rain" : 0,
		"cloudbase" : 1362.56865,
		"flyability" : 0,
		"reason" : "windSpeed",
		"timestamp" :1555192800
		},
	"2019-04-13T20:00:00-04:00" : {
		"windSpeed" : 4.9,
		"windDir" : 252,
		"rain" : 0,
		"cloudbase" : 902.65254,
		"flyability" : 100,
		"reason" : "",
		"timestamp" :1555203600
		}
	}
}