{
"site" : "Mum",
"id" : 18389,
"orientations" : "00000200",
"forecasts" : { 
	"2019-04-14T04:00:00+01:00" : {
		"windSpeed" : 7,
		"windDir" : 114,
		"rain" : 1,
		"cloudbase" : 216.6408,
		"flyability" : 0,
		"reason" : "windSpeed, windDir, rain, cloudbase",
		"timestamp" :1555207200
		},
	"2019-04-14T07:00:00+01:00" : {
		"windSpeed" : 5.6,
		"windDir" : 110,
		"rain" : 1,
		"cloudbase" : 88.302,
		"flyability" : 0,
		"reason" : "windSpeed, windDir, rain, cloudbase",
		"timestamp" :1555218000
		},
	"2019-04-14T10:00:00+01:00" : {
		"windSpeed" : 6.6,
		"windDir" : 125,
		"rain" : 1,
		"cloudbase" : 331.64,
		"flyability" : 0,
		"reason" : "windSpeed, windDir, rain, cloudbase",
		"timestamp" :1555228800
		},
	"2019-04-14T13:00:00+01:00" : {
		"windSpeed" : 7.2,
		"windDir" : 138,
		"rain" : 1,
		"cloudbase" : 414.916,
		"flyability" : 0,
		"reason" : "windSpeed, windDir, rain",
		"timestamp" :1555239600
		},
	"2019-04-14T16:00:00+01:00" : {
		"windSpeed" : 6.5,
		"windDir" : 125,
		"rain" : 1,
		"cloudbase" : 518.876,
		"flyability" : 0,
		"reason" : "windSpeed, windDir, rain",
		"timestamp" :1555250400
		},
	"2019-04-14T19:00:00+01:00" : {
		"windSpeed" : 5.7,
		"windDir" : 110,
		"rain" : 0,
		"cloudbase" : 543.4392,
		"flyability" : 0,
		"reason" : "windSpeed, windDir",
		"timestamp" :1555261200
		},
	"2019-04-14T22:00:00+01:00" : {
		"windSpeed" : 5.6,
		"windDir" : 107,
		"rain" : 1,
		"cloudbase" : 417,
		"flyability" : 0,
		"reason" : "windSpeed, windDir, rain",
		"timestamp" :1555272000
		},
	"2019-04-15T01:00:00+01:00" : {
		"windSpeed" : 6.1,
		"windDir" : 105,
		"rain" : 1,
		"cloudbase" : 1315.616,
		"flyability" : 0,
		"reason" : "windSpeed, windDir, rain",
		"timestamp" :1555282800
		},
	"2019-04-15T04:00:00+01:00" : {
		"windSpeed" : 7.5,
		"windDir" : 99,
		"rain" : 1,
		"cloudbase" : 922.944,
		"flyability" : 0,
		"reason" : "windSpeed, windDir, rain",
		"timestamp" :1555293600
		},
	"2019-04-15T07:00:00+01:00" : {
		"windSpeed" : 8,
		"windDir" : 102,
		"rain" : 1,
		"cloudbase" : 649.6736,
		"flyability" : 0,
		"reason" : "windSpeed, windDir, rain",
		"timestamp" :1555304400
		},
	"2019-04-15T10:00:00+01:00" : {
		"windSpeed" : 8.9,
		"windDir" : 112,
		"rain" : 1,
		"cloudbase" : 776.5552,
		"flyability" : 0,
		"reason" : "windSpeed, windDir, rain",
		"timestamp" :1555315200
		},
	"2019-04-15T13:00:00+01:00" : {
		"windSpeed" : 9.2,
		"windDir" : 116,
		"rain" : 1,
		"cloudbase" : 2928,
		"flyability" : 0,
		"reason" : "windSpeed, windDir, rain",
		"timestamp" :1555326000
		},
	"2019-04-15T16:00:00+01:00" : {
		"windSpeed" : 9.5,
		"windDir" : 121,
		"rain" : 1,
		"cloudbase" : 953.1152,
		"flyability" : 0,
		"reason" : "windSpeed, windDir, rain",
		"timestamp" :1555336800
		},
	"2019-04-15T19:00:00+01:00" : {
		"windSpeed" : 8.3,
		"windDir" : 139,
		"rain" : 1,
		"cloudbase" : 459.5208,
		"flyability" : 0,
		"reason" : "windSpeed, windDir, rain",
		"timestamp" :1555347600
		},
	"2019-04-15T22:00:00+01:00" : {
		"windSpeed" : 5.2,
		"windDir" : 145,
		"rain" : 0,
		"cloudbase" : 949.31839999999,
		"flyability" : 0,
		"reason" : "windSpeed, windDir",
		"timestamp" :1555358400
		},
	"2019-04-16T01:00:00+01:00" : {
		"windSpeed" : 3,
		"windDir" : 141,
		"rain" : 1,
		"cloudbase" : 5571.208,
		"flyability" : 0,
		"reason" : "windDir, rain",
		"timestamp" :1555369200
		},
	"2019-04-16T04:00:00+01:00" : {
		"windSpeed" : 1.9,
		"windDir" : 122,
		"rain" : 0,
		"cloudbase" : 3121.4,
		"flyability" : 0,
		"reason" : "windDir",
		"timestamp" :1555380000
		},
	"2019-04-16T07:00:00+01:00" : {
		"windSpeed" : 2,
		"windDir" : 107,
		"rain" : 0,
		"cloudbase" : 30,
		"flyability" : 0,
		"reason" : "windDir, cloudbase",
		"timestamp" :1555390800
		},
	"2019-04-16T10:00:00+01:00" : {
		"windSpeed" : 2.5,
		"windDir" : 127,
		"rain" : 1,
		"cloudbase" : 143.642,
		"flyability" : 0,
		"reason" : "windDir, rain, cloudbase",
		"timestamp" :1555401600
		},
	"2019-04-16T13:00:00+01:00" : {
		"windSpeed" : 3.5,
		"windDir" : 136,
		"rain" : 0,
		"cloudbase" : 1000,
		"flyability" : 0,
		"reason" : "windDir",
		"timestamp" :1555412400
		},
	"2019-04-16T16:00:00+01:00" : {
		"windSpeed" : 3,
		"windDir" : 153,
		"rain" : 1,
		"cloudbase" : 1519.796,
		"flyability" : 0,
		"reason" : "windDir, rain",
		"timestamp" :1555423200
		},
	"2019-04-16T19:00:00+01:00" : {
		"windSpeed" : 2.7,
		"windDir" : 107,
		"rain" : 0,
		"cloudbase" : 7100,
		"flyability" : 0,
		"reason" : "windDir",
		"timestamp" :1555434000
		},
	"2019-04-16T22:00:00+01:00" : {
		"windSpeed" : 3.9,
		"windDir" : 101,
		"rain" : 1,
		"cloudbase" : 8005.304,
		"flyability" : 0,
		"reason" : "windDir, rain",
		"timestamp" :1555444800
		},
	"2019-04-17T01:00:00+01:00" : {
		"windSpeed" : 2.8,
		"windDir" : 122,
		"rain" : 0,
		"cloudbase" : 8445.612,
		"flyability" : 0,
		"reason" : "windDir",
		"timestamp" :1555455600
		},
	"2019-04-17T04:00:00+01:00" : {
		"windSpeed" : 3,
		"windDir" : 110,
		"rain" : 1,
		"cloudbase" : 108.5232,
		"flyability" : 0,
		"reason" : "windDir, rain, cloudbase",
		"timestamp" :1555466400
		},
	"2019-04-17T07:00:00+01:00" : {
		"windSpeed" : 3.7,
		"windDir" : 108,
		"rain" : 0,
		"cloudbase" : 63.9808,
		"flyability" : 0,
		"reason" : "windDir, cloudbase",
		"timestamp" :1555477200
		},
	"2019-04-17T10:00:00+01:00" : {
		"windSpeed" : 4.1,
		"windDir" : 124,
		"rain" : 1,
		"cloudbase" : 3017.3128,
		"flyability" : 0,
		"reason" : "windDir, rain",
		"timestamp" :1555488000
		},
	"2019-04-17T13:00:00+01:00" : {
		"windSpeed" : 4.7,
		"windDir" : 123,
		"rain" : 1,
		"cloudbase" : 2981.924,
		"flyability" : 0,
		"reason" : "windDir, rain",
		"timestamp" :1555498800
		},
	"2019-04-17T16:00:00+01:00" : {
		"windSpeed" : 4.7,
		"windDir" : 129,
		"rain" : 0,
		"cloudbase" : 6751.536,
		"flyability" : 0,
		"reason" : "windDir",
		"timestamp" :1555509600
		},
	"2019-04-17T19:00:00+01:00" : {
		"windSpeed" : 3.9,
		"windDir" : 119,
		"rain" : 1,
		"cloudbase" : 8906.816,
		"flyability" : 0,
		"reason" : "windDir, rain",
		"timestamp" :1555520400
		},
	"2019-04-17T22:00:00+01:00" : {
		"windSpeed" : 3.1,
		"windDir" : 102,
		"rain" : 1,
		"cloudbase" : 6138.528,
		"flyability" : 0,
		"reason" : "windDir, rain",
		"timestamp" :1555531200
		},
	"2019-04-18T01:00:00+01:00" : {
		"windSpeed" : 3.3,
		"windDir" : 85,
		"rain" : 0,
		"cloudbase" : 8758.024,
		"flyability" : 0,
		"reason" : "windDir",
		"timestamp" :1555542000
		},
	"2019-04-18T04:00:00+01:00" : {
		"windSpeed" : 3.5,
		"windDir" : 78,
		"rain" : 0,
		"cloudbase" : 6724.464,
		"flyability" : 0,
		"reason" : "windDir",
		"timestamp" :1555552800
		},
	"2019-04-18T07:00:00+01:00" : {
		"windSpeed" : 3.5,
		"windDir" : 93,
		"rain" : 0,
		"cloudbase" : 9200,
		"flyability" : 0,
		"reason" : "windDir",
		"timestamp" :1555563600
		},
	"2019-04-18T10:00:00+01:00" : {
		"windSpeed" : 4.5,
		"windDir" : 102,
		"rain" : 0,
		"cloudbase" : null,
		"flyability" : 0,
		"reason" : "windDir",
		"timestamp" :1555574400
		},
	"2019-04-18T13:00:00+01:00" : {
		"windSpeed" : 4.6,
		"windDir" : 132,
		"rain" : 0,
		"cloudbase" : 3236.196,
		"flyability" : 0,
		"reason" : "windDir",
		"timestamp" :1555585200
		},
	"2019-04-18T16:00:00+01:00" : {
		"windSpeed" : 4.9,
		"windDir" : 136,
		"rain" : 1,
		"cloudbase" : null,
		"flyability" : 0,
		"reason" : "windDir, rain",
		"timestamp" :1555596000
		},
	"2019-04-18T19:00:00+01:00" : {
		"windSpeed" : 3.2,
		"windDir" : 141,
		"rain" : 0,
		"cloudbase" : 3681,
		"flyability" : 0,
		"reason" : "windDir",
		"timestamp" :1555606800
		},
	"2019-04-18T22:00:00+01:00" : {
		"windSpeed" : 2.4,
		"windDir" : 129,
		"rain" : 1,
		"cloudbase" : 9300,
		"flyability" : 0,
		"reason" : "windDir, rain",
		"timestamp" :1555617600
		},
	"2019-04-19T01:00:00+01:00" : {
		"windSpeed" : 1.8,
		"windDir" : 112,
		"rain" : 0,
		"cloudbase" : 9375.992,
		"flyability" : 0,
		"reason" : "windDir",
		"timestamp" :1555628400
		},
	"2019-04-19T04:00:00+01:00" : {
		"windSpeed" : 1.7,
		"windDir" : 113,
		"rain" : 1,
		"cloudbase" : 8356.8,
		"flyability" : 0,
		"reason" : "windDir, rain",
		"timestamp" :1555639200
		},
	"2019-04-19T07:00:00+01:00" : {
		"windSpeed" : 1.8,
		"windDir" : 115,
		"rain" : 0,
		"cloudbase" : null,
		"flyability" : 0,
		"reason" : "windDir",
		"timestamp" :1555650000
		},
	"2019-04-19T10:00:00+01:00" : {
		"windSpeed" : 2.7,
		"windDir" : 130,
		"rain" : 0,
		"cloudbase" : null,
		"flyability" : 0,
		"reason" : "windDir",
		"timestamp" :1555660800
		},
	"2019-04-19T13:00:00+01:00" : {
		"windSpeed" : 3.7,
		"windDir" : 164,
		"rain" : 0,
		"cloudbase" : 12000,
		"flyability" : 0,
		"reason" : "windDir",
		"timestamp" :1555671600
		},
	"2019-04-19T16:00:00+01:00" : {
		"windSpeed" : 3.4,
		"windDir" : 195,
		"rain" : 0,
		"cloudbase" : 9952.808,
		"flyability" : 0,
		"reason" : "windDir",
		"timestamp" :1555682400
		},
	"2019-04-19T19:00:00+01:00" : {
		"windSpeed" : 1.7,
		"windDir" : 209,
		"rain" : 0,
		"cloudbase" : 11500,
		"flyability" : 100,
		"reason" : "",
		"timestamp" :1555693200
		},
	"2019-04-19T22:00:00+01:00" : {
		"windSpeed" : 0.8,
		"windDir" : 268,
		"rain" : 0,
		"cloudbase" : 10410,
		"flyability" : 0,
		"reason" : "windDir",
		"timestamp" :1555704000
		},
	"2019-04-20T01:00:00+01:00" : {
		"windSpeed" : 1.4,
		"windDir" : 276,
		"rain" : 0,
		"cloudbase" : 9682,
		"flyability" : 0,
		"reason" : "windDir",
		"timestamp" :1555714800
		}
	}
}