{
"site" : "Schwatka Lake",
"id" : 18778,
"orientations" : "00001200",
"forecasts" : { 
	"2019-04-04T08:00:00-07:00" : {
		"windSpeed" : 3,
		"windDir" : 111,
		"rain" : 0,
		"cloudbase" : 855.368,
		"flyability" : 0,
		"reason" : "windDir",
		"timestamp" :1554393600
		},
	"2019-04-04T11:00:00-07:00" : {
		"windSpeed" : 3.2,
		"windDir" : 119,
		"rain" : 0,
		"cloudbase" : 916.452,
		"flyability" : 0,
		"reason" : "windDir",
		"timestamp" :1554404400
		},
	"2019-04-04T14:00:00-07:00" : {
		"windSpeed" : 2.8,
		"windDir" : 134,
		"rain" : 0,
		"cloudbase" : 1050,
		"flyability" : 0,
		"reason" : "windDir",
		"timestamp" :1554415200
		},
	"2019-04-04T17:00:00-07:00" : {
		"windSpeed" : 3.2,
		"windDir" : 141,
		"rain" : 0,
		"cloudbase" : 1300,
		"flyability" : 0,
		"reason" : "windDir",
		"timestamp" :1554426000
		},
	"2019-04-04T20:00:00-07:00" : {
		"windSpeed" : 2.8,
		"windDir" : 140,
		"rain" : 0,
		"cloudbase" : null,
		"flyability" : 0,
		"reason" : "windDir",
		"timestamp" :1554436800
		},
	"2019-04-04T23:00:00-07:00" : {
		"windSpeed" : 3,
		"windDir" : 111,
		"rain" : 0,
		"cloudbase" : null,
		"flyability" : 0,
		"reason" : "windDir",
		"timestamp" :1554447600
		},
	"2019-04-05T02:00:00-07:00" : {
		"windSpeed" : 2.5,
		"windDir" : 134,
		"rain" : 0,
		"cloudbase" : null,
		"flyability" : 0,
		"reason" : "windDir",
		"timestamp" :1554458400
		},
	"2019-04-05T05:00:00-07:00" : {
		"windSpeed" : 2.2,
		"windDir" : 143,
		"rain" : 0,
		"cloudbase" : 7198.14,
		"flyability" : 0,
		"reason" : "windDir",
		"timestamp" :1554469200
		},
	"2019-04-05T08:00:00-07:00" : {
		"windSpeed" : 2.5,
		"windDir" : 147,
		"rain" : 0,
		"cloudbase" : 3633.1900000001,
		"flyability" : 0,
		"reason" : "windDir",
		"timestamp" :1554480000
		},
	"2019-04-05T11:00:00-07:00" : {
		"windSpeed" : 2.8,
		"windDir" : 125,
		"rain" : 0,
		"cloudbase" : 850.28000000001,
		"flyability" : 0,
		"reason" : "windDir",
		"timestamp" :1554490800
		},
	"2019-04-05T14:00:00-07:00" : {
		"windSpeed" : 3.3,
		"windDir" : 130,
		"rain" : 0,
		"cloudbase" : 1006.506,
		"flyability" : 0,
		"reason" : "windDir",
		"timestamp" :1554501600
		},
	"2019-04-05T17:00:00-07:00" : {
		"windSpeed" : 3.1,
		"windDir" : 130,
		"rain" : 0,
		"cloudbase" : 2838.35,
		"flyability" : 0,
		"reason" : "windDir",
		"timestamp" :1554512400
		},
	"2019-04-05T20:00:00-07:00" : {
		"windSpeed" : 2.7,
		"windDir" : 128,
		"rain" : 0,
		"cloudbase" : 1134.71,
		"flyability" : 0,
		"reason" : "windDir",
		"timestamp" :1554523200
		},
	"2019-04-05T23:00:00-07:00" : {
		"windSpeed" : 3.2,
		"windDir" : 120,
		"rain" : 0,
		"cloudbase" : 4113.64,
		"flyability" : 0,
		"reason" : "windDir",
		"timestamp" :1554534000
		},
	"2019-04-06T02:00:00-07:00" : {
		"windSpeed" : 3.5,
		"windDir" : 138,
		"rain" : 0,
		"cloudbase" : 2464.14,
		"flyability" : 0,
		"reason" : "windDir",
		"timestamp" :1554544800
		},
	"2019-04-06T05:00:00-07:00" : {
		"windSpeed" : 3.5,
		"windDir" : 139,
		"rain" : 0,
		"cloudbase" : 2869.21,
		"flyability" : 0,
		"reason" : "windDir",
		"timestamp" :1554555600
		},
	"2019-04-06T08:00:00-07:00" : {
		"windSpeed" : 3.9,
		"windDir" : 142,
		"rain" : 0,
		"cloudbase" : 3710.3000000001,
		"flyability" : 0,
		"reason" : "windDir",
		"timestamp" :1554566400
		},
	"2019-04-06T11:00:00-07:00" : {
		"windSpeed" : 3.6,
		"windDir" : 137,
		"rain" : 0,
		"cloudbase" : 3778.21,
		"flyability" : 0,
		"reason" : "windDir",
		"timestamp" :1554577200
		},
	"2019-04-06T14:00:00-07:00" : {
		"windSpeed" : 2.5,
		"windDir" : 130,
		"rain" : 0,
		"cloudbase" : 3333.28,
		"flyability" : 0,
		"reason" : "windDir",
		"timestamp" :1554588000
		},
	"2019-04-06T17:00:00-07:00" : {
		"windSpeed" : 2.2,
		"windDir" : 117,
		"rain" : 0,
		"cloudbase" : 2894.44,
		"flyability" : 0,
		"reason" : "windDir",
		"timestamp" :1554598800
		},
	"2019-04-06T20:00:00-07:00" : {
		"windSpeed" : 2.5,
		"windDir" : 117,
		"rain" : 0,
		"cloudbase" : 2358.21,
		"flyability" : 0,
		"reason" : "windDir",
		"timestamp" :1554609600
		},
	"2019-04-06T23:00:00-07:00" : {
		"windSpeed" : 2.5,
		"windDir" : 129,
		"rain" : 0,
		"cloudbase" : 1981.43,
		"flyability" : 0,
		"reason" : "windDir",
		"timestamp" :1554620400
		},
	"2019-04-07T02:00:00-07:00" : {
		"windSpeed" : 3.2,
		"windDir" : 134,
		"rain" : 0,
		"cloudbase" : 3942.1100000001,
		"flyability" : 0,
		"reason" : "windDir",
		"timestamp" :1554631200
		},
	"2019-04-07T05:00:00-07:00" : {
		"windSpeed" : 3.2,
		"windDir" : 135,
		"rain" : 0,
		"cloudbase" : 4378.09,
		"flyability" : 0,
		"reason" : "windDir",
		"timestamp" :1554642000
		},
	"2019-04-07T08:00:00-07:00" : {
		"windSpeed" : 2.8,
		"windDir" : 142,
		"rain" : 0,
		"cloudbase" : null,
		"flyability" : 0,
		"reason" : "windDir",
		"timestamp" :1554652800
		},
	"2019-04-07T11:00:00-07:00" : {
		"windSpeed" : 3.6,
		"windDir" : 137,
		"rain" : 0,
		"cloudbase" : 2231.332,
		"flyability" : 0,
		"reason" : "windDir",
		"timestamp" :1554663600
		},
	"2019-04-07T14:00:00-07:00" : {
		"windSpeed" : 4.2,
		"windDir" : 144,
		"rain" : 0,
		"cloudbase" : 2596.6899999998,
		"flyability" : 0,
		"reason" : "windDir",
		"timestamp" :1554674400
		},
	"2019-04-07T17:00:00-07:00" : {
		"windSpeed" : 3.3,
		"windDir" : 143,
		"rain" : 0,
		"cloudbase" : 5286.14,
		"flyability" : 0,
		"reason" : "windDir",
		"timestamp" :1554685200
		},
	"2019-04-07T20:00:00-07:00" : {
		"windSpeed" : 2.2,
		"windDir" : 137,
		"rain" : 0,
		"cloudbase" : 1905.8599999998,
		"flyability" : 0,
		"reason" : "windDir",
		"timestamp" :1554696000
		},
	"2019-04-07T23:00:00-07:00" : {
		"windSpeed" : 2.6,
		"windDir" : 140,
		"rain" : 0,
		"cloudbase" : 5360.0200000001,
		"flyability" : 0,
		"reason" : "windDir",
		"timestamp" :1554706800
		},
	"2019-04-08T02:00:00-07:00" : {
		"windSpeed" : 3.1,
		"windDir" : 133,
		"rain" : 0,
		"cloudbase" : 4869.14,
		"flyability" : 0,
		"reason" : "windDir",
		"timestamp" :1554717600
		},
	"2019-04-08T05:00:00-07:00" : {
		"windSpeed" : 3.7,
		"windDir" : 135,
		"rain" : 0,
		"cloudbase" : 5002.71,
		"flyability" : 0,
		"reason" : "windDir",
		"timestamp" :1554728400
		},
	"2019-04-08T08:00:00-07:00" : {
		"windSpeed" : 4.4,
		"windDir" : 135,
		"rain" : 0,
		"cloudbase" : 3300,
		"flyability" : 0,
		"reason" : "windDir",
		"timestamp" :1554739200
		},
	"2019-04-08T11:00:00-07:00" : {
		"windSpeed" : 5.3,
		"windDir" : 142,
		"rain" : 0,
		"cloudbase" : 795.08,
		"flyability" : 0,
		"reason" : "windSpeed, windDir",
		"timestamp" :1554750000
		},
	"2019-04-08T14:00:00-07:00" : {
		"windSpeed" : 4.7,
		"windDir" : 162,
		"rain" : 0,
		"cloudbase" : null,
		"flyability" : 100,
		"reason" : "",
		"timestamp" :1554760800
		},
	"2019-04-08T17:00:00-07:00" : {
		"windSpeed" : 5.1,
		"windDir" : 169,
		"rain" : 0,
		"cloudbase" : 6542.4600000001,
		"flyability" : 0,
		"reason" : "windSpeed",
		"timestamp" :1554771600
		},
	"2019-04-08T20:00:00-07:00" : {
		"windSpeed" : 3.5,
		"windDir" : 155,
		"rain" : 0,
		"cloudbase" : 2837.21,
		"flyability" : 0,
		"reason" : "windDir",
		"timestamp" :1554782400
		},
	"2019-04-08T23:00:00-07:00" : {
		"windSpeed" : 2.9,
		"windDir" : 142,
		"rain" : 0,
		"cloudbase" : 7537.42,
		"flyability" : 0,
		"reason" : "windDir",
		"timestamp" :1554793200
		},
	"2019-04-09T02:00:00-07:00" : {
		"windSpeed" : 2.9,
		"windDir" : 142,
		"rain" : 0,
		"cloudbase" : 5795.3,
		"flyability" : 0,
		"reason" : "windDir",
		"timestamp" :1554804000
		},
	"2019-04-09T05:00:00-07:00" : {
		"windSpeed" : 2.6,
		"windDir" : 151,
		"rain" : 0,
		"cloudbase" : 7000,
		"flyability" : 0,
		"reason" : "windDir",
		"timestamp" :1554814800
		},
	"2019-04-09T08:00:00-07:00" : {
		"windSpeed" : 2.4,
		"windDir" : 139,
		"rain" : 0,
		"cloudbase" : 5290.28,
		"flyability" : 0,
		"reason" : "windDir",
		"timestamp" :1554825600
		},
	"2019-04-09T11:00:00-07:00" : {
		"windSpeed" : 3.1,
		"windDir" : 162,
		"rain" : 0,
		"cloudbase" : 6300,
		"flyability" : 100,
		"reason" : "",
		"timestamp" :1554836400
		},
	"2019-04-09T14:00:00-07:00" : {
		"windSpeed" : 3.5,
		"windDir" : 188,
		"rain" : 0,
		"cloudbase" : null,
		"flyability" : 100,
		"reason" : "",
		"timestamp" :1554847200
		},
	"2019-04-09T17:00:00-07:00" : {
		"windSpeed" : 2.6,
		"windDir" : 180,
		"rain" : 0,
		"cloudbase" : 5000,
		"flyability" : 100,
		"reason" : "",
		"timestamp" :1554858000
		},
	"2019-04-09T20:00:00-07:00" : {
		"windSpeed" : 2.1,
		"windDir" : 162,
		"rain" : 0,
		"cloudbase" : 5337.5600000001,
		"flyability" : 100,
		"reason" : "",
		"timestamp" :1554868800
		},
	"2019-04-09T23:00:00-07:00" : {
		"windSpeed" : 1.4,
		"windDir" : 146,
		"rain" : 0,
		"cloudbase" : null,
		"flyability" : 0,
		"reason" : "windDir",
		"timestamp" :1554879600
		},
	"2019-04-10T02:00:00-07:00" : {
		"windSpeed" : 0.2,
		"windDir" : 136,
		"rain" : 0,
		"cloudbase" : null,
		"flyability" : 0,
		"reason" : "windDir",
		"timestamp" :1554890400
		},
	"2019-04-10T05:00:00-07:00" : {
		"windSpeed" : 0.3,
		"windDir" : 235,
		"rain" : 0,
		"cloudbase" : null,
		"flyability" : 100,
		"reason" : "",
		"timestamp" :1554901200
		}
	}
}