{
"site" : "Voinesti",
"id" : 18785,
"orientations" : "20000001",
"forecasts" : { 
	"2019-04-17T06:00:00+03:00" : {
		"windSpeed" : 3.6,
		"windDir" : 326,
		"rain" : 1,
		"cloudbase" : 113.277,
		"flyability" : 0,
		"reason" : "rain, cloudbase",
		"timestamp" :1555470000
		},
	"2019-04-17T09:00:00+03:00" : {
		"windSpeed" : 3.2,
		"windDir" : 13,
		"rain" : 1,
		"cloudbase" : 591.564,
		"flyability" : 0,
		"reason" : "rain",
		"timestamp" :1555480800
		},
	"2019-04-17T12:00:00+03:00" : {
		"windSpeed" : 3.2,
		"windDir" : 33,
		"rain" : 1,
		"cloudbase" : 768.672,
		"flyability" : 0,
		"reason" : "windDir, rain",
		"timestamp" :1555491600
		},
	"2019-04-17T15:00:00+03:00" : {
		"windSpeed" : 1.7,
		"windDir" : 35,
		"rain" : 1,
		"cloudbase" : 961.09399999999,
		"flyability" : 0,
		"reason" : "windDir, rain",
		"timestamp" :1555502400
		},
	"2019-04-17T18:00:00+03:00" : {
		"windSpeed" : 0.7,
		"windDir" : 335,
		"rain" : 1,
		"cloudbase" : 1127.118,
		"flyability" : 0,
		"reason" : "rain",
		"timestamp" :1555513200
		},
	"2019-04-17T21:00:00+03:00" : {
		"windSpeed" : 1.6,
		"windDir" : 305,
		"rain" : 0,
		"cloudbase" : 1342,
		"flyability" : 100,
		"reason" : "",
		"timestamp" :1555524000
		},
	"2019-04-18T00:00:00+03:00" : {
		"windSpeed" : 1.9,
		"windDir" : 337,
		"rain" : 0,
		"cloudbase" : 1638.59,
		"flyability" : 100,
		"reason" : "",
		"timestamp" :1555534800
		},
	"2019-04-18T03:00:00+03:00" : {
		"windSpeed" : 2.4,
		"windDir" : 23,
		"rain" : 1,
		"cloudbase" : 224.01800000001,
		"flyability" : 0,
		"reason" : "windDir, rain, cloudbase",
		"timestamp" :1555545600
		},
	"2019-04-18T06:00:00+03:00" : {
		"windSpeed" : 3.2,
		"windDir" : 39,
		"rain" : 1,
		"cloudbase" : 334.45400000001,
		"flyability" : 0,
		"reason" : "windDir, rain",
		"timestamp" :1555556400
		},
	"2019-04-18T09:00:00+03:00" : {
		"windSpeed" : 3.3,
		"windDir" : 38,
		"rain" : 1,
		"cloudbase" : 512.05400000002,
		"flyability" : 0,
		"reason" : "windDir, rain",
		"timestamp" :1555567200
		},
	"2019-04-18T12:00:00+03:00" : {
		"windSpeed" : 1.9,
		"windDir" : 25,
		"rain" : 1,
		"cloudbase" : 7768.1400000001,
		"flyability" : 0,
		"reason" : "windDir, rain",
		"timestamp" :1555578000
		},
	"2019-04-18T15:00:00+03:00" : {
		"windSpeed" : 4.5,
		"windDir" : 12,
		"rain" : 1,
		"cloudbase" : 1629,
		"flyability" : 0,
		"reason" : "rain",
		"timestamp" :1555588800
		},
	"2019-04-18T18:00:00+03:00" : {
		"windSpeed" : 3.2,
		"windDir" : 349,
		"rain" : 0,
		"cloudbase" : 1945,
		"flyability" : 100,
		"reason" : "",
		"timestamp" :1555599600
		},
	"2019-04-18T21:00:00+03:00" : {
		"windSpeed" : 2.4,
		"windDir" : 322,
		"rain" : 0,
		"cloudbase" : 8584,
		"flyability" : 100,
		"reason" : "",
		"timestamp" :1555610400
		},
	"2019-04-19T00:00:00+03:00" : {
		"windSpeed" : 2.2,
		"windDir" : 337,
		"rain" : 0,
		"cloudbase" : 5471.82,
		"flyability" : 100,
		"reason" : "",
		"timestamp" :1555621200
		},
	"2019-04-19T03:00:00+03:00" : {
		"windSpeed" : 2.5,
		"windDir" : 296,
		"rain" : 0,
		"cloudbase" : null,
		"flyability" : 100,
		"reason" : "",
		"timestamp" :1555632000
		},
	"2019-04-19T06:00:00+03:00" : {
		"windSpeed" : 3.4,
		"windDir" : 304,
		"rain" : 0,
		"cloudbase" : null,
		"flyability" : 100,
		"reason" : "",
		"timestamp" :1555642800
		},
	"2019-04-19T09:00:00+03:00" : {
		"windSpeed" : 3.9,
		"windDir" : 337,
		"rain" : 1,
		"cloudbase" : 1855.27,
		"flyability" : 0,
		"reason" : "rain",
		"timestamp" :1555653600
		},
	"2019-04-19T12:00:00+03:00" : {
		"windSpeed" : 3.7,
		"windDir" : 355,
		"rain" : 1,
		"cloudbase" : null,
		"flyability" : 0,
		"reason" : "rain",
		"timestamp" :1555664400
		},
	"2019-04-19T15:00:00+03:00" : {
		"windSpeed" : 4.6,
		"windDir" : 22,
		"rain" : 0,
		"cloudbase" : 1200,
		"flyability" : 100,
		"reason" : "",
		"timestamp" :1555675200
		},
	"2019-04-19T18:00:00+03:00" : {
		"windSpeed" : 2.4,
		"windDir" : 14,
		"rain" : 1,
		"cloudbase" : null,
		"flyability" : 0,
		"reason" : "rain",
		"timestamp" :1555686000
		},
	"2019-04-19T21:00:00+03:00" : {
		"windSpeed" : 2.2,
		"windDir" : 355,
		"rain" : 1,
		"cloudbase" : null,
		"flyability" : 0,
		"reason" : "rain",
		"timestamp" :1555696800
		},
	"2019-04-20T00:00:00+03:00" : {
		"windSpeed" : 2.2,
		"windDir" : 349,
		"rain" : 0,
		"cloudbase" : 2385.09,
		"flyability" : 100,
		"reason" : "",
		"timestamp" :1555707600
		},
	"2019-04-20T03:00:00+03:00" : {
		"windSpeed" : 2,
		"windDir" : 350,
		"rain" : 0,
		"cloudbase" : null,
		"flyability" : 100,
		"reason" : "",
		"timestamp" :1555718400
		},
	"2019-04-20T06:00:00+03:00" : {
		"windSpeed" : 1.8,
		"windDir" : 351,
		"rain" : 0,
		"cloudbase" : null,
		"flyability" : 100,
		"reason" : "",
		"timestamp" :1555729200
		},
	"2019-04-20T09:00:00+03:00" : {
		"windSpeed" : 2,
		"windDir" : 2,
		"rain" : 0,
		"cloudbase" : null,
		"flyability" : 100,
		"reason" : "",
		"timestamp" :1555740000
		},
	"2019-04-20T12:00:00+03:00" : {
		"windSpeed" : 4.9,
		"windDir" : 24,
		"rain" : 1,
		"cloudbase" : 1850,
		"flyability" : 0,
		"reason" : "windDir, rain",
		"timestamp" :1555750800
		},
	"2019-04-20T15:00:00+03:00" : {
		"windSpeed" : 3.8,
		"windDir" : 15,
		"rain" : 0,
		"cloudbase" : 1908,
		"flyability" : 100,
		"reason" : "",
		"timestamp" :1555761600
		},
	"2019-04-20T18:00:00+03:00" : {
		"windSpeed" : 2.6,
		"windDir" : 360,
		"rain" : 0,
		"cloudbase" : 1966.82,
		"flyability" : 100,
		"reason" : "",
		"timestamp" :1555772400
		},
	"2019-04-20T21:00:00+03:00" : {
		"windSpeed" : 2.1,
		"windDir" : 325,
		"rain" : 0,
		"cloudbase" : 4140.6,
		"flyability" : 100,
		"reason" : "",
		"timestamp" :1555783200
		},
	"2019-04-21T00:00:00+03:00" : {
		"windSpeed" : 1.7,
		"windDir" : 301,
		"rain" : 0,
		"cloudbase" : 2751.63,
		"flyability" : 100,
		"reason" : "",
		"timestamp" :1555794000
		},
	"2019-04-21T03:00:00+03:00" : {
		"windSpeed" : 1.1,
		"windDir" : 285,
		"rain" : 0,
		"cloudbase" : 4277.8299999999,
		"flyability" : 0,
		"reason" : "windDir",
		"timestamp" :1555804800
		},
	"2019-04-21T06:00:00+03:00" : {
		"windSpeed" : 1.5,
		"windDir" : 275,
		"rain" : 0,
		"cloudbase" : 2006.09,
		"flyability" : 0,
		"reason" : "windDir",
		"timestamp" :1555815600
		},
	"2019-04-21T09:00:00+03:00" : {
		"windSpeed" : 0.2,
		"windDir" : 331,
		"rain" : 0,
		"cloudbase" : 1864.91,
		"flyability" : 100,
		"reason" : "",
		"timestamp" :1555826400
		},
	"2019-04-21T12:00:00+03:00" : {
		"windSpeed" : 1.1,
		"windDir" : 27,
		"rain" : 0,
		"cloudbase" : 1659.91,
		"flyability" : 0,
		"reason" : "windDir",
		"timestamp" :1555837200
		},
	"2019-04-21T15:00:00+03:00" : {
		"windSpeed" : 0.6,
		"windDir" : 14,
		"rain" : 1,
		"cloudbase" : 1700,
		"flyability" : 0,
		"reason" : "rain",
		"timestamp" :1555848000
		},
	"2019-04-21T18:00:00+03:00" : {
		"windSpeed" : 1,
		"windDir" : 108,
		"rain" : 0,
		"cloudbase" : 1811.82,
		"flyability" : 0,
		"reason" : "windDir",
		"timestamp" :1555858800
		},
	"2019-04-21T21:00:00+03:00" : {
		"windSpeed" : 1.9,
		"windDir" : 191,
		"rain" : 1,
		"cloudbase" : 6468.34,
		"flyability" : 0,
		"reason" : "windDir, rain",
		"timestamp" :1555869600
		},
	"2019-04-22T00:00:00+03:00" : {
		"windSpeed" : 2.6,
		"windDir" : 158,
		"rain" : 0,
		"cloudbase" : 7000,
		"flyability" : 0,
		"reason" : "windDir",
		"timestamp" :1555880400
		},
	"2019-04-22T03:00:00+03:00" : {
		"windSpeed" : 2,
		"windDir" : 155,
		"rain" : 1,
		"cloudbase" : 2200,
		"flyability" : 0,
		"reason" : "windDir, rain",
		"timestamp" :1555891200
		},
	"2019-04-22T06:00:00+03:00" : {
		"windSpeed" : 1.8,
		"windDir" : 141,
		"rain" : 0,
		"cloudbase" : null,
		"flyability" : 0,
		"reason" : "windDir",
		"timestamp" :1555902000
		},
	"2019-04-22T09:00:00+03:00" : {
		"windSpeed" : 1.7,
		"windDir" : 114,
		"rain" : 0,
		"cloudbase" : null,
		"flyability" : 0,
		"reason" : "windDir",
		"timestamp" :1555912800
		},
	"2019-04-22T12:00:00+03:00" : {
		"windSpeed" : 2.9,
		"windDir" : 126,
		"rain" : 0,
		"cloudbase" : 1916.41,
		"flyability" : 0,
		"reason" : "windDir",
		"timestamp" :1555923600
		},
	"2019-04-22T15:00:00+03:00" : {
		"windSpeed" : 2.5,
		"windDir" : 136,
		"rain" : 0,
		"cloudbase" : 1995.82,
		"flyability" : 0,
		"reason" : "windDir",
		"timestamp" :1555934400
		},
	"2019-04-22T18:00:00+03:00" : {
		"windSpeed" : 1.8,
		"windDir" : 103,
		"rain" : 0,
		"cloudbase" : 1893.09,
		"flyability" : 0,
		"reason" : "windDir",
		"timestamp" :1555945200
		},
	"2019-04-22T21:00:00+03:00" : {
		"windSpeed" : 2.3,
		"windDir" : 108,
		"rain" : 0,
		"cloudbase" : 2113.32,
		"flyability" : 0,
		"reason" : "windDir",
		"timestamp" :1555956000
		},
	"2019-04-23T00:00:00+03:00" : {
		"windSpeed" : 1.7,
		"windDir" : 161,
		"rain" : 0,
		"cloudbase" : 2508,
		"flyability" : 0,
		"reason" : "windDir",
		"timestamp" :1555966800
		},
	"2019-04-23T03:00:00+03:00" : {
		"windSpeed" : 1.7,
		"windDir" : 155,
		"rain" : 0,
		"cloudbase" : 2600,
		"flyability" : 0,
		"reason" : "windDir",
		"timestamp" :1555977600
		}
	}
}