{
"site" : "BallyMac.@Seven Heads Bay",
"id" : 18859,
"orientations" : "00120000",
"forecasts" : { 
	"2019-04-03T04:00:00+01:00" : {
		"windSpeed" : 8.8,
		"windDir" : 336,
		"rain" : 0,
		"cloudbase" : null,
		"flyability" : 0,
		"reason" : "windSpeed, windDir",
		"timestamp" :1554256800
		},
	"2019-04-03T07:00:00+01:00" : {
		"windSpeed" : 9.2,
		"windDir" : 338,
		"rain" : 0,
		"cloudbase" : null,
		"flyability" : 0,
		"reason" : "windSpeed, windDir",
		"timestamp" :1554267600
		},
	"2019-04-03T10:00:00+01:00" : {
		"windSpeed" : 9.5,
		"windDir" : 342,
		"rain" : 0,
		"cloudbase" : null,
		"flyability" : 0,
		"reason" : "windSpeed, windDir",
		"timestamp" :1554278400
		},
	"2019-04-03T13:00:00+01:00" : {
		"windSpeed" : 8.1,
		"windDir" : 338,
		"rain" : 0,
		"cloudbase" : null,
		"flyability" : 0,
		"reason" : "windSpeed, windDir",
		"timestamp" :1554289200
		},
	"2019-04-03T16:00:00+01:00" : {
		"windSpeed" : 8.5,
		"windDir" : 332,
		"rain" : 1,
		"cloudbase" : 1750,
		"flyability" : 0,
		"reason" : "windSpeed, windDir, rain",
		"timestamp" :1554300000
		},
	"2019-04-03T19:00:00+01:00" : {
		"windSpeed" : 7.7,
		"windDir" : 328,
		"rain" : 0,
		"cloudbase" : null,
		"flyability" : 0,
		"reason" : "windSpeed, windDir",
		"timestamp" :1554310800
		},
	"2019-04-03T22:00:00+01:00" : {
		"windSpeed" : 7.5,
		"windDir" : 307,
		"rain" : 0,
		"cloudbase" : 1350,
		"flyability" : 0,
		"reason" : "windSpeed, windDir",
		"timestamp" :1554321600
		},
	"2019-04-04T01:00:00+01:00" : {
		"windSpeed" : 7.9,
		"windDir" : 296,
		"rain" : 0,
		"cloudbase" : 909.75999999999,
		"flyability" : 0,
		"reason" : "windSpeed, windDir",
		"timestamp" :1554332400
		},
	"2019-04-04T04:00:00+01:00" : {
		"windSpeed" : 7.1,
		"windDir" : 315,
		"rain" : 1,
		"cloudbase" : 454.24,
		"flyability" : 0,
		"reason" : "windSpeed, windDir, rain",
		"timestamp" :1554343200
		},
	"2019-04-04T07:00:00+01:00" : {
		"windSpeed" : 5.5,
		"windDir" : 0,
		"rain" : 1,
		"cloudbase" : null,
		"flyability" : 0,
		"reason" : "windSpeed, windDir, rain",
		"timestamp" :1554354000
		},
	"2019-04-04T10:00:00+01:00" : {
		"windSpeed" : 7.8,
		"windDir" : 15,
		"rain" : 0,
		"cloudbase" : 678.8,
		"flyability" : 0,
		"reason" : "windSpeed, windDir",
		"timestamp" :1554364800
		},
	"2019-04-04T13:00:00+01:00" : {
		"windSpeed" : 5.2,
		"windDir" : 17,
		"rain" : 1,
		"cloudbase" : 1250,
		"flyability" : 0,
		"reason" : "windSpeed, windDir, rain",
		"timestamp" :1554375600
		},
	"2019-04-04T16:00:00+01:00" : {
		"windSpeed" : 3.1,
		"windDir" : 9,
		"rain" : 1,
		"cloudbase" : 1150,
		"flyability" : 0,
		"reason" : "windDir, rain",
		"timestamp" :1554386400
		},
	"2019-04-04T19:00:00+01:00" : {
		"windSpeed" : 3.5,
		"windDir" : 352,
		"rain" : 1,
		"cloudbase" : null,
		"flyability" : 0,
		"reason" : "windDir, rain",
		"timestamp" :1554397200
		},
	"2019-04-04T22:00:00+01:00" : {
		"windSpeed" : 2.1,
		"windDir" : 346,
		"rain" : 0,
		"cloudbase" : 4900,
		"flyability" : 0,
		"reason" : "windDir",
		"timestamp" :1554408000
		},
	"2019-04-05T01:00:00+01:00" : {
		"windSpeed" : 2.1,
		"windDir" : 346,
		"rain" : 0,
		"cloudbase" : null,
		"flyability" : 0,
		"reason" : "windDir",
		"timestamp" :1554418800
		},
	"2019-04-05T04:00:00+01:00" : {
		"windSpeed" : 1.6,
		"windDir" : 72,
		"rain" : 0,
		"cloudbase" : null,
		"flyability" : 100,
		"reason" : "",
		"timestamp" :1554429600
		},
	"2019-04-05T07:00:00+01:00" : {
		"windSpeed" : 2.2,
		"windDir" : 117,
		"rain" : 0,
		"cloudbase" : null,
		"flyability" : 100,
		"reason" : "",
		"timestamp" :1554440400
		},
	"2019-04-05T10:00:00+01:00" : {
		"windSpeed" : 3.2,
		"windDir" : 129,
		"rain" : 0,
		"cloudbase" : null,
		"flyability" : 100,
		"reason" : "",
		"timestamp" :1554451200
		},
	"2019-04-05T13:00:00+01:00" : {
		"windSpeed" : 4.2,
		"windDir" : 135,
		"rain" : 1,
		"cloudbase" : null,
		"flyability" : 0,
		"reason" : "rain",
		"timestamp" :1554462000
		},
	"2019-04-05T16:00:00+01:00" : {
		"windSpeed" : 4.2,
		"windDir" : 135,
		"rain" : 1,
		"cloudbase" : 1400,
		"flyability" : 0,
		"reason" : "rain",
		"timestamp" :1554472800
		},
	"2019-04-05T19:00:00+01:00" : {
		"windSpeed" : 4.5,
		"windDir" : 96,
		"rain" : 0,
		"cloudbase" : 6080.1750000004,
		"flyability" : 100,
		"reason" : "",
		"timestamp" :1554483600
		},
	"2019-04-05T22:00:00+01:00" : {
		"windSpeed" : 3.9,
		"windDir" : 51,
		"rain" : 0,
		"cloudbase" : 1388.3999999998,
		"flyability" : 0,
		"reason" : "windDir",
		"timestamp" :1554494400
		},
	"2019-04-06T01:00:00+01:00" : {
		"windSpeed" : 5,
		"windDir" : 54,
		"rain" : 1,
		"cloudbase" : 605.97999999999,
		"flyability" : 0,
		"reason" : "windDir, rain",
		"timestamp" :1554505200
		},
	"2019-04-06T04:00:00+01:00" : {
		"windSpeed" : 5.6,
		"windDir" : 27,
		"rain" : 1,
		"cloudbase" : 660.21999999999,
		"flyability" : 0,
		"reason" : "windSpeed, windDir, rain",
		"timestamp" :1554516000
		},
	"2019-04-06T07:00:00+01:00" : {
		"windSpeed" : 4.5,
		"windDir" : 27,
		"rain" : 0,
		"cloudbase" : 860,
		"flyability" : 0,
		"reason" : "windDir",
		"timestamp" :1554526800
		},
	"2019-04-06T10:00:00+01:00" : {
		"windSpeed" : 5.3,
		"windDir" : 49,
		"rain" : 0,
		"cloudbase" : null,
		"flyability" : 0,
		"reason" : "windSpeed, windDir",
		"timestamp" :1554537600
		},
	"2019-04-06T13:00:00+01:00" : {
		"windSpeed" : 8.1,
		"windDir" : 79,
		"rain" : 1,
		"cloudbase" : 2137.7249999998,
		"flyability" : 0,
		"reason" : "windSpeed, rain",
		"timestamp" :1554548400
		},
	"2019-04-06T16:00:00+01:00" : {
		"windSpeed" : 7.3,
		"windDir" : 74,
		"rain" : 0,
		"cloudbase" : 3411.5499999999,
		"flyability" : 0,
		"reason" : "windSpeed",
		"timestamp" :1554559200
		},
	"2019-04-06T19:00:00+01:00" : {
		"windSpeed" : 6.3,
		"windDir" : 72,
		"rain" : 0,
		"cloudbase" : 2409.65,
		"flyability" : 0,
		"reason" : "windSpeed",
		"timestamp" :1554570000
		},
	"2019-04-06T22:00:00+01:00" : {
		"windSpeed" : 5,
		"windDir" : 45,
		"rain" : 0,
		"cloudbase" : 4800,
		"flyability" : 0,
		"reason" : "windDir",
		"timestamp" :1554580800
		},
	"2019-04-07T01:00:00+01:00" : {
		"windSpeed" : 5,
		"windDir" : 24,
		"rain" : 0,
		"cloudbase" : 5100,
		"flyability" : 0,
		"reason" : "windDir",
		"timestamp" :1554591600
		},
	"2019-04-07T04:00:00+01:00" : {
		"windSpeed" : 5.3,
		"windDir" : 17,
		"rain" : 0,
		"cloudbase" : 5798,
		"flyability" : 0,
		"reason" : "windSpeed, windDir",
		"timestamp" :1554602400
		},
	"2019-04-07T07:00:00+01:00" : {
		"windSpeed" : 5,
		"windDir" : 24,
		"rain" : 0,
		"cloudbase" : 7406.95,
		"flyability" : 0,
		"reason" : "windDir",
		"timestamp" :1554613200
		},
	"2019-04-07T10:00:00+01:00" : {
		"windSpeed" : 5.4,
		"windDir" : 41,
		"rain" : 0,
		"cloudbase" : 700,
		"flyability" : 0,
		"reason" : "windSpeed, windDir",
		"timestamp" :1554624000
		},
	"2019-04-07T13:00:00+01:00" : {
		"windSpeed" : 8.4,
		"windDir" : 73,
		"rain" : 0,
		"cloudbase" : 460.6,
		"flyability" : 0,
		"reason" : "windSpeed",
		"timestamp" :1554634800
		},
	"2019-04-07T16:00:00+01:00" : {
		"windSpeed" : 7.5,
		"windDir" : 86,
		"rain" : 1,
		"cloudbase" : 540,
		"flyability" : 0,
		"reason" : "windSpeed, rain",
		"timestamp" :1554645600
		},
	"2019-04-07T19:00:00+01:00" : {
		"windSpeed" : 7,
		"windDir" : 86,
		"rain" : 0,
		"cloudbase" : null,
		"flyability" : 0,
		"reason" : "windSpeed",
		"timestamp" :1554656400
		},
	"2019-04-07T22:00:00+01:00" : {
		"windSpeed" : 7.2,
		"windDir" : 102,
		"rain" : 0,
		"cloudbase" : null,
		"flyability" : 0,
		"reason" : "windSpeed",
		"timestamp" :1554667200
		},
	"2019-04-08T01:00:00+01:00" : {
		"windSpeed" : 6.1,
		"windDir" : 115,
		"rain" : 0,
		"cloudbase" : null,
		"flyability" : 0,
		"reason" : "windSpeed",
		"timestamp" :1554678000
		},
	"2019-04-08T04:00:00+01:00" : {
		"windSpeed" : 5.6,
		"windDir" : 100,
		"rain" : 1,
		"cloudbase" : null,
		"flyability" : 0,
		"reason" : "windSpeed, rain",
		"timestamp" :1554688800
		},
	"2019-04-08T07:00:00+01:00" : {
		"windSpeed" : 6.1,
		"windDir" : 81,
		"rain" : 0,
		"cloudbase" : 9100,
		"flyability" : 0,
		"reason" : "windSpeed",
		"timestamp" :1554699600
		},
	"2019-04-08T10:00:00+01:00" : {
		"windSpeed" : 7.1,
		"windDir" : 86,
		"rain" : 0,
		"cloudbase" : 7789.55,
		"flyability" : 0,
		"reason" : "windSpeed",
		"timestamp" :1554710400
		},
	"2019-04-08T13:00:00+01:00" : {
		"windSpeed" : 7.5,
		"windDir" : 86,
		"rain" : 0,
		"cloudbase" : 6191.45,
		"flyability" : 0,
		"reason" : "windSpeed",
		"timestamp" :1554721200
		},
	"2019-04-08T16:00:00+01:00" : {
		"windSpeed" : 7,
		"windDir" : 90,
		"rain" : 0,
		"cloudbase" : 6589.05,
		"flyability" : 0,
		"reason" : "windSpeed",
		"timestamp" :1554732000
		},
	"2019-04-08T19:00:00+01:00" : {
		"windSpeed" : 6.5,
		"windDir" : 90,
		"rain" : 0,
		"cloudbase" : 7600,
		"flyability" : 0,
		"reason" : "windSpeed",
		"timestamp" :1554742800
		},
	"2019-04-08T22:00:00+01:00" : {
		"windSpeed" : 6.4,
		"windDir" : 109,
		"rain" : 1,
		"cloudbase" : 2922.9450000002,
		"flyability" : 0,
		"reason" : "windSpeed, rain",
		"timestamp" :1554753600
		},
	"2019-04-09T01:00:00+01:00" : {
		"windSpeed" : 6,
		"windDir" : 95,
		"rain" : 1,
		"cloudbase" : 3344,
		"flyability" : 0,
		"reason" : "windSpeed, rain",
		"timestamp" :1554764400
		}
	}
}