{
"site" : "Shopki",
"id" : 18875,
"orientations" : "00000121",
"forecasts" : { 
	"2019-04-17T06:00:00+03:00" : {
		"windSpeed" : 3.5,
		"windDir" : 21,
		"rain" : 1,
		"cloudbase" : 770.6,
		"flyability" : 0,
		"reason" : "windDir, rain",
		"timestamp" :1555470000
		},
	"2019-04-17T09:00:00+03:00" : {
		"windSpeed" : 3.9,
		"windDir" : 22,
		"rain" : 1,
		"cloudbase" : 1138.44,
		"flyability" : 0,
		"reason" : "windDir, rain",
		"timestamp" :1555480800
		},
	"2019-04-17T12:00:00+03:00" : {
		"windSpeed" : 5.4,
		"windDir" : 50,
		"rain" : 1,
		"cloudbase" : 489.38,
		"flyability" : 0,
		"reason" : "windSpeed, windDir, rain",
		"timestamp" :1555491600
		},
	"2019-04-17T15:00:00+03:00" : {
		"windSpeed" : 5.2,
		"windDir" : 50,
		"rain" : 1,
		"cloudbase" : 633.64,
		"flyability" : 0,
		"reason" : "windSpeed, windDir, rain",
		"timestamp" :1555502400
		},
	"2019-04-17T18:00:00+03:00" : {
		"windSpeed" : 4.6,
		"windDir" : 63,
		"rain" : 1,
		"cloudbase" : 1697.5,
		"flyability" : 0,
		"reason" : "windDir, rain",
		"timestamp" :1555513200
		},
	"2019-04-17T21:00:00+03:00" : {
		"windSpeed" : 4.2,
		"windDir" : 57,
		"rain" : 1,
		"cloudbase" : 1298.5,
		"flyability" : 0,
		"reason" : "windDir, rain",
		"timestamp" :1555524000
		},
	"2019-04-18T00:00:00+03:00" : {
		"windSpeed" : 2.9,
		"windDir" : 80,
		"rain" : 0,
		"cloudbase" : 1962.3,
		"flyability" : 0,
		"reason" : "windDir",
		"timestamp" :1555534800
		},
	"2019-04-18T03:00:00+03:00" : {
		"windSpeed" : 2,
		"windDir" : 53,
		"rain" : 0,
		"cloudbase" : null,
		"flyability" : 0,
		"reason" : "windDir",
		"timestamp" :1555545600
		},
	"2019-04-18T06:00:00+03:00" : {
		"windSpeed" : 2.2,
		"windDir" : 70,
		"rain" : 0,
		"cloudbase" : 1825.6,
		"flyability" : 0,
		"reason" : "windDir",
		"timestamp" :1555556400
		},
	"2019-04-18T09:00:00+03:00" : {
		"windSpeed" : 2,
		"windDir" : 48,
		"rain" : 0,
		"cloudbase" : null,
		"flyability" : 0,
		"reason" : "windDir",
		"timestamp" :1555567200
		},
	"2019-04-18T12:00:00+03:00" : {
		"windSpeed" : 4.2,
		"windDir" : 45,
		"rain" : 0,
		"cloudbase" : 1700,
		"flyability" : 0,
		"reason" : "windDir",
		"timestamp" :1555578000
		},
	"2019-04-18T15:00:00+03:00" : {
		"windSpeed" : 3.3,
		"windDir" : 18,
		"rain" : 0,
		"cloudbase" : null,
		"flyability" : 0,
		"reason" : "windDir",
		"timestamp" :1555588800
		},
	"2019-04-18T18:00:00+03:00" : {
		"windSpeed" : 3.5,
		"windDir" : 8,
		"rain" : 0,
		"cloudbase" : 6953.2,
		"flyability" : 0,
		"reason" : "windDir",
		"timestamp" :1555599600
		},
	"2019-04-18T21:00:00+03:00" : {
		"windSpeed" : 2.5,
		"windDir" : 6,
		"rain" : 0,
		"cloudbase" : null,
		"flyability" : 0,
		"reason" : "windDir",
		"timestamp" :1555610400
		},
	"2019-04-19T00:00:00+03:00" : {
		"windSpeed" : 2.3,
		"windDir" : 5,
		"rain" : 0,
		"cloudbase" : null,
		"flyability" : 0,
		"reason" : "windDir",
		"timestamp" :1555621200
		},
	"2019-04-19T03:00:00+03:00" : {
		"windSpeed" : 1.6,
		"windDir" : 299,
		"rain" : 0,
		"cloudbase" : 1519.5,
		"flyability" : 100,
		"reason" : "",
		"timestamp" :1555632000
		},
	"2019-04-19T06:00:00+03:00" : {
		"windSpeed" : 2.4,
		"windDir" : 342,
		"rain" : 0,
		"cloudbase" : null,
		"flyability" : 0,
		"reason" : "windDir",
		"timestamp" :1555642800
		},
	"2019-04-19T09:00:00+03:00" : {
		"windSpeed" : 3.6,
		"windDir" : 20,
		"rain" : 0,
		"cloudbase" : null,
		"flyability" : 0,
		"reason" : "windDir",
		"timestamp" :1555653600
		},
	"2019-04-19T12:00:00+03:00" : {
		"windSpeed" : 6.1,
		"windDir" : 29,
		"rain" : 0,
		"cloudbase" : 1859.5,
		"flyability" : 0,
		"reason" : "windSpeed, windDir",
		"timestamp" :1555664400
		},
	"2019-04-19T15:00:00+03:00" : {
		"windSpeed" : 6.3,
		"windDir" : 23,
		"rain" : 0,
		"cloudbase" : 2019.5,
		"flyability" : 0,
		"reason" : "windSpeed, windDir",
		"timestamp" :1555675200
		},
	"2019-04-19T18:00:00+03:00" : {
		"windSpeed" : 4.5,
		"windDir" : 40,
		"rain" : 0,
		"cloudbase" : 2191.2,
		"flyability" : 0,
		"reason" : "windDir",
		"timestamp" :1555686000
		},
	"2019-04-19T21:00:00+03:00" : {
		"windSpeed" : 2.1,
		"windDir" : 74,
		"rain" : 0,
		"cloudbase" : null,
		"flyability" : 0,
		"reason" : "windDir",
		"timestamp" :1555696800
		},
	"2019-04-20T00:00:00+03:00" : {
		"windSpeed" : 2,
		"windDir" : 81,
		"rain" : 0,
		"cloudbase" : null,
		"flyability" : 0,
		"reason" : "windDir",
		"timestamp" :1555707600
		},
	"2019-04-20T03:00:00+03:00" : {
		"windSpeed" : 2,
		"windDir" : 81,
		"rain" : 0,
		"cloudbase" : null,
		"flyability" : 0,
		"reason" : "windDir",
		"timestamp" :1555718400
		},
	"2019-04-20T06:00:00+03:00" : {
		"windSpeed" : 1.7,
		"windDir" : 14,
		"rain" : 0,
		"cloudbase" : null,
		"flyability" : 0,
		"reason" : "windDir",
		"timestamp" :1555729200
		},
	"2019-04-20T09:00:00+03:00" : {
		"windSpeed" : 1.3,
		"windDir" : 15,
		"rain" : 0,
		"cloudbase" : 7000,
		"flyability" : 0,
		"reason" : "windDir",
		"timestamp" :1555740000
		},
	"2019-04-20T12:00:00+03:00" : {
		"windSpeed" : 3.2,
		"windDir" : 28,
		"rain" : 0,
		"cloudbase" : 1641.2,
		"flyability" : 0,
		"reason" : "windDir",
		"timestamp" :1555750800
		},
	"2019-04-20T15:00:00+03:00" : {
		"windSpeed" : 2.8,
		"windDir" : 25,
		"rain" : 0,
		"cloudbase" : 1705.6,
		"flyability" : 0,
		"reason" : "windDir",
		"timestamp" :1555761600
		},
	"2019-04-20T18:00:00+03:00" : {
		"windSpeed" : 2.8,
		"windDir" : 48,
		"rain" : 0,
		"cloudbase" : 1973.4,
		"flyability" : 0,
		"reason" : "windDir",
		"timestamp" :1555772400
		},
	"2019-04-20T21:00:00+03:00" : {
		"windSpeed" : 1.6,
		"windDir" : 157,
		"rain" : 0,
		"cloudbase" : 4465.6,
		"flyability" : 0,
		"reason" : "windDir",
		"timestamp" :1555783200
		},
	"2019-04-21T00:00:00+03:00" : {
		"windSpeed" : 2.2,
		"windDir" : 180,
		"rain" : 0,
		"cloudbase" : 7900,
		"flyability" : 0,
		"reason" : "windDir",
		"timestamp" :1555794000
		},
	"2019-04-21T03:00:00+03:00" : {
		"windSpeed" : 2.7,
		"windDir" : 204,
		"rain" : 0,
		"cloudbase" : 2750,
		"flyability" : 100,
		"reason" : "",
		"timestamp" :1555804800
		},
	"2019-04-21T06:00:00+03:00" : {
		"windSpeed" : 2.2,
		"windDir" : 207,
		"rain" : 1,
		"cloudbase" : 2898.8,
		"flyability" : 0,
		"reason" : "rain",
		"timestamp" :1555815600
		},
	"2019-04-21T09:00:00+03:00" : {
		"windSpeed" : 1.9,
		"windDir" : 234,
		"rain" : 1,
		"cloudbase" : 2026.5,
		"flyability" : 0,
		"reason" : "rain",
		"timestamp" :1555826400
		},
	"2019-04-21T12:00:00+03:00" : {
		"windSpeed" : 1.6,
		"windDir" : 263,
		"rain" : 1,
		"cloudbase" : 2800.9,
		"flyability" : 0,
		"reason" : "rain",
		"timestamp" :1555837200
		},
	"2019-04-21T15:00:00+03:00" : {
		"windSpeed" : 0.6,
		"windDir" : 340,
		"rain" : 1,
		"cloudbase" : 1910.6,
		"flyability" : 0,
		"reason" : "windDir, rain",
		"timestamp" :1555848000
		},
	"2019-04-21T18:00:00+03:00" : {
		"windSpeed" : 1.7,
		"windDir" : 98,
		"rain" : 1,
		"cloudbase" : 3605.1,
		"flyability" : 0,
		"reason" : "windDir, rain",
		"timestamp" :1555858800
		},
	"2019-04-21T21:00:00+03:00" : {
		"windSpeed" : 2,
		"windDir" : 133,
		"rain" : 1,
		"cloudbase" : 972.38000000002,
		"flyability" : 0,
		"reason" : "windDir, rain",
		"timestamp" :1555869600
		},
	"2019-04-22T00:00:00+03:00" : {
		"windSpeed" : 2.1,
		"windDir" : 139,
		"rain" : 1,
		"cloudbase" : 1005.14,
		"flyability" : 0,
		"reason" : "windDir, rain",
		"timestamp" :1555880400
		},
	"2019-04-22T03:00:00+03:00" : {
		"windSpeed" : 2.2,
		"windDir" : 134,
		"rain" : 1,
		"cloudbase" : 1412.4,
		"flyability" : 0,
		"reason" : "windDir, rain",
		"timestamp" :1555891200
		},
	"2019-04-22T06:00:00+03:00" : {
		"windSpeed" : 3.2,
		"windDir" : 131,
		"rain" : 0,
		"cloudbase" : 1908.5,
		"flyability" : 0,
		"reason" : "windDir",
		"timestamp" :1555902000
		},
	"2019-04-22T09:00:00+03:00" : {
		"windSpeed" : 4.7,
		"windDir" : 135,
		"rain" : 0,
		"cloudbase" : null,
		"flyability" : 0,
		"reason" : "windDir",
		"timestamp" :1555912800
		},
	"2019-04-22T12:00:00+03:00" : {
		"windSpeed" : 5.8,
		"windDir" : 131,
		"rain" : 0,
		"cloudbase" : null,
		"flyability" : 0,
		"reason" : "windSpeed, windDir",
		"timestamp" :1555923600
		},
	"2019-04-22T15:00:00+03:00" : {
		"windSpeed" : 4.6,
		"windDir" : 103,
		"rain" : 0,
		"cloudbase" : 2350,
		"flyability" : 0,
		"reason" : "windDir",
		"timestamp" :1555934400
		},
	"2019-04-22T18:00:00+03:00" : {
		"windSpeed" : 5,
		"windDir" : 127,
		"rain" : 0,
		"cloudbase" : 2024.1,
		"flyability" : 0,
		"reason" : "windDir",
		"timestamp" :1555945200
		},
	"2019-04-22T21:00:00+03:00" : {
		"windSpeed" : 3,
		"windDir" : 110,
		"rain" : 0,
		"cloudbase" : 2000,
		"flyability" : 0,
		"reason" : "windDir",
		"timestamp" :1555956000
		},
	"2019-04-23T00:00:00+03:00" : {
		"windSpeed" : 3.6,
		"windDir" : 124,
		"rain" : 0,
		"cloudbase" : null,
		"flyability" : 0,
		"reason" : "windDir",
		"timestamp" :1555966800
		},
	"2019-04-23T03:00:00+03:00" : {
		"windSpeed" : 4.1,
		"windDir" : 125,
		"rain" : 0,
		"cloudbase" : null,
		"flyability" : 0,
		"reason" : "windDir",
		"timestamp" :1555977600
		}
	}
}