{
"site" : "Monte Lesima",
"id" : 19453,
"orientations" : "02000000",
"forecasts" : { 
	"2019-04-20T17:00:00+02:00" : {
		"windSpeed" : 3.9,
		"windDir" : 66,
		"rain" : 0,
		"cloudbase" : null,
		"flyability" : 100,
		"reason" : "",
		"timestamp" :1555776000
		},
	"2019-04-20T20:00:00+02:00" : {
		"windSpeed" : 1.5,
		"windDir" : 58,
		"rain" : 0,
		"cloudbase" : 7859.15248,
		"flyability" : 100,
		"reason" : "",
		"timestamp" :1555786800
		},
	"2019-04-20T23:00:00+02:00" : {
		"windSpeed" : 1.6,
		"windDir" : 66,
		"rain" : 0,
		"cloudbase" : 6866.4,
		"flyability" : 100,
		"reason" : "",
		"timestamp" :1555797600
		},
	"2019-04-21T02:00:00+02:00" : {
		"windSpeed" : 1.3,
		"windDir" : 119,
		"rain" : 0,
		"cloudbase" : 6719.8675200001,
		"flyability" : 0,
		"reason" : "windDir",
		"timestamp" :1555808400
		},
	"2019-04-21T05:00:00+02:00" : {
		"windSpeed" : 0.8,
		"windDir" : 126,
		"rain" : 0,
		"cloudbase" : 7447.72496,
		"flyability" : 0,
		"reason" : "windDir",
		"timestamp" :1555819200
		},
	"2019-04-21T08:00:00+02:00" : {
		"windSpeed" : 0.7,
		"windDir" : 124,
		"rain" : 0,
		"cloudbase" : 4924.8,
		"flyability" : 0,
		"reason" : "windDir",
		"timestamp" :1555830000
		},
	"2019-04-21T11:00:00+02:00" : {
		"windSpeed" : 2.2,
		"windDir" : 83,
		"rain" : 0,
		"cloudbase" : 4318.47752,
		"flyability" : 0,
		"reason" : "windDir",
		"timestamp" :1555840800
		},
	"2019-04-21T14:00:00+02:00" : {
		"windSpeed" : 2.2,
		"windDir" : 65,
		"rain" : 0,
		"cloudbase" : 3646.90752,
		"flyability" : 100,
		"reason" : "",
		"timestamp" :1555851600
		},
	"2019-04-21T17:00:00+02:00" : {
		"windSpeed" : 2.6,
		"windDir" : 52,
		"rain" : 0,
		"cloudbase" : 3100,
		"flyability" : 100,
		"reason" : "",
		"timestamp" :1555862400
		},
	"2019-04-21T20:00:00+02:00" : {
		"windSpeed" : 1.9,
		"windDir" : 70,
		"rain" : 0,
		"cloudbase" : 8117.80872,
		"flyability" : 0,
		"reason" : "windDir",
		"timestamp" :1555873200
		},
	"2019-04-21T23:00:00+02:00" : {
		"windSpeed" : 1.4,
		"windDir" : 75,
		"rain" : 0,
		"cloudbase" : 3323.64752,
		"flyability" : 0,
		"reason" : "windDir",
		"timestamp" :1555884000
		},
	"2019-04-22T02:00:00+02:00" : {
		"windSpeed" : 1.8,
		"windDir" : 86,
		"rain" : 0,
		"cloudbase" : null,
		"flyability" : 0,
		"reason" : "windDir",
		"timestamp" :1555894800
		},
	"2019-04-22T05:00:00+02:00" : {
		"windSpeed" : 1.5,
		"windDir" : 82,
		"rain" : 1,
		"cloudbase" : 3679.1873600001,
		"flyability" : 0,
		"reason" : "windDir, rain",
		"timestamp" :1555905600
		},
	"2019-04-22T08:00:00+02:00" : {
		"windSpeed" : 2.6,
		"windDir" : 61,
		"rain" : 1,
		"cloudbase" : 6318.5451199998,
		"flyability" : 0,
		"reason" : "rain",
		"timestamp" :1555916400
		},
	"2019-04-22T11:00:00+02:00" : {
		"windSpeed" : 4.3,
		"windDir" : 73,
		"rain" : 0,
		"cloudbase" : 4451.0897600003,
		"flyability" : 0,
		"reason" : "windDir",
		"timestamp" :1555927200
		},
	"2019-04-22T14:00:00+02:00" : {
		"windSpeed" : 5.5,
		"windDir" : 75,
		"rain" : 0,
		"cloudbase" : 760,
		"flyability" : 0,
		"reason" : "windSpeed, windDir, cloudbase",
		"timestamp" :1555938000
		},
	"2019-04-22T17:00:00+02:00" : {
		"windSpeed" : 4.8,
		"windDir" : 70,
		"rain" : 0,
		"cloudbase" : null,
		"flyability" : 0,
		"reason" : "windDir",
		"timestamp" :1555948800
		},
	"2019-04-22T20:00:00+02:00" : {
		"windSpeed" : 4.5,
		"windDir" : 75,
		"rain" : 0,
		"cloudbase" : 2842.3533440006,
		"flyability" : 0,
		"reason" : "windDir",
		"timestamp" :1555959600
		},
	"2019-04-22T23:00:00+02:00" : {
		"windSpeed" : 3.1,
		"windDir" : 79,
		"rain" : 0,
		"cloudbase" : 888.2579360003,
		"flyability" : 0,
		"reason" : "windDir, cloudbase",
		"timestamp" :1555970400
		},
	"2019-04-23T02:00:00+02:00" : {
		"windSpeed" : 2,
		"windDir" : 51,
		"rain" : 1,
		"cloudbase" : 802.42804800027,
		"flyability" : 0,
		"reason" : "rain, cloudbase",
		"timestamp" :1555981200
		},
	"2019-04-23T05:00:00+02:00" : {
		"windSpeed" : 1.6,
		"windDir" : 78,
		"rain" : 1,
		"cloudbase" : 599.81100000022,
		"flyability" : 0,
		"reason" : "windDir, rain, cloudbase",
		"timestamp" :1555992000
		},
	"2019-04-23T08:00:00+02:00" : {
		"windSpeed" : 2.3,
		"windDir" : 80,
		"rain" : 1,
		"cloudbase" : 253.39063200009,
		"flyability" : 0,
		"reason" : "windDir, rain, cloudbase",
		"timestamp" :1556002800
		},
	"2019-04-23T11:00:00+02:00" : {
		"windSpeed" : 2.5,
		"windDir" : 90,
		"rain" : 1,
		"cloudbase" : 591.09689600008,
		"flyability" : 0,
		"reason" : "windDir, rain, cloudbase",
		"timestamp" :1556013600
		},
	"2019-04-23T14:00:00+02:00" : {
		"windSpeed" : 2.6,
		"windDir" : 75,
		"rain" : 1,
		"cloudbase" : 1078.74616,
		"flyability" : 0,
		"reason" : "windDir, rain, cloudbase",
		"timestamp" :1556024400
		},
	"2019-04-23T17:00:00+02:00" : {
		"windSpeed" : 2.3,
		"windDir" : 117,
		"rain" : 1,
		"cloudbase" : 967.51455999993,
		"flyability" : 0,
		"reason" : "windDir, rain, cloudbase",
		"timestamp" :1556035200
		},
	"2019-04-23T20:00:00+02:00" : {
		"windSpeed" : 2,
		"windDir" : 171,
		"rain" : 1,
		"cloudbase" : 2339.6040319996,
		"flyability" : 0,
		"reason" : "windDir, rain",
		"timestamp" :1556046000
		},
	"2019-04-23T23:00:00+02:00" : {
		"windSpeed" : 3.5,
		"windDir" : 154,
		"rain" : 1,
		"cloudbase" : 4213.302768,
		"flyability" : 0,
		"reason" : "windDir, rain",
		"timestamp" :1556056800
		},
	"2019-04-24T02:00:00+02:00" : {
		"windSpeed" : 3.5,
		"windDir" : 181,
		"rain" : 1,
		"cloudbase" : 1587.7466799996,
		"flyability" : 0,
		"reason" : "windDir, rain, cloudbase",
		"timestamp" :1556067600
		},
	"2019-04-24T05:00:00+02:00" : {
		"windSpeed" : 3,
		"windDir" : 187,
		"rain" : 1,
		"cloudbase" : 426.91225599999,
		"flyability" : 0,
		"reason" : "windDir, rain, cloudbase",
		"timestamp" :1556078400
		},
	"2019-04-24T08:00:00+02:00" : {
		"windSpeed" : 3.2,
		"windDir" : 191,
		"rain" : 1,
		"cloudbase" : 90,
		"flyability" : 0,
		"reason" : "windDir, rain, cloudbase",
		"timestamp" :1556089200
		},
	"2019-04-24T11:00:00+02:00" : {
		"windSpeed" : 3.7,
		"windDir" : 192,
		"rain" : 1,
		"cloudbase" : 8232.2140799999,
		"flyability" : 0,
		"reason" : "windDir, rain",
		"timestamp" :1556100000
		},
	"2019-04-24T14:00:00+02:00" : {
		"windSpeed" : 4,
		"windDir" : 176,
		"rain" : 0,
		"cloudbase" : 6612.9699199999,
		"flyability" : 0,
		"reason" : "windDir",
		"timestamp" :1556110800
		},
	"2019-04-24T17:00:00+02:00" : {
		"windSpeed" : 3.2,
		"windDir" : 161,
		"rain" : 0,
		"cloudbase" : 6533.58752,
		"flyability" : 0,
		"reason" : "windDir",
		"timestamp" :1556121600
		},
	"2019-04-24T20:00:00+02:00" : {
		"windSpeed" : 2.5,
		"windDir" : 140,
		"rain" : 1,
		"cloudbase" : null,
		"flyability" : 0,
		"reason" : "windDir, rain",
		"timestamp" :1556132400
		},
	"2019-04-24T23:00:00+02:00" : {
		"windSpeed" : 2.5,
		"windDir" : 144,
		"rain" : 0,
		"cloudbase" : 5594.59008,
		"flyability" : 0,
		"reason" : "windDir",
		"timestamp" :1556143200
		},
	"2019-04-25T02:00:00+02:00" : {
		"windSpeed" : 4,
		"windDir" : 176,
		"rain" : 1,
		"cloudbase" : 1657.06248,
		"flyability" : 0,
		"reason" : "windDir, rain, cloudbase",
		"timestamp" :1556154000
		},
	"2019-04-25T05:00:00+02:00" : {
		"windSpeed" : 4.8,
		"windDir" : 191,
		"rain" : 1,
		"cloudbase" : 34.730751999999,
		"flyability" : 0,
		"reason" : "windDir, rain, cloudbase",
		"timestamp" :1556164800
		},
	"2019-04-25T08:00:00+02:00" : {
		"windSpeed" : 5.1,
		"windDir" : 190,
		"rain" : 1,
		"cloudbase" : 290,
		"flyability" : 0,
		"reason" : "windSpeed, windDir, rain, cloudbase",
		"timestamp" :1556175600
		},
	"2019-04-25T11:00:00+02:00" : {
		"windSpeed" : 5,
		"windDir" : 189,
		"rain" : 1,
		"cloudbase" : 540,
		"flyability" : 0,
		"reason" : "windDir, rain, cloudbase",
		"timestamp" :1556186400
		},
	"2019-04-25T14:00:00+02:00" : {
		"windSpeed" : 4.3,
		"windDir" : 181,
		"rain" : 1,
		"cloudbase" : null,
		"flyability" : 0,
		"reason" : "windDir, rain",
		"timestamp" :1556197200
		},
	"2019-04-25T17:00:00+02:00" : {
		"windSpeed" : 5,
		"windDir" : 183,
		"rain" : 1,
		"cloudbase" : 6894.92272,
		"flyability" : 0,
		"reason" : "windDir, rain",
		"timestamp" :1556208000
		},
	"2019-04-25T20:00:00+02:00" : {
		"windSpeed" : 3.2,
		"windDir" : 173,
		"rain" : 1,
		"cloudbase" : 6735.89248,
		"flyability" : 0,
		"reason" : "windDir, rain",
		"timestamp" :1556218800
		},
	"2019-04-25T23:00:00+02:00" : {
		"windSpeed" : 3.5,
		"windDir" : 176,
		"rain" : 1,
		"cloudbase" : null,
		"flyability" : 0,
		"reason" : "windDir, rain",
		"timestamp" :1556229600
		},
	"2019-04-26T02:00:00+02:00" : {
		"windSpeed" : 4.7,
		"windDir" : 174,
		"rain" : 0,
		"cloudbase" : null,
		"flyability" : 0,
		"reason" : "windDir",
		"timestamp" :1556240400
		},
	"2019-04-26T05:00:00+02:00" : {
		"windSpeed" : 4.1,
		"windDir" : 175,
		"rain" : 1,
		"cloudbase" : 1350,
		"flyability" : 0,
		"reason" : "windDir, rain, cloudbase",
		"timestamp" :1556251200
		},
	"2019-04-26T08:00:00+02:00" : {
		"windSpeed" : 4.8,
		"windDir" : 174,
		"rain" : 1,
		"cloudbase" : 686.49515200007,
		"flyability" : 0,
		"reason" : "windDir, rain, cloudbase",
		"timestamp" :1556262000
		},
	"2019-04-26T11:00:00+02:00" : {
		"windSpeed" : 4.2,
		"windDir" : 185,
		"rain" : 1,
		"cloudbase" : 268.02022400002,
		"flyability" : 0,
		"reason" : "windDir, rain, cloudbase",
		"timestamp" :1556272800
		},
	"2019-04-26T14:00:00+02:00" : {
		"windSpeed" : 5.6,
		"windDir" : 191,
		"rain" : 1,
		"cloudbase" : 120.378496,
		"flyability" : 0,
		"reason" : "windSpeed, windDir, rain, cloudbase",
		"timestamp" :1556283600
		}
	}
}