{
"site" : "Vene Rosse di San Giacomo",
"id" : 19506,
"orientations" : "00220000",
"forecasts" : { 
	"2019-04-22T05:00:00+02:00" : {
		"windSpeed" : 1.5,
		"windDir" : 165,
		"rain" : 0,
		"cloudbase" : null,
		"flyability" : 0,
		"reason" : "windDir",
		"timestamp" :1555905600
		},
	"2019-04-22T08:00:00+02:00" : {
		"windSpeed" : 2.4,
		"windDir" : 145,
		"rain" : 1,
		"cloudbase" : 1056.8578999999,
		"flyability" : 0,
		"reason" : "rain",
		"timestamp" :1555916400
		},
	"2019-04-22T11:00:00+02:00" : {
		"windSpeed" : 2.8,
		"windDir" : 133,
		"rain" : 1,
		"cloudbase" : 925.34387999985,
		"flyability" : 0,
		"reason" : "rain, cloudbase",
		"timestamp" :1555927200
		},
	"2019-04-22T14:00:00+02:00" : {
		"windSpeed" : 3.5,
		"windDir" : 132,
		"rain" : 0,
		"cloudbase" : 1167.3175399999,
		"flyability" : 100,
		"reason" : "",
		"timestamp" :1555938000
		},
	"2019-04-22T17:00:00+02:00" : {
		"windSpeed" : 3.2,
		"windDir" : 139,
		"rain" : 1,
		"cloudbase" : 498.17267999997,
		"flyability" : 0,
		"reason" : "rain, cloudbase",
		"timestamp" :1555948800
		},
	"2019-04-22T20:00:00+02:00" : {
		"windSpeed" : 0.8,
		"windDir" : 175,
		"rain" : 1,
		"cloudbase" : 2037.1723,
		"flyability" : 0,
		"reason" : "windDir, rain",
		"timestamp" :1555959600
		},
	"2019-04-22T23:00:00+02:00" : {
		"windSpeed" : 1,
		"windDir" : 149,
		"rain" : 1,
		"cloudbase" : 4355.2042999999,
		"flyability" : 0,
		"reason" : "rain",
		"timestamp" :1555970400
		},
	"2019-04-23T02:00:00+02:00" : {
		"windSpeed" : 0.5,
		"windDir" : 173,
		"rain" : 1,
		"cloudbase" : 5394.6042999999,
		"flyability" : 0,
		"reason" : "windDir, rain",
		"timestamp" :1555981200
		},
	"2019-04-23T05:00:00+02:00" : {
		"windSpeed" : 1.4,
		"windDir" : 193,
		"rain" : 0,
		"cloudbase" : 86.569279999998,
		"flyability" : 0,
		"reason" : "windDir, cloudbase",
		"timestamp" :1555992000
		},
	"2019-04-23T08:00:00+02:00" : {
		"windSpeed" : 1,
		"windDir" : 176,
		"rain" : 0,
		"cloudbase" : null,
		"flyability" : 0,
		"reason" : "windDir",
		"timestamp" :1556002800
		},
	"2019-04-23T11:00:00+02:00" : {
		"windSpeed" : 1.5,
		"windDir" : 104,
		"rain" : 0,
		"cloudbase" : null,
		"flyability" : 100,
		"reason" : "",
		"timestamp" :1556013600
		},
	"2019-04-23T14:00:00+02:00" : {
		"windSpeed" : 1.2,
		"windDir" : 117,
		"rain" : 0,
		"cloudbase" : null,
		"flyability" : 100,
		"reason" : "",
		"timestamp" :1556024400
		},
	"2019-04-23T17:00:00+02:00" : {
		"windSpeed" : 1.5,
		"windDir" : 161,
		"rain" : 0,
		"cloudbase" : 8592.5482,
		"flyability" : 0,
		"reason" : "windDir",
		"timestamp" :1556035200
		},
	"2019-04-23T20:00:00+02:00" : {
		"windSpeed" : 1.4,
		"windDir" : 179,
		"rain" : 0,
		"cloudbase" : 5300,
		"flyability" : 0,
		"reason" : "windDir",
		"timestamp" :1556046000
		},
	"2019-04-23T23:00:00+02:00" : {
		"windSpeed" : 1.4,
		"windDir" : 185,
		"rain" : 0,
		"cloudbase" : null,
		"flyability" : 0,
		"reason" : "windDir",
		"timestamp" :1556056800
		},
	"2019-04-24T02:00:00+02:00" : {
		"windSpeed" : 1.6,
		"windDir" : 205,
		"rain" : 1,
		"cloudbase" : 7839.7,
		"flyability" : 0,
		"reason" : "windDir, rain",
		"timestamp" :1556067600
		},
	"2019-04-24T05:00:00+02:00" : {
		"windSpeed" : 1.3,
		"windDir" : 239,
		"rain" : 0,
		"cloudbase" : 6970.0446,
		"flyability" : 0,
		"reason" : "windDir",
		"timestamp" :1556078400
		},
	"2019-04-24T08:00:00+02:00" : {
		"windSpeed" : 1.3,
		"windDir" : 238,
		"rain" : 0,
		"cloudbase" : 6400,
		"flyability" : 0,
		"reason" : "windDir",
		"timestamp" :1556089200
		},
	"2019-04-24T11:00:00+02:00" : {
		"windSpeed" : 2,
		"windDir" : 90,
		"rain" : 0,
		"cloudbase" : null,
		"flyability" : 100,
		"reason" : "",
		"timestamp" :1556100000
		},
	"2019-04-24T14:00:00+02:00" : {
		"windSpeed" : 2.5,
		"windDir" : 100,
		"rain" : 1,
		"cloudbase" : 10331.8158,
		"flyability" : 0,
		"reason" : "rain",
		"timestamp" :1556110800
		},
	"2019-04-24T17:00:00+02:00" : {
		"windSpeed" : 1.3,
		"windDir" : 114,
		"rain" : 1,
		"cloudbase" : 8817.7482,
		"flyability" : 0,
		"reason" : "rain",
		"timestamp" :1556121600
		},
	"2019-04-24T20:00:00+02:00" : {
		"windSpeed" : 0.9,
		"windDir" : 176,
		"rain" : 0,
		"cloudbase" : null,
		"flyability" : 0,
		"reason" : "windDir",
		"timestamp" :1556132400
		},
	"2019-04-24T23:00:00+02:00" : {
		"windSpeed" : 1.4,
		"windDir" : 224,
		"rain" : 0,
		"cloudbase" : null,
		"flyability" : 0,
		"reason" : "windDir",
		"timestamp" :1556143200
		},
	"2019-04-25T02:00:00+02:00" : {
		"windSpeed" : 1.5,
		"windDir" : 227,
		"rain" : 0,
		"cloudbase" : 8405.1482,
		"flyability" : 0,
		"reason" : "windDir",
		"timestamp" :1556154000
		},
	"2019-04-25T05:00:00+02:00" : {
		"windSpeed" : 0.8,
		"windDir" : 228,
		"rain" : 1,
		"cloudbase" : 6170.0446,
		"flyability" : 0,
		"reason" : "windDir, rain",
		"timestamp" :1556164800
		},
	"2019-04-25T08:00:00+02:00" : {
		"windSpeed" : 0.9,
		"windDir" : 226,
		"rain" : 0,
		"cloudbase" : 6192.6928,
		"flyability" : 0,
		"reason" : "windDir",
		"timestamp" :1556175600
		},
	"2019-04-25T11:00:00+02:00" : {
		"windSpeed" : 1.6,
		"windDir" : 72,
		"rain" : 0,
		"cloudbase" : 8680.5,
		"flyability" : 100,
		"reason" : "",
		"timestamp" :1556186400
		},
	"2019-04-25T14:00:00+02:00" : {
		"windSpeed" : 1.6,
		"windDir" : 72,
		"rain" : 1,
		"cloudbase" : 3874.5147,
		"flyability" : 0,
		"reason" : "rain",
		"timestamp" :1556197200
		},
	"2019-04-25T17:00:00+02:00" : {
		"windSpeed" : 1.1,
		"windDir" : 90,
		"rain" : 1,
		"cloudbase" : null,
		"flyability" : 0,
		"reason" : "rain",
		"timestamp" :1556208000
		},
	"2019-04-25T20:00:00+02:00" : {
		"windSpeed" : 0.5,
		"windDir" : 185,
		"rain" : 0,
		"cloudbase" : null,
		"flyability" : 0,
		"reason" : "windDir",
		"timestamp" :1556218800
		},
	"2019-04-25T23:00:00+02:00" : {
		"windSpeed" : 0.8,
		"windDir" : 220,
		"rain" : 0,
		"cloudbase" : 8608.3964,
		"flyability" : 0,
		"reason" : "windDir",
		"timestamp" :1556229600
		},
	"2019-04-26T02:00:00+02:00" : {
		"windSpeed" : 1.5,
		"windDir" : 225,
		"rain" : 0,
		"cloudbase" : 7305.1482,
		"flyability" : 0,
		"reason" : "windDir",
		"timestamp" :1556240400
		},
	"2019-04-26T05:00:00+02:00" : {
		"windSpeed" : 1.6,
		"windDir" : 227,
		"rain" : 0,
		"cloudbase" : 7901.9,
		"flyability" : 0,
		"reason" : "windDir",
		"timestamp" :1556251200
		},
	"2019-04-26T08:00:00+02:00" : {
		"windSpeed" : 1.6,
		"windDir" : 225,
		"rain" : 0,
		"cloudbase" : null,
		"flyability" : 0,
		"reason" : "windDir",
		"timestamp" :1556262000
		},
	"2019-04-26T11:00:00+02:00" : {
		"windSpeed" : 1.4,
		"windDir" : 181,
		"rain" : 0,
		"cloudbase" : null,
		"flyability" : 0,
		"reason" : "windDir",
		"timestamp" :1556272800
		},
	"2019-04-26T14:00:00+02:00" : {
		"windSpeed" : 1.5,
		"windDir" : 256,
		"rain" : 0,
		"cloudbase" : null,
		"flyability" : 0,
		"reason" : "windDir",
		"timestamp" :1556283600
		},
	"2019-04-26T17:00:00+02:00" : {
		"windSpeed" : 1.6,
		"windDir" : 203,
		"rain" : 0,
		"cloudbase" : null,
		"flyability" : 0,
		"reason" : "windDir",
		"timestamp" :1556294400
		},
	"2019-04-26T20:00:00+02:00" : {
		"windSpeed" : 1.7,
		"windDir" : 237,
		"rain" : 0,
		"cloudbase" : null,
		"flyability" : 0,
		"reason" : "windDir",
		"timestamp" :1556305200
		},
	"2019-04-26T23:00:00+02:00" : {
		"windSpeed" : 1.1,
		"windDir" : 264,
		"rain" : 0,
		"cloudbase" : null,
		"flyability" : 0,
		"reason" : "windDir",
		"timestamp" :1556316000
		},
	"2019-04-27T02:00:00+02:00" : {
		"windSpeed" : 1.6,
		"windDir" : 248,
		"rain" : 0,
		"cloudbase" : null,
		"flyability" : 0,
		"reason" : "windDir",
		"timestamp" :1556326800
		},
	"2019-04-27T05:00:00+02:00" : {
		"windSpeed" : 1.9,
		"windDir" : 234,
		"rain" : 0,
		"cloudbase" : 5906.9,
		"flyability" : 0,
		"reason" : "windDir",
		"timestamp" :1556337600
		},
	"2019-04-27T08:00:00+02:00" : {
		"windSpeed" : 3.3,
		"windDir" : 250,
		"rain" : 0,
		"cloudbase" : null,
		"flyability" : 0,
		"reason" : "windDir",
		"timestamp" :1556348400
		},
	"2019-04-27T11:00:00+02:00" : {
		"windSpeed" : 3.5,
		"windDir" : 269,
		"rain" : 0,
		"cloudbase" : null,
		"flyability" : 0,
		"reason" : "windDir",
		"timestamp" :1556359200
		},
	"2019-04-27T14:00:00+02:00" : {
		"windSpeed" : 2.8,
		"windDir" : 290,
		"rain" : 1,
		"cloudbase" : null,
		"flyability" : 0,
		"reason" : "windDir, rain",
		"timestamp" :1556370000
		},
	"2019-04-27T17:00:00+02:00" : {
		"windSpeed" : 2.7,
		"windDir" : 289,
		"rain" : 1,
		"cloudbase" : null,
		"flyability" : 0,
		"reason" : "windDir, rain",
		"timestamp" :1556380800
		},
	"2019-04-27T20:00:00+02:00" : {
		"windSpeed" : 1.1,
		"windDir" : 114,
		"rain" : 1,
		"cloudbase" : null,
		"flyability" : 0,
		"reason" : "rain",
		"timestamp" :1556391600
		},
	"2019-04-27T23:00:00+02:00" : {
		"windSpeed" : 1.5,
		"windDir" : 226,
		"rain" : 0,
		"cloudbase" : 8303.0036,
		"flyability" : 0,
		"reason" : "windDir",
		"timestamp" :1556402400
		},
	"2019-04-28T02:00:00+02:00" : {
		"windSpeed" : 1.6,
		"windDir" : 226,
		"rain" : 0,
		"cloudbase" : null,
		"flyability" : 0,
		"reason" : "windDir",
		"timestamp" :1556413200
		}
	}
}