{
"site" : "Boistea",
"id" : 19563,
"orientations" : "00020000",
"forecasts" : { 
	"2019-04-17T06:00:00+03:00" : {
		"windSpeed" : 5.4,
		"windDir" : 319,
		"rain" : 1,
		"cloudbase" : 311.80656,
		"flyability" : 0,
		"reason" : "windSpeed, windDir, rain, cloudbase",
		"timestamp" :1555470000
		},
	"2019-04-17T09:00:00+03:00" : {
		"windSpeed" : 4.6,
		"windDir" : 331,
		"rain" : 1,
		"cloudbase" : 267.52656,
		"flyability" : 0,
		"reason" : "windDir, rain, cloudbase",
		"timestamp" :1555480800
		},
	"2019-04-17T12:00:00+03:00" : {
		"windSpeed" : 3.1,
		"windDir" : 10,
		"rain" : 1,
		"cloudbase" : 505.48032,
		"flyability" : 0,
		"reason" : "windDir, rain, cloudbase",
		"timestamp" :1555491600
		},
	"2019-04-17T15:00:00+03:00" : {
		"windSpeed" : 3.6,
		"windDir" : 24,
		"rain" : 1,
		"cloudbase" : 533.79248,
		"flyability" : 0,
		"reason" : "windDir, rain",
		"timestamp" :1555502400
		},
	"2019-04-17T18:00:00+03:00" : {
		"windSpeed" : 1.6,
		"windDir" : 48,
		"rain" : 1,
		"cloudbase" : 1220.2172,
		"flyability" : 0,
		"reason" : "windDir, rain",
		"timestamp" :1555513200
		},
	"2019-04-17T21:00:00+03:00" : {
		"windSpeed" : 1.9,
		"windDir" : 322,
		"rain" : 1,
		"cloudbase" : 1265.05,
		"flyability" : 0,
		"reason" : "windDir, rain",
		"timestamp" :1555524000
		},
	"2019-04-18T00:00:00+03:00" : {
		"windSpeed" : 2.2,
		"windDir" : 316,
		"rain" : 1,
		"cloudbase" : 431.27679999997,
		"flyability" : 0,
		"reason" : "windDir, rain, cloudbase",
		"timestamp" :1555534800
		},
	"2019-04-18T03:00:00+03:00" : {
		"windSpeed" : 2.6,
		"windDir" : 342,
		"rain" : 1,
		"cloudbase" : 40.930319999998,
		"flyability" : 0,
		"reason" : "windDir, rain, cloudbase",
		"timestamp" :1555545600
		},
	"2019-04-18T06:00:00+03:00" : {
		"windSpeed" : 3.1,
		"windDir" : 14,
		"rain" : 1,
		"cloudbase" : 52.297199999995,
		"flyability" : 0,
		"reason" : "windDir, rain, cloudbase",
		"timestamp" :1555556400
		},
	"2019-04-18T09:00:00+03:00" : {
		"windSpeed" : 3.9,
		"windDir" : 11,
		"rain" : 1,
		"cloudbase" : 330.63031999999,
		"flyability" : 0,
		"reason" : "windDir, rain, cloudbase",
		"timestamp" :1555567200
		},
	"2019-04-18T12:00:00+03:00" : {
		"windSpeed" : 3,
		"windDir" : 47,
		"rain" : 1,
		"cloudbase" : 5710.9792000002,
		"flyability" : 0,
		"reason" : "windDir, rain",
		"timestamp" :1555578000
		},
	"2019-04-18T15:00:00+03:00" : {
		"windSpeed" : 4,
		"windDir" : 1,
		"rain" : 1,
		"cloudbase" : 1553.6672,
		"flyability" : 0,
		"reason" : "windDir, rain",
		"timestamp" :1555588800
		},
	"2019-04-18T18:00:00+03:00" : {
		"windSpeed" : 3.9,
		"windDir" : 4,
		"rain" : 1,
		"cloudbase" : 1804.35,
		"flyability" : 0,
		"reason" : "windDir, rain",
		"timestamp" :1555599600
		},
	"2019-04-18T21:00:00+03:00" : {
		"windSpeed" : 2.3,
		"windDir" : 298,
		"rain" : 0,
		"cloudbase" : 8359.8032,
		"flyability" : 0,
		"reason" : "windDir",
		"timestamp" :1555610400
		},
	"2019-04-19T00:00:00+03:00" : {
		"windSpeed" : 3.4,
		"windDir" : 317,
		"rain" : 0,
		"cloudbase" : 1850,
		"flyability" : 0,
		"reason" : "windDir",
		"timestamp" :1555621200
		},
	"2019-04-19T03:00:00+03:00" : {
		"windSpeed" : 3.6,
		"windDir" : 309,
		"rain" : 0,
		"cloudbase" : 2200,
		"flyability" : 0,
		"reason" : "windDir",
		"timestamp" :1555632000
		},
	"2019-04-19T06:00:00+03:00" : {
		"windSpeed" : 4.5,
		"windDir" : 313,
		"rain" : 0,
		"cloudbase" : 1450,
		"flyability" : 0,
		"reason" : "windDir",
		"timestamp" :1555642800
		},
	"2019-04-19T09:00:00+03:00" : {
		"windSpeed" : 5.4,
		"windDir" : 333,
		"rain" : 1,
		"cloudbase" : null,
		"flyability" : 0,
		"reason" : "windSpeed, windDir, rain",
		"timestamp" :1555653600
		},
	"2019-04-19T12:00:00+03:00" : {
		"windSpeed" : 6.3,
		"windDir" : 360,
		"rain" : 1,
		"cloudbase" : null,
		"flyability" : 0,
		"reason" : "windSpeed, windDir, rain",
		"timestamp" :1555664400
		},
	"2019-04-19T15:00:00+03:00" : {
		"windSpeed" : 6.5,
		"windDir" : 2,
		"rain" : 1,
		"cloudbase" : null,
		"flyability" : 0,
		"reason" : "windSpeed, windDir, rain",
		"timestamp" :1555675200
		},
	"2019-04-19T18:00:00+03:00" : {
		"windSpeed" : 5.6,
		"windDir" : 15,
		"rain" : 1,
		"cloudbase" : null,
		"flyability" : 0,
		"reason" : "windSpeed, windDir, rain",
		"timestamp" :1555686000
		},
	"2019-04-19T21:00:00+03:00" : {
		"windSpeed" : 3.1,
		"windDir" : 1,
		"rain" : 1,
		"cloudbase" : 1868.2172,
		"flyability" : 0,
		"reason" : "windDir, rain",
		"timestamp" :1555696800
		},
	"2019-04-20T00:00:00+03:00" : {
		"windSpeed" : 2.7,
		"windDir" : 321,
		"rain" : 1,
		"cloudbase" : 1834.2828,
		"flyability" : 0,
		"reason" : "windDir, rain",
		"timestamp" :1555707600
		},
	"2019-04-20T03:00:00+03:00" : {
		"windSpeed" : 2.8,
		"windDir" : 305,
		"rain" : 0,
		"cloudbase" : 2100,
		"flyability" : 0,
		"reason" : "windDir",
		"timestamp" :1555718400
		},
	"2019-04-20T06:00:00+03:00" : {
		"windSpeed" : 2.4,
		"windDir" : 327,
		"rain" : 0,
		"cloudbase" : 1950,
		"flyability" : 0,
		"reason" : "windDir",
		"timestamp" :1555729200
		},
	"2019-04-20T09:00:00+03:00" : {
		"windSpeed" : 2.6,
		"windDir" : 349,
		"rain" : 0,
		"cloudbase" : 1839.8156,
		"flyability" : 0,
		"reason" : "windDir",
		"timestamp" :1555740000
		},
	"2019-04-20T12:00:00+03:00" : {
		"windSpeed" : 3.7,
		"windDir" : 16,
		"rain" : 0,
		"cloudbase" : 1308.0328,
		"flyability" : 0,
		"reason" : "windDir",
		"timestamp" :1555750800
		},
	"2019-04-20T15:00:00+03:00" : {
		"windSpeed" : 3.5,
		"windDir" : 360,
		"rain" : 0,
		"cloudbase" : 1538.6172,
		"flyability" : 0,
		"reason" : "windDir",
		"timestamp" :1555761600
		},
	"2019-04-20T18:00:00+03:00" : {
		"windSpeed" : 3,
		"windDir" : 6,
		"rain" : 0,
		"cloudbase" : 1661.8828,
		"flyability" : 0,
		"reason" : "windDir",
		"timestamp" :1555772400
		},
	"2019-04-20T21:00:00+03:00" : {
		"windSpeed" : 1.6,
		"windDir" : 341,
		"rain" : 0,
		"cloudbase" : 1656.5328,
		"flyability" : 0,
		"reason" : "windDir",
		"timestamp" :1555783200
		},
	"2019-04-21T00:00:00+03:00" : {
		"windSpeed" : 1.8,
		"windDir" : 278,
		"rain" : 0,
		"cloudbase" : 1791.9828,
		"flyability" : 0,
		"reason" : "windDir",
		"timestamp" :1555794000
		},
	"2019-04-21T03:00:00+03:00" : {
		"windSpeed" : 2,
		"windDir" : 261,
		"rain" : 0,
		"cloudbase" : 4432.5047999999,
		"flyability" : 0,
		"reason" : "windDir",
		"timestamp" :1555804800
		},
	"2019-04-21T06:00:00+03:00" : {
		"windSpeed" : 1.8,
		"windDir" : 262,
		"rain" : 0,
		"cloudbase" : 4774.4172,
		"flyability" : 0,
		"reason" : "windDir",
		"timestamp" :1555815600
		},
	"2019-04-21T09:00:00+03:00" : {
		"windSpeed" : 1,
		"windDir" : 348,
		"rain" : 1,
		"cloudbase" : 5600,
		"flyability" : 0,
		"reason" : "windDir, rain",
		"timestamp" :1555826400
		},
	"2019-04-21T12:00:00+03:00" : {
		"windSpeed" : 1.4,
		"windDir" : 21,
		"rain" : 0,
		"cloudbase" : 1411.8828,
		"flyability" : 0,
		"reason" : "windDir",
		"timestamp" :1555837200
		},
	"2019-04-21T15:00:00+03:00" : {
		"windSpeed" : 1.2,
		"windDir" : 34,
		"rain" : 1,
		"cloudbase" : 1499.0156,
		"flyability" : 0,
		"reason" : "windDir, rain",
		"timestamp" :1555848000
		},
	"2019-04-21T18:00:00+03:00" : {
		"windSpeed" : 1.9,
		"windDir" : 132,
		"rain" : 1,
		"cloudbase" : 1536.1328,
		"flyability" : 0,
		"reason" : "rain",
		"timestamp" :1555858800
		},
	"2019-04-21T21:00:00+03:00" : {
		"windSpeed" : 2,
		"windDir" : 185,
		"rain" : 1,
		"cloudbase" : null,
		"flyability" : 0,
		"reason" : "windDir, rain",
		"timestamp" :1555869600
		},
	"2019-04-22T00:00:00+03:00" : {
		"windSpeed" : 2.4,
		"windDir" : 192,
		"rain" : 1,
		"cloudbase" : null,
		"flyability" : 0,
		"reason" : "windDir, rain",
		"timestamp" :1555880400
		},
	"2019-04-22T03:00:00+03:00" : {
		"windSpeed" : 1.5,
		"windDir" : 175,
		"rain" : 0,
		"cloudbase" : 2250,
		"flyability" : 0,
		"reason" : "windDir",
		"timestamp" :1555891200
		},
	"2019-04-22T06:00:00+03:00" : {
		"windSpeed" : 2,
		"windDir" : 168,
		"rain" : 0,
		"cloudbase" : null,
		"flyability" : 0,
		"reason" : "windDir",
		"timestamp" :1555902000
		},
	"2019-04-22T09:00:00+03:00" : {
		"windSpeed" : 1.8,
		"windDir" : 124,
		"rain" : 0,
		"cloudbase" : null,
		"flyability" : 100,
		"reason" : "",
		"timestamp" :1555912800
		},
	"2019-04-22T12:00:00+03:00" : {
		"windSpeed" : 3.9,
		"windDir" : 141,
		"rain" : 0,
		"cloudbase" : 1551.1828,
		"flyability" : 100,
		"reason" : "",
		"timestamp" :1555923600
		},
	"2019-04-22T15:00:00+03:00" : {
		"windSpeed" : 3,
		"windDir" : 150,
		"rain" : 0,
		"cloudbase" : 1680.1,
		"flyability" : 100,
		"reason" : "",
		"timestamp" :1555934400
		},
	"2019-04-22T18:00:00+03:00" : {
		"windSpeed" : 2.8,
		"windDir" : 136,
		"rain" : 0,
		"cloudbase" : 2015.55,
		"flyability" : 100,
		"reason" : "",
		"timestamp" :1555945200
		},
	"2019-04-22T21:00:00+03:00" : {
		"windSpeed" : 1.9,
		"windDir" : 141,
		"rain" : 0,
		"cloudbase" : 1950,
		"flyability" : 100,
		"reason" : "",
		"timestamp" :1555956000
		},
	"2019-04-23T00:00:00+03:00" : {
		"windSpeed" : 1.8,
		"windDir" : 189,
		"rain" : 0,
		"cloudbase" : null,
		"flyability" : 0,
		"reason" : "windDir",
		"timestamp" :1555966800
		},
	"2019-04-23T03:00:00+03:00" : {
		"windSpeed" : 2,
		"windDir" : 203,
		"rain" : 0,
		"cloudbase" : 1846.6344,
		"flyability" : 0,
		"reason" : "windDir",
		"timestamp" :1555977600
		}
	}
}