{
"site" : "Rampa Vila Velha",
"id" : 19685,
"orientations" : "12100000",
"forecasts" : { 
	"2019-04-03T00:00:00-03:00" : {
		"windSpeed" : 1,
		"windDir" : 0,
		"rain" : 0,
		"cloudbase" : 10000,
		"flyability" : 100,
		"reason" : "",
		"timestamp" :1554260400
		},
	"2019-04-03T03:00:00-03:00" : {
		"windSpeed" : 1.3,
		"windDir" : 49,
		"rain" : 0,
		"cloudbase" : 5295.3612999999,
		"flyability" : 100,
		"reason" : "",
		"timestamp" :1554271200
		},
	"2019-04-03T06:00:00-03:00" : {
		"windSpeed" : 1.1,
		"windDir" : 63,
		"rain" : 0,
		"cloudbase" : 5600,
		"flyability" : 100,
		"reason" : "",
		"timestamp" :1554282000
		},
	"2019-04-03T09:00:00-03:00" : {
		"windSpeed" : 0.7,
		"windDir" : 45,
		"rain" : 0,
		"cloudbase" : 2711.6096999999,
		"flyability" : 100,
		"reason" : "",
		"timestamp" :1554292800
		},
	"2019-04-03T12:00:00-03:00" : {
		"windSpeed" : 2.6,
		"windDir" : 293,
		"rain" : 1,
		"cloudbase" : 10580.300099999,
		"flyability" : 0,
		"reason" : "windDir, rain",
		"timestamp" :1554303600
		},
	"2019-04-03T15:00:00-03:00" : {
		"windSpeed" : 3.7,
		"windDir" : 310,
		"rain" : 1,
		"cloudbase" : 12500,
		"flyability" : 0,
		"reason" : "windDir, rain",
		"timestamp" :1554314400
		},
	"2019-04-03T18:00:00-03:00" : {
		"windSpeed" : 1.8,
		"windDir" : 304,
		"rain" : 0,
		"cloudbase" : 12000,
		"flyability" : 0,
		"reason" : "windDir",
		"timestamp" :1554325200
		},
	"2019-04-03T21:00:00-03:00" : {
		"windSpeed" : 1.5,
		"windDir" : 0,
		"rain" : 0,
		"cloudbase" : 12365.4355,
		"flyability" : 100,
		"reason" : "",
		"timestamp" :1554336000
		},
	"2019-04-04T00:00:00-03:00" : {
		"windSpeed" : 1.2,
		"windDir" : 24,
		"rain" : 0,
		"cloudbase" : 13500,
		"flyability" : 100,
		"reason" : "",
		"timestamp" :1554346800
		},
	"2019-04-04T03:00:00-03:00" : {
		"windSpeed" : 1.7,
		"windDir" : 54,
		"rain" : 0,
		"cloudbase" : 13372.37888,
		"flyability" : 100,
		"reason" : "",
		"timestamp" :1554357600
		},
	"2019-04-04T06:00:00-03:00" : {
		"windSpeed" : 1.5,
		"windDir" : 14,
		"rain" : 0,
		"cloudbase" : 13500,
		"flyability" : 100,
		"reason" : "",
		"timestamp" :1554368400
		},
	"2019-04-04T09:00:00-03:00" : {
		"windSpeed" : 2.2,
		"windDir" : 334,
		"rain" : 0,
		"cloudbase" : 13500,
		"flyability" : 0,
		"reason" : "windDir",
		"timestamp" :1554379200
		},
	"2019-04-04T12:00:00-03:00" : {
		"windSpeed" : 4.2,
		"windDir" : 304,
		"rain" : 0,
		"cloudbase" : null,
		"flyability" : 0,
		"reason" : "windDir",
		"timestamp" :1554390000
		},
	"2019-04-04T15:00:00-03:00" : {
		"windSpeed" : 3.9,
		"windDir" : 310,
		"rain" : 0,
		"cloudbase" : 9973.0871,
		"flyability" : 0,
		"reason" : "windDir",
		"timestamp" :1554400800
		},
	"2019-04-04T18:00:00-03:00" : {
		"windSpeed" : 2,
		"windDir" : 360,
		"rain" : 0,
		"cloudbase" : 12112.1256,
		"flyability" : 100,
		"reason" : "",
		"timestamp" :1554411600
		},
	"2019-04-04T21:00:00-03:00" : {
		"windSpeed" : 2.2,
		"windDir" : 27,
		"rain" : 0,
		"cloudbase" : 4984.08065,
		"flyability" : 100,
		"reason" : "",
		"timestamp" :1554422400
		},
	"2019-04-05T00:00:00-03:00" : {
		"windSpeed" : 2.9,
		"windDir" : 31,
		"rain" : 0,
		"cloudbase" : 11634.5645,
		"flyability" : 100,
		"reason" : "",
		"timestamp" :1554433200
		},
	"2019-04-05T03:00:00-03:00" : {
		"windSpeed" : 3.4,
		"windDir" : 27,
		"rain" : 0,
		"cloudbase" : 13000,
		"flyability" : 100,
		"reason" : "",
		"timestamp" :1554444000
		},
	"2019-04-05T06:00:00-03:00" : {
		"windSpeed" : 3,
		"windDir" : 7,
		"rain" : 0,
		"cloudbase" : 11500,
		"flyability" : 100,
		"reason" : "",
		"timestamp" :1554454800
		},
	"2019-04-05T09:00:00-03:00" : {
		"windSpeed" : 4,
		"windDir" : 330,
		"rain" : 0,
		"cloudbase" : 10128.2516,
		"flyability" : 0,
		"reason" : "windDir",
		"timestamp" :1554465600
		},
	"2019-04-05T12:00:00-03:00" : {
		"windSpeed" : 6.5,
		"windDir" : 318,
		"rain" : 1,
		"cloudbase" : 9921.9870999999,
		"flyability" : 0,
		"reason" : "windSpeed, windDir, rain",
		"timestamp" :1554476400
		},
	"2019-04-05T15:00:00-03:00" : {
		"windSpeed" : 5,
		"windDir" : 307,
		"rain" : 1,
		"cloudbase" : 10869.5,
		"flyability" : 0,
		"reason" : "windDir, rain",
		"timestamp" :1554487200
		},
	"2019-04-05T18:00:00-03:00" : {
		"windSpeed" : 1.8,
		"windDir" : 326,
		"rain" : 1,
		"cloudbase" : 10995.9355,
		"flyability" : 0,
		"reason" : "windDir, rain",
		"timestamp" :1554498000
		},
	"2019-04-05T21:00:00-03:00" : {
		"windSpeed" : 2.2,
		"windDir" : 334,
		"rain" : 0,
		"cloudbase" : 11000,
		"flyability" : 0,
		"reason" : "windDir",
		"timestamp" :1554508800
		},
	"2019-04-06T00:00:00-03:00" : {
		"windSpeed" : 2.3,
		"windDir" : 330,
		"rain" : 0,
		"cloudbase" : 11500,
		"flyability" : 0,
		"reason" : "windDir",
		"timestamp" :1554519600
		},
	"2019-04-06T03:00:00-03:00" : {
		"windSpeed" : 2.2,
		"windDir" : 344,
		"rain" : 0,
		"cloudbase" : 11500,
		"flyability" : 100,
		"reason" : "",
		"timestamp" :1554530400
		},
	"2019-04-06T06:00:00-03:00" : {
		"windSpeed" : 1.6,
		"windDir" : 342,
		"rain" : 0,
		"cloudbase" : 8541.9774000002,
		"flyability" : 100,
		"reason" : "",
		"timestamp" :1554541200
		},
	"2019-04-06T09:00:00-03:00" : {
		"windSpeed" : 3.9,
		"windDir" : 320,
		"rain" : 1,
		"cloudbase" : 626.05226000002,
		"flyability" : 0,
		"reason" : "windDir, rain, cloudbase",
		"timestamp" :1554552000
		},
	"2019-04-06T12:00:00-03:00" : {
		"windSpeed" : 2.8,
		"windDir" : 324,
		"rain" : 0,
		"cloudbase" : null,
		"flyability" : 0,
		"reason" : "windDir",
		"timestamp" :1554562800
		},
	"2019-04-06T15:00:00-03:00" : {
		"windSpeed" : 4.5,
		"windDir" : 298,
		"rain" : 1,
		"cloudbase" : 11000,
		"flyability" : 0,
		"reason" : "windDir, rain",
		"timestamp" :1554573600
		},
	"2019-04-06T18:00:00-03:00" : {
		"windSpeed" : 1.4,
		"windDir" : 280,
		"rain" : 0,
		"cloudbase" : 2179.0169900011,
		"flyability" : 0,
		"reason" : "windDir",
		"timestamp" :1554584400
		},
	"2019-04-06T21:00:00-03:00" : {
		"windSpeed" : 1.8,
		"windDir" : 34,
		"rain" : 1,
		"cloudbase" : 10498.5645,
		"flyability" : 0,
		"reason" : "rain",
		"timestamp" :1554595200
		},
	"2019-04-07T00:00:00-03:00" : {
		"windSpeed" : 3.6,
		"windDir" : 56,
		"rain" : 0,
		"cloudbase" : 51.966774999995,
		"flyability" : 0,
		"reason" : "cloudbase",
		"timestamp" :1554606000
		},
	"2019-04-07T03:00:00-03:00" : {
		"windSpeed" : 4,
		"windDir" : 41,
		"rain" : 0,
		"cloudbase" : 37.308709999998,
		"flyability" : 0,
		"reason" : "cloudbase",
		"timestamp" :1554616800
		},
	"2019-04-07T06:00:00-03:00" : {
		"windSpeed" : 3.3,
		"windDir" : 40,
		"rain" : 1,
		"cloudbase" : 70.238549999991,
		"flyability" : 0,
		"reason" : "rain, cloudbase",
		"timestamp" :1554627600
		},
	"2019-04-07T09:00:00-03:00" : {
		"windSpeed" : 2.9,
		"windDir" : 31,
		"rain" : 1,
		"cloudbase" : 458.27580999993,
		"flyability" : 0,
		"reason" : "rain, cloudbase",
		"timestamp" :1554638400
		},
	"2019-04-07T12:00:00-03:00" : {
		"windSpeed" : 3.3,
		"windDir" : 48,
		"rain" : 1,
		"cloudbase" : null,
		"flyability" : 0,
		"reason" : "rain",
		"timestamp" :1554649200
		},
	"2019-04-07T15:00:00-03:00" : {
		"windSpeed" : 1,
		"windDir" : 50,
		"rain" : 0,
		"cloudbase" : 8360.470459998,
		"flyability" : 100,
		"reason" : "",
		"timestamp" :1554660000
		},
	"2019-04-07T18:00:00-03:00" : {
		"windSpeed" : 1.2,
		"windDir" : 324,
		"rain" : 0,
		"cloudbase" : 593.83548000007,
		"flyability" : 0,
		"reason" : "windDir, cloudbase",
		"timestamp" :1554670800
		},
	"2019-04-07T21:00:00-03:00" : {
		"windSpeed" : 1.2,
		"windDir" : 77,
		"rain" : 0,
		"cloudbase" : 1737.8644800007,
		"flyability" : 100,
		"reason" : "",
		"timestamp" :1554681600
		},
	"2019-04-08T00:00:00-03:00" : {
		"windSpeed" : 1.9,
		"windDir" : 59,
		"rain" : 1,
		"cloudbase" : 412.68403499998,
		"flyability" : 0,
		"reason" : "rain, cloudbase",
		"timestamp" :1554692400
		},
	"2019-04-08T03:00:00-03:00" : {
		"windSpeed" : 2.5,
		"windDir" : 79,
		"rain" : 1,
		"cloudbase" : 563.84868,
		"flyability" : 0,
		"reason" : "rain, cloudbase",
		"timestamp" :1554703200
		},
	"2019-04-08T06:00:00-03:00" : {
		"windSpeed" : 1.7,
		"windDir" : 144,
		"rain" : 0,
		"cloudbase" : 234.35936,
		"flyability" : 0,
		"reason" : "windDir, cloudbase",
		"timestamp" :1554714000
		},
	"2019-04-08T09:00:00-03:00" : {
		"windSpeed" : 2.4,
		"windDir" : 141,
		"rain" : 0,
		"cloudbase" : 671.32096999996,
		"flyability" : 0,
		"reason" : "windDir, cloudbase",
		"timestamp" :1554724800
		},
	"2019-04-08T12:00:00-03:00" : {
		"windSpeed" : 3.6,
		"windDir" : 149,
		"rain" : 0,
		"cloudbase" : 517.37806999995,
		"flyability" : 0,
		"reason" : "windDir, cloudbase",
		"timestamp" :1554735600
		},
	"2019-04-08T15:00:00-03:00" : {
		"windSpeed" : 4,
		"windDir" : 126,
		"rain" : 0,
		"cloudbase" : 1019.4780599999,
		"flyability" : 0,
		"reason" : "windDir",
		"timestamp" :1554746400
		},
	"2019-04-08T18:00:00-03:00" : {
		"windSpeed" : 4.7,
		"windDir" : 113,
		"rain" : 1,
		"cloudbase" : 1161.1371,
		"flyability" : 0,
		"reason" : "windDir, rain",
		"timestamp" :1554757200
		},
	"2019-04-08T21:00:00-03:00" : {
		"windSpeed" : 4.2,
		"windDir" : 97,
		"rain" : 0,
		"cloudbase" : 1100,
		"flyability" : 100,
		"reason" : "",
		"timestamp" :1554768000
		}
	}
}