{
"site" : "Dima's",
"id" : 20075,
"orientations" : "00000000",
"forecasts" : { 
	"2019-04-20T23:00:00-04:00" : {
		"windSpeed" : 2.9,
		"windDir" : 303,
		"rain" : 0,
		"cloudbase" : null,
		"flyability" : -50,
		"reason" : "orientationsUnknown",
		"timestamp" :1555819200
		},
	"2019-04-21T02:00:00-04:00" : {
		"windSpeed" : 1.7,
		"windDir" : 288,
		"rain" : 0,
		"cloudbase" : null,
		"flyability" : -50,
		"reason" : "orientationsUnknown",
		"timestamp" :1555830000
		},
	"2019-04-21T05:00:00-04:00" : {
		"windSpeed" : 2.6,
		"windDir" : 317,
		"rain" : 0,
		"cloudbase" : 1219.81232,
		"flyability" : -50,
		"reason" : "orientationsUnknown",
		"timestamp" :1555840800
		},
	"2019-04-21T08:00:00-04:00" : {
		"windSpeed" : 4.1,
		"windDir" : 318,
		"rain" : 0,
		"cloudbase" : 310,
		"flyability" : -0,
		"reason" : "orientationsUnknown, cloudbase",
		"timestamp" :1555851600
		},
	"2019-04-21T11:00:00-04:00" : {
		"windSpeed" : 3.4,
		"windDir" : 325,
		"rain" : 0,
		"cloudbase" : 4200,
		"flyability" : -50,
		"reason" : "orientationsUnknown",
		"timestamp" :1555862400
		},
	"2019-04-21T14:00:00-04:00" : {
		"windSpeed" : 3,
		"windDir" : 332,
		"rain" : 0,
		"cloudbase" : null,
		"flyability" : -50,
		"reason" : "orientationsUnknown",
		"timestamp" :1555873200
		},
	"2019-04-21T17:00:00-04:00" : {
		"windSpeed" : 3.2,
		"windDir" : 329,
		"rain" : 0,
		"cloudbase" : 2050,
		"flyability" : -50,
		"reason" : "orientationsUnknown",
		"timestamp" :1555884000
		},
	"2019-04-21T20:00:00-04:00" : {
		"windSpeed" : 3,
		"windDir" : 299,
		"rain" : 0,
		"cloudbase" : null,
		"flyability" : -50,
		"reason" : "orientationsUnknown",
		"timestamp" :1555894800
		},
	"2019-04-21T23:00:00-04:00" : {
		"windSpeed" : 3.1,
		"windDir" : 323,
		"rain" : 0,
		"cloudbase" : null,
		"flyability" : -50,
		"reason" : "orientationsUnknown",
		"timestamp" :1555905600
		},
	"2019-04-22T02:00:00-04:00" : {
		"windSpeed" : 3.2,
		"windDir" : 318,
		"rain" : 0,
		"cloudbase" : null,
		"flyability" : -50,
		"reason" : "orientationsUnknown",
		"timestamp" :1555916400
		},
	"2019-04-22T05:00:00-04:00" : {
		"windSpeed" : 2.9,
		"windDir" : 320,
		"rain" : 0,
		"cloudbase" : null,
		"flyability" : -50,
		"reason" : "orientationsUnknown",
		"timestamp" :1555927200
		},
	"2019-04-22T08:00:00-04:00" : {
		"windSpeed" : 3,
		"windDir" : 313,
		"rain" : 0,
		"cloudbase" : null,
		"flyability" : -50,
		"reason" : "orientationsUnknown",
		"timestamp" :1555938000
		},
	"2019-04-22T11:00:00-04:00" : {
		"windSpeed" : 3.2,
		"windDir" : 337,
		"rain" : 0,
		"cloudbase" : null,
		"flyability" : -50,
		"reason" : "orientationsUnknown",
		"timestamp" :1555948800
		},
	"2019-04-22T14:00:00-04:00" : {
		"windSpeed" : 3.1,
		"windDir" : 342,
		"rain" : 0,
		"cloudbase" : null,
		"flyability" : -50,
		"reason" : "orientationsUnknown",
		"timestamp" :1555959600
		},
	"2019-04-22T17:00:00-04:00" : {
		"windSpeed" : 2.8,
		"windDir" : 340,
		"rain" : 0,
		"cloudbase" : null,
		"flyability" : -50,
		"reason" : "orientationsUnknown",
		"timestamp" :1555970400
		},
	"2019-04-22T20:00:00-04:00" : {
		"windSpeed" : 1.9,
		"windDir" : 319,
		"rain" : 0,
		"cloudbase" : null,
		"flyability" : -50,
		"reason" : "orientationsUnknown",
		"timestamp" :1555981200
		},
	"2019-04-22T23:00:00-04:00" : {
		"windSpeed" : 1.9,
		"windDir" : 318,
		"rain" : 0,
		"cloudbase" : 9004.1423,
		"flyability" : -50,
		"reason" : "orientationsUnknown",
		"timestamp" :1555992000
		},
	"2019-04-23T02:00:00-04:00" : {
		"windSpeed" : 3,
		"windDir" : 305,
		"rain" : 0,
		"cloudbase" : null,
		"flyability" : -50,
		"reason" : "orientationsUnknown",
		"timestamp" :1556002800
		},
	"2019-04-23T05:00:00-04:00" : {
		"windSpeed" : 2.6,
		"windDir" : 306,
		"rain" : 0,
		"cloudbase" : null,
		"flyability" : -50,
		"reason" : "orientationsUnknown",
		"timestamp" :1556013600
		},
	"2019-04-23T08:00:00-04:00" : {
		"windSpeed" : 2.8,
		"windDir" : 308,
		"rain" : 0,
		"cloudbase" : null,
		"flyability" : -50,
		"reason" : "orientationsUnknown",
		"timestamp" :1556024400
		},
	"2019-04-23T11:00:00-04:00" : {
		"windSpeed" : 1.5,
		"windDir" : 227,
		"rain" : 0,
		"cloudbase" : null,
		"flyability" : -50,
		"reason" : "orientationsUnknown",
		"timestamp" :1556035200
		},
	"2019-04-23T14:00:00-04:00" : {
		"windSpeed" : 3,
		"windDir" : 198,
		"rain" : 0,
		"cloudbase" : 9200,
		"flyability" : -50,
		"reason" : "orientationsUnknown",
		"timestamp" :1556046000
		},
	"2019-04-23T17:00:00-04:00" : {
		"windSpeed" : 2.2,
		"windDir" : 237,
		"rain" : 1,
		"cloudbase" : 8919.2,
		"flyability" : -0,
		"reason" : "orientationsUnknown, rain",
		"timestamp" :1556056800
		},
	"2019-04-23T20:00:00-04:00" : {
		"windSpeed" : 2.9,
		"windDir" : 287,
		"rain" : 0,
		"cloudbase" : null,
		"flyability" : -50,
		"reason" : "orientationsUnknown",
		"timestamp" :1556067600
		},
	"2019-04-23T23:00:00-04:00" : {
		"windSpeed" : 4.3,
		"windDir" : 296,
		"rain" : 0,
		"cloudbase" : null,
		"flyability" : -50,
		"reason" : "orientationsUnknown",
		"timestamp" :1556078400
		},
	"2019-04-24T02:00:00-04:00" : {
		"windSpeed" : 4.9,
		"windDir" : 296,
		"rain" : 1,
		"cloudbase" : 6100,
		"flyability" : -0,
		"reason" : "orientationsUnknown, rain",
		"timestamp" :1556089200
		},
	"2019-04-24T05:00:00-04:00" : {
		"windSpeed" : 4.7,
		"windDir" : 297,
		"rain" : 1,
		"cloudbase" : 4450,
		"flyability" : -0,
		"reason" : "orientationsUnknown, rain",
		"timestamp" :1556100000
		},
	"2019-04-24T08:00:00-04:00" : {
		"windSpeed" : 4.2,
		"windDir" : 303,
		"rain" : 1,
		"cloudbase" : 4376.26345,
		"flyability" : -0,
		"reason" : "orientationsUnknown, rain",
		"timestamp" :1556110800
		},
	"2019-04-24T11:00:00-04:00" : {
		"windSpeed" : 3.6,
		"windDir" : 288,
		"rain" : 0,
		"cloudbase" : null,
		"flyability" : -50,
		"reason" : "orientationsUnknown",
		"timestamp" :1556121600
		},
	"2019-04-24T14:00:00-04:00" : {
		"windSpeed" : 4,
		"windDir" : 282,
		"rain" : 0,
		"cloudbase" : null,
		"flyability" : -50,
		"reason" : "orientationsUnknown",
		"timestamp" :1556132400
		},
	"2019-04-24T17:00:00-04:00" : {
		"windSpeed" : 4.5,
		"windDir" : 269,
		"rain" : 0,
		"cloudbase" : 3200,
		"flyability" : -50,
		"reason" : "orientationsUnknown",
		"timestamp" :1556143200
		},
	"2019-04-24T20:00:00-04:00" : {
		"windSpeed" : 3.4,
		"windDir" : 310,
		"rain" : 0,
		"cloudbase" : 3950,
		"flyability" : -50,
		"reason" : "orientationsUnknown",
		"timestamp" :1556154000
		},
	"2019-04-24T23:00:00-04:00" : {
		"windSpeed" : 2.4,
		"windDir" : 325,
		"rain" : 1,
		"cloudbase" : 3457.04805,
		"flyability" : -0,
		"reason" : "orientationsUnknown, rain",
		"timestamp" :1556164800
		},
	"2019-04-25T02:00:00-04:00" : {
		"windSpeed" : 2.2,
		"windDir" : 276,
		"rain" : 1,
		"cloudbase" : null,
		"flyability" : -0,
		"reason" : "orientationsUnknown, rain",
		"timestamp" :1556175600
		},
	"2019-04-25T05:00:00-04:00" : {
		"windSpeed" : 2.1,
		"windDir" : 305,
		"rain" : 0,
		"cloudbase" : null,
		"flyability" : -50,
		"reason" : "orientationsUnknown",
		"timestamp" :1556186400
		},
	"2019-04-25T08:00:00-04:00" : {
		"windSpeed" : 2.4,
		"windDir" : 282,
		"rain" : 0,
		"cloudbase" : 3782.5462000001,
		"flyability" : -50,
		"reason" : "orientationsUnknown",
		"timestamp" :1556197200
		},
	"2019-04-25T11:00:00-04:00" : {
		"windSpeed" : 1.5,
		"windDir" : 285,
		"rain" : 0,
		"cloudbase" : 3456.2346,
		"flyability" : -50,
		"reason" : "orientationsUnknown",
		"timestamp" :1556208000
		},
	"2019-04-25T14:00:00-04:00" : {
		"windSpeed" : 2.1,
		"windDir" : 226,
		"rain" : 1,
		"cloudbase" : 1650,
		"flyability" : -0,
		"reason" : "orientationsUnknown, rain",
		"timestamp" :1556218800
		},
	"2019-04-25T17:00:00-04:00" : {
		"windSpeed" : 1.6,
		"windDir" : 295,
		"rain" : 0,
		"cloudbase" : 4331.5097500001,
		"flyability" : -50,
		"reason" : "orientationsUnknown",
		"timestamp" :1556229600
		},
	"2019-04-25T20:00:00-04:00" : {
		"windSpeed" : 2.4,
		"windDir" : 279,
		"rain" : 1,
		"cloudbase" : 4275.3,
		"flyability" : -0,
		"reason" : "orientationsUnknown, rain",
		"timestamp" :1556240400
		},
	"2019-04-25T23:00:00-04:00" : {
		"windSpeed" : 2.5,
		"windDir" : 287,
		"rain" : 1,
		"cloudbase" : 4121.91345,
		"flyability" : -0,
		"reason" : "orientationsUnknown, rain",
		"timestamp" :1556251200
		},
	"2019-04-26T02:00:00-04:00" : {
		"windSpeed" : 2.4,
		"windDir" : 293,
		"rain" : 1,
		"cloudbase" : 4259.6462000001,
		"flyability" : -0,
		"reason" : "orientationsUnknown, rain",
		"timestamp" :1556262000
		},
	"2019-04-26T05:00:00-04:00" : {
		"windSpeed" : 3.1,
		"windDir" : 305,
		"rain" : 1,
		"cloudbase" : 4180.33265,
		"flyability" : -0,
		"reason" : "orientationsUnknown, rain",
		"timestamp" :1556272800
		},
	"2019-04-26T08:00:00-04:00" : {
		"windSpeed" : 1.8,
		"windDir" : 305,
		"rain" : 0,
		"cloudbase" : 3084.41345,
		"flyability" : -50,
		"reason" : "orientationsUnknown",
		"timestamp" :1556283600
		},
	"2019-04-26T11:00:00-04:00" : {
		"windSpeed" : 2,
		"windDir" : 283,
		"rain" : 1,
		"cloudbase" : 5809.6,
		"flyability" : -0,
		"reason" : "orientationsUnknown, rain",
		"timestamp" :1556294400
		},
	"2019-04-26T14:00:00-04:00" : {
		"windSpeed" : 3.3,
		"windDir" : 305,
		"rain" : 0,
		"cloudbase" : 6692.2961,
		"flyability" : -50,
		"reason" : "orientationsUnknown",
		"timestamp" :1556305200
		},
	"2019-04-26T17:00:00-04:00" : {
		"windSpeed" : 3.1,
		"windDir" : 336,
		"rain" : 1,
		"cloudbase" : 8590.3577,
		"flyability" : -0,
		"reason" : "orientationsUnknown, rain",
		"timestamp" :1556316000
		},
	"2019-04-26T20:00:00-04:00" : {
		"windSpeed" : 2.7,
		"windDir" : 339,
		"rain" : 1,
		"cloudbase" : 10500,
		"flyability" : -0,
		"reason" : "orientationsUnknown, rain",
		"timestamp" :1556326800
		}
	}
}