{
"site" : "Caviahue",
"id" : 21525,
"orientations" : "00000000",
"forecasts" : { 
	"2019-04-14T12:00:00-03:00" : {
		"windSpeed" : 6.2,
		"windDir" : 276,
		"rain" : 0,
		"cloudbase" : null,
		"flyability" : -0,
		"reason" : "windSpeed, orientationsUnknown",
		"timestamp" :1555254000
		},
	"2019-04-14T15:00:00-03:00" : {
		"windSpeed" : 5.3,
		"windDir" : 272,
		"rain" : 0,
		"cloudbase" : null,
		"flyability" : -0,
		"reason" : "windSpeed, orientationsUnknown",
		"timestamp" :1555264800
		},
	"2019-04-14T18:00:00-03:00" : {
		"windSpeed" : 3.8,
		"windDir" : 270,
		"rain" : 0,
		"cloudbase" : null,
		"flyability" : -50,
		"reason" : "orientationsUnknown",
		"timestamp" :1555275600
		},
	"2019-04-14T21:00:00-03:00" : {
		"windSpeed" : 1.3,
		"windDir" : 270,
		"rain" : 0,
		"cloudbase" : null,
		"flyability" : -50,
		"reason" : "orientationsUnknown",
		"timestamp" :1555286400
		},
	"2019-04-15T00:00:00-03:00" : {
		"windSpeed" : 0.6,
		"windDir" : 329,
		"rain" : 0,
		"cloudbase" : null,
		"flyability" : -50,
		"reason" : "orientationsUnknown",
		"timestamp" :1555297200
		},
	"2019-04-15T03:00:00-03:00" : {
		"windSpeed" : 0.9,
		"windDir" : 340,
		"rain" : 0,
		"cloudbase" : null,
		"flyability" : -50,
		"reason" : "orientationsUnknown",
		"timestamp" :1555308000
		},
	"2019-04-15T06:00:00-03:00" : {
		"windSpeed" : 0.9,
		"windDir" : 340,
		"rain" : 0,
		"cloudbase" : null,
		"flyability" : -50,
		"reason" : "orientationsUnknown",
		"timestamp" :1555318800
		},
	"2019-04-15T09:00:00-03:00" : {
		"windSpeed" : 1.1,
		"windDir" : 39,
		"rain" : 0,
		"cloudbase" : null,
		"flyability" : -50,
		"reason" : "orientationsUnknown",
		"timestamp" :1555329600
		},
	"2019-04-15T12:00:00-03:00" : {
		"windSpeed" : 1,
		"windDir" : 9,
		"rain" : 0,
		"cloudbase" : null,
		"flyability" : -50,
		"reason" : "orientationsUnknown",
		"timestamp" :1555340400
		},
	"2019-04-15T15:00:00-03:00" : {
		"windSpeed" : 1.2,
		"windDir" : 295,
		"rain" : 0,
		"cloudbase" : 9430.9,
		"flyability" : -50,
		"reason" : "orientationsUnknown",
		"timestamp" :1555351200
		},
	"2019-04-15T18:00:00-03:00" : {
		"windSpeed" : 1,
		"windDir" : 299,
		"rain" : 0,
		"cloudbase" : 9668.7545,
		"flyability" : -50,
		"reason" : "orientationsUnknown",
		"timestamp" :1555362000
		},
	"2019-04-15T21:00:00-03:00" : {
		"windSpeed" : 0.4,
		"windDir" : 336,
		"rain" : 0,
		"cloudbase" : null,
		"flyability" : -50,
		"reason" : "orientationsUnknown",
		"timestamp" :1555372800
		},
	"2019-04-16T00:00:00-03:00" : {
		"windSpeed" : 1.1,
		"windDir" : 322,
		"rain" : 0,
		"cloudbase" : null,
		"flyability" : -50,
		"reason" : "orientationsUnknown",
		"timestamp" :1555383600
		},
	"2019-04-16T03:00:00-03:00" : {
		"windSpeed" : 1.6,
		"windDir" : 303,
		"rain" : 0,
		"cloudbase" : null,
		"flyability" : -50,
		"reason" : "orientationsUnknown",
		"timestamp" :1555394400
		},
	"2019-04-16T06:00:00-03:00" : {
		"windSpeed" : 2.5,
		"windDir" : 281,
		"rain" : 0,
		"cloudbase" : 8032.591,
		"flyability" : -50,
		"reason" : "orientationsUnknown",
		"timestamp" :1555405200
		},
	"2019-04-16T09:00:00-03:00" : {
		"windSpeed" : 2.2,
		"windDir" : 283,
		"rain" : 0,
		"cloudbase" : null,
		"flyability" : -50,
		"reason" : "orientationsUnknown",
		"timestamp" :1555416000
		},
	"2019-04-16T12:00:00-03:00" : {
		"windSpeed" : 4.6,
		"windDir" : 284,
		"rain" : 0,
		"cloudbase" : 9300,
		"flyability" : -50,
		"reason" : "orientationsUnknown",
		"timestamp" :1555426800
		},
	"2019-04-16T15:00:00-03:00" : {
		"windSpeed" : 5.8,
		"windDir" : 281,
		"rain" : 0,
		"cloudbase" : 8100,
		"flyability" : -0,
		"reason" : "windSpeed, orientationsUnknown",
		"timestamp" :1555437600
		},
	"2019-04-16T18:00:00-03:00" : {
		"windSpeed" : 4.9,
		"windDir" : 278,
		"rain" : 0,
		"cloudbase" : 8160.9545,
		"flyability" : -50,
		"reason" : "orientationsUnknown",
		"timestamp" :1555448400
		},
	"2019-04-16T21:00:00-03:00" : {
		"windSpeed" : 3.6,
		"windDir" : 281,
		"rain" : 0,
		"cloudbase" : 10652,
		"flyability" : -50,
		"reason" : "orientationsUnknown",
		"timestamp" :1555459200
		},
	"2019-04-17T00:00:00-03:00" : {
		"windSpeed" : 2.9,
		"windDir" : 283,
		"rain" : 0,
		"cloudbase" : null,
		"flyability" : -50,
		"reason" : "orientationsUnknown",
		"timestamp" :1555470000
		},
	"2019-04-17T03:00:00-03:00" : {
		"windSpeed" : 2.4,
		"windDir" : 286,
		"rain" : 0,
		"cloudbase" : null,
		"flyability" : -50,
		"reason" : "orientationsUnknown",
		"timestamp" :1555480800
		},
	"2019-04-17T06:00:00-03:00" : {
		"windSpeed" : 2,
		"windDir" : 284,
		"rain" : 0,
		"cloudbase" : 9500,
		"flyability" : -50,
		"reason" : "orientationsUnknown",
		"timestamp" :1555491600
		},
	"2019-04-17T09:00:00-03:00" : {
		"windSpeed" : 1.1,
		"windDir" : 297,
		"rain" : 0,
		"cloudbase" : 7012.7364999995,
		"flyability" : -50,
		"reason" : "orientationsUnknown",
		"timestamp" :1555502400
		},
	"2019-04-17T12:00:00-03:00" : {
		"windSpeed" : 2.6,
		"windDir" : 293,
		"rain" : 0,
		"cloudbase" : 6630.9,
		"flyability" : -50,
		"reason" : "orientationsUnknown",
		"timestamp" :1555513200
		},
	"2019-04-17T15:00:00-03:00" : {
		"windSpeed" : 3.7,
		"windDir" : 278,
		"rain" : 0,
		"cloudbase" : 6331.209,
		"flyability" : -50,
		"reason" : "orientationsUnknown",
		"timestamp" :1555524000
		},
	"2019-04-17T18:00:00-03:00" : {
		"windSpeed" : 2.7,
		"windDir" : 281,
		"rain" : 0,
		"cloudbase" : 6191.891,
		"flyability" : -50,
		"reason" : "orientationsUnknown",
		"timestamp" :1555534800
		},
	"2019-04-17T21:00:00-03:00" : {
		"windSpeed" : 1.2,
		"windDir" : 287,
		"rain" : 0,
		"cloudbase" : 6131.209,
		"flyability" : -50,
		"reason" : "orientationsUnknown",
		"timestamp" :1555545600
		},
	"2019-04-18T00:00:00-03:00" : {
		"windSpeed" : 1.1,
		"windDir" : 311,
		"rain" : 0,
		"cloudbase" : 7025.9449999999,
		"flyability" : -50,
		"reason" : "orientationsUnknown",
		"timestamp" :1555556400
		},
	"2019-04-18T03:00:00-03:00" : {
		"windSpeed" : 1.4,
		"windDir" : 306,
		"rain" : 0,
		"cloudbase" : 7492.3545,
		"flyability" : -50,
		"reason" : "orientationsUnknown",
		"timestamp" :1555567200
		},
	"2019-04-18T06:00:00-03:00" : {
		"windSpeed" : 2.5,
		"windDir" : 290,
		"rain" : 0,
		"cloudbase" : 9661.8,
		"flyability" : -50,
		"reason" : "orientationsUnknown",
		"timestamp" :1555578000
		},
	"2019-04-18T09:00:00-03:00" : {
		"windSpeed" : 1.9,
		"windDir" : 291,
		"rain" : 0,
		"cloudbase" : 7062.1455,
		"flyability" : -50,
		"reason" : "orientationsUnknown",
		"timestamp" :1555588800
		},
	"2019-04-18T12:00:00-03:00" : {
		"windSpeed" : 2.9,
		"windDir" : 280,
		"rain" : 0,
		"cloudbase" : 6792.891,
		"flyability" : -50,
		"reason" : "orientationsUnknown",
		"timestamp" :1555599600
		},
	"2019-04-18T15:00:00-03:00" : {
		"windSpeed" : 4.5,
		"windDir" : 276,
		"rain" : 0,
		"cloudbase" : 6561.6455,
		"flyability" : -50,
		"reason" : "orientationsUnknown",
		"timestamp" :1555610400
		},
	"2019-04-18T18:00:00-03:00" : {
		"windSpeed" : 3.7,
		"windDir" : 280,
		"rain" : 0,
		"cloudbase" : 7830.9,
		"flyability" : -50,
		"reason" : "orientationsUnknown",
		"timestamp" :1555621200
		},
	"2019-04-18T21:00:00-03:00" : {
		"windSpeed" : 2.4,
		"windDir" : 282,
		"rain" : 0,
		"cloudbase" : 8331.3635,
		"flyability" : -50,
		"reason" : "orientationsUnknown",
		"timestamp" :1555632000
		},
	"2019-04-19T00:00:00-03:00" : {
		"windSpeed" : 2.4,
		"windDir" : 282,
		"rain" : 0,
		"cloudbase" : 8278.4275,
		"flyability" : -50,
		"reason" : "orientationsUnknown",
		"timestamp" :1555642800
		},
	"2019-04-19T03:00:00-03:00" : {
		"windSpeed" : 2,
		"windDir" : 284,
		"rain" : 0,
		"cloudbase" : null,
		"flyability" : -50,
		"reason" : "orientationsUnknown",
		"timestamp" :1555653600
		},
	"2019-04-19T06:00:00-03:00" : {
		"windSpeed" : 2.5,
		"windDir" : 270,
		"rain" : 0,
		"cloudbase" : 7493.4573000009,
		"flyability" : -50,
		"reason" : "orientationsUnknown",
		"timestamp" :1555664400
		},
	"2019-04-19T09:00:00-03:00" : {
		"windSpeed" : 2.5,
		"windDir" : 278,
		"rain" : 0,
		"cloudbase" : null,
		"flyability" : -50,
		"reason" : "orientationsUnknown",
		"timestamp" :1555675200
		},
	"2019-04-19T12:00:00-03:00" : {
		"windSpeed" : 3.8,
		"windDir" : 285,
		"rain" : 0,
		"cloudbase" : null,
		"flyability" : -50,
		"reason" : "orientationsUnknown",
		"timestamp" :1555686000
		},
	"2019-04-19T15:00:00-03:00" : {
		"windSpeed" : 3.7,
		"windDir" : 278,
		"rain" : 0,
		"cloudbase" : null,
		"flyability" : -50,
		"reason" : "orientationsUnknown",
		"timestamp" :1555696800
		},
	"2019-04-19T18:00:00-03:00" : {
		"windSpeed" : 3,
		"windDir" : 270,
		"rain" : 0,
		"cloudbase" : null,
		"flyability" : -50,
		"reason" : "orientationsUnknown",
		"timestamp" :1555707600
		},
	"2019-04-19T21:00:00-03:00" : {
		"windSpeed" : 2.3,
		"windDir" : 270,
		"rain" : 0,
		"cloudbase" : null,
		"flyability" : -50,
		"reason" : "orientationsUnknown",
		"timestamp" :1555718400
		},
	"2019-04-20T00:00:00-03:00" : {
		"windSpeed" : 0.9,
		"windDir" : 293,
		"rain" : 0,
		"cloudbase" : null,
		"flyability" : -50,
		"reason" : "orientationsUnknown",
		"timestamp" :1555729200
		},
	"2019-04-20T03:00:00-03:00" : {
		"windSpeed" : 0.3,
		"windDir" : 173,
		"rain" : 0,
		"cloudbase" : null,
		"flyability" : -50,
		"reason" : "orientationsUnknown",
		"timestamp" :1555740000
		},
	"2019-04-20T06:00:00-03:00" : {
		"windSpeed" : 1.1,
		"windDir" : 139,
		"rain" : 0,
		"cloudbase" : null,
		"flyability" : -50,
		"reason" : "orientationsUnknown",
		"timestamp" :1555750800
		},
	"2019-04-20T09:00:00-03:00" : {
		"windSpeed" : 0.7,
		"windDir" : 164,
		"rain" : 0,
		"cloudbase" : null,
		"flyability" : -50,
		"reason" : "orientationsUnknown",
		"timestamp" :1555761600
		}
	}
}