{
"site" : "M\u0103ri\u015felu",
"id" : 21576,
"orientations" : "00000000",
"forecasts" : { 
	"2019-04-17T06:00:00+03:00" : {
		"windSpeed" : 1.9,
		"windDir" : 340,
		"rain" : 1,
		"cloudbase" : 1681.28665,
		"flyability" : -0,
		"reason" : "orientationsUnknown, rain",
		"timestamp" :1555470000
		},
	"2019-04-17T09:00:00+03:00" : {
		"windSpeed" : 2.5,
		"windDir" : 314,
		"rain" : 1,
		"cloudbase" : 4413.6335000001,
		"flyability" : -0,
		"reason" : "orientationsUnknown, rain",
		"timestamp" :1555480800
		},
	"2019-04-17T12:00:00+03:00" : {
		"windSpeed" : 2.6,
		"windDir" : 317,
		"rain" : 1,
		"cloudbase" : 1236.4466,
		"flyability" : -0,
		"reason" : "orientationsUnknown, rain",
		"timestamp" :1555491600
		},
	"2019-04-17T15:00:00+03:00" : {
		"windSpeed" : 3.1,
		"windDir" : 26,
		"rain" : 1,
		"cloudbase" : 1581.3233,
		"flyability" : -0,
		"reason" : "orientationsUnknown, rain",
		"timestamp" :1555502400
		},
	"2019-04-17T18:00:00+03:00" : {
		"windSpeed" : 3.1,
		"windDir" : 57,
		"rain" : 0,
		"cloudbase" : 1690.94735,
		"flyability" : -50,
		"reason" : "orientationsUnknown",
		"timestamp" :1555513200
		},
	"2019-04-17T21:00:00+03:00" : {
		"windSpeed" : 2.2,
		"windDir" : 48,
		"rain" : 0,
		"cloudbase" : 2404.2034,
		"flyability" : -50,
		"reason" : "orientationsUnknown",
		"timestamp" :1555524000
		},
	"2019-04-18T00:00:00+03:00" : {
		"windSpeed" : 1.7,
		"windDir" : 46,
		"rain" : 0,
		"cloudbase" : null,
		"flyability" : -50,
		"reason" : "orientationsUnknown",
		"timestamp" :1555534800
		},
	"2019-04-18T03:00:00+03:00" : {
		"windSpeed" : 0.8,
		"windDir" : 83,
		"rain" : 0,
		"cloudbase" : null,
		"flyability" : -50,
		"reason" : "orientationsUnknown",
		"timestamp" :1555545600
		},
	"2019-04-18T06:00:00+03:00" : {
		"windSpeed" : 0.9,
		"windDir" : 19,
		"rain" : 0,
		"cloudbase" : null,
		"flyability" : -50,
		"reason" : "orientationsUnknown",
		"timestamp" :1555556400
		},
	"2019-04-18T09:00:00+03:00" : {
		"windSpeed" : 2.5,
		"windDir" : 10,
		"rain" : 0,
		"cloudbase" : 1950,
		"flyability" : -50,
		"reason" : "orientationsUnknown",
		"timestamp" :1555567200
		},
	"2019-04-18T12:00:00+03:00" : {
		"windSpeed" : 3,
		"windDir" : 67,
		"rain" : 0,
		"cloudbase" : 2105.0795999999,
		"flyability" : -50,
		"reason" : "orientationsUnknown",
		"timestamp" :1555578000
		},
	"2019-04-18T15:00:00+03:00" : {
		"windSpeed" : 1.7,
		"windDir" : 45,
		"rain" : 1,
		"cloudbase" : 2050.6199,
		"flyability" : -0,
		"reason" : "orientationsUnknown, rain",
		"timestamp" :1555588800
		},
	"2019-04-18T18:00:00+03:00" : {
		"windSpeed" : 4.6,
		"windDir" : 45,
		"rain" : 0,
		"cloudbase" : null,
		"flyability" : -50,
		"reason" : "orientationsUnknown",
		"timestamp" :1555599600
		},
	"2019-04-18T21:00:00+03:00" : {
		"windSpeed" : 2.6,
		"windDir" : 65,
		"rain" : 0,
		"cloudbase" : null,
		"flyability" : -50,
		"reason" : "orientationsUnknown",
		"timestamp" :1555610400
		},
	"2019-04-19T00:00:00+03:00" : {
		"windSpeed" : 1,
		"windDir" : 54,
		"rain" : 0,
		"cloudbase" : null,
		"flyability" : -50,
		"reason" : "orientationsUnknown",
		"timestamp" :1555621200
		},
	"2019-04-19T03:00:00+03:00" : {
		"windSpeed" : 1.9,
		"windDir" : 11,
		"rain" : 0,
		"cloudbase" : null,
		"flyability" : -50,
		"reason" : "orientationsUnknown",
		"timestamp" :1555632000
		},
	"2019-04-19T06:00:00+03:00" : {
		"windSpeed" : 2.5,
		"windDir" : 21,
		"rain" : 0,
		"cloudbase" : null,
		"flyability" : -50,
		"reason" : "orientationsUnknown",
		"timestamp" :1555642800
		},
	"2019-04-19T09:00:00+03:00" : {
		"windSpeed" : 2.2,
		"windDir" : 336,
		"rain" : 0,
		"cloudbase" : null,
		"flyability" : -50,
		"reason" : "orientationsUnknown",
		"timestamp" :1555653600
		},
	"2019-04-19T12:00:00+03:00" : {
		"windSpeed" : 3.6,
		"windDir" : 10,
		"rain" : 1,
		"cloudbase" : null,
		"flyability" : -0,
		"reason" : "orientationsUnknown, rain",
		"timestamp" :1555664400
		},
	"2019-04-19T15:00:00+03:00" : {
		"windSpeed" : 4.5,
		"windDir" : 27,
		"rain" : 0,
		"cloudbase" : 2226.26335,
		"flyability" : -50,
		"reason" : "orientationsUnknown",
		"timestamp" :1555675200
		},
	"2019-04-19T18:00:00+03:00" : {
		"windSpeed" : 5.1,
		"windDir" : 17,
		"rain" : 0,
		"cloudbase" : 2195.35,
		"flyability" : -0,
		"reason" : "windSpeed, orientationsUnknown",
		"timestamp" :1555686000
		},
	"2019-04-19T21:00:00+03:00" : {
		"windSpeed" : 2.6,
		"windDir" : 21,
		"rain" : 0,
		"cloudbase" : null,
		"flyability" : -50,
		"reason" : "orientationsUnknown",
		"timestamp" :1555696800
		},
	"2019-04-20T00:00:00+03:00" : {
		"windSpeed" : 2.2,
		"windDir" : 30,
		"rain" : 0,
		"cloudbase" : null,
		"flyability" : -50,
		"reason" : "orientationsUnknown",
		"timestamp" :1555707600
		},
	"2019-04-20T03:00:00+03:00" : {
		"windSpeed" : 2.3,
		"windDir" : 16,
		"rain" : 0,
		"cloudbase" : null,
		"flyability" : -50,
		"reason" : "orientationsUnknown",
		"timestamp" :1555718400
		},
	"2019-04-20T06:00:00+03:00" : {
		"windSpeed" : 1.3,
		"windDir" : 65,
		"rain" : 0,
		"cloudbase" : null,
		"flyability" : -50,
		"reason" : "orientationsUnknown",
		"timestamp" :1555729200
		},
	"2019-04-20T09:00:00+03:00" : {
		"windSpeed" : 0.1,
		"windDir" : 335,
		"rain" : 0,
		"cloudbase" : null,
		"flyability" : -50,
		"reason" : "orientationsUnknown",
		"timestamp" :1555740000
		},
	"2019-04-20T12:00:00+03:00" : {
		"windSpeed" : 1.1,
		"windDir" : 45,
		"rain" : 1,
		"cloudbase" : 1721.8233,
		"flyability" : -0,
		"reason" : "orientationsUnknown, rain",
		"timestamp" :1555750800
		},
	"2019-04-20T15:00:00+03:00" : {
		"windSpeed" : 0.7,
		"windDir" : 329,
		"rain" : 0,
		"cloudbase" : 1981.3233,
		"flyability" : -50,
		"reason" : "orientationsUnknown",
		"timestamp" :1555761600
		},
	"2019-04-20T18:00:00+03:00" : {
		"windSpeed" : 2.4,
		"windDir" : 328,
		"rain" : 0,
		"cloudbase" : 2079.05995,
		"flyability" : -50,
		"reason" : "orientationsUnknown",
		"timestamp" :1555772400
		},
	"2019-04-20T21:00:00+03:00" : {
		"windSpeed" : 3,
		"windDir" : 87,
		"rain" : 0,
		"cloudbase" : 2452.51335,
		"flyability" : -50,
		"reason" : "orientationsUnknown",
		"timestamp" :1555783200
		},
	"2019-04-21T00:00:00+03:00" : {
		"windSpeed" : 2.4,
		"windDir" : 120,
		"rain" : 0,
		"cloudbase" : 5475.0737999997,
		"flyability" : -50,
		"reason" : "orientationsUnknown",
		"timestamp" :1555794000
		},
	"2019-04-21T03:00:00+03:00" : {
		"windSpeed" : 2.2,
		"windDir" : 112,
		"rain" : 0,
		"cloudbase" : 2466.5798500001,
		"flyability" : -50,
		"reason" : "orientationsUnknown",
		"timestamp" :1555804800
		},
	"2019-04-21T06:00:00+03:00" : {
		"windSpeed" : 1.4,
		"windDir" : 98,
		"rain" : 0,
		"cloudbase" : 6072.3130999999,
		"flyability" : -50,
		"reason" : "orientationsUnknown",
		"timestamp" :1555815600
		},
	"2019-04-21T09:00:00+03:00" : {
		"windSpeed" : 0.1,
		"windDir" : 360,
		"rain" : 0,
		"cloudbase" : null,
		"flyability" : -50,
		"reason" : "orientationsUnknown",
		"timestamp" :1555826400
		},
	"2019-04-21T12:00:00+03:00" : {
		"windSpeed" : 1.4,
		"windDir" : 321,
		"rain" : 0,
		"cloudbase" : 1835.88665,
		"flyability" : -50,
		"reason" : "orientationsUnknown",
		"timestamp" :1555837200
		},
	"2019-04-21T15:00:00+03:00" : {
		"windSpeed" : 0.7,
		"windDir" : 315,
		"rain" : 0,
		"cloudbase" : 3005.5667500002,
		"flyability" : -50,
		"reason" : "orientationsUnknown",
		"timestamp" :1555848000
		},
	"2019-04-21T18:00:00+03:00" : {
		"windSpeed" : 1.1,
		"windDir" : 297,
		"rain" : 1,
		"cloudbase" : null,
		"flyability" : -0,
		"reason" : "orientationsUnknown, rain",
		"timestamp" :1555858800
		},
	"2019-04-21T21:00:00+03:00" : {
		"windSpeed" : 1.6,
		"windDir" : 71,
		"rain" : 0,
		"cloudbase" : null,
		"flyability" : -50,
		"reason" : "orientationsUnknown",
		"timestamp" :1555869600
		},
	"2019-04-22T00:00:00+03:00" : {
		"windSpeed" : 3.4,
		"windDir" : 143,
		"rain" : 1,
		"cloudbase" : 5715.2466000001,
		"flyability" : -0,
		"reason" : "orientationsUnknown, rain",
		"timestamp" :1555880400
		},
	"2019-04-22T03:00:00+03:00" : {
		"windSpeed" : 3.6,
		"windDir" : 124,
		"rain" : 0,
		"cloudbase" : 6338.0267,
		"flyability" : -50,
		"reason" : "orientationsUnknown",
		"timestamp" :1555891200
		},
	"2019-04-22T06:00:00+03:00" : {
		"windSpeed" : 2.4,
		"windDir" : 96,
		"rain" : 1,
		"cloudbase" : 5367.0859,
		"flyability" : -0,
		"reason" : "orientationsUnknown, rain",
		"timestamp" :1555902000
		},
	"2019-04-22T09:00:00+03:00" : {
		"windSpeed" : 1.9,
		"windDir" : 131,
		"rain" : 0,
		"cloudbase" : 2005.05995,
		"flyability" : -50,
		"reason" : "orientationsUnknown",
		"timestamp" :1555912800
		},
	"2019-04-22T12:00:00+03:00" : {
		"windSpeed" : 3,
		"windDir" : 147,
		"rain" : 0,
		"cloudbase" : 2000,
		"flyability" : -50,
		"reason" : "orientationsUnknown",
		"timestamp" :1555923600
		},
	"2019-04-22T15:00:00+03:00" : {
		"windSpeed" : 2.8,
		"windDir" : 138,
		"rain" : 1,
		"cloudbase" : null,
		"flyability" : -0,
		"reason" : "orientationsUnknown, rain",
		"timestamp" :1555934400
		},
	"2019-04-22T18:00:00+03:00" : {
		"windSpeed" : 3.8,
		"windDir" : 125,
		"rain" : 0,
		"cloudbase" : 2126.33665,
		"flyability" : -50,
		"reason" : "orientationsUnknown",
		"timestamp" :1555945200
		},
	"2019-04-22T21:00:00+03:00" : {
		"windSpeed" : 4.7,
		"windDir" : 106,
		"rain" : 0,
		"cloudbase" : null,
		"flyability" : -50,
		"reason" : "orientationsUnknown",
		"timestamp" :1555956000
		},
	"2019-04-23T00:00:00+03:00" : {
		"windSpeed" : 4.9,
		"windDir" : 117,
		"rain" : 0,
		"cloudbase" : 2045.43665,
		"flyability" : -50,
		"reason" : "orientationsUnknown",
		"timestamp" :1555966800
		},
	"2019-04-23T03:00:00+03:00" : {
		"windSpeed" : 4.2,
		"windDir" : 114,
		"rain" : 0,
		"cloudbase" : null,
		"flyability" : -50,
		"reason" : "orientationsUnknown",
		"timestamp" :1555977600
		}
	}
}