{
"site" : "Ptarmigan Peak",
"id" : 21692,
"orientations" : "01210121",
"forecasts" : { 
	"2019-04-20T21:00:00-06:00" : {
		"windSpeed" : 1.6,
		"windDir" : 326,
		"rain" : 1,
		"cloudbase" : 4633.25,
		"flyability" : 0,
		"reason" : "rain",
		"timestamp" :1555815600
		},
	"2019-04-21T00:00:00-06:00" : {
		"windSpeed" : 1.6,
		"windDir" : 321,
		"rain" : 0,
		"cloudbase" : null,
		"flyability" : 100,
		"reason" : "",
		"timestamp" :1555826400
		},
	"2019-04-21T03:00:00-06:00" : {
		"windSpeed" : 1.2,
		"windDir" : 338,
		"rain" : 0,
		"cloudbase" : null,
		"flyability" : 0,
		"reason" : "windDir",
		"timestamp" :1555837200
		},
	"2019-04-21T06:00:00-06:00" : {
		"windSpeed" : 0.7,
		"windDir" : 360,
		"rain" : 0,
		"cloudbase" : 4700,
		"flyability" : 0,
		"reason" : "windDir",
		"timestamp" :1555848000
		},
	"2019-04-21T09:00:00-06:00" : {
		"windSpeed" : 1.3,
		"windDir" : 272,
		"rain" : 0,
		"cloudbase" : 3669,
		"flyability" : 0,
		"reason" : "cloudbase",
		"timestamp" :1555858800
		},
	"2019-04-21T12:00:00-06:00" : {
		"windSpeed" : 2.9,
		"windDir" : 235,
		"rain" : 0,
		"cloudbase" : 4537.085,
		"flyability" : 100,
		"reason" : "",
		"timestamp" :1555869600
		},
	"2019-04-21T15:00:00-06:00" : {
		"windSpeed" : 3.8,
		"windDir" : 287,
		"rain" : 0,
		"cloudbase" : 4350,
		"flyability" : 100,
		"reason" : "",
		"timestamp" :1555880400
		},
	"2019-04-21T18:00:00-06:00" : {
		"windSpeed" : 1.4,
		"windDir" : 278,
		"rain" : 1,
		"cloudbase" : null,
		"flyability" : 0,
		"reason" : "rain",
		"timestamp" :1555891200
		},
	"2019-04-21T21:00:00-06:00" : {
		"windSpeed" : 0.8,
		"windDir" : 73,
		"rain" : 1,
		"cloudbase" : null,
		"flyability" : 0,
		"reason" : "rain",
		"timestamp" :1555902000
		},
	"2019-04-22T00:00:00-06:00" : {
		"windSpeed" : 1.5,
		"windDir" : 120,
		"rain" : 0,
		"cloudbase" : null,
		"flyability" : 100,
		"reason" : "",
		"timestamp" :1555912800
		},
	"2019-04-22T03:00:00-06:00" : {
		"windSpeed" : 1.2,
		"windDir" : 139,
		"rain" : 0,
		"cloudbase" : 51.837000000002,
		"flyability" : 0,
		"reason" : "cloudbase",
		"timestamp" :1555923600
		},
	"2019-04-22T06:00:00-06:00" : {
		"windSpeed" : 0.9,
		"windDir" : 69,
		"rain" : 0,
		"cloudbase" : 30,
		"flyability" : 0,
		"reason" : "cloudbase",
		"timestamp" :1555934400
		},
	"2019-04-22T09:00:00-06:00" : {
		"windSpeed" : 2.1,
		"windDir" : 125,
		"rain" : 0,
		"cloudbase" : 141.44275000001,
		"flyability" : 0,
		"reason" : "cloudbase",
		"timestamp" :1555945200
		},
	"2019-04-22T12:00:00-06:00" : {
		"windSpeed" : 2,
		"windDir" : 157,
		"rain" : 0,
		"cloudbase" : null,
		"flyability" : 0,
		"reason" : "windDir",
		"timestamp" :1555956000
		},
	"2019-04-22T15:00:00-06:00" : {
		"windSpeed" : 3.1,
		"windDir" : 141,
		"rain" : 0,
		"cloudbase" : 4505.7175000001,
		"flyability" : 100,
		"reason" : "",
		"timestamp" :1555966800
		},
	"2019-04-22T18:00:00-06:00" : {
		"windSpeed" : 2.3,
		"windDir" : 125,
		"rain" : 0,
		"cloudbase" : 276.85750000002,
		"flyability" : 0,
		"reason" : "cloudbase",
		"timestamp" :1555977600
		},
	"2019-04-22T21:00:00-06:00" : {
		"windSpeed" : 1,
		"windDir" : 99,
		"rain" : 0,
		"cloudbase" : 98.328750000009,
		"flyability" : 0,
		"reason" : "cloudbase",
		"timestamp" :1555988400
		},
	"2019-04-23T00:00:00-06:00" : {
		"windSpeed" : 0.9,
		"windDir" : 127,
		"rain" : 0,
		"cloudbase" : 34.67775,
		"flyability" : 0,
		"reason" : "cloudbase",
		"timestamp" :1555999200
		},
	"2019-04-23T03:00:00-06:00" : {
		"windSpeed" : 0.2,
		"windDir" : 238,
		"rain" : 0,
		"cloudbase" : 30,
		"flyability" : 0,
		"reason" : "cloudbase",
		"timestamp" :1556010000
		},
	"2019-04-23T06:00:00-06:00" : {
		"windSpeed" : 0.5,
		"windDir" : 347,
		"rain" : 0,
		"cloudbase" : 41.900000000001,
		"flyability" : 0,
		"reason" : "windDir, cloudbase",
		"timestamp" :1556020800
		},
	"2019-04-23T09:00:00-06:00" : {
		"windSpeed" : 1.2,
		"windDir" : 296,
		"rain" : 0,
		"cloudbase" : null,
		"flyability" : 100,
		"reason" : "",
		"timestamp" :1556031600
		},
	"2019-04-23T12:00:00-06:00" : {
		"windSpeed" : 1.3,
		"windDir" : 129,
		"rain" : 0,
		"cloudbase" : 6156.5124999997,
		"flyability" : 100,
		"reason" : "",
		"timestamp" :1556042400
		},
	"2019-04-23T15:00:00-06:00" : {
		"windSpeed" : 1.7,
		"windDir" : 137,
		"rain" : 0,
		"cloudbase" : null,
		"flyability" : 100,
		"reason" : "",
		"timestamp" :1556053200
		},
	"2019-04-23T18:00:00-06:00" : {
		"windSpeed" : 1.5,
		"windDir" : 130,
		"rain" : 0,
		"cloudbase" : 2150,
		"flyability" : 0,
		"reason" : "cloudbase",
		"timestamp" :1556064000
		},
	"2019-04-23T21:00:00-06:00" : {
		"windSpeed" : 0.1,
		"windDir" : 270,
		"rain" : 0,
		"cloudbase" : null,
		"flyability" : 100,
		"reason" : "",
		"timestamp" :1556074800
		},
	"2019-04-24T00:00:00-06:00" : {
		"windSpeed" : 1.3,
		"windDir" : 332,
		"rain" : 0,
		"cloudbase" : null,
		"flyability" : 100,
		"reason" : "",
		"timestamp" :1556085600
		},
	"2019-04-24T03:00:00-06:00" : {
		"windSpeed" : 1.5,
		"windDir" : 331,
		"rain" : 0,
		"cloudbase" : null,
		"flyability" : 100,
		"reason" : "",
		"timestamp" :1556096400
		},
	"2019-04-24T06:00:00-06:00" : {
		"windSpeed" : 1.6,
		"windDir" : 326,
		"rain" : 0,
		"cloudbase" : null,
		"flyability" : 100,
		"reason" : "",
		"timestamp" :1556107200
		},
	"2019-04-24T09:00:00-06:00" : {
		"windSpeed" : 2,
		"windDir" : 303,
		"rain" : 0,
		"cloudbase" : null,
		"flyability" : 100,
		"reason" : "",
		"timestamp" :1556118000
		},
	"2019-04-24T12:00:00-06:00" : {
		"windSpeed" : 2.2,
		"windDir" : 306,
		"rain" : 0,
		"cloudbase" : 8500,
		"flyability" : 100,
		"reason" : "",
		"timestamp" :1556128800
		},
	"2019-04-24T15:00:00-06:00" : {
		"windSpeed" : 2.8,
		"windDir" : 311,
		"rain" : 1,
		"cloudbase" : 2500,
		"flyability" : 0,
		"reason" : "rain, cloudbase",
		"timestamp" :1556139600
		},
	"2019-04-24T18:00:00-06:00" : {
		"windSpeed" : 2.6,
		"windDir" : 307,
		"rain" : 0,
		"cloudbase" : 1500,
		"flyability" : 0,
		"reason" : "cloudbase",
		"timestamp" :1556150400
		},
	"2019-04-24T21:00:00-06:00" : {
		"windSpeed" : 2.4,
		"windDir" : 325,
		"rain" : 0,
		"cloudbase" : null,
		"flyability" : 100,
		"reason" : "",
		"timestamp" :1556161200
		},
	"2019-04-25T00:00:00-06:00" : {
		"windSpeed" : 1.3,
		"windDir" : 332,
		"rain" : 0,
		"cloudbase" : null,
		"flyability" : 100,
		"reason" : "",
		"timestamp" :1556172000
		},
	"2019-04-25T03:00:00-06:00" : {
		"windSpeed" : 1.6,
		"windDir" : 329,
		"rain" : 0,
		"cloudbase" : null,
		"flyability" : 100,
		"reason" : "",
		"timestamp" :1556182800
		},
	"2019-04-25T06:00:00-06:00" : {
		"windSpeed" : 1,
		"windDir" : 341,
		"rain" : 0,
		"cloudbase" : null,
		"flyability" : 0,
		"reason" : "windDir",
		"timestamp" :1556193600
		},
	"2019-04-25T09:00:00-06:00" : {
		"windSpeed" : 1.4,
		"windDir" : 288,
		"rain" : 0,
		"cloudbase" : null,
		"flyability" : 100,
		"reason" : "",
		"timestamp" :1556204400
		},
	"2019-04-25T12:00:00-06:00" : {
		"windSpeed" : 2.3,
		"windDir" : 297,
		"rain" : 1,
		"cloudbase" : null,
		"flyability" : 0,
		"reason" : "rain",
		"timestamp" :1556215200
		},
	"2019-04-25T15:00:00-06:00" : {
		"windSpeed" : 3.2,
		"windDir" : 288,
		"rain" : 1,
		"cloudbase" : 7100,
		"flyability" : 0,
		"reason" : "rain",
		"timestamp" :1556226000
		},
	"2019-04-25T18:00:00-06:00" : {
		"windSpeed" : 2.5,
		"windDir" : 284,
		"rain" : 1,
		"cloudbase" : null,
		"flyability" : 0,
		"reason" : "rain",
		"timestamp" :1556236800
		},
	"2019-04-25T21:00:00-06:00" : {
		"windSpeed" : 1.6,
		"windDir" : 306,
		"rain" : 0,
		"cloudbase" : 5400,
		"flyability" : 100,
		"reason" : "",
		"timestamp" :1556247600
		},
	"2019-04-26T00:00:00-06:00" : {
		"windSpeed" : 0.9,
		"windDir" : 319,
		"rain" : 0,
		"cloudbase" : null,
		"flyability" : 100,
		"reason" : "",
		"timestamp" :1556258400
		},
	"2019-04-26T03:00:00-06:00" : {
		"windSpeed" : 1.2,
		"windDir" : 326,
		"rain" : 0,
		"cloudbase" : null,
		"flyability" : 100,
		"reason" : "",
		"timestamp" :1556269200
		},
	"2019-04-26T06:00:00-06:00" : {
		"windSpeed" : 1.3,
		"windDir" : 329,
		"rain" : 0,
		"cloudbase" : null,
		"flyability" : 100,
		"reason" : "",
		"timestamp" :1556280000
		},
	"2019-04-26T09:00:00-06:00" : {
		"windSpeed" : 1.6,
		"windDir" : 282,
		"rain" : 0,
		"cloudbase" : null,
		"flyability" : 100,
		"reason" : "",
		"timestamp" :1556290800
		},
	"2019-04-26T12:00:00-06:00" : {
		"windSpeed" : 4.4,
		"windDir" : 277,
		"rain" : 1,
		"cloudbase" : null,
		"flyability" : 0,
		"reason" : "rain",
		"timestamp" :1556301600
		},
	"2019-04-26T15:00:00-06:00" : {
		"windSpeed" : 4.5,
		"windDir" : 285,
		"rain" : 0,
		"cloudbase" : null,
		"flyability" : 100,
		"reason" : "",
		"timestamp" :1556312400
		},
	"2019-04-26T18:00:00-06:00" : {
		"windSpeed" : 4.3,
		"windDir" : 286,
		"rain" : 1,
		"cloudbase" : 5200,
		"flyability" : 0,
		"reason" : "rain",
		"timestamp" :1556323200
		}
	}
}