{
"site" : "Bourak\u00e9",
"id" : 21809,
"orientations" : "00001210",
"forecasts" : { 
	"2019-04-19T14:00:00+11:00" : {
		"windSpeed" : 6.4,
		"windDir" : 127,
		"rain" : 1,
		"cloudbase" : 2140.9375,
		"flyability" : 0,
		"reason" : "windSpeed, windDir, rain",
		"timestamp" :1555646400
		},
	"2019-04-19T17:00:00+11:00" : {
		"windSpeed" : 4.5,
		"windDir" : 139,
		"rain" : 0,
		"cloudbase" : 5013.75,
		"flyability" : 0,
		"reason" : "windDir",
		"timestamp" :1555657200
		},
	"2019-04-19T20:00:00+11:00" : {
		"windSpeed" : 4.1,
		"windDir" : 133,
		"rain" : 1,
		"cloudbase" : 4880.8125,
		"flyability" : 0,
		"reason" : "windDir, rain",
		"timestamp" :1555668000
		},
	"2019-04-19T23:00:00+11:00" : {
		"windSpeed" : 3.8,
		"windDir" : 137,
		"rain" : 1,
		"cloudbase" : 4955.125,
		"flyability" : 0,
		"reason" : "windDir, rain",
		"timestamp" :1555678800
		},
	"2019-04-20T02:00:00+11:00" : {
		"windSpeed" : 3.8,
		"windDir" : 128,
		"rain" : 0,
		"cloudbase" : null,
		"flyability" : 0,
		"reason" : "windDir",
		"timestamp" :1555689600
		},
	"2019-04-20T05:00:00+11:00" : {
		"windSpeed" : 3.7,
		"windDir" : 114,
		"rain" : 1,
		"cloudbase" : null,
		"flyability" : 0,
		"reason" : "windDir, rain",
		"timestamp" :1555700400
		},
	"2019-04-20T08:00:00+11:00" : {
		"windSpeed" : 3.1,
		"windDir" : 122,
		"rain" : 1,
		"cloudbase" : null,
		"flyability" : 0,
		"reason" : "windDir, rain",
		"timestamp" :1555711200
		},
	"2019-04-20T11:00:00+11:00" : {
		"windSpeed" : 4.9,
		"windDir" : 125,
		"rain" : 0,
		"cloudbase" : null,
		"flyability" : 0,
		"reason" : "windDir",
		"timestamp" :1555722000
		},
	"2019-04-20T14:00:00+11:00" : {
		"windSpeed" : 5.5,
		"windDir" : 129,
		"rain" : 1,
		"cloudbase" : null,
		"flyability" : 0,
		"reason" : "windSpeed, windDir, rain",
		"timestamp" :1555732800
		},
	"2019-04-20T17:00:00+11:00" : {
		"windSpeed" : 5,
		"windDir" : 128,
		"rain" : 0,
		"cloudbase" : null,
		"flyability" : 0,
		"reason" : "windDir",
		"timestamp" :1555743600
		},
	"2019-04-20T20:00:00+11:00" : {
		"windSpeed" : 4.1,
		"windDir" : 143,
		"rain" : 0,
		"cloudbase" : 11000,
		"flyability" : 0,
		"reason" : "windDir",
		"timestamp" :1555754400
		},
	"2019-04-20T23:00:00+11:00" : {
		"windSpeed" : 3.7,
		"windDir" : 128,
		"rain" : 0,
		"cloudbase" : 10518.125,
		"flyability" : 0,
		"reason" : "windDir",
		"timestamp" :1555765200
		},
	"2019-04-21T02:00:00+11:00" : {
		"windSpeed" : 3.4,
		"windDir" : 130,
		"rain" : 0,
		"cloudbase" : 9100,
		"flyability" : 0,
		"reason" : "windDir",
		"timestamp" :1555776000
		},
	"2019-04-21T05:00:00+11:00" : {
		"windSpeed" : 4.2,
		"windDir" : 124,
		"rain" : 0,
		"cloudbase" : 7943.5,
		"flyability" : 0,
		"reason" : "windDir",
		"timestamp" :1555786800
		},
	"2019-04-21T08:00:00+11:00" : {
		"windSpeed" : 3.5,
		"windDir" : 131,
		"rain" : 1,
		"cloudbase" : 8600,
		"flyability" : 0,
		"reason" : "windDir, rain",
		"timestamp" :1555797600
		},
	"2019-04-21T11:00:00+11:00" : {
		"windSpeed" : 3.8,
		"windDir" : 114,
		"rain" : 1,
		"cloudbase" : 11981.875,
		"flyability" : 0,
		"reason" : "windDir, rain",
		"timestamp" :1555808400
		},
	"2019-04-21T14:00:00+11:00" : {
		"windSpeed" : 4.4,
		"windDir" : 113,
		"rain" : 1,
		"cloudbase" : null,
		"flyability" : 0,
		"reason" : "windDir, rain",
		"timestamp" :1555819200
		},
	"2019-04-21T17:00:00+11:00" : {
		"windSpeed" : 3.6,
		"windDir" : 130,
		"rain" : 1,
		"cloudbase" : 6468.5,
		"flyability" : 0,
		"reason" : "windDir, rain",
		"timestamp" :1555830000
		},
	"2019-04-21T20:00:00+11:00" : {
		"windSpeed" : 3.7,
		"windDir" : 137,
		"rain" : 1,
		"cloudbase" : 8364.2500000001,
		"flyability" : 0,
		"reason" : "windDir, rain",
		"timestamp" :1555840800
		},
	"2019-04-21T23:00:00+11:00" : {
		"windSpeed" : 3.1,
		"windDir" : 130,
		"rain" : 1,
		"cloudbase" : 6669.4999999999,
		"flyability" : 0,
		"reason" : "windDir, rain",
		"timestamp" :1555851600
		},
	"2019-04-22T02:00:00+11:00" : {
		"windSpeed" : 3,
		"windDir" : 112,
		"rain" : 1,
		"cloudbase" : 5645.625,
		"flyability" : 0,
		"reason" : "windDir, rain",
		"timestamp" :1555862400
		},
	"2019-04-22T05:00:00+11:00" : {
		"windSpeed" : 2.8,
		"windDir" : 125,
		"rain" : 1,
		"cloudbase" : 4404.6875,
		"flyability" : 0,
		"reason" : "windDir, rain",
		"timestamp" :1555873200
		},
	"2019-04-22T08:00:00+11:00" : {
		"windSpeed" : 2.5,
		"windDir" : 113,
		"rain" : 1,
		"cloudbase" : 5094.5625,
		"flyability" : 0,
		"reason" : "windDir, rain",
		"timestamp" :1555884000
		},
	"2019-04-22T11:00:00+11:00" : {
		"windSpeed" : 5.5,
		"windDir" : 119,
		"rain" : 1,
		"cloudbase" : 5656.875,
		"flyability" : 0,
		"reason" : "windSpeed, windDir, rain",
		"timestamp" :1555894800
		},
	"2019-04-22T14:00:00+11:00" : {
		"windSpeed" : 3.2,
		"windDir" : 139,
		"rain" : 1,
		"cloudbase" : 660,
		"flyability" : 0,
		"reason" : "windDir, rain",
		"timestamp" :1555905600
		},
	"2019-04-22T17:00:00+11:00" : {
		"windSpeed" : 3,
		"windDir" : 135,
		"rain" : 1,
		"cloudbase" : 8708,
		"flyability" : 0,
		"reason" : "windDir, rain",
		"timestamp" :1555916400
		},
	"2019-04-22T20:00:00+11:00" : {
		"windSpeed" : 3.4,
		"windDir" : 124,
		"rain" : 0,
		"cloudbase" : null,
		"flyability" : 0,
		"reason" : "windDir",
		"timestamp" :1555927200
		},
	"2019-04-22T23:00:00+11:00" : {
		"windSpeed" : 2.7,
		"windDir" : 122,
		"rain" : 0,
		"cloudbase" : null,
		"flyability" : 0,
		"reason" : "windDir",
		"timestamp" :1555938000
		},
	"2019-04-23T02:00:00+11:00" : {
		"windSpeed" : 3.4,
		"windDir" : 121,
		"rain" : 0,
		"cloudbase" : null,
		"flyability" : 0,
		"reason" : "windDir",
		"timestamp" :1555948800
		},
	"2019-04-23T05:00:00+11:00" : {
		"windSpeed" : 3.2,
		"windDir" : 116,
		"rain" : 0,
		"cloudbase" : null,
		"flyability" : 0,
		"reason" : "windDir",
		"timestamp" :1555959600
		},
	"2019-04-23T08:00:00+11:00" : {
		"windSpeed" : 2.1,
		"windDir" : 122,
		"rain" : 1,
		"cloudbase" : null,
		"flyability" : 0,
		"reason" : "windDir, rain",
		"timestamp" :1555970400
		},
	"2019-04-23T11:00:00+11:00" : {
		"windSpeed" : 4.6,
		"windDir" : 157,
		"rain" : 0,
		"cloudbase" : 1400,
		"flyability" : 100,
		"reason" : "",
		"timestamp" :1555981200
		},
	"2019-04-23T14:00:00+11:00" : {
		"windSpeed" : 4.7,
		"windDir" : 135,
		"rain" : 1,
		"cloudbase" : null,
		"flyability" : 0,
		"reason" : "windDir, rain",
		"timestamp" :1555992000
		},
	"2019-04-23T17:00:00+11:00" : {
		"windSpeed" : 3.9,
		"windDir" : 124,
		"rain" : 0,
		"cloudbase" : null,
		"flyability" : 0,
		"reason" : "windDir",
		"timestamp" :1556002800
		},
	"2019-04-23T20:00:00+11:00" : {
		"windSpeed" : 4.5,
		"windDir" : 130,
		"rain" : 0,
		"cloudbase" : null,
		"flyability" : 0,
		"reason" : "windDir",
		"timestamp" :1556013600
		},
	"2019-04-23T23:00:00+11:00" : {
		"windSpeed" : 3.3,
		"windDir" : 117,
		"rain" : 0,
		"cloudbase" : null,
		"flyability" : 0,
		"reason" : "windDir",
		"timestamp" :1556024400
		},
	"2019-04-24T02:00:00+11:00" : {
		"windSpeed" : 3.4,
		"windDir" : 116,
		"rain" : 0,
		"cloudbase" : null,
		"flyability" : 0,
		"reason" : "windDir",
		"timestamp" :1556035200
		},
	"2019-04-24T05:00:00+11:00" : {
		"windSpeed" : 3.3,
		"windDir" : 117,
		"rain" : 0,
		"cloudbase" : null,
		"flyability" : 0,
		"reason" : "windDir",
		"timestamp" :1556046000
		},
	"2019-04-24T08:00:00+11:00" : {
		"windSpeed" : 3.2,
		"windDir" : 125,
		"rain" : 0,
		"cloudbase" : null,
		"flyability" : 0,
		"reason" : "windDir",
		"timestamp" :1556056800
		},
	"2019-04-24T11:00:00+11:00" : {
		"windSpeed" : 5.9,
		"windDir" : 147,
		"rain" : 1,
		"cloudbase" : 1500,
		"flyability" : 0,
		"reason" : "windSpeed, windDir, rain",
		"timestamp" :1556067600
		},
	"2019-04-24T14:00:00+11:00" : {
		"windSpeed" : 5.5,
		"windDir" : 137,
		"rain" : 1,
		"cloudbase" : null,
		"flyability" : 0,
		"reason" : "windSpeed, windDir, rain",
		"timestamp" :1556078400
		},
	"2019-04-24T17:00:00+11:00" : {
		"windSpeed" : 5.3,
		"windDir" : 137,
		"rain" : 0,
		"cloudbase" : null,
		"flyability" : 0,
		"reason" : "windSpeed, windDir",
		"timestamp" :1556089200
		},
	"2019-04-24T20:00:00+11:00" : {
		"windSpeed" : 4.8,
		"windDir" : 123,
		"rain" : 1,
		"cloudbase" : null,
		"flyability" : 0,
		"reason" : "windDir, rain",
		"timestamp" :1556100000
		},
	"2019-04-24T23:00:00+11:00" : {
		"windSpeed" : 2.6,
		"windDir" : 100,
		"rain" : 0,
		"cloudbase" : null,
		"flyability" : 0,
		"reason" : "windDir",
		"timestamp" :1556110800
		},
	"2019-04-25T02:00:00+11:00" : {
		"windSpeed" : 1.8,
		"windDir" : 86,
		"rain" : 0,
		"cloudbase" : null,
		"flyability" : 0,
		"reason" : "windDir",
		"timestamp" :1556121600
		},
	"2019-04-25T05:00:00+11:00" : {
		"windSpeed" : 1.8,
		"windDir" : 83,
		"rain" : 1,
		"cloudbase" : null,
		"flyability" : 0,
		"reason" : "windDir, rain",
		"timestamp" :1556132400
		},
	"2019-04-25T08:00:00+11:00" : {
		"windSpeed" : 2.1,
		"windDir" : 120,
		"rain" : 0,
		"cloudbase" : null,
		"flyability" : 0,
		"reason" : "windDir",
		"timestamp" :1556143200
		},
	"2019-04-25T11:00:00+11:00" : {
		"windSpeed" : 4.1,
		"windDir" : 149,
		"rain" : 0,
		"cloudbase" : null,
		"flyability" : 0,
		"reason" : "windDir",
		"timestamp" :1556154000
		}
	}
}