{
"site" : "Ouano",
"id" : 21812,
"orientations" : "00122100",
"forecasts" : { 
	"2019-04-19T14:00:00+11:00" : {
		"windSpeed" : 8.1,
		"windDir" : 124,
		"rain" : 1,
		"cloudbase" : 2224.755,
		"flyability" : 0,
		"reason" : "windSpeed, rain",
		"timestamp" :1555646400
		},
	"2019-04-19T17:00:00+11:00" : {
		"windSpeed" : 6,
		"windDir" : 130,
		"rain" : 1,
		"cloudbase" : 4150.3249999999,
		"flyability" : 0,
		"reason" : "windSpeed, rain",
		"timestamp" :1555657200
		},
	"2019-04-19T20:00:00+11:00" : {
		"windSpeed" : 4.7,
		"windDir" : 118,
		"rain" : 1,
		"cloudbase" : 4846.755,
		"flyability" : 0,
		"reason" : "rain",
		"timestamp" :1555668000
		},
	"2019-04-19T23:00:00+11:00" : {
		"windSpeed" : 4.5,
		"windDir" : 121,
		"rain" : 0,
		"cloudbase" : 5000,
		"flyability" : 100,
		"reason" : "",
		"timestamp" :1555678800
		},
	"2019-04-20T02:00:00+11:00" : {
		"windSpeed" : 4.2,
		"windDir" : 114,
		"rain" : 0,
		"cloudbase" : null,
		"flyability" : 100,
		"reason" : "",
		"timestamp" :1555689600
		},
	"2019-04-20T05:00:00+11:00" : {
		"windSpeed" : 4.5,
		"windDir" : 111,
		"rain" : 0,
		"cloudbase" : null,
		"flyability" : 100,
		"reason" : "",
		"timestamp" :1555700400
		},
	"2019-04-20T08:00:00+11:00" : {
		"windSpeed" : 4.2,
		"windDir" : 100,
		"rain" : 1,
		"cloudbase" : null,
		"flyability" : 0,
		"reason" : "rain",
		"timestamp" :1555711200
		},
	"2019-04-20T11:00:00+11:00" : {
		"windSpeed" : 5.9,
		"windDir" : 132,
		"rain" : 0,
		"cloudbase" : null,
		"flyability" : 0,
		"reason" : "windSpeed",
		"timestamp" :1555722000
		},
	"2019-04-20T14:00:00+11:00" : {
		"windSpeed" : 7.6,
		"windDir" : 128,
		"rain" : 1,
		"cloudbase" : null,
		"flyability" : 0,
		"reason" : "windSpeed, rain",
		"timestamp" :1555732800
		},
	"2019-04-20T17:00:00+11:00" : {
		"windSpeed" : 6.2,
		"windDir" : 121,
		"rain" : 1,
		"cloudbase" : null,
		"flyability" : 0,
		"reason" : "windSpeed, rain",
		"timestamp" :1555743600
		},
	"2019-04-20T20:00:00+11:00" : {
		"windSpeed" : 4.6,
		"windDir" : 125,
		"rain" : 0,
		"cloudbase" : null,
		"flyability" : 100,
		"reason" : "",
		"timestamp" :1555754400
		},
	"2019-04-20T23:00:00+11:00" : {
		"windSpeed" : 4.4,
		"windDir" : 109,
		"rain" : 0,
		"cloudbase" : 10500,
		"flyability" : 100,
		"reason" : "",
		"timestamp" :1555765200
		},
	"2019-04-21T02:00:00+11:00" : {
		"windSpeed" : 4,
		"windDir" : 107,
		"rain" : 0,
		"cloudbase" : 9057.52,
		"flyability" : 100,
		"reason" : "",
		"timestamp" :1555776000
		},
	"2019-04-21T05:00:00+11:00" : {
		"windSpeed" : 4.7,
		"windDir" : 113,
		"rain" : 0,
		"cloudbase" : 7737.7500000001,
		"flyability" : 100,
		"reason" : "",
		"timestamp" :1555786800
		},
	"2019-04-21T08:00:00+11:00" : {
		"windSpeed" : 4.8,
		"windDir" : 109,
		"rain" : 0,
		"cloudbase" : 8800,
		"flyability" : 100,
		"reason" : "",
		"timestamp" :1555797600
		},
	"2019-04-21T11:00:00+11:00" : {
		"windSpeed" : 4.8,
		"windDir" : 119,
		"rain" : 1,
		"cloudbase" : 10500,
		"flyability" : 0,
		"reason" : "rain",
		"timestamp" :1555808400
		},
	"2019-04-21T14:00:00+11:00" : {
		"windSpeed" : 5.2,
		"windDir" : 117,
		"rain" : 1,
		"cloudbase" : 2150,
		"flyability" : 0,
		"reason" : "windSpeed, rain",
		"timestamp" :1555819200
		},
	"2019-04-21T17:00:00+11:00" : {
		"windSpeed" : 4,
		"windDir" : 117,
		"rain" : 1,
		"cloudbase" : 6540.48,
		"flyability" : 0,
		"reason" : "rain",
		"timestamp" :1555830000
		},
	"2019-04-21T20:00:00+11:00" : {
		"windSpeed" : 4.9,
		"windDir" : 119,
		"rain" : 1,
		"cloudbase" : 5763.4399999998,
		"flyability" : 0,
		"reason" : "rain",
		"timestamp" :1555840800
		},
	"2019-04-21T23:00:00+11:00" : {
		"windSpeed" : 3.6,
		"windDir" : 110,
		"rain" : 1,
		"cloudbase" : 9626.2100000002,
		"flyability" : 0,
		"reason" : "rain",
		"timestamp" :1555851600
		},
	"2019-04-22T02:00:00+11:00" : {
		"windSpeed" : 3.1,
		"windDir" : 102,
		"rain" : 1,
		"cloudbase" : 5461.95,
		"flyability" : 0,
		"reason" : "rain",
		"timestamp" :1555862400
		},
	"2019-04-22T05:00:00+11:00" : {
		"windSpeed" : 3.3,
		"windDir" : 110,
		"rain" : 1,
		"cloudbase" : 5650.6849999999,
		"flyability" : 0,
		"reason" : "rain",
		"timestamp" :1555873200
		},
	"2019-04-22T08:00:00+11:00" : {
		"windSpeed" : 3.6,
		"windDir" : 96,
		"rain" : 1,
		"cloudbase" : 5238.0600000001,
		"flyability" : 0,
		"reason" : "rain",
		"timestamp" :1555884000
		},
	"2019-04-22T11:00:00+11:00" : {
		"windSpeed" : 5.5,
		"windDir" : 110,
		"rain" : 1,
		"cloudbase" : 6313.52,
		"flyability" : 0,
		"reason" : "windSpeed, rain",
		"timestamp" :1555894800
		},
	"2019-04-22T14:00:00+11:00" : {
		"windSpeed" : 3.9,
		"windDir" : 134,
		"rain" : 1,
		"cloudbase" : 5300,
		"flyability" : 0,
		"reason" : "rain",
		"timestamp" :1555905600
		},
	"2019-04-22T17:00:00+11:00" : {
		"windSpeed" : 4,
		"windDir" : 135,
		"rain" : 1,
		"cloudbase" : 7324.0200000001,
		"flyability" : 0,
		"reason" : "rain",
		"timestamp" :1555916400
		},
	"2019-04-22T20:00:00+11:00" : {
		"windSpeed" : 4.5,
		"windDir" : 118,
		"rain" : 0,
		"cloudbase" : null,
		"flyability" : 100,
		"reason" : "",
		"timestamp" :1555927200
		},
	"2019-04-22T23:00:00+11:00" : {
		"windSpeed" : 2.8,
		"windDir" : 107,
		"rain" : 0,
		"cloudbase" : null,
		"flyability" : 100,
		"reason" : "",
		"timestamp" :1555938000
		},
	"2019-04-23T02:00:00+11:00" : {
		"windSpeed" : 3.7,
		"windDir" : 103,
		"rain" : 0,
		"cloudbase" : null,
		"flyability" : 100,
		"reason" : "",
		"timestamp" :1555948800
		},
	"2019-04-23T05:00:00+11:00" : {
		"windSpeed" : 3.9,
		"windDir" : 102,
		"rain" : 0,
		"cloudbase" : null,
		"flyability" : 100,
		"reason" : "",
		"timestamp" :1555959600
		},
	"2019-04-23T08:00:00+11:00" : {
		"windSpeed" : 2.6,
		"windDir" : 98,
		"rain" : 0,
		"cloudbase" : null,
		"flyability" : 100,
		"reason" : "",
		"timestamp" :1555970400
		},
	"2019-04-23T11:00:00+11:00" : {
		"windSpeed" : 5.6,
		"windDir" : 149,
		"rain" : 1,
		"cloudbase" : null,
		"flyability" : 0,
		"reason" : "windSpeed, rain",
		"timestamp" :1555981200
		},
	"2019-04-23T14:00:00+11:00" : {
		"windSpeed" : 6.3,
		"windDir" : 133,
		"rain" : 1,
		"cloudbase" : 4250,
		"flyability" : 0,
		"reason" : "windSpeed, rain",
		"timestamp" :1555992000
		},
	"2019-04-23T17:00:00+11:00" : {
		"windSpeed" : 5.1,
		"windDir" : 123,
		"rain" : 0,
		"cloudbase" : null,
		"flyability" : 0,
		"reason" : "windSpeed",
		"timestamp" :1556002800
		},
	"2019-04-23T20:00:00+11:00" : {
		"windSpeed" : 5.3,
		"windDir" : 118,
		"rain" : 0,
		"cloudbase" : null,
		"flyability" : 0,
		"reason" : "windSpeed",
		"timestamp" :1556013600
		},
	"2019-04-23T23:00:00+11:00" : {
		"windSpeed" : 4.4,
		"windDir" : 111,
		"rain" : 0,
		"cloudbase" : null,
		"flyability" : 100,
		"reason" : "",
		"timestamp" :1556024400
		},
	"2019-04-24T02:00:00+11:00" : {
		"windSpeed" : 4.9,
		"windDir" : 109,
		"rain" : 0,
		"cloudbase" : null,
		"flyability" : 100,
		"reason" : "",
		"timestamp" :1556035200
		},
	"2019-04-24T05:00:00+11:00" : {
		"windSpeed" : 4.4,
		"windDir" : 105,
		"rain" : 0,
		"cloudbase" : null,
		"flyability" : 100,
		"reason" : "",
		"timestamp" :1556046000
		},
	"2019-04-24T08:00:00+11:00" : {
		"windSpeed" : 4,
		"windDir" : 106,
		"rain" : 0,
		"cloudbase" : null,
		"flyability" : 100,
		"reason" : "",
		"timestamp" :1556056800
		},
	"2019-04-24T11:00:00+11:00" : {
		"windSpeed" : 6.6,
		"windDir" : 145,
		"rain" : 0,
		"cloudbase" : null,
		"flyability" : 0,
		"reason" : "windSpeed",
		"timestamp" :1556067600
		},
	"2019-04-24T14:00:00+11:00" : {
		"windSpeed" : 7.3,
		"windDir" : 135,
		"rain" : 1,
		"cloudbase" : null,
		"flyability" : 0,
		"reason" : "windSpeed, rain",
		"timestamp" :1556078400
		},
	"2019-04-24T17:00:00+11:00" : {
		"windSpeed" : 7.2,
		"windDir" : 135,
		"rain" : 0,
		"cloudbase" : null,
		"flyability" : 0,
		"reason" : "windSpeed",
		"timestamp" :1556089200
		},
	"2019-04-24T20:00:00+11:00" : {
		"windSpeed" : 6.5,
		"windDir" : 121,
		"rain" : 0,
		"cloudbase" : null,
		"flyability" : 0,
		"reason" : "windSpeed",
		"timestamp" :1556100000
		},
	"2019-04-24T23:00:00+11:00" : {
		"windSpeed" : 4.2,
		"windDir" : 106,
		"rain" : 0,
		"cloudbase" : null,
		"flyability" : 100,
		"reason" : "",
		"timestamp" :1556110800
		},
	"2019-04-25T02:00:00+11:00" : {
		"windSpeed" : 2.6,
		"windDir" : 90,
		"rain" : 0,
		"cloudbase" : null,
		"flyability" : 100,
		"reason" : "",
		"timestamp" :1556121600
		},
	"2019-04-25T05:00:00+11:00" : {
		"windSpeed" : 2.6,
		"windDir" : 82,
		"rain" : 0,
		"cloudbase" : null,
		"flyability" : 100,
		"reason" : "",
		"timestamp" :1556132400
		},
	"2019-04-25T08:00:00+11:00" : {
		"windSpeed" : 2.5,
		"windDir" : 98,
		"rain" : 0,
		"cloudbase" : null,
		"flyability" : 100,
		"reason" : "",
		"timestamp" :1556143200
		},
	"2019-04-25T11:00:00+11:00" : {
		"windSpeed" : 4.1,
		"windDir" : 141,
		"rain" : 1,
		"cloudbase" : null,
		"flyability" : 0,
		"reason" : "rain",
		"timestamp" :1556154000
		}
	}
}