{
"site" : "Car\u00ec, diint",
"id" : 21833,
"orientations" : "00012100",
"forecasts" : { 
	"2019-04-18T05:00:00+02:00" : {
		"windSpeed" : 0.5,
		"windDir" : 14,
		"rain" : 0,
		"cloudbase" : null,
		"flyability" : 0,
		"reason" : "windDir",
		"timestamp" :1555560000
		},
	"2019-04-18T08:00:00+02:00" : {
		"windSpeed" : 0.5,
		"windDir" : 14,
		"rain" : 0,
		"cloudbase" : 8400,
		"flyability" : 0,
		"reason" : "windDir",
		"timestamp" :1555570800
		},
	"2019-04-18T11:00:00+02:00" : {
		"windSpeed" : 1.5,
		"windDir" : 180,
		"rain" : 1,
		"cloudbase" : 557.81432799998,
		"flyability" : 0,
		"reason" : "rain, cloudbase",
		"timestamp" :1555581600
		},
	"2019-04-18T14:00:00+02:00" : {
		"windSpeed" : 1.1,
		"windDir" : 180,
		"rain" : 1,
		"cloudbase" : 367.61630399997,
		"flyability" : 0,
		"reason" : "rain, cloudbase",
		"timestamp" :1555592400
		},
	"2019-04-18T17:00:00+02:00" : {
		"windSpeed" : 1,
		"windDir" : 179,
		"rain" : 1,
		"cloudbase" : 350,
		"flyability" : 0,
		"reason" : "rain, cloudbase",
		"timestamp" :1555603200
		},
	"2019-04-18T20:00:00+02:00" : {
		"windSpeed" : 1.1,
		"windDir" : 154,
		"rain" : 0,
		"cloudbase" : 440,
		"flyability" : 0,
		"reason" : "cloudbase",
		"timestamp" :1555614000
		},
	"2019-04-18T23:00:00+02:00" : {
		"windSpeed" : 1.6,
		"windDir" : 161,
		"rain" : 0,
		"cloudbase" : 481.51146799996,
		"flyability" : 0,
		"reason" : "cloudbase",
		"timestamp" :1555624800
		},
	"2019-04-19T02:00:00+02:00" : {
		"windSpeed" : 1.6,
		"windDir" : 161,
		"rain" : 1,
		"cloudbase" : 85.461973999988,
		"flyability" : 0,
		"reason" : "rain, cloudbase",
		"timestamp" :1555635600
		},
	"2019-04-19T05:00:00+02:00" : {
		"windSpeed" : 1.1,
		"windDir" : 160,
		"rain" : 1,
		"cloudbase" : 36.439999999991,
		"flyability" : 0,
		"reason" : "rain, cloudbase",
		"timestamp" :1555646400
		},
	"2019-04-19T08:00:00+02:00" : {
		"windSpeed" : 1,
		"windDir" : 180,
		"rain" : 1,
		"cloudbase" : 50.349999999985,
		"flyability" : 0,
		"reason" : "rain, cloudbase",
		"timestamp" :1555657200
		},
	"2019-04-19T11:00:00+02:00" : {
		"windSpeed" : 1,
		"windDir" : 180,
		"rain" : 1,
		"cloudbase" : 571.954784,
		"flyability" : 0,
		"reason" : "rain, cloudbase",
		"timestamp" :1555668000
		},
	"2019-04-19T14:00:00+02:00" : {
		"windSpeed" : 1,
		"windDir" : 188,
		"rain" : 0,
		"cloudbase" : 498.67796199999,
		"flyability" : 0,
		"reason" : "cloudbase",
		"timestamp" :1555678800
		},
	"2019-04-19T17:00:00+02:00" : {
		"windSpeed" : 1,
		"windDir" : 180,
		"rain" : 0,
		"cloudbase" : 573.364,
		"flyability" : 0,
		"reason" : "cloudbase",
		"timestamp" :1555689600
		},
	"2019-04-19T20:00:00+02:00" : {
		"windSpeed" : 0.5,
		"windDir" : 14,
		"rain" : 0,
		"cloudbase" : 5705.83924,
		"flyability" : 0,
		"reason" : "windDir",
		"timestamp" :1555700400
		},
	"2019-04-19T23:00:00+02:00" : {
		"windSpeed" : 0.5,
		"windDir" : 13,
		"rain" : 0,
		"cloudbase" : 5200,
		"flyability" : 0,
		"reason" : "windDir",
		"timestamp" :1555711200
		},
	"2019-04-20T02:00:00+02:00" : {
		"windSpeed" : 1,
		"windDir" : 7,
		"rain" : 0,
		"cloudbase" : 5229.85962,
		"flyability" : 0,
		"reason" : "windDir",
		"timestamp" :1555722000
		},
	"2019-04-20T05:00:00+02:00" : {
		"windSpeed" : 1,
		"windDir" : 347,
		"rain" : 0,
		"cloudbase" : 4900,
		"flyability" : 0,
		"reason" : "windDir",
		"timestamp" :1555732800
		},
	"2019-04-20T08:00:00+02:00" : {
		"windSpeed" : 1.4,
		"windDir" : 350,
		"rain" : 0,
		"cloudbase" : 1228.3440939997,
		"flyability" : 0,
		"reason" : "windDir, cloudbase",
		"timestamp" :1555743600
		},
	"2019-04-20T11:00:00+02:00" : {
		"windSpeed" : 0.6,
		"windDir" : 144,
		"rain" : 0,
		"cloudbase" : 5229.85962,
		"flyability" : 100,
		"reason" : "",
		"timestamp" :1555754400
		},
	"2019-04-20T14:00:00+02:00" : {
		"windSpeed" : 0.5,
		"windDir" : 181,
		"rain" : 0,
		"cloudbase" : 5586.41551,
		"flyability" : 100,
		"reason" : "",
		"timestamp" :1555765200
		},
	"2019-04-20T17:00:00+02:00" : {
		"windSpeed" : 1.1,
		"windDir" : 206,
		"rain" : 0,
		"cloudbase" : 5227.55962,
		"flyability" : 100,
		"reason" : "",
		"timestamp" :1555776000
		},
	"2019-04-20T20:00:00+02:00" : {
		"windSpeed" : 0,
		"windDir" : 270,
		"rain" : 0,
		"cloudbase" : null,
		"flyability" : 0,
		"reason" : "windDir",
		"timestamp" :1555786800
		},
	"2019-04-20T23:00:00+02:00" : {
		"windSpeed" : 0.2,
		"windDir" : 41,
		"rain" : 0,
		"cloudbase" : null,
		"flyability" : 0,
		"reason" : "windDir",
		"timestamp" :1555797600
		},
	"2019-04-21T02:00:00+02:00" : {
		"windSpeed" : 1,
		"windDir" : 7,
		"rain" : 0,
		"cloudbase" : null,
		"flyability" : 0,
		"reason" : "windDir",
		"timestamp" :1555808400
		},
	"2019-04-21T05:00:00+02:00" : {
		"windSpeed" : 1.5,
		"windDir" : 351,
		"rain" : 0,
		"cloudbase" : 7670.31886,
		"flyability" : 0,
		"reason" : "windDir",
		"timestamp" :1555819200
		},
	"2019-04-21T08:00:00+02:00" : {
		"windSpeed" : 1,
		"windDir" : 7,
		"rain" : 0,
		"cloudbase" : 6900,
		"flyability" : 0,
		"reason" : "windDir",
		"timestamp" :1555830000
		},
	"2019-04-21T11:00:00+02:00" : {
		"windSpeed" : 0.6,
		"windDir" : 145,
		"rain" : 0,
		"cloudbase" : 8400,
		"flyability" : 100,
		"reason" : "",
		"timestamp" :1555840800
		},
	"2019-04-21T14:00:00+02:00" : {
		"windSpeed" : 1.1,
		"windDir" : 206,
		"rain" : 0,
		"cloudbase" : 8700,
		"flyability" : 100,
		"reason" : "",
		"timestamp" :1555851600
		},
	"2019-04-21T17:00:00+02:00" : {
		"windSpeed" : 1.5,
		"windDir" : 180,
		"rain" : 0,
		"cloudbase" : 1750,
		"flyability" : 100,
		"reason" : "",
		"timestamp" :1555862400
		},
	"2019-04-21T20:00:00+02:00" : {
		"windSpeed" : 1.5,
		"windDir" : 166,
		"rain" : 0,
		"cloudbase" : null,
		"flyability" : 100,
		"reason" : "",
		"timestamp" :1555873200
		},
	"2019-04-21T23:00:00+02:00" : {
		"windSpeed" : 1.5,
		"windDir" : 175,
		"rain" : 0,
		"cloudbase" : null,
		"flyability" : 100,
		"reason" : "",
		"timestamp" :1555884000
		},
	"2019-04-22T02:00:00+02:00" : {
		"windSpeed" : 1.3,
		"windDir" : 190,
		"rain" : 0,
		"cloudbase" : 8673.89178,
		"flyability" : 100,
		"reason" : "",
		"timestamp" :1555894800
		},
	"2019-04-22T05:00:00+02:00" : {
		"windSpeed" : 0.8,
		"windDir" : 128,
		"rain" : 0,
		"cloudbase" : 8193.71962,
		"flyability" : 100,
		"reason" : "",
		"timestamp" :1555905600
		},
	"2019-04-22T08:00:00+02:00" : {
		"windSpeed" : 0.9,
		"windDir" : 163,
		"rain" : 0,
		"cloudbase" : 7700,
		"flyability" : 100,
		"reason" : "",
		"timestamp" :1555916400
		},
	"2019-04-22T11:00:00+02:00" : {
		"windSpeed" : 1.5,
		"windDir" : 180,
		"rain" : 0,
		"cloudbase" : 5146.8238,
		"flyability" : 100,
		"reason" : "",
		"timestamp" :1555927200
		},
	"2019-04-22T14:00:00+02:00" : {
		"windSpeed" : 2.1,
		"windDir" : 180,
		"rain" : 0,
		"cloudbase" : 4652.67988,
		"flyability" : 100,
		"reason" : "",
		"timestamp" :1555938000
		},
	"2019-04-22T17:00:00+02:00" : {
		"windSpeed" : 1.5,
		"windDir" : 180,
		"rain" : 0,
		"cloudbase" : 1408.01,
		"flyability" : 0,
		"reason" : "cloudbase",
		"timestamp" :1555948800
		},
	"2019-04-22T20:00:00+02:00" : {
		"windSpeed" : 1.1,
		"windDir" : 160,
		"rain" : 1,
		"cloudbase" : 696.24792399999,
		"flyability" : 0,
		"reason" : "rain, cloudbase",
		"timestamp" :1555959600
		},
	"2019-04-22T23:00:00+02:00" : {
		"windSpeed" : 1.1,
		"windDir" : 160,
		"rain" : 0,
		"cloudbase" : 608.847924,
		"flyability" : 0,
		"reason" : "cloudbase",
		"timestamp" :1555970400
		},
	"2019-04-23T02:00:00+02:00" : {
		"windSpeed" : 1,
		"windDir" : 180,
		"rain" : 1,
		"cloudbase" : 129.639544,
		"flyability" : 0,
		"reason" : "rain, cloudbase",
		"timestamp" :1555981200
		},
	"2019-04-23T05:00:00+02:00" : {
		"windSpeed" : 1.3,
		"windDir" : 181,
		"rain" : 0,
		"cloudbase" : 94.701557999989,
		"flyability" : 0,
		"reason" : "cloudbase",
		"timestamp" :1555992000
		},
	"2019-04-23T08:00:00+02:00" : {
		"windSpeed" : 0,
		"windDir" : 340,
		"rain" : 0,
		"cloudbase" : 608.09687400002,
		"flyability" : 0,
		"reason" : "windDir, cloudbase",
		"timestamp" :1556002800
		},
	"2019-04-23T11:00:00+02:00" : {
		"windSpeed" : 1.5,
		"windDir" : 181,
		"rain" : 1,
		"cloudbase" : 308.05525399999,
		"flyability" : 0,
		"reason" : "rain, cloudbase",
		"timestamp" :1556013600
		},
	"2019-04-23T14:00:00+02:00" : {
		"windSpeed" : 2,
		"windDir" : 181,
		"rain" : 1,
		"cloudbase" : 209.62565799999,
		"flyability" : 0,
		"reason" : "rain, cloudbase",
		"timestamp" :1556024400
		},
	"2019-04-23T17:00:00+02:00" : {
		"windSpeed" : 1.1,
		"windDir" : 181,
		"rain" : 1,
		"cloudbase" : 110.359981,
		"flyability" : 0,
		"reason" : "rain, cloudbase",
		"timestamp" :1556035200
		},
	"2019-04-23T20:00:00+02:00" : {
		"windSpeed" : 1,
		"windDir" : 180,
		"rain" : 1,
		"cloudbase" : 40.803037999992,
		"flyability" : 0,
		"reason" : "rain, cloudbase",
		"timestamp" :1556046000
		},
	"2019-04-23T23:00:00+02:00" : {
		"windSpeed" : 0.5,
		"windDir" : 181,
		"rain" : 1,
		"cloudbase" : 47.881961999989,
		"flyability" : 0,
		"reason" : "rain, cloudbase",
		"timestamp" :1556056800
		},
	"2019-04-24T02:00:00+02:00" : {
		"windSpeed" : 0.8,
		"windDir" : 180,
		"rain" : 1,
		"cloudbase" : 98.853695999993,
		"flyability" : 0,
		"reason" : "rain, cloudbase",
		"timestamp" :1556067600
		}
	}
}