{
"site" : "Octon",
"id" : 21907,
"orientations" : "01221000",
"forecasts" : { 
	"2019-04-21T05:00:00+02:00" : {
		"windSpeed" : 4.2,
		"windDir" : 356,
		"rain" : 1,
		"cloudbase" : 3422.35681,
		"flyability" : 0,
		"reason" : "windDir, rain",
		"timestamp" :1555819200
		},
	"2019-04-21T08:00:00+02:00" : {
		"windSpeed" : 2.7,
		"windDir" : 5,
		"rain" : 1,
		"cloudbase" : 3450.33638,
		"flyability" : 0,
		"reason" : "windDir, rain",
		"timestamp" :1555830000
		},
	"2019-04-21T11:00:00+02:00" : {
		"windSpeed" : 2.6,
		"windDir" : 107,
		"rain" : 1,
		"cloudbase" : 2221.76819,
		"flyability" : 0,
		"reason" : "rain",
		"timestamp" :1555840800
		},
	"2019-04-21T14:00:00+02:00" : {
		"windSpeed" : 5.3,
		"windDir" : 93,
		"rain" : 1,
		"cloudbase" : 2823.485,
		"flyability" : 0,
		"reason" : "windSpeed, rain",
		"timestamp" :1555851600
		},
	"2019-04-21T17:00:00+02:00" : {
		"windSpeed" : 3.2,
		"windDir" : 68,
		"rain" : 1,
		"cloudbase" : 3025.20181,
		"flyability" : 0,
		"reason" : "rain",
		"timestamp" :1555862400
		},
	"2019-04-21T20:00:00+02:00" : {
		"windSpeed" : 1.8,
		"windDir" : 57,
		"rain" : 0,
		"cloudbase" : null,
		"flyability" : 100,
		"reason" : "",
		"timestamp" :1555873200
		},
	"2019-04-21T23:00:00+02:00" : {
		"windSpeed" : 3.1,
		"windDir" : 45,
		"rain" : 0,
		"cloudbase" : 3153.77,
		"flyability" : 100,
		"reason" : "",
		"timestamp" :1555884000
		},
	"2019-04-22T02:00:00+02:00" : {
		"windSpeed" : 3.6,
		"windDir" : 78,
		"rain" : 0,
		"cloudbase" : 9600,
		"flyability" : 100,
		"reason" : "",
		"timestamp" :1555894800
		},
	"2019-04-22T05:00:00+02:00" : {
		"windSpeed" : 3,
		"windDir" : 35,
		"rain" : 1,
		"cloudbase" : 10071.61086,
		"flyability" : 0,
		"reason" : "rain",
		"timestamp" :1555905600
		},
	"2019-04-22T08:00:00+02:00" : {
		"windSpeed" : 2.6,
		"windDir" : 42,
		"rain" : 0,
		"cloudbase" : 8546.97,
		"flyability" : 100,
		"reason" : "",
		"timestamp" :1555916400
		},
	"2019-04-22T11:00:00+02:00" : {
		"windSpeed" : 4.5,
		"windDir" : 96,
		"rain" : 0,
		"cloudbase" : 8600.37,
		"flyability" : 100,
		"reason" : "",
		"timestamp" :1555927200
		},
	"2019-04-22T14:00:00+02:00" : {
		"windSpeed" : 3.6,
		"windDir" : 146,
		"rain" : 0,
		"cloudbase" : 9606.8,
		"flyability" : 100,
		"reason" : "",
		"timestamp" :1555938000
		},
	"2019-04-22T17:00:00+02:00" : {
		"windSpeed" : 4.2,
		"windDir" : 180,
		"rain" : 0,
		"cloudbase" : null,
		"flyability" : 100,
		"reason" : "",
		"timestamp" :1555948800
		},
	"2019-04-22T20:00:00+02:00" : {
		"windSpeed" : 2.9,
		"windDir" : 164,
		"rain" : 0,
		"cloudbase" : 7403.36638,
		"flyability" : 100,
		"reason" : "",
		"timestamp" :1555959600
		},
	"2019-04-22T23:00:00+02:00" : {
		"windSpeed" : 1.3,
		"windDir" : 22,
		"rain" : 1,
		"cloudbase" : 1820.455,
		"flyability" : 0,
		"reason" : "windDir, rain",
		"timestamp" :1555970400
		},
	"2019-04-23T02:00:00+02:00" : {
		"windSpeed" : 2.3,
		"windDir" : 58,
		"rain" : 1,
		"cloudbase" : 1521.95319,
		"flyability" : 0,
		"reason" : "rain",
		"timestamp" :1555981200
		},
	"2019-04-23T05:00:00+02:00" : {
		"windSpeed" : 1.2,
		"windDir" : 357,
		"rain" : 1,
		"cloudbase" : 1471.98681,
		"flyability" : 0,
		"reason" : "windDir, rain",
		"timestamp" :1555992000
		},
	"2019-04-23T08:00:00+02:00" : {
		"windSpeed" : 2.3,
		"windDir" : 41,
		"rain" : 1,
		"cloudbase" : 1246.97,
		"flyability" : 0,
		"reason" : "rain",
		"timestamp" :1556002800
		},
	"2019-04-23T11:00:00+02:00" : {
		"windSpeed" : 3.3,
		"windDir" : 67,
		"rain" : 1,
		"cloudbase" : 984.24999999998,
		"flyability" : 0,
		"reason" : "rain",
		"timestamp" :1556013600
		},
	"2019-04-23T14:00:00+02:00" : {
		"windSpeed" : 3.3,
		"windDir" : 94,
		"rain" : 1,
		"cloudbase" : 1374.0277599999,
		"flyability" : 0,
		"reason" : "rain",
		"timestamp" :1556024400
		},
	"2019-04-23T17:00:00+02:00" : {
		"windSpeed" : 4.6,
		"windDir" : 102,
		"rain" : 1,
		"cloudbase" : 330.07737999998,
		"flyability" : 0,
		"reason" : "rain, cloudbase",
		"timestamp" :1556035200
		},
	"2019-04-23T20:00:00+02:00" : {
		"windSpeed" : 4.7,
		"windDir" : 105,
		"rain" : 1,
		"cloudbase" : 83.235956999991,
		"flyability" : 0,
		"reason" : "rain, cloudbase",
		"timestamp" :1556046000
		},
	"2019-04-23T23:00:00+02:00" : {
		"windSpeed" : 3.5,
		"windDir" : 112,
		"rain" : 1,
		"cloudbase" : 34.996637999999,
		"flyability" : 0,
		"reason" : "rain, cloudbase",
		"timestamp" :1556056800
		},
	"2019-04-24T02:00:00+02:00" : {
		"windSpeed" : 4.5,
		"windDir" : 109,
		"rain" : 0,
		"cloudbase" : 151.78746599998,
		"flyability" : 0,
		"reason" : "cloudbase",
		"timestamp" :1556067600
		},
	"2019-04-24T05:00:00+02:00" : {
		"windSpeed" : 5.4,
		"windDir" : 124,
		"rain" : 0,
		"cloudbase" : 100.17506099999,
		"flyability" : 0,
		"reason" : "windSpeed, cloudbase",
		"timestamp" :1556078400
		},
	"2019-04-24T08:00:00+02:00" : {
		"windSpeed" : 5.9,
		"windDir" : 158,
		"rain" : 1,
		"cloudbase" : 51.016637999998,
		"flyability" : 0,
		"reason" : "windSpeed, rain, cloudbase",
		"timestamp" :1556089200
		},
	"2019-04-24T11:00:00+02:00" : {
		"windSpeed" : 4.7,
		"windDir" : 164,
		"rain" : 1,
		"cloudbase" : 8300,
		"flyability" : 0,
		"reason" : "rain",
		"timestamp" :1556100000
		},
	"2019-04-24T14:00:00+02:00" : {
		"windSpeed" : 8.7,
		"windDir" : 162,
		"rain" : 0,
		"cloudbase" : null,
		"flyability" : 0,
		"reason" : "windSpeed",
		"timestamp" :1556110800
		},
	"2019-04-24T17:00:00+02:00" : {
		"windSpeed" : 7.9,
		"windDir" : 158,
		"rain" : 0,
		"cloudbase" : null,
		"flyability" : 0,
		"reason" : "windSpeed",
		"timestamp" :1556121600
		},
	"2019-04-24T20:00:00+02:00" : {
		"windSpeed" : 3.9,
		"windDir" : 131,
		"rain" : 0,
		"cloudbase" : null,
		"flyability" : 100,
		"reason" : "",
		"timestamp" :1556132400
		},
	"2019-04-24T23:00:00+02:00" : {
		"windSpeed" : 4,
		"windDir" : 87,
		"rain" : 0,
		"cloudbase" : null,
		"flyability" : 100,
		"reason" : "",
		"timestamp" :1556143200
		},
	"2019-04-25T02:00:00+02:00" : {
		"windSpeed" : 6,
		"windDir" : 123,
		"rain" : 1,
		"cloudbase" : 6444.41086,
		"flyability" : 0,
		"reason" : "windSpeed, rain",
		"timestamp" :1556154000
		},
	"2019-04-25T05:00:00+02:00" : {
		"windSpeed" : 5,
		"windDir" : 127,
		"rain" : 0,
		"cloudbase" : 5674.17,
		"flyability" : 100,
		"reason" : "",
		"timestamp" :1556164800
		},
	"2019-04-25T08:00:00+02:00" : {
		"windSpeed" : 6.2,
		"windDir" : 137,
		"rain" : 1,
		"cloudbase" : 368.22910399997,
		"flyability" : 0,
		"reason" : "windSpeed, rain",
		"timestamp" :1556175600
		},
	"2019-04-25T11:00:00+02:00" : {
		"windSpeed" : 8.2,
		"windDir" : 147,
		"rain" : 1,
		"cloudbase" : 582.70655199999,
		"flyability" : 0,
		"reason" : "windSpeed, rain",
		"timestamp" :1556186400
		},
	"2019-04-25T14:00:00+02:00" : {
		"windSpeed" : 9.5,
		"windDir" : 145,
		"rain" : 1,
		"cloudbase" : 558.66325799999,
		"flyability" : 0,
		"reason" : "windSpeed, rain",
		"timestamp" :1556197200
		},
	"2019-04-25T17:00:00+02:00" : {
		"windSpeed" : 6,
		"windDir" : 151,
		"rain" : 1,
		"cloudbase" : 896.18526599985,
		"flyability" : 0,
		"reason" : "windSpeed, rain",
		"timestamp" :1556208000
		},
	"2019-04-25T20:00:00+02:00" : {
		"windSpeed" : 1.7,
		"windDir" : 123,
		"rain" : 1,
		"cloudbase" : 500,
		"flyability" : 0,
		"reason" : "rain",
		"timestamp" :1556218800
		},
	"2019-04-25T23:00:00+02:00" : {
		"windSpeed" : 1.6,
		"windDir" : 17,
		"rain" : 1,
		"cloudbase" : null,
		"flyability" : 0,
		"reason" : "windDir, rain",
		"timestamp" :1556229600
		},
	"2019-04-26T02:00:00+02:00" : {
		"windSpeed" : 2.9,
		"windDir" : 340,
		"rain" : 1,
		"cloudbase" : null,
		"flyability" : 0,
		"reason" : "windDir, rain",
		"timestamp" :1556240400
		},
	"2019-04-26T05:00:00+02:00" : {
		"windSpeed" : 3.9,
		"windDir" : 333,
		"rain" : 0,
		"cloudbase" : null,
		"flyability" : 0,
		"reason" : "windDir",
		"timestamp" :1556251200
		},
	"2019-04-26T08:00:00+02:00" : {
		"windSpeed" : 4.5,
		"windDir" : 326,
		"rain" : 0,
		"cloudbase" : null,
		"flyability" : 0,
		"reason" : "windDir",
		"timestamp" :1556262000
		},
	"2019-04-26T11:00:00+02:00" : {
		"windSpeed" : 4.5,
		"windDir" : 304,
		"rain" : 0,
		"cloudbase" : null,
		"flyability" : 0,
		"reason" : "windDir",
		"timestamp" :1556272800
		},
	"2019-04-26T14:00:00+02:00" : {
		"windSpeed" : 6,
		"windDir" : 308,
		"rain" : 1,
		"cloudbase" : null,
		"flyability" : 0,
		"reason" : "windSpeed, windDir, rain",
		"timestamp" :1556283600
		},
	"2019-04-26T17:00:00+02:00" : {
		"windSpeed" : 6.5,
		"windDir" : 302,
		"rain" : 0,
		"cloudbase" : null,
		"flyability" : 0,
		"reason" : "windSpeed, windDir",
		"timestamp" :1556294400
		},
	"2019-04-26T20:00:00+02:00" : {
		"windSpeed" : 7.1,
		"windDir" : 318,
		"rain" : 1,
		"cloudbase" : null,
		"flyability" : 0,
		"reason" : "windSpeed, windDir, rain",
		"timestamp" :1556305200
		},
	"2019-04-26T23:00:00+02:00" : {
		"windSpeed" : 4.4,
		"windDir" : 308,
		"rain" : 0,
		"cloudbase" : null,
		"flyability" : 0,
		"reason" : "windDir",
		"timestamp" :1556316000
		},
	"2019-04-27T02:00:00+02:00" : {
		"windSpeed" : 2.3,
		"windDir" : 283,
		"rain" : 1,
		"cloudbase" : null,
		"flyability" : 0,
		"reason" : "windDir, rain",
		"timestamp" :1556326800
		}
	}
}