{
"site" : "Prospector Mountain",
"id" : 21962,
"orientations" : "10012222",
"forecasts" : { 
	"2019-04-03T21:00:00-06:00" : {
		"windSpeed" : 1.4,
		"windDir" : 315,
		"rain" : 0,
		"cloudbase" : null,
		"flyability" : 100,
		"reason" : "",
		"timestamp" :1554346800
		},
	"2019-04-04T00:00:00-06:00" : {
		"windSpeed" : 1.1,
		"windDir" : 353,
		"rain" : 0,
		"cloudbase" : 230,
		"flyability" : 0,
		"reason" : "cloudbase",
		"timestamp" :1554357600
		},
	"2019-04-04T03:00:00-06:00" : {
		"windSpeed" : 1.6,
		"windDir" : 333,
		"rain" : 0,
		"cloudbase" : null,
		"flyability" : 100,
		"reason" : "",
		"timestamp" :1554368400
		},
	"2019-04-04T06:00:00-06:00" : {
		"windSpeed" : 1.9,
		"windDir" : 342,
		"rain" : 0,
		"cloudbase" : null,
		"flyability" : 100,
		"reason" : "",
		"timestamp" :1554379200
		},
	"2019-04-04T09:00:00-06:00" : {
		"windSpeed" : 1,
		"windDir" : 322,
		"rain" : 0,
		"cloudbase" : 6308.393,
		"flyability" : 100,
		"reason" : "",
		"timestamp" :1554390000
		},
	"2019-04-04T12:00:00-06:00" : {
		"windSpeed" : 2.6,
		"windDir" : 283,
		"rain" : 0,
		"cloudbase" : null,
		"flyability" : 100,
		"reason" : "",
		"timestamp" :1554400800
		},
	"2019-04-04T15:00:00-06:00" : {
		"windSpeed" : 3.3,
		"windDir" : 278,
		"rain" : 0,
		"cloudbase" : null,
		"flyability" : 100,
		"reason" : "",
		"timestamp" :1554411600
		},
	"2019-04-04T18:00:00-06:00" : {
		"windSpeed" : 1.5,
		"windDir" : 297,
		"rain" : 0,
		"cloudbase" : 3200,
		"flyability" : 0,
		"reason" : "cloudbase",
		"timestamp" :1554422400
		},
	"2019-04-04T21:00:00-06:00" : {
		"windSpeed" : 0.6,
		"windDir" : 360,
		"rain" : 0,
		"cloudbase" : 3290.7465,
		"flyability" : 0,
		"reason" : "cloudbase",
		"timestamp" :1554433200
		},
	"2019-04-05T00:00:00-06:00" : {
		"windSpeed" : 0.7,
		"windDir" : 153,
		"rain" : 0,
		"cloudbase" : 4758.393,
		"flyability" : 100,
		"reason" : "",
		"timestamp" :1554444000
		},
	"2019-04-05T03:00:00-06:00" : {
		"windSpeed" : 0.2,
		"windDir" : 35,
		"rain" : 0,
		"cloudbase" : 5213.335,
		"flyability" : 0,
		"reason" : "windDir",
		"timestamp" :1554454800
		},
	"2019-04-05T06:00:00-06:00" : {
		"windSpeed" : 0.2,
		"windDir" : 140,
		"rain" : 0,
		"cloudbase" : 6008.393,
		"flyability" : 100,
		"reason" : "",
		"timestamp" :1554465600
		},
	"2019-04-05T09:00:00-06:00" : {
		"windSpeed" : 0.9,
		"windDir" : 182,
		"rain" : 0,
		"cloudbase" : null,
		"flyability" : 100,
		"reason" : "",
		"timestamp" :1554476400
		},
	"2019-04-05T12:00:00-06:00" : {
		"windSpeed" : 3.1,
		"windDir" : 224,
		"rain" : 0,
		"cloudbase" : 5669.643,
		"flyability" : 100,
		"reason" : "",
		"timestamp" :1554487200
		},
	"2019-04-05T15:00:00-06:00" : {
		"windSpeed" : 3.3,
		"windDir" : 242,
		"rain" : 1,
		"cloudbase" : 3150,
		"flyability" : 0,
		"reason" : "rain, cloudbase",
		"timestamp" :1554498000
		},
	"2019-04-05T18:00:00-06:00" : {
		"windSpeed" : 1.5,
		"windDir" : 306,
		"rain" : 0,
		"cloudbase" : 2261.429,
		"flyability" : 0,
		"reason" : "cloudbase",
		"timestamp" :1554508800
		},
	"2019-04-05T21:00:00-06:00" : {
		"windSpeed" : 1.6,
		"windDir" : 253,
		"rain" : 0,
		"cloudbase" : 5240.3014999999,
		"flyability" : 100,
		"reason" : "",
		"timestamp" :1554519600
		},
	"2019-04-06T00:00:00-06:00" : {
		"windSpeed" : 1,
		"windDir" : 28,
		"rain" : 0,
		"cloudbase" : 5429.493,
		"flyability" : 0,
		"reason" : "windDir",
		"timestamp" :1554530400
		},
	"2019-04-06T03:00:00-06:00" : {
		"windSpeed" : 1.2,
		"windDir" : 12,
		"rain" : 0,
		"cloudbase" : 5553.2,
		"flyability" : 100,
		"reason" : "",
		"timestamp" :1554541200
		},
	"2019-04-06T06:00:00-06:00" : {
		"windSpeed" : 1.2,
		"windDir" : 0,
		"rain" : 0,
		"cloudbase" : 5200,
		"flyability" : 100,
		"reason" : "",
		"timestamp" :1554552000
		},
	"2019-04-06T09:00:00-06:00" : {
		"windSpeed" : 1.1,
		"windDir" : 289,
		"rain" : 0,
		"cloudbase" : null,
		"flyability" : 100,
		"reason" : "",
		"timestamp" :1554562800
		},
	"2019-04-06T12:00:00-06:00" : {
		"windSpeed" : 2.6,
		"windDir" : 280,
		"rain" : 0,
		"cloudbase" : 2450,
		"flyability" : 0,
		"reason" : "cloudbase",
		"timestamp" :1554573600
		},
	"2019-04-06T15:00:00-06:00" : {
		"windSpeed" : 3,
		"windDir" : 288,
		"rain" : 0,
		"cloudbase" : 2450,
		"flyability" : 0,
		"reason" : "cloudbase",
		"timestamp" :1554584400
		},
	"2019-04-06T18:00:00-06:00" : {
		"windSpeed" : 3.2,
		"windDir" : 298,
		"rain" : 0,
		"cloudbase" : 3520.2465,
		"flyability" : 0,
		"reason" : "cloudbase",
		"timestamp" :1554595200
		},
	"2019-04-06T21:00:00-06:00" : {
		"windSpeed" : 2.2,
		"windDir" : 312,
		"rain" : 0,
		"cloudbase" : 180,
		"flyability" : 0,
		"reason" : "cloudbase",
		"timestamp" :1554606000
		},
	"2019-04-07T00:00:00-06:00" : {
		"windSpeed" : 1.9,
		"windDir" : 311,
		"rain" : 0,
		"cloudbase" : 81.794649999999,
		"flyability" : 0,
		"reason" : "cloudbase",
		"timestamp" :1554616800
		},
	"2019-04-07T03:00:00-06:00" : {
		"windSpeed" : 2.1,
		"windDir" : 325,
		"rain" : 0,
		"cloudbase" : 55.219649999998,
		"flyability" : 0,
		"reason" : "cloudbase",
		"timestamp" :1554627600
		},
	"2019-04-07T06:00:00-06:00" : {
		"windSpeed" : 1.3,
		"windDir" : 315,
		"rain" : 0,
		"cloudbase" : null,
		"flyability" : 100,
		"reason" : "",
		"timestamp" :1554638400
		},
	"2019-04-07T09:00:00-06:00" : {
		"windSpeed" : 3.6,
		"windDir" : 315,
		"rain" : 0,
		"cloudbase" : null,
		"flyability" : 100,
		"reason" : "",
		"timestamp" :1554649200
		},
	"2019-04-07T12:00:00-06:00" : {
		"windSpeed" : 3.1,
		"windDir" : 316,
		"rain" : 0,
		"cloudbase" : null,
		"flyability" : 100,
		"reason" : "",
		"timestamp" :1554660000
		},
	"2019-04-07T15:00:00-06:00" : {
		"windSpeed" : 3,
		"windDir" : 288,
		"rain" : 0,
		"cloudbase" : 5224.293,
		"flyability" : 100,
		"reason" : "",
		"timestamp" :1554670800
		},
	"2019-04-07T18:00:00-06:00" : {
		"windSpeed" : 2.2,
		"windDir" : 292,
		"rain" : 1,
		"cloudbase" : 4675.5895,
		"flyability" : 0,
		"reason" : "rain",
		"timestamp" :1554681600
		},
	"2019-04-07T21:00:00-06:00" : {
		"windSpeed" : 1.6,
		"windDir" : 312,
		"rain" : 0,
		"cloudbase" : 4400,
		"flyability" : 100,
		"reason" : "",
		"timestamp" :1554692400
		},
	"2019-04-08T00:00:00-06:00" : {
		"windSpeed" : 1.5,
		"windDir" : 326,
		"rain" : 0,
		"cloudbase" : null,
		"flyability" : 100,
		"reason" : "",
		"timestamp" :1554703200
		},
	"2019-04-08T03:00:00-06:00" : {
		"windSpeed" : 2.1,
		"windDir" : 329,
		"rain" : 0,
		"cloudbase" : null,
		"flyability" : 100,
		"reason" : "",
		"timestamp" :1554714000
		},
	"2019-04-08T06:00:00-06:00" : {
		"windSpeed" : 3.6,
		"windDir" : 326,
		"rain" : 0,
		"cloudbase" : null,
		"flyability" : 100,
		"reason" : "",
		"timestamp" :1554724800
		},
	"2019-04-08T09:00:00-06:00" : {
		"windSpeed" : 2.4,
		"windDir" : 301,
		"rain" : 0,
		"cloudbase" : null,
		"flyability" : 100,
		"reason" : "",
		"timestamp" :1554735600
		},
	"2019-04-08T12:00:00-06:00" : {
		"windSpeed" : 3.3,
		"windDir" : 286,
		"rain" : 0,
		"cloudbase" : null,
		"flyability" : 100,
		"reason" : "",
		"timestamp" :1554746400
		},
	"2019-04-08T15:00:00-06:00" : {
		"windSpeed" : 3.6,
		"windDir" : 280,
		"rain" : 0,
		"cloudbase" : null,
		"flyability" : 100,
		"reason" : "",
		"timestamp" :1554757200
		},
	"2019-04-08T18:00:00-06:00" : {
		"windSpeed" : 2.7,
		"windDir" : 288,
		"rain" : 0,
		"cloudbase" : null,
		"flyability" : 100,
		"reason" : "",
		"timestamp" :1554768000
		},
	"2019-04-08T21:00:00-06:00" : {
		"windSpeed" : 0.8,
		"windDir" : 279,
		"rain" : 0,
		"cloudbase" : 5952.314,
		"flyability" : 100,
		"reason" : "",
		"timestamp" :1554778800
		},
	"2019-04-09T00:00:00-06:00" : {
		"windSpeed" : 0.3,
		"windDir" : 120,
		"rain" : 0,
		"cloudbase" : 7551.765,
		"flyability" : 100,
		"reason" : "",
		"timestamp" :1554789600
		},
	"2019-04-09T03:00:00-06:00" : {
		"windSpeed" : 0.7,
		"windDir" : 118,
		"rain" : 0,
		"cloudbase" : 4150.15,
		"flyability" : 100,
		"reason" : "",
		"timestamp" :1554800400
		},
	"2019-04-09T06:00:00-06:00" : {
		"windSpeed" : 0.7,
		"windDir" : 150,
		"rain" : 0,
		"cloudbase" : 7337.286,
		"flyability" : 100,
		"reason" : "",
		"timestamp" :1554811200
		},
	"2019-04-09T09:00:00-06:00" : {
		"windSpeed" : 1.1,
		"windDir" : 181,
		"rain" : 0,
		"cloudbase" : 5884.986,
		"flyability" : 100,
		"reason" : "",
		"timestamp" :1554822000
		},
	"2019-04-09T12:00:00-06:00" : {
		"windSpeed" : 5,
		"windDir" : 222,
		"rain" : 0,
		"cloudbase" : 5237.5529999999,
		"flyability" : 100,
		"reason" : "",
		"timestamp" :1554832800
		},
	"2019-04-09T15:00:00-06:00" : {
		"windSpeed" : 5.8,
		"windDir" : 224,
		"rain" : 0,
		"cloudbase" : 4850,
		"flyability" : 0,
		"reason" : "windSpeed",
		"timestamp" :1554843600
		},
	"2019-04-09T18:00:00-06:00" : {
		"windSpeed" : 2.7,
		"windDir" : 201,
		"rain" : 0,
		"cloudbase" : 3686.449,
		"flyability" : 0,
		"reason" : "cloudbase",
		"timestamp" :1554854400
		}
	}
}