{
"site" : "Chulilla",
"id" : 22010,
"orientations" : "01100000",
"forecasts" : { 
	"2019-04-15T05:00:00+02:00" : {
		"windSpeed" : 0.6,
		"windDir" : 294,
		"rain" : 0,
		"cloudbase" : 6900,
		"flyability" : 0,
		"reason" : "windDir",
		"timestamp" :1555300800
		},
	"2019-04-15T08:00:00+02:00" : {
		"windSpeed" : 0.9,
		"windDir" : 167,
		"rain" : 0,
		"cloudbase" : 5955.34272,
		"flyability" : 0,
		"reason" : "windDir",
		"timestamp" :1555311600
		},
	"2019-04-15T11:00:00+02:00" : {
		"windSpeed" : 3.4,
		"windDir" : 108,
		"rain" : 0,
		"cloudbase" : 11500,
		"flyability" : 100,
		"reason" : "",
		"timestamp" :1555322400
		},
	"2019-04-15T14:00:00+02:00" : {
		"windSpeed" : 4.7,
		"windDir" : 112,
		"rain" : 0,
		"cloudbase" : 7447.1773439999,
		"flyability" : 100,
		"reason" : "",
		"timestamp" :1555333200
		},
	"2019-04-15T17:00:00+02:00" : {
		"windSpeed" : 4.3,
		"windDir" : 115,
		"rain" : 1,
		"cloudbase" : 4750,
		"flyability" : 0,
		"reason" : "windDir, rain",
		"timestamp" :1555344000
		},
	"2019-04-15T20:00:00+02:00" : {
		"windSpeed" : 3.3,
		"windDir" : 105,
		"rain" : 0,
		"cloudbase" : 600,
		"flyability" : 100,
		"reason" : "",
		"timestamp" :1555354800
		},
	"2019-04-15T23:00:00+02:00" : {
		"windSpeed" : 1.2,
		"windDir" : 146,
		"rain" : 1,
		"cloudbase" : 400,
		"flyability" : 0,
		"reason" : "windDir, rain, cloudbase",
		"timestamp" :1555365600
		},
	"2019-04-16T02:00:00+02:00" : {
		"windSpeed" : 1.3,
		"windDir" : 250,
		"rain" : 1,
		"cloudbase" : null,
		"flyability" : 0,
		"reason" : "windDir, rain",
		"timestamp" :1555376400
		},
	"2019-04-16T05:00:00+02:00" : {
		"windSpeed" : 1.4,
		"windDir" : 278,
		"rain" : 0,
		"cloudbase" : null,
		"flyability" : 0,
		"reason" : "windDir",
		"timestamp" :1555387200
		},
	"2019-04-16T08:00:00+02:00" : {
		"windSpeed" : 1.5,
		"windDir" : 279,
		"rain" : 0,
		"cloudbase" : null,
		"flyability" : 0,
		"reason" : "windDir",
		"timestamp" :1555398000
		},
	"2019-04-16T11:00:00+02:00" : {
		"windSpeed" : 1.5,
		"windDir" : 103,
		"rain" : 0,
		"cloudbase" : 8168.784,
		"flyability" : 100,
		"reason" : "",
		"timestamp" :1555408800
		},
	"2019-04-16T14:00:00+02:00" : {
		"windSpeed" : 4.1,
		"windDir" : 119,
		"rain" : 0,
		"cloudbase" : 5032.8866560001,
		"flyability" : 0,
		"reason" : "windDir",
		"timestamp" :1555419600
		},
	"2019-04-16T17:00:00+02:00" : {
		"windSpeed" : 4.4,
		"windDir" : 123,
		"rain" : 0,
		"cloudbase" : 8981.973504,
		"flyability" : 0,
		"reason" : "windDir",
		"timestamp" :1555430400
		},
	"2019-04-16T20:00:00+02:00" : {
		"windSpeed" : 3.4,
		"windDir" : 123,
		"rain" : 0,
		"cloudbase" : null,
		"flyability" : 0,
		"reason" : "windDir",
		"timestamp" :1555441200
		},
	"2019-04-16T23:00:00+02:00" : {
		"windSpeed" : 1.2,
		"windDir" : 136,
		"rain" : 0,
		"cloudbase" : null,
		"flyability" : 0,
		"reason" : "windDir",
		"timestamp" :1555452000
		},
	"2019-04-17T02:00:00+02:00" : {
		"windSpeed" : 1.2,
		"windDir" : 138,
		"rain" : 0,
		"cloudbase" : 30,
		"flyability" : 0,
		"reason" : "windDir, cloudbase",
		"timestamp" :1555462800
		},
	"2019-04-17T05:00:00+02:00" : {
		"windSpeed" : 0.1,
		"windDir" : 135,
		"rain" : 0,
		"cloudbase" : 161.56239359999,
		"flyability" : 0,
		"reason" : "windDir, cloudbase",
		"timestamp" :1555473600
		},
	"2019-04-17T08:00:00+02:00" : {
		"windSpeed" : 0.5,
		"windDir" : 135,
		"rain" : 0,
		"cloudbase" : 2098.7551872001,
		"flyability" : 0,
		"reason" : "windDir",
		"timestamp" :1555484400
		},
	"2019-04-17T11:00:00+02:00" : {
		"windSpeed" : 2.3,
		"windDir" : 105,
		"rain" : 0,
		"cloudbase" : 2620.4288256001,
		"flyability" : 100,
		"reason" : "",
		"timestamp" :1555495200
		},
	"2019-04-17T14:00:00+02:00" : {
		"windSpeed" : 3.8,
		"windDir" : 118,
		"rain" : 0,
		"cloudbase" : 10540.35328,
		"flyability" : 0,
		"reason" : "windDir",
		"timestamp" :1555506000
		},
	"2019-04-17T17:00:00+02:00" : {
		"windSpeed" : 4.7,
		"windDir" : 114,
		"rain" : 0,
		"cloudbase" : 8847.254656,
		"flyability" : 0,
		"reason" : "windDir",
		"timestamp" :1555516800
		},
	"2019-04-17T20:00:00+02:00" : {
		"windSpeed" : 3.6,
		"windDir" : 111,
		"rain" : 0,
		"cloudbase" : 10657.730816,
		"flyability" : 100,
		"reason" : "",
		"timestamp" :1555527600
		},
	"2019-04-17T23:00:00+02:00" : {
		"windSpeed" : 0.7,
		"windDir" : 160,
		"rain" : 0,
		"cloudbase" : 7072.653312,
		"flyability" : 0,
		"reason" : "windDir",
		"timestamp" :1555538400
		},
	"2019-04-18T02:00:00+02:00" : {
		"windSpeed" : 1.5,
		"windDir" : 169,
		"rain" : 0,
		"cloudbase" : 4893.64064,
		"flyability" : 0,
		"reason" : "windDir",
		"timestamp" :1555549200
		},
	"2019-04-18T05:00:00+02:00" : {
		"windSpeed" : 1.2,
		"windDir" : 76,
		"rain" : 1,
		"cloudbase" : 3520.769984,
		"flyability" : 0,
		"reason" : "rain",
		"timestamp" :1555560000
		},
	"2019-04-18T08:00:00+02:00" : {
		"windSpeed" : 0.7,
		"windDir" : 236,
		"rain" : 1,
		"cloudbase" : 2569.534656,
		"flyability" : 0,
		"reason" : "windDir, rain",
		"timestamp" :1555570800
		},
	"2019-04-18T11:00:00+02:00" : {
		"windSpeed" : 0.4,
		"windDir" : 175,
		"rain" : 1,
		"cloudbase" : 1848.633472,
		"flyability" : 0,
		"reason" : "windDir, rain",
		"timestamp" :1555581600
		},
	"2019-04-18T14:00:00+02:00" : {
		"windSpeed" : 2.7,
		"windDir" : 293,
		"rain" : 1,
		"cloudbase" : 1619.06784,
		"flyability" : 0,
		"reason" : "windDir, rain",
		"timestamp" :1555592400
		},
	"2019-04-18T17:00:00+02:00" : {
		"windSpeed" : 1.7,
		"windDir" : 325,
		"rain" : 1,
		"cloudbase" : 1700,
		"flyability" : 0,
		"reason" : "windDir, rain",
		"timestamp" :1555603200
		},
	"2019-04-18T20:00:00+02:00" : {
		"windSpeed" : 1.3,
		"windDir" : 109,
		"rain" : 1,
		"cloudbase" : null,
		"flyability" : 0,
		"reason" : "rain",
		"timestamp" :1555614000
		},
	"2019-04-18T23:00:00+02:00" : {
		"windSpeed" : 1.9,
		"windDir" : 295,
		"rain" : 1,
		"cloudbase" : 4144.342656,
		"flyability" : 0,
		"reason" : "windDir, rain",
		"timestamp" :1555624800
		},
	"2019-04-19T02:00:00+02:00" : {
		"windSpeed" : 2.4,
		"windDir" : 274,
		"rain" : 1,
		"cloudbase" : null,
		"flyability" : 0,
		"reason" : "windDir, rain",
		"timestamp" :1555635600
		},
	"2019-04-19T05:00:00+02:00" : {
		"windSpeed" : 2.1,
		"windDir" : 282,
		"rain" : 0,
		"cloudbase" : 1984.277312,
		"flyability" : 0,
		"reason" : "windDir",
		"timestamp" :1555646400
		},
	"2019-04-19T08:00:00+02:00" : {
		"windSpeed" : 2.1,
		"windDir" : 278,
		"rain" : 0,
		"cloudbase" : null,
		"flyability" : 0,
		"reason" : "windDir",
		"timestamp" :1555657200
		},
	"2019-04-19T11:00:00+02:00" : {
		"windSpeed" : 1.8,
		"windDir" : 95,
		"rain" : 0,
		"cloudbase" : null,
		"flyability" : 100,
		"reason" : "",
		"timestamp" :1555668000
		},
	"2019-04-19T14:00:00+02:00" : {
		"windSpeed" : 4.3,
		"windDir" : 99,
		"rain" : 0,
		"cloudbase" : 7275.552896,
		"flyability" : 100,
		"reason" : "",
		"timestamp" :1555678800
		},
	"2019-04-19T17:00:00+02:00" : {
		"windSpeed" : 4.3,
		"windDir" : 97,
		"rain" : 1,
		"cloudbase" : 1029.7369088,
		"flyability" : 0,
		"reason" : "rain",
		"timestamp" :1555689600
		},
	"2019-04-19T20:00:00+02:00" : {
		"windSpeed" : 3.1,
		"windDir" : 93,
		"rain" : 1,
		"cloudbase" : 1797.939968,
		"flyability" : 0,
		"reason" : "rain",
		"timestamp" :1555700400
		},
	"2019-04-19T23:00:00+02:00" : {
		"windSpeed" : 1,
		"windDir" : 248,
		"rain" : 1,
		"cloudbase" : 2122.239872,
		"flyability" : 0,
		"reason" : "windDir, rain",
		"timestamp" :1555711200
		},
	"2019-04-20T02:00:00+02:00" : {
		"windSpeed" : 3,
		"windDir" : 302,
		"rain" : 1,
		"cloudbase" : 1262.269312,
		"flyability" : 0,
		"reason" : "windDir, rain",
		"timestamp" :1555722000
		},
	"2019-04-20T05:00:00+02:00" : {
		"windSpeed" : 3.1,
		"windDir" : 82,
		"rain" : 1,
		"cloudbase" : 375.53276160001,
		"flyability" : 0,
		"reason" : "rain, cloudbase",
		"timestamp" :1555732800
		},
	"2019-04-20T08:00:00+02:00" : {
		"windSpeed" : 6.4,
		"windDir" : 63,
		"rain" : 0,
		"cloudbase" : 640.10984960001,
		"flyability" : 0,
		"reason" : "windSpeed",
		"timestamp" :1555743600
		},
	"2019-04-20T11:00:00+02:00" : {
		"windSpeed" : 7.6,
		"windDir" : 68,
		"rain" : 0,
		"cloudbase" : 755.47559680001,
		"flyability" : 0,
		"reason" : "windSpeed",
		"timestamp" :1555754400
		},
	"2019-04-20T14:00:00+02:00" : {
		"windSpeed" : 9.1,
		"windDir" : 73,
		"rain" : 1,
		"cloudbase" : 1328.96448,
		"flyability" : 0,
		"reason" : "windSpeed, rain",
		"timestamp" :1555765200
		},
	"2019-04-20T17:00:00+02:00" : {
		"windSpeed" : 7.5,
		"windDir" : 79,
		"rain" : 1,
		"cloudbase" : 4028.105216,
		"flyability" : 0,
		"reason" : "windSpeed, rain",
		"timestamp" :1555776000
		},
	"2019-04-20T20:00:00+02:00" : {
		"windSpeed" : 5.5,
		"windDir" : 76,
		"rain" : 0,
		"cloudbase" : 5111.235328,
		"flyability" : 0,
		"reason" : "windSpeed",
		"timestamp" :1555786800
		},
	"2019-04-20T23:00:00+02:00" : {
		"windSpeed" : 4.7,
		"windDir" : 67,
		"rain" : 0,
		"cloudbase" : 3967.262656,
		"flyability" : 100,
		"reason" : "",
		"timestamp" :1555797600
		},
	"2019-04-21T02:00:00+02:00" : {
		"windSpeed" : 4.3,
		"windDir" : 55,
		"rain" : 0,
		"cloudbase" : 2764.633984,
		"flyability" : 100,
		"reason" : "",
		"timestamp" :1555808400
		}
	}
}