{
"site" : "Fernie Mic Towers",
"id" : 22031,
"orientations" : "00000000",
"forecasts" : { 
	"2019-04-08T21:00:00-06:00" : {
		"windSpeed" : 1.4,
		"windDir" : 122,
		"rain" : 0,
		"cloudbase" : 5916.86,
		"flyability" : -50,
		"reason" : "orientationsUnknown",
		"timestamp" :1554778800
		},
	"2019-04-09T00:00:00-06:00" : {
		"windSpeed" : 0.4,
		"windDir" : 127,
		"rain" : 0,
		"cloudbase" : 3517.8800000001,
		"flyability" : -50,
		"reason" : "orientationsUnknown",
		"timestamp" :1554789600
		},
	"2019-04-09T03:00:00-06:00" : {
		"windSpeed" : 0.4,
		"windDir" : 127,
		"rain" : 0,
		"cloudbase" : 4861.865,
		"flyability" : -50,
		"reason" : "orientationsUnknown",
		"timestamp" :1554800400
		},
	"2019-04-09T06:00:00-06:00" : {
		"windSpeed" : 1,
		"windDir" : 48,
		"rain" : 0,
		"cloudbase" : 4663.725,
		"flyability" : -50,
		"reason" : "orientationsUnknown",
		"timestamp" :1554811200
		},
	"2019-04-09T09:00:00-06:00" : {
		"windSpeed" : 0.8,
		"windDir" : 20,
		"rain" : 1,
		"cloudbase" : 5385.66,
		"flyability" : -0,
		"reason" : "orientationsUnknown, rain",
		"timestamp" :1554822000
		},
	"2019-04-09T12:00:00-06:00" : {
		"windSpeed" : 2,
		"windDir" : 41,
		"rain" : 1,
		"cloudbase" : 1012.467,
		"flyability" : -0,
		"reason" : "orientationsUnknown, rain, cloudbase",
		"timestamp" :1554832800
		},
	"2019-04-09T15:00:00-06:00" : {
		"windSpeed" : 2.5,
		"windDir" : 67,
		"rain" : 1,
		"cloudbase" : 856.26600000001,
		"flyability" : -0,
		"reason" : "orientationsUnknown, rain, cloudbase",
		"timestamp" :1554843600
		},
	"2019-04-09T18:00:00-06:00" : {
		"windSpeed" : 2.3,
		"windDir" : 63,
		"rain" : 1,
		"cloudbase" : 1466.765,
		"flyability" : -0,
		"reason" : "orientationsUnknown, rain, cloudbase",
		"timestamp" :1554854400
		},
	"2019-04-09T21:00:00-06:00" : {
		"windSpeed" : 1.6,
		"windDir" : 40,
		"rain" : 0,
		"cloudbase" : 916.421,
		"flyability" : -0,
		"reason" : "orientationsUnknown, cloudbase",
		"timestamp" :1554865200
		},
	"2019-04-10T00:00:00-06:00" : {
		"windSpeed" : 1.4,
		"windDir" : 31,
		"rain" : 0,
		"cloudbase" : 1971.47,
		"flyability" : -0,
		"reason" : "orientationsUnknown, cloudbase",
		"timestamp" :1554876000
		},
	"2019-04-10T03:00:00-06:00" : {
		"windSpeed" : 1.2,
		"windDir" : 37,
		"rain" : 0,
		"cloudbase" : 1515.668,
		"flyability" : -0,
		"reason" : "orientationsUnknown, cloudbase",
		"timestamp" :1554886800
		},
	"2019-04-10T06:00:00-06:00" : {
		"windSpeed" : 0.9,
		"windDir" : 57,
		"rain" : 0,
		"cloudbase" : 998.33599999998,
		"flyability" : -0,
		"reason" : "orientationsUnknown, cloudbase",
		"timestamp" :1554897600
		},
	"2019-04-10T09:00:00-06:00" : {
		"windSpeed" : 0.3,
		"windDir" : 54,
		"rain" : 1,
		"cloudbase" : 1152.255,
		"flyability" : -0,
		"reason" : "orientationsUnknown, rain, cloudbase",
		"timestamp" :1554908400
		},
	"2019-04-10T12:00:00-06:00" : {
		"windSpeed" : 0.7,
		"windDir" : 225,
		"rain" : 1,
		"cloudbase" : 758.38800000001,
		"flyability" : -0,
		"reason" : "orientationsUnknown, rain, cloudbase",
		"timestamp" :1554919200
		},
	"2019-04-10T15:00:00-06:00" : {
		"windSpeed" : 1,
		"windDir" : 197,
		"rain" : 1,
		"cloudbase" : null,
		"flyability" : -0,
		"reason" : "orientationsUnknown, rain",
		"timestamp" :1554930000
		},
	"2019-04-10T18:00:00-06:00" : {
		"windSpeed" : 1.3,
		"windDir" : 195,
		"rain" : 1,
		"cloudbase" : 4272.7649999999,
		"flyability" : -0,
		"reason" : "orientationsUnknown, rain",
		"timestamp" :1554940800
		},
	"2019-04-10T21:00:00-06:00" : {
		"windSpeed" : 1.7,
		"windDir" : 182,
		"rain" : 0,
		"cloudbase" : 3351.239,
		"flyability" : -50,
		"reason" : "orientationsUnknown",
		"timestamp" :1554951600
		},
	"2019-04-11T00:00:00-06:00" : {
		"windSpeed" : 1.8,
		"windDir" : 214,
		"rain" : 0,
		"cloudbase" : 212.879,
		"flyability" : -0,
		"reason" : "orientationsUnknown, cloudbase",
		"timestamp" :1554962400
		},
	"2019-04-11T03:00:00-06:00" : {
		"windSpeed" : 1.6,
		"windDir" : 221,
		"rain" : 0,
		"cloudbase" : 69.893499999997,
		"flyability" : -0,
		"reason" : "orientationsUnknown, cloudbase",
		"timestamp" :1554973200
		},
	"2019-04-11T06:00:00-06:00" : {
		"windSpeed" : 1.4,
		"windDir" : 226,
		"rain" : 0,
		"cloudbase" : 30.451,
		"flyability" : -0,
		"reason" : "orientationsUnknown, cloudbase",
		"timestamp" :1554984000
		},
	"2019-04-11T09:00:00-06:00" : {
		"windSpeed" : 1.4,
		"windDir" : 227,
		"rain" : 0,
		"cloudbase" : 30.451,
		"flyability" : -0,
		"reason" : "orientationsUnknown, cloudbase",
		"timestamp" :1554994800
		},
	"2019-04-11T12:00:00-06:00" : {
		"windSpeed" : 1.3,
		"windDir" : 204,
		"rain" : 1,
		"cloudbase" : 190,
		"flyability" : -0,
		"reason" : "orientationsUnknown, rain, cloudbase",
		"timestamp" :1555005600
		},
	"2019-04-11T15:00:00-06:00" : {
		"windSpeed" : 1.8,
		"windDir" : 236,
		"rain" : 1,
		"cloudbase" : null,
		"flyability" : -0,
		"reason" : "orientationsUnknown, rain",
		"timestamp" :1555016400
		},
	"2019-04-11T18:00:00-06:00" : {
		"windSpeed" : 1.3,
		"windDir" : 235,
		"rain" : 1,
		"cloudbase" : null,
		"flyability" : -0,
		"reason" : "orientationsUnknown, rain",
		"timestamp" :1555027200
		},
	"2019-04-11T21:00:00-06:00" : {
		"windSpeed" : 1,
		"windDir" : 168,
		"rain" : 0,
		"cloudbase" : null,
		"flyability" : -50,
		"reason" : "orientationsUnknown",
		"timestamp" :1555038000
		},
	"2019-04-12T00:00:00-06:00" : {
		"windSpeed" : 0.9,
		"windDir" : 123,
		"rain" : 0,
		"cloudbase" : null,
		"flyability" : -50,
		"reason" : "orientationsUnknown",
		"timestamp" :1555048800
		},
	"2019-04-12T03:00:00-06:00" : {
		"windSpeed" : 0.3,
		"windDir" : 90,
		"rain" : 0,
		"cloudbase" : null,
		"flyability" : -50,
		"reason" : "orientationsUnknown",
		"timestamp" :1555059600
		},
	"2019-04-12T06:00:00-06:00" : {
		"windSpeed" : 1,
		"windDir" : 47,
		"rain" : 0,
		"cloudbase" : 1184.344,
		"flyability" : -0,
		"reason" : "orientationsUnknown, cloudbase",
		"timestamp" :1555070400
		},
	"2019-04-12T09:00:00-06:00" : {
		"windSpeed" : 0.7,
		"windDir" : 42,
		"rain" : 0,
		"cloudbase" : 500,
		"flyability" : -0,
		"reason" : "orientationsUnknown, cloudbase",
		"timestamp" :1555081200
		},
	"2019-04-12T12:00:00-06:00" : {
		"windSpeed" : 0.5,
		"windDir" : 30,
		"rain" : 0,
		"cloudbase" : 1447.142,
		"flyability" : -0,
		"reason" : "orientationsUnknown, cloudbase",
		"timestamp" :1555092000
		},
	"2019-04-12T15:00:00-06:00" : {
		"windSpeed" : 0.7,
		"windDir" : 272,
		"rain" : 1,
		"cloudbase" : 860,
		"flyability" : -0,
		"reason" : "orientationsUnknown, rain, cloudbase",
		"timestamp" :1555102800
		},
	"2019-04-12T18:00:00-06:00" : {
		"windSpeed" : 0.8,
		"windDir" : 252,
		"rain" : 1,
		"cloudbase" : 1743.91,
		"flyability" : -0,
		"reason" : "orientationsUnknown, rain, cloudbase",
		"timestamp" :1555113600
		},
	"2019-04-12T21:00:00-06:00" : {
		"windSpeed" : 0.9,
		"windDir" : 124,
		"rain" : 0,
		"cloudbase" : null,
		"flyability" : -50,
		"reason" : "orientationsUnknown",
		"timestamp" :1555124400
		},
	"2019-04-13T00:00:00-06:00" : {
		"windSpeed" : 1,
		"windDir" : 165,
		"rain" : 0,
		"cloudbase" : null,
		"flyability" : -50,
		"reason" : "orientationsUnknown",
		"timestamp" :1555135200
		},
	"2019-04-13T03:00:00-06:00" : {
		"windSpeed" : 1.3,
		"windDir" : 194,
		"rain" : 0,
		"cloudbase" : null,
		"flyability" : -50,
		"reason" : "orientationsUnknown",
		"timestamp" :1555146000
		},
	"2019-04-13T06:00:00-06:00" : {
		"windSpeed" : 1.6,
		"windDir" : 219,
		"rain" : 0,
		"cloudbase" : 430,
		"flyability" : -0,
		"reason" : "orientationsUnknown, cloudbase",
		"timestamp" :1555156800
		},
	"2019-04-13T09:00:00-06:00" : {
		"windSpeed" : 2.2,
		"windDir" : 217,
		"rain" : 0,
		"cloudbase" : 193.567,
		"flyability" : -0,
		"reason" : "orientationsUnknown, cloudbase",
		"timestamp" :1555167600
		},
	"2019-04-13T12:00:00-06:00" : {
		"windSpeed" : 2.8,
		"windDir" : 214,
		"rain" : 0,
		"cloudbase" : 103.6955,
		"flyability" : -0,
		"reason" : "orientationsUnknown, cloudbase",
		"timestamp" :1555178400
		},
	"2019-04-13T15:00:00-06:00" : {
		"windSpeed" : 4,
		"windDir" : 220,
		"rain" : 0,
		"cloudbase" : 4912.84,
		"flyability" : -50,
		"reason" : "orientationsUnknown",
		"timestamp" :1555189200
		},
	"2019-04-13T18:00:00-06:00" : {
		"windSpeed" : 3.3,
		"windDir" : 219,
		"rain" : 1,
		"cloudbase" : 439.24900000001,
		"flyability" : -0,
		"reason" : "orientationsUnknown, rain, cloudbase",
		"timestamp" :1555200000
		},
	"2019-04-13T21:00:00-06:00" : {
		"windSpeed" : 3.2,
		"windDir" : 219,
		"rain" : 0,
		"cloudbase" : 503.273,
		"flyability" : -0,
		"reason" : "orientationsUnknown, cloudbase",
		"timestamp" :1555210800
		},
	"2019-04-14T00:00:00-06:00" : {
		"windSpeed" : 2.7,
		"windDir" : 221,
		"rain" : 0,
		"cloudbase" : 49.764000000001,
		"flyability" : -0,
		"reason" : "orientationsUnknown, cloudbase",
		"timestamp" :1555221600
		},
	"2019-04-14T03:00:00-06:00" : {
		"windSpeed" : 2.4,
		"windDir" : 221,
		"rain" : 0,
		"cloudbase" : 42.3525,
		"flyability" : -0,
		"reason" : "orientationsUnknown, cloudbase",
		"timestamp" :1555232400
		},
	"2019-04-14T06:00:00-06:00" : {
		"windSpeed" : 2.4,
		"windDir" : 213,
		"rain" : 0,
		"cloudbase" : 30,
		"flyability" : -0,
		"reason" : "orientationsUnknown, cloudbase",
		"timestamp" :1555243200
		},
	"2019-04-14T09:00:00-06:00" : {
		"windSpeed" : 2.3,
		"windDir" : 222,
		"rain" : 0,
		"cloudbase" : 79.116500000002,
		"flyability" : -0,
		"reason" : "orientationsUnknown, cloudbase",
		"timestamp" :1555254000
		},
	"2019-04-14T12:00:00-06:00" : {
		"windSpeed" : 2.7,
		"windDir" : 215,
		"rain" : 0,
		"cloudbase" : 375.56200000001,
		"flyability" : -0,
		"reason" : "orientationsUnknown, cloudbase",
		"timestamp" :1555264800
		},
	"2019-04-14T15:00:00-06:00" : {
		"windSpeed" : 3.9,
		"windDir" : 221,
		"rain" : 0,
		"cloudbase" : 1997.2250000001,
		"flyability" : -0,
		"reason" : "orientationsUnknown, cloudbase",
		"timestamp" :1555275600
		},
	"2019-04-14T18:00:00-06:00" : {
		"windSpeed" : 3.5,
		"windDir" : 223,
		"rain" : 0,
		"cloudbase" : 2400,
		"flyability" : -50,
		"reason" : "orientationsUnknown",
		"timestamp" :1555286400
		}
	}
}