{
"site" : "Cheynet",
"id" : 2565,
"orientations" : "00200000",
"forecasts" : { 
	"2019-04-14T17:00:00+02:00" : {
		"windSpeed" : 6.5,
		"windDir" : 21,
		"rain" : 0,
		"cloudbase" : null,
		"flyability" : 0,
		"reason" : "windSpeed, windDir",
		"timestamp" :1555257600
		},
	"2019-04-14T20:00:00+02:00" : {
		"windSpeed" : 4.7,
		"windDir" : 13,
		"rain" : 0,
		"cloudbase" : null,
		"flyability" : 0,
		"reason" : "windDir",
		"timestamp" :1555268400
		},
	"2019-04-14T23:00:00+02:00" : {
		"windSpeed" : 4.6,
		"windDir" : 349,
		"rain" : 0,
		"cloudbase" : null,
		"flyability" : 0,
		"reason" : "windDir",
		"timestamp" :1555279200
		},
	"2019-04-15T02:00:00+02:00" : {
		"windSpeed" : 3.7,
		"windDir" : 348,
		"rain" : 0,
		"cloudbase" : null,
		"flyability" : 0,
		"reason" : "windDir",
		"timestamp" :1555290000
		},
	"2019-04-15T05:00:00+02:00" : {
		"windSpeed" : 3.9,
		"windDir" : 342,
		"rain" : 0,
		"cloudbase" : null,
		"flyability" : 0,
		"reason" : "windDir",
		"timestamp" :1555300800
		},
	"2019-04-15T08:00:00+02:00" : {
		"windSpeed" : 3.1,
		"windDir" : 355,
		"rain" : 0,
		"cloudbase" : null,
		"flyability" : 0,
		"reason" : "windDir",
		"timestamp" :1555311600
		},
	"2019-04-15T11:00:00+02:00" : {
		"windSpeed" : 2.3,
		"windDir" : 57,
		"rain" : 0,
		"cloudbase" : null,
		"flyability" : 0,
		"reason" : "windDir",
		"timestamp" :1555322400
		},
	"2019-04-15T14:00:00+02:00" : {
		"windSpeed" : 4.9,
		"windDir" : 185,
		"rain" : 0,
		"cloudbase" : 8416.67,
		"flyability" : 0,
		"reason" : "windDir",
		"timestamp" :1555333200
		},
	"2019-04-15T17:00:00+02:00" : {
		"windSpeed" : 6.5,
		"windDir" : 190,
		"rain" : 0,
		"cloudbase" : 1581.963055,
		"flyability" : 0,
		"reason" : "windSpeed, windDir",
		"timestamp" :1555344000
		},
	"2019-04-15T20:00:00+02:00" : {
		"windSpeed" : 5.4,
		"windDir" : 207,
		"rain" : 0,
		"cloudbase" : 7066.71,
		"flyability" : 0,
		"reason" : "windSpeed, windDir",
		"timestamp" :1555354800
		},
	"2019-04-15T23:00:00+02:00" : {
		"windSpeed" : 4.7,
		"windDir" : 205,
		"rain" : 0,
		"cloudbase" : 6466.71,
		"flyability" : 0,
		"reason" : "windDir",
		"timestamp" :1555365600
		},
	"2019-04-16T02:00:00+02:00" : {
		"windSpeed" : 4.4,
		"windDir" : 214,
		"rain" : 0,
		"cloudbase" : 3777.85722,
		"flyability" : 0,
		"reason" : "windDir",
		"timestamp" :1555376400
		},
	"2019-04-16T05:00:00+02:00" : {
		"windSpeed" : 3.1,
		"windDir" : 207,
		"rain" : 1,
		"cloudbase" : 2808.39,
		"flyability" : 0,
		"reason" : "windDir, rain",
		"timestamp" :1555387200
		},
	"2019-04-16T08:00:00+02:00" : {
		"windSpeed" : 2.7,
		"windDir" : 191,
		"rain" : 1,
		"cloudbase" : 2019.53222,
		"flyability" : 0,
		"reason" : "windDir, rain",
		"timestamp" :1555398000
		},
	"2019-04-16T11:00:00+02:00" : {
		"windSpeed" : 4.3,
		"windDir" : 187,
		"rain" : 1,
		"cloudbase" : 1536.16222,
		"flyability" : 0,
		"reason" : "windDir, rain",
		"timestamp" :1555408800
		},
	"2019-04-16T14:00:00+02:00" : {
		"windSpeed" : 3.9,
		"windDir" : 189,
		"rain" : 1,
		"cloudbase" : 1281.988055,
		"flyability" : 0,
		"reason" : "windDir, rain",
		"timestamp" :1555419600
		},
	"2019-04-16T17:00:00+02:00" : {
		"windSpeed" : 2.9,
		"windDir" : 210,
		"rain" : 1,
		"cloudbase" : 675.567112,
		"flyability" : 0,
		"reason" : "windDir, rain",
		"timestamp" :1555430400
		},
	"2019-04-16T20:00:00+02:00" : {
		"windSpeed" : 2.6,
		"windDir" : 211,
		"rain" : 1,
		"cloudbase" : 1641.53834,
		"flyability" : 0,
		"reason" : "windDir, rain",
		"timestamp" :1555441200
		},
	"2019-04-16T23:00:00+02:00" : {
		"windSpeed" : 2,
		"windDir" : 245,
		"rain" : 0,
		"cloudbase" : 2000,
		"flyability" : 0,
		"reason" : "windDir",
		"timestamp" :1555452000
		},
	"2019-04-17T02:00:00+02:00" : {
		"windSpeed" : 1.9,
		"windDir" : 260,
		"rain" : 0,
		"cloudbase" : 7789.923055,
		"flyability" : 0,
		"reason" : "windDir",
		"timestamp" :1555462800
		},
	"2019-04-17T05:00:00+02:00" : {
		"windSpeed" : 1,
		"windDir" : 294,
		"rain" : 0,
		"cloudbase" : 8447.22611,
		"flyability" : 0,
		"reason" : "windDir",
		"timestamp" :1555473600
		},
	"2019-04-17T08:00:00+02:00" : {
		"windSpeed" : 1,
		"windDir" : 274,
		"rain" : 0,
		"cloudbase" : null,
		"flyability" : 0,
		"reason" : "windDir",
		"timestamp" :1555484400
		},
	"2019-04-17T11:00:00+02:00" : {
		"windSpeed" : 2.4,
		"windDir" : 170,
		"rain" : 0,
		"cloudbase" : null,
		"flyability" : 0,
		"reason" : "windDir",
		"timestamp" :1555495200
		},
	"2019-04-17T14:00:00+02:00" : {
		"windSpeed" : 4.4,
		"windDir" : 186,
		"rain" : 0,
		"cloudbase" : 9519.42389,
		"flyability" : 0,
		"reason" : "windDir",
		"timestamp" :1555506000
		},
	"2019-04-17T17:00:00+02:00" : {
		"windSpeed" : 4,
		"windDir" : 188,
		"rain" : 0,
		"cloudbase" : 8777.81222,
		"flyability" : 0,
		"reason" : "windDir",
		"timestamp" :1555516800
		},
	"2019-04-17T20:00:00+02:00" : {
		"windSpeed" : 3.3,
		"windDir" : 206,
		"rain" : 1,
		"cloudbase" : null,
		"flyability" : 0,
		"reason" : "windDir, rain",
		"timestamp" :1555527600
		},
	"2019-04-17T23:00:00+02:00" : {
		"windSpeed" : 3.4,
		"windDir" : 215,
		"rain" : 0,
		"cloudbase" : 9361.14222,
		"flyability" : 0,
		"reason" : "windDir",
		"timestamp" :1555538400
		},
	"2019-04-18T02:00:00+02:00" : {
		"windSpeed" : 3,
		"windDir" : 220,
		"rain" : 0,
		"cloudbase" : 8747.25611,
		"flyability" : 0,
		"reason" : "windDir",
		"timestamp" :1555549200
		},
	"2019-04-18T05:00:00+02:00" : {
		"windSpeed" : 2.9,
		"windDir" : 232,
		"rain" : 0,
		"cloudbase" : 8752.82389,
		"flyability" : 0,
		"reason" : "windDir",
		"timestamp" :1555560000
		},
	"2019-04-18T08:00:00+02:00" : {
		"windSpeed" : 3.2,
		"windDir" : 229,
		"rain" : 0,
		"cloudbase" : 8900.00332,
		"flyability" : 0,
		"reason" : "windDir",
		"timestamp" :1555570800
		},
	"2019-04-18T11:00:00+02:00" : {
		"windSpeed" : 5.2,
		"windDir" : 202,
		"rain" : 0,
		"cloudbase" : null,
		"flyability" : 0,
		"reason" : "windSpeed, windDir",
		"timestamp" :1555581600
		},
	"2019-04-18T14:00:00+02:00" : {
		"windSpeed" : 6.4,
		"windDir" : 187,
		"rain" : 0,
		"cloudbase" : 9211.1422600001,
		"flyability" : 0,
		"reason" : "windSpeed, windDir",
		"timestamp" :1555592400
		},
	"2019-04-18T17:00:00+02:00" : {
		"windSpeed" : 6.5,
		"windDir" : 188,
		"rain" : 0,
		"cloudbase" : 8338.7047749998,
		"flyability" : 0,
		"reason" : "windSpeed, windDir",
		"timestamp" :1555603200
		},
	"2019-04-18T20:00:00+02:00" : {
		"windSpeed" : 3.9,
		"windDir" : 218,
		"rain" : 0,
		"cloudbase" : 10652.93055,
		"flyability" : 0,
		"reason" : "windDir",
		"timestamp" :1555614000
		},
	"2019-04-18T23:00:00+02:00" : {
		"windSpeed" : 5.2,
		"windDir" : 220,
		"rain" : 0,
		"cloudbase" : null,
		"flyability" : 0,
		"reason" : "windSpeed, windDir",
		"timestamp" :1555624800
		},
	"2019-04-19T02:00:00+02:00" : {
		"windSpeed" : 3.2,
		"windDir" : 227,
		"rain" : 0,
		"cloudbase" : 4800,
		"flyability" : 0,
		"reason" : "windDir",
		"timestamp" :1555635600
		},
	"2019-04-19T05:00:00+02:00" : {
		"windSpeed" : 2.8,
		"windDir" : 223,
		"rain" : 1,
		"cloudbase" : 5302.84721,
		"flyability" : 0,
		"reason" : "windDir, rain",
		"timestamp" :1555646400
		},
	"2019-04-19T08:00:00+02:00" : {
		"windSpeed" : 2.4,
		"windDir" : 229,
		"rain" : 0,
		"cloudbase" : 7498.7183699999,
		"flyability" : 0,
		"reason" : "windDir",
		"timestamp" :1555657200
		},
	"2019-04-19T11:00:00+02:00" : {
		"windSpeed" : 1.7,
		"windDir" : 183,
		"rain" : 0,
		"cloudbase" : 4200,
		"flyability" : 0,
		"reason" : "windDir",
		"timestamp" :1555668000
		},
	"2019-04-19T14:00:00+02:00" : {
		"windSpeed" : 2.4,
		"windDir" : 192,
		"rain" : 0,
		"cloudbase" : 6497.12611,
		"flyability" : 0,
		"reason" : "windDir",
		"timestamp" :1555678800
		},
	"2019-04-19T17:00:00+02:00" : {
		"windSpeed" : 2.1,
		"windDir" : 228,
		"rain" : 0,
		"cloudbase" : 6133.31,
		"flyability" : 0,
		"reason" : "windDir",
		"timestamp" :1555689600
		},
	"2019-04-19T20:00:00+02:00" : {
		"windSpeed" : 1,
		"windDir" : 269,
		"rain" : 0,
		"cloudbase" : 3944.43554,
		"flyability" : 0,
		"reason" : "windDir",
		"timestamp" :1555700400
		},
	"2019-04-19T23:00:00+02:00" : {
		"windSpeed" : 2.4,
		"windDir" : 272,
		"rain" : 1,
		"cloudbase" : 3798.633055,
		"flyability" : 0,
		"reason" : "windDir, rain",
		"timestamp" :1555711200
		},
	"2019-04-20T02:00:00+02:00" : {
		"windSpeed" : 1.9,
		"windDir" : 288,
		"rain" : 0,
		"cloudbase" : 5595.9088800001,
		"flyability" : 0,
		"reason" : "windDir",
		"timestamp" :1555722000
		},
	"2019-04-20T05:00:00+02:00" : {
		"windSpeed" : 1.2,
		"windDir" : 330,
		"rain" : 0,
		"cloudbase" : 3541.69,
		"flyability" : 0,
		"reason" : "windDir",
		"timestamp" :1555732800
		},
	"2019-04-20T08:00:00+02:00" : {
		"windSpeed" : 1.2,
		"windDir" : 335,
		"rain" : 0,
		"cloudbase" : 3583.44167,
		"flyability" : 0,
		"reason" : "windDir",
		"timestamp" :1555743600
		},
	"2019-04-20T11:00:00+02:00" : {
		"windSpeed" : 1.9,
		"windDir" : 36,
		"rain" : 1,
		"cloudbase" : 6280.68611,
		"flyability" : 0,
		"reason" : "windDir, rain",
		"timestamp" :1555754400
		},
	"2019-04-20T14:00:00+02:00" : {
		"windSpeed" : 2.5,
		"windDir" : 39,
		"rain" : 1,
		"cloudbase" : null,
		"flyability" : 0,
		"reason" : "windDir, rain",
		"timestamp" :1555765200
		}
	}
}