{
"site" : "Monceaux - treyssac entauve",
"id" : 2655,
"orientations" : "00000002",
"forecasts" : { 
	"2019-04-18T05:00:00+02:00" : {
		"windSpeed" : 3.9,
		"windDir" : 114,
		"rain" : 0,
		"cloudbase" : null,
		"flyability" : 0,
		"reason" : "windDir",
		"timestamp" :1555560000
		},
	"2019-04-18T08:00:00+02:00" : {
		"windSpeed" : 4.7,
		"windDir" : 114,
		"rain" : 0,
		"cloudbase" : 7233.88571,
		"flyability" : 0,
		"reason" : "windDir",
		"timestamp" :1555570800
		},
	"2019-04-18T11:00:00+02:00" : {
		"windSpeed" : 4.5,
		"windDir" : 128,
		"rain" : 0,
		"cloudbase" : null,
		"flyability" : 0,
		"reason" : "windDir",
		"timestamp" :1555581600
		},
	"2019-04-18T14:00:00+02:00" : {
		"windSpeed" : 5.6,
		"windDir" : 144,
		"rain" : 0,
		"cloudbase" : 6308.82284,
		"flyability" : 0,
		"reason" : "windSpeed, windDir",
		"timestamp" :1555592400
		},
	"2019-04-18T17:00:00+02:00" : {
		"windSpeed" : 5.2,
		"windDir" : 140,
		"rain" : 0,
		"cloudbase" : 9434.43429,
		"flyability" : 0,
		"reason" : "windSpeed, windDir",
		"timestamp" :1555603200
		},
	"2019-04-18T20:00:00+02:00" : {
		"windSpeed" : 3.8,
		"windDir" : 121,
		"rain" : 0,
		"cloudbase" : 9962.50429,
		"flyability" : 0,
		"reason" : "windDir",
		"timestamp" :1555614000
		},
	"2019-04-18T23:00:00+02:00" : {
		"windSpeed" : 4.1,
		"windDir" : 113,
		"rain" : 0,
		"cloudbase" : 8608.64426,
		"flyability" : 0,
		"reason" : "windDir",
		"timestamp" :1555624800
		},
	"2019-04-19T02:00:00+02:00" : {
		"windSpeed" : 3.8,
		"windDir" : 111,
		"rain" : 0,
		"cloudbase" : 11011.02855,
		"flyability" : 0,
		"reason" : "windDir",
		"timestamp" :1555635600
		},
	"2019-04-19T05:00:00+02:00" : {
		"windSpeed" : 2.6,
		"windDir" : 101,
		"rain" : 0,
		"cloudbase" : 11500,
		"flyability" : 0,
		"reason" : "windDir",
		"timestamp" :1555646400
		},
	"2019-04-19T08:00:00+02:00" : {
		"windSpeed" : 3,
		"windDir" : 88,
		"rain" : 0,
		"cloudbase" : null,
		"flyability" : 0,
		"reason" : "windDir",
		"timestamp" :1555657200
		},
	"2019-04-19T11:00:00+02:00" : {
		"windSpeed" : 5.1,
		"windDir" : 123,
		"rain" : 0,
		"cloudbase" : 10000,
		"flyability" : 0,
		"reason" : "windSpeed, windDir",
		"timestamp" :1555668000
		},
	"2019-04-19T14:00:00+02:00" : {
		"windSpeed" : 5.2,
		"windDir" : 133,
		"rain" : 0,
		"cloudbase" : 9327.21429,
		"flyability" : 0,
		"reason" : "windSpeed, windDir",
		"timestamp" :1555678800
		},
	"2019-04-19T17:00:00+02:00" : {
		"windSpeed" : 4.2,
		"windDir" : 147,
		"rain" : 0,
		"cloudbase" : null,
		"flyability" : 0,
		"reason" : "windDir",
		"timestamp" :1555689600
		},
	"2019-04-19T20:00:00+02:00" : {
		"windSpeed" : 3.4,
		"windDir" : 158,
		"rain" : 0,
		"cloudbase" : null,
		"flyability" : 0,
		"reason" : "windDir",
		"timestamp" :1555700400
		},
	"2019-04-19T23:00:00+02:00" : {
		"windSpeed" : 2.1,
		"windDir" : 101,
		"rain" : 0,
		"cloudbase" : null,
		"flyability" : 0,
		"reason" : "windDir",
		"timestamp" :1555711200
		},
	"2019-04-20T02:00:00+02:00" : {
		"windSpeed" : 2.6,
		"windDir" : 74,
		"rain" : 0,
		"cloudbase" : null,
		"flyability" : 0,
		"reason" : "windDir",
		"timestamp" :1555722000
		},
	"2019-04-20T05:00:00+02:00" : {
		"windSpeed" : 2.5,
		"windDir" : 66,
		"rain" : 0,
		"cloudbase" : null,
		"flyability" : 0,
		"reason" : "windDir",
		"timestamp" :1555732800
		},
	"2019-04-20T08:00:00+02:00" : {
		"windSpeed" : 2.8,
		"windDir" : 82,
		"rain" : 0,
		"cloudbase" : 9364.71,
		"flyability" : 0,
		"reason" : "windDir",
		"timestamp" :1555743600
		},
	"2019-04-20T11:00:00+02:00" : {
		"windSpeed" : 2,
		"windDir" : 93,
		"rain" : 0,
		"cloudbase" : null,
		"flyability" : 0,
		"reason" : "windDir",
		"timestamp" :1555754400
		},
	"2019-04-20T14:00:00+02:00" : {
		"windSpeed" : 1.2,
		"windDir" : 55,
		"rain" : 0,
		"cloudbase" : null,
		"flyability" : 0,
		"reason" : "windDir",
		"timestamp" :1555765200
		},
	"2019-04-20T17:00:00+02:00" : {
		"windSpeed" : 2.7,
		"windDir" : 34,
		"rain" : 1,
		"cloudbase" : null,
		"flyability" : 0,
		"reason" : "windDir, rain",
		"timestamp" :1555776000
		},
	"2019-04-20T20:00:00+02:00" : {
		"windSpeed" : 1.7,
		"windDir" : 90,
		"rain" : 1,
		"cloudbase" : null,
		"flyability" : 0,
		"reason" : "windDir, rain",
		"timestamp" :1555786800
		},
	"2019-04-20T23:00:00+02:00" : {
		"windSpeed" : 1.8,
		"windDir" : 78,
		"rain" : 0,
		"cloudbase" : null,
		"flyability" : 0,
		"reason" : "windDir",
		"timestamp" :1555797600
		},
	"2019-04-21T02:00:00+02:00" : {
		"windSpeed" : 2.3,
		"windDir" : 85,
		"rain" : 0,
		"cloudbase" : null,
		"flyability" : 0,
		"reason" : "windDir",
		"timestamp" :1555808400
		},
	"2019-04-21T05:00:00+02:00" : {
		"windSpeed" : 2.7,
		"windDir" : 59,
		"rain" : 0,
		"cloudbase" : 8344.71571,
		"flyability" : 0,
		"reason" : "windDir",
		"timestamp" :1555819200
		},
	"2019-04-21T08:00:00+02:00" : {
		"windSpeed" : 3.3,
		"windDir" : 59,
		"rain" : 0,
		"cloudbase" : 6785.02,
		"flyability" : 0,
		"reason" : "windDir",
		"timestamp" :1555830000
		},
	"2019-04-21T11:00:00+02:00" : {
		"windSpeed" : 1.6,
		"windDir" : 155,
		"rain" : 0,
		"cloudbase" : null,
		"flyability" : 0,
		"reason" : "windDir",
		"timestamp" :1555840800
		},
	"2019-04-21T14:00:00+02:00" : {
		"windSpeed" : 0.7,
		"windDir" : 136,
		"rain" : 1,
		"cloudbase" : 8401.40429,
		"flyability" : 0,
		"reason" : "windDir, rain",
		"timestamp" :1555851600
		},
	"2019-04-21T17:00:00+02:00" : {
		"windSpeed" : 2.6,
		"windDir" : 191,
		"rain" : 1,
		"cloudbase" : 3473.46071,
		"flyability" : 0,
		"reason" : "windDir, rain",
		"timestamp" :1555862400
		},
	"2019-04-21T20:00:00+02:00" : {
		"windSpeed" : 0.5,
		"windDir" : 181,
		"rain" : 1,
		"cloudbase" : 4274.147735,
		"flyability" : 0,
		"reason" : "windDir, rain",
		"timestamp" :1555873200
		},
	"2019-04-21T23:00:00+02:00" : {
		"windSpeed" : 3.1,
		"windDir" : 29,
		"rain" : 1,
		"cloudbase" : 7084.7863149999,
		"flyability" : 0,
		"reason" : "windDir, rain",
		"timestamp" :1555884000
		},
	"2019-04-22T02:00:00+02:00" : {
		"windSpeed" : 3,
		"windDir" : 67,
		"rain" : 0,
		"cloudbase" : 9002.20571,
		"flyability" : 0,
		"reason" : "windDir",
		"timestamp" :1555894800
		},
	"2019-04-22T05:00:00+02:00" : {
		"windSpeed" : 2.3,
		"windDir" : 59,
		"rain" : 1,
		"cloudbase" : 7324.90994,
		"flyability" : 0,
		"reason" : "windDir, rain",
		"timestamp" :1555905600
		},
	"2019-04-22T08:00:00+02:00" : {
		"windSpeed" : 2.6,
		"windDir" : 50,
		"rain" : 1,
		"cloudbase" : 4342.152145,
		"flyability" : 0,
		"reason" : "windDir, rain",
		"timestamp" :1555916400
		},
	"2019-04-22T11:00:00+02:00" : {
		"windSpeed" : 1.7,
		"windDir" : 83,
		"rain" : 1,
		"cloudbase" : 7098.1114199999,
		"flyability" : 0,
		"reason" : "windDir, rain",
		"timestamp" :1555927200
		},
	"2019-04-22T14:00:00+02:00" : {
		"windSpeed" : 1,
		"windDir" : 50,
		"rain" : 1,
		"cloudbase" : 8585.50571,
		"flyability" : 0,
		"reason" : "windDir, rain",
		"timestamp" :1555938000
		},
	"2019-04-22T17:00:00+02:00" : {
		"windSpeed" : 1.1,
		"windDir" : 297,
		"rain" : 1,
		"cloudbase" : 9262.50429,
		"flyability" : 0,
		"reason" : "rain",
		"timestamp" :1555948800
		},
	"2019-04-22T20:00:00+02:00" : {
		"windSpeed" : 1.4,
		"windDir" : 316,
		"rain" : 1,
		"cloudbase" : 2615.44133,
		"flyability" : 0,
		"reason" : "rain",
		"timestamp" :1555959600
		},
	"2019-04-22T23:00:00+02:00" : {
		"windSpeed" : 3.2,
		"windDir" : 185,
		"rain" : 0,
		"cloudbase" : 2507.120725,
		"flyability" : 0,
		"reason" : "windDir",
		"timestamp" :1555970400
		},
	"2019-04-23T02:00:00+02:00" : {
		"windSpeed" : 1,
		"windDir" : 73,
		"rain" : 1,
		"cloudbase" : 2455.01429,
		"flyability" : 0,
		"reason" : "windDir, rain",
		"timestamp" :1555981200
		},
	"2019-04-23T05:00:00+02:00" : {
		"windSpeed" : 3,
		"windDir" : 63,
		"rain" : 1,
		"cloudbase" : 1851.102855,
		"flyability" : 0,
		"reason" : "windDir, rain",
		"timestamp" :1555992000
		},
	"2019-04-23T08:00:00+02:00" : {
		"windSpeed" : 2.4,
		"windDir" : 73,
		"rain" : 0,
		"cloudbase" : null,
		"flyability" : 0,
		"reason" : "windDir",
		"timestamp" :1556002800
		},
	"2019-04-23T11:00:00+02:00" : {
		"windSpeed" : 3.8,
		"windDir" : 128,
		"rain" : 0,
		"cloudbase" : null,
		"flyability" : 0,
		"reason" : "windDir",
		"timestamp" :1556013600
		},
	"2019-04-23T14:00:00+02:00" : {
		"windSpeed" : 6.4,
		"windDir" : 140,
		"rain" : 1,
		"cloudbase" : 3106.117145,
		"flyability" : 0,
		"reason" : "windSpeed, windDir, rain",
		"timestamp" :1556024400
		},
	"2019-04-23T17:00:00+02:00" : {
		"windSpeed" : 5.9,
		"windDir" : 140,
		"rain" : 1,
		"cloudbase" : null,
		"flyability" : 0,
		"reason" : "windSpeed, windDir, rain",
		"timestamp" :1556035200
		},
	"2019-04-23T20:00:00+02:00" : {
		"windSpeed" : 3.8,
		"windDir" : 151,
		"rain" : 1,
		"cloudbase" : null,
		"flyability" : 0,
		"reason" : "windDir, rain",
		"timestamp" :1556046000
		},
	"2019-04-23T23:00:00+02:00" : {
		"windSpeed" : 3.3,
		"windDir" : 123,
		"rain" : 0,
		"cloudbase" : null,
		"flyability" : 0,
		"reason" : "windDir",
		"timestamp" :1556056800
		},
	"2019-04-24T02:00:00+02:00" : {
		"windSpeed" : 4.5,
		"windDir" : 141,
		"rain" : 0,
		"cloudbase" : 8443.91429,
		"flyability" : 0,
		"reason" : "windDir",
		"timestamp" :1556067600
		}
	}
}