{
"site" : "Chaudeyrolles",
"id" : 2822,
"orientations" : "22000000",
"forecasts" : { 
	"2019-04-18T05:00:00+02:00" : {
		"windSpeed" : 5.9,
		"windDir" : 161,
		"rain" : 0,
		"cloudbase" : 7771.13582,
		"flyability" : 0,
		"reason" : "windSpeed, windDir",
		"timestamp" :1555560000
		},
	"2019-04-18T08:00:00+02:00" : {
		"windSpeed" : 6.2,
		"windDir" : 162,
		"rain" : 0,
		"cloudbase" : 11013.3209,
		"flyability" : 0,
		"reason" : "windSpeed, windDir",
		"timestamp" :1555570800
		},
	"2019-04-18T11:00:00+02:00" : {
		"windSpeed" : 7.6,
		"windDir" : 163,
		"rain" : 0,
		"cloudbase" : 10815.5,
		"flyability" : 0,
		"reason" : "windSpeed, windDir",
		"timestamp" :1555581600
		},
	"2019-04-18T14:00:00+02:00" : {
		"windSpeed" : 7.5,
		"windDir" : 163,
		"rain" : 0,
		"cloudbase" : null,
		"flyability" : 0,
		"reason" : "windSpeed, windDir",
		"timestamp" :1555592400
		},
	"2019-04-18T17:00:00+02:00" : {
		"windSpeed" : 6.4,
		"windDir" : 171,
		"rain" : 0,
		"cloudbase" : 7658.54418,
		"flyability" : 0,
		"reason" : "windSpeed, windDir",
		"timestamp" :1555603200
		},
	"2019-04-18T20:00:00+02:00" : {
		"windSpeed" : 3.6,
		"windDir" : 180,
		"rain" : 0,
		"cloudbase" : 7278.35582,
		"flyability" : 0,
		"reason" : "windDir",
		"timestamp" :1555614000
		},
	"2019-04-18T23:00:00+02:00" : {
		"windSpeed" : 5.5,
		"windDir" : 164,
		"rain" : 0,
		"cloudbase" : 7572.21164,
		"flyability" : 0,
		"reason" : "windSpeed, windDir",
		"timestamp" :1555624800
		},
	"2019-04-19T02:00:00+02:00" : {
		"windSpeed" : 6.2,
		"windDir" : 167,
		"rain" : 0,
		"cloudbase" : 7450.56746,
		"flyability" : 0,
		"reason" : "windSpeed, windDir",
		"timestamp" :1555635600
		},
	"2019-04-19T05:00:00+02:00" : {
		"windSpeed" : 6.9,
		"windDir" : 161,
		"rain" : 0,
		"cloudbase" : 8254.0391,
		"flyability" : 0,
		"reason" : "windSpeed, windDir",
		"timestamp" :1555646400
		},
	"2019-04-19T08:00:00+02:00" : {
		"windSpeed" : 5.3,
		"windDir" : 163,
		"rain" : 0,
		"cloudbase" : 8941.45582,
		"flyability" : 0,
		"reason" : "windSpeed, windDir",
		"timestamp" :1555657200
		},
	"2019-04-19T11:00:00+02:00" : {
		"windSpeed" : 4.5,
		"windDir" : 158,
		"rain" : 0,
		"cloudbase" : 7548.7191,
		"flyability" : 0,
		"reason" : "windDir",
		"timestamp" :1555668000
		},
	"2019-04-19T14:00:00+02:00" : {
		"windSpeed" : 5.3,
		"windDir" : 162,
		"rain" : 0,
		"cloudbase" : 8967.6209,
		"flyability" : 0,
		"reason" : "windSpeed, windDir",
		"timestamp" :1555678800
		},
	"2019-04-19T17:00:00+02:00" : {
		"windSpeed" : 3.9,
		"windDir" : 166,
		"rain" : 0,
		"cloudbase" : null,
		"flyability" : 0,
		"reason" : "windDir",
		"timestamp" :1555689600
		},
	"2019-04-19T20:00:00+02:00" : {
		"windSpeed" : 1.5,
		"windDir" : 181,
		"rain" : 0,
		"cloudbase" : null,
		"flyability" : 0,
		"reason" : "windDir",
		"timestamp" :1555700400
		},
	"2019-04-19T23:00:00+02:00" : {
		"windSpeed" : 2.2,
		"windDir" : 199,
		"rain" : 0,
		"cloudbase" : null,
		"flyability" : 0,
		"reason" : "windDir",
		"timestamp" :1555711200
		},
	"2019-04-20T02:00:00+02:00" : {
		"windSpeed" : 2.8,
		"windDir" : 206,
		"rain" : 0,
		"cloudbase" : null,
		"flyability" : 0,
		"reason" : "windDir",
		"timestamp" :1555722000
		},
	"2019-04-20T05:00:00+02:00" : {
		"windSpeed" : 1.9,
		"windDir" : 229,
		"rain" : 0,
		"cloudbase" : null,
		"flyability" : 0,
		"reason" : "windDir",
		"timestamp" :1555732800
		},
	"2019-04-20T08:00:00+02:00" : {
		"windSpeed" : 1,
		"windDir" : 221,
		"rain" : 1,
		"cloudbase" : null,
		"flyability" : 0,
		"reason" : "windDir, rain",
		"timestamp" :1555743600
		},
	"2019-04-20T11:00:00+02:00" : {
		"windSpeed" : 0.5,
		"windDir" : 42,
		"rain" : 1,
		"cloudbase" : null,
		"flyability" : 0,
		"reason" : "rain",
		"timestamp" :1555754400
		},
	"2019-04-20T14:00:00+02:00" : {
		"windSpeed" : 2.3,
		"windDir" : 85,
		"rain" : 1,
		"cloudbase" : null,
		"flyability" : 0,
		"reason" : "windDir, rain",
		"timestamp" :1555765200
		},
	"2019-04-20T17:00:00+02:00" : {
		"windSpeed" : 2.8,
		"windDir" : 90,
		"rain" : 1,
		"cloudbase" : null,
		"flyability" : 0,
		"reason" : "windDir, rain",
		"timestamp" :1555776000
		},
	"2019-04-20T20:00:00+02:00" : {
		"windSpeed" : 0.5,
		"windDir" : 78,
		"rain" : 0,
		"cloudbase" : null,
		"flyability" : 0,
		"reason" : "windDir",
		"timestamp" :1555786800
		},
	"2019-04-20T23:00:00+02:00" : {
		"windSpeed" : 1.6,
		"windDir" : 69,
		"rain" : 0,
		"cloudbase" : null,
		"flyability" : 0,
		"reason" : "windDir",
		"timestamp" :1555797600
		},
	"2019-04-21T02:00:00+02:00" : {
		"windSpeed" : 1.2,
		"windDir" : 78,
		"rain" : 0,
		"cloudbase" : 7405.32836,
		"flyability" : 0,
		"reason" : "windDir",
		"timestamp" :1555808400
		},
	"2019-04-21T05:00:00+02:00" : {
		"windSpeed" : 1.4,
		"windDir" : 47,
		"rain" : 0,
		"cloudbase" : 6373.8,
		"flyability" : 100,
		"reason" : "",
		"timestamp" :1555819200
		},
	"2019-04-21T08:00:00+02:00" : {
		"windSpeed" : 1.6,
		"windDir" : 67,
		"rain" : 0,
		"cloudbase" : 6430.52328,
		"flyability" : 100,
		"reason" : "",
		"timestamp" :1555830000
		},
	"2019-04-21T11:00:00+02:00" : {
		"windSpeed" : 2.1,
		"windDir" : 122,
		"rain" : 1,
		"cloudbase" : 4339.95045,
		"flyability" : 0,
		"reason" : "windDir, rain",
		"timestamp" :1555840800
		},
	"2019-04-21T14:00:00+02:00" : {
		"windSpeed" : 3.8,
		"windDir" : 128,
		"rain" : 0,
		"cloudbase" : 3100.04839,
		"flyability" : 0,
		"reason" : "windDir",
		"timestamp" :1555851600
		},
	"2019-04-21T17:00:00+02:00" : {
		"windSpeed" : 2.5,
		"windDir" : 126,
		"rain" : 1,
		"cloudbase" : 3586.09791,
		"flyability" : 0,
		"reason" : "windDir, rain",
		"timestamp" :1555862400
		},
	"2019-04-21T20:00:00+02:00" : {
		"windSpeed" : 1,
		"windDir" : 33,
		"rain" : 1,
		"cloudbase" : 6964.99164,
		"flyability" : 0,
		"reason" : "rain",
		"timestamp" :1555873200
		},
	"2019-04-21T23:00:00+02:00" : {
		"windSpeed" : 1.5,
		"windDir" : 80,
		"rain" : 0,
		"cloudbase" : null,
		"flyability" : 0,
		"reason" : "windDir",
		"timestamp" :1555884000
		},
	"2019-04-22T02:00:00+02:00" : {
		"windSpeed" : 1.9,
		"windDir" : 91,
		"rain" : 0,
		"cloudbase" : 8136.9,
		"flyability" : 0,
		"reason" : "windDir",
		"timestamp" :1555894800
		},
	"2019-04-22T05:00:00+02:00" : {
		"windSpeed" : 1.9,
		"windDir" : 48,
		"rain" : 1,
		"cloudbase" : 6100.77254,
		"flyability" : 0,
		"reason" : "rain",
		"timestamp" :1555905600
		},
	"2019-04-22T08:00:00+02:00" : {
		"windSpeed" : 2.9,
		"windDir" : 39,
		"rain" : 0,
		"cloudbase" : 7895.44418,
		"flyability" : 100,
		"reason" : "",
		"timestamp" :1555916400
		},
	"2019-04-22T11:00:00+02:00" : {
		"windSpeed" : 2.6,
		"windDir" : 63,
		"rain" : 1,
		"cloudbase" : 7818.98,
		"flyability" : 0,
		"reason" : "rain",
		"timestamp" :1555927200
		},
	"2019-04-22T14:00:00+02:00" : {
		"windSpeed" : 2,
		"windDir" : 99,
		"rain" : 0,
		"cloudbase" : 8686.57672,
		"flyability" : 0,
		"reason" : "windDir",
		"timestamp" :1555938000
		},
	"2019-04-22T17:00:00+02:00" : {
		"windSpeed" : 3,
		"windDir" : 89,
		"rain" : 0,
		"cloudbase" : 2100,
		"flyability" : 0,
		"reason" : "windDir",
		"timestamp" :1555948800
		},
	"2019-04-22T20:00:00+02:00" : {
		"windSpeed" : 1.7,
		"windDir" : 113,
		"rain" : 0,
		"cloudbase" : 4706.70479,
		"flyability" : 0,
		"reason" : "windDir",
		"timestamp" :1555959600
		},
	"2019-04-22T23:00:00+02:00" : {
		"windSpeed" : 2.8,
		"windDir" : 171,
		"rain" : 1,
		"cloudbase" : 6338.30656,
		"flyability" : 0,
		"reason" : "windDir, rain",
		"timestamp" :1555970400
		},
	"2019-04-23T02:00:00+02:00" : {
		"windSpeed" : 1.3,
		"windDir" : 140,
		"rain" : 1,
		"cloudbase" : 1666.17209,
		"flyability" : 0,
		"reason" : "windDir, rain",
		"timestamp" :1555981200
		},
	"2019-04-23T05:00:00+02:00" : {
		"windSpeed" : 1.6,
		"windDir" : 115,
		"rain" : 0,
		"cloudbase" : 4959.0479100002,
		"flyability" : 0,
		"reason" : "windDir",
		"timestamp" :1555992000
		},
	"2019-04-23T08:00:00+02:00" : {
		"windSpeed" : 1.9,
		"windDir" : 112,
		"rain" : 1,
		"cloudbase" : null,
		"flyability" : 0,
		"reason" : "windDir, rain",
		"timestamp" :1556002800
		},
	"2019-04-23T11:00:00+02:00" : {
		"windSpeed" : 3.7,
		"windDir" : 126,
		"rain" : 1,
		"cloudbase" : null,
		"flyability" : 0,
		"reason" : "windDir, rain",
		"timestamp" :1556013600
		},
	"2019-04-23T14:00:00+02:00" : {
		"windSpeed" : 5.5,
		"windDir" : 137,
		"rain" : 1,
		"cloudbase" : 4350,
		"flyability" : 0,
		"reason" : "windSpeed, windDir, rain",
		"timestamp" :1556024400
		},
	"2019-04-23T17:00:00+02:00" : {
		"windSpeed" : 5.2,
		"windDir" : 149,
		"rain" : 1,
		"cloudbase" : null,
		"flyability" : 0,
		"reason" : "windSpeed, windDir, rain",
		"timestamp" :1556035200
		},
	"2019-04-23T20:00:00+02:00" : {
		"windSpeed" : 4.8,
		"windDir" : 146,
		"rain" : 1,
		"cloudbase" : 200,
		"flyability" : 0,
		"reason" : "windDir, rain, cloudbase",
		"timestamp" :1556046000
		},
	"2019-04-23T23:00:00+02:00" : {
		"windSpeed" : 6.4,
		"windDir" : 147,
		"rain" : 0,
		"cloudbase" : 440,
		"flyability" : 0,
		"reason" : "windSpeed, windDir, cloudbase",
		"timestamp" :1556056800
		},
	"2019-04-24T02:00:00+02:00" : {
		"windSpeed" : 7.4,
		"windDir" : 147,
		"rain" : 1,
		"cloudbase" : 265.18777200019,
		"flyability" : 0,
		"reason" : "windSpeed, windDir, rain, cloudbase",
		"timestamp" :1556067600
		}
	}
}