{
"site" : "Laparade",
"id" : 2837,
"orientations" : "00020000",
"forecasts" : { 
	"2019-04-14T05:00:00+02:00" : {
		"windSpeed" : 1.8,
		"windDir" : 31,
		"rain" : 0,
		"cloudbase" : 4590.4142,
		"flyability" : 0,
		"reason" : "windDir",
		"timestamp" :1555214400
		},
	"2019-04-14T08:00:00+02:00" : {
		"windSpeed" : 2,
		"windDir" : 12,
		"rain" : 0,
		"cloudbase" : 2400,
		"flyability" : 0,
		"reason" : "windDir",
		"timestamp" :1555225200
		},
	"2019-04-14T11:00:00+02:00" : {
		"windSpeed" : 1.6,
		"windDir" : 342,
		"rain" : 1,
		"cloudbase" : 1567.9358,
		"flyability" : 0,
		"reason" : "windDir, rain",
		"timestamp" :1555236000
		},
	"2019-04-14T14:00:00+02:00" : {
		"windSpeed" : 1.8,
		"windDir" : 304,
		"rain" : 1,
		"cloudbase" : 3874.5287,
		"flyability" : 0,
		"reason" : "windDir, rain",
		"timestamp" :1555246800
		},
	"2019-04-14T17:00:00+02:00" : {
		"windSpeed" : 2.3,
		"windDir" : 329,
		"rain" : 0,
		"cloudbase" : null,
		"flyability" : 0,
		"reason" : "windDir",
		"timestamp" :1555257600
		},
	"2019-04-14T20:00:00+02:00" : {
		"windSpeed" : 1.5,
		"windDir" : 11,
		"rain" : 0,
		"cloudbase" : null,
		"flyability" : 0,
		"reason" : "windDir",
		"timestamp" :1555268400
		},
	"2019-04-14T23:00:00+02:00" : {
		"windSpeed" : 2.3,
		"windDir" : 20,
		"rain" : 0,
		"cloudbase" : null,
		"flyability" : 0,
		"reason" : "windDir",
		"timestamp" :1555279200
		},
	"2019-04-15T02:00:00+02:00" : {
		"windSpeed" : 2.1,
		"windDir" : 76,
		"rain" : 0,
		"cloudbase" : null,
		"flyability" : 0,
		"reason" : "windDir",
		"timestamp" :1555290000
		},
	"2019-04-15T05:00:00+02:00" : {
		"windSpeed" : 2.9,
		"windDir" : 87,
		"rain" : 0,
		"cloudbase" : 9300,
		"flyability" : 0,
		"reason" : "windDir",
		"timestamp" :1555300800
		},
	"2019-04-15T08:00:00+02:00" : {
		"windSpeed" : 3.6,
		"windDir" : 105,
		"rain" : 0,
		"cloudbase" : 10184.2426,
		"flyability" : 0,
		"reason" : "windDir",
		"timestamp" :1555311600
		},
	"2019-04-15T11:00:00+02:00" : {
		"windSpeed" : 4.3,
		"windDir" : 111,
		"rain" : 0,
		"cloudbase" : 7806.7284,
		"flyability" : 0,
		"reason" : "windDir",
		"timestamp" :1555322400
		},
	"2019-04-15T14:00:00+02:00" : {
		"windSpeed" : 4.7,
		"windDir" : 121,
		"rain" : 0,
		"cloudbase" : 5500,
		"flyability" : 100,
		"reason" : "",
		"timestamp" :1555333200
		},
	"2019-04-15T17:00:00+02:00" : {
		"windSpeed" : 5.8,
		"windDir" : 121,
		"rain" : 0,
		"cloudbase" : 5200,
		"flyability" : 0,
		"reason" : "windSpeed",
		"timestamp" :1555344000
		},
	"2019-04-15T20:00:00+02:00" : {
		"windSpeed" : 5,
		"windDir" : 135,
		"rain" : 1,
		"cloudbase" : 4604.6929,
		"flyability" : 0,
		"reason" : "rain",
		"timestamp" :1555354800
		},
	"2019-04-15T23:00:00+02:00" : {
		"windSpeed" : 3.6,
		"windDir" : 151,
		"rain" : 1,
		"cloudbase" : 2232.0642,
		"flyability" : 0,
		"reason" : "rain",
		"timestamp" :1555365600
		},
	"2019-04-16T02:00:00+02:00" : {
		"windSpeed" : 3.7,
		"windDir" : 169,
		"rain" : 1,
		"cloudbase" : 633.62284,
		"flyability" : 0,
		"reason" : "windDir, rain",
		"timestamp" :1555376400
		},
	"2019-04-16T05:00:00+02:00" : {
		"windSpeed" : 5.2,
		"windDir" : 271,
		"rain" : 1,
		"cloudbase" : 317.05852,
		"flyability" : 0,
		"reason" : "windSpeed, windDir, rain",
		"timestamp" :1555387200
		},
	"2019-04-16T08:00:00+02:00" : {
		"windSpeed" : 4.7,
		"windDir" : 270,
		"rain" : 1,
		"cloudbase" : 325.55,
		"flyability" : 0,
		"reason" : "windDir, rain",
		"timestamp" :1555398000
		},
	"2019-04-16T11:00:00+02:00" : {
		"windSpeed" : 5.2,
		"windDir" : 287,
		"rain" : 1,
		"cloudbase" : 880,
		"flyability" : 0,
		"reason" : "windSpeed, windDir, rain",
		"timestamp" :1555408800
		},
	"2019-04-16T14:00:00+02:00" : {
		"windSpeed" : 4.2,
		"windDir" : 292,
		"rain" : 0,
		"cloudbase" : 1519.2071,
		"flyability" : 0,
		"reason" : "windDir",
		"timestamp" :1555419600
		},
	"2019-04-16T17:00:00+02:00" : {
		"windSpeed" : 3.4,
		"windDir" : 311,
		"rain" : 0,
		"cloudbase" : 2100,
		"flyability" : 0,
		"reason" : "windDir",
		"timestamp" :1555430400
		},
	"2019-04-16T20:00:00+02:00" : {
		"windSpeed" : 1.4,
		"windDir" : 320,
		"rain" : 0,
		"cloudbase" : null,
		"flyability" : 0,
		"reason" : "windDir",
		"timestamp" :1555441200
		},
	"2019-04-16T23:00:00+02:00" : {
		"windSpeed" : 2.4,
		"windDir" : 38,
		"rain" : 1,
		"cloudbase" : null,
		"flyability" : 0,
		"reason" : "windDir, rain",
		"timestamp" :1555452000
		},
	"2019-04-17T02:00:00+02:00" : {
		"windSpeed" : 3.2,
		"windDir" : 69,
		"rain" : 1,
		"cloudbase" : null,
		"flyability" : 0,
		"reason" : "windDir, rain",
		"timestamp" :1555462800
		},
	"2019-04-17T05:00:00+02:00" : {
		"windSpeed" : 3.8,
		"windDir" : 122,
		"rain" : 0,
		"cloudbase" : 8332.4716,
		"flyability" : 100,
		"reason" : "",
		"timestamp" :1555473600
		},
	"2019-04-17T08:00:00+02:00" : {
		"windSpeed" : 4.3,
		"windDir" : 109,
		"rain" : 0,
		"cloudbase" : 6629.0284,
		"flyability" : 0,
		"reason" : "windDir",
		"timestamp" :1555484400
		},
	"2019-04-17T11:00:00+02:00" : {
		"windSpeed" : 5.5,
		"windDir" : 123,
		"rain" : 0,
		"cloudbase" : 7821.9142,
		"flyability" : 0,
		"reason" : "windSpeed",
		"timestamp" :1555495200
		},
	"2019-04-17T14:00:00+02:00" : {
		"windSpeed" : 5.2,
		"windDir" : 119,
		"rain" : 1,
		"cloudbase" : 9349.9,
		"flyability" : 0,
		"reason" : "windSpeed, rain",
		"timestamp" :1555506000
		},
	"2019-04-17T17:00:00+02:00" : {
		"windSpeed" : 5.6,
		"windDir" : 117,
		"rain" : 1,
		"cloudbase" : 9700,
		"flyability" : 0,
		"reason" : "windSpeed, rain",
		"timestamp" :1555516800
		},
	"2019-04-17T20:00:00+02:00" : {
		"windSpeed" : 4.7,
		"windDir" : 115,
		"rain" : 0,
		"cloudbase" : 10287,
		"flyability" : 100,
		"reason" : "",
		"timestamp" :1555527600
		},
	"2019-04-17T23:00:00+02:00" : {
		"windSpeed" : 5.3,
		"windDir" : 119,
		"rain" : 1,
		"cloudbase" : 10500,
		"flyability" : 0,
		"reason" : "windSpeed, rain",
		"timestamp" :1555538400
		},
	"2019-04-18T02:00:00+02:00" : {
		"windSpeed" : 5,
		"windDir" : 115,
		"rain" : 0,
		"cloudbase" : 10239.071,
		"flyability" : 100,
		"reason" : "",
		"timestamp" :1555549200
		},
	"2019-04-18T05:00:00+02:00" : {
		"windSpeed" : 5,
		"windDir" : 115,
		"rain" : 0,
		"cloudbase" : 9609.5858,
		"flyability" : 100,
		"reason" : "",
		"timestamp" :1555560000
		},
	"2019-04-18T08:00:00+02:00" : {
		"windSpeed" : 5.3,
		"windDir" : 110,
		"rain" : 0,
		"cloudbase" : 9325.9,
		"flyability" : 0,
		"reason" : "windSpeed, windDir",
		"timestamp" :1555570800
		},
	"2019-04-18T11:00:00+02:00" : {
		"windSpeed" : 6.5,
		"windDir" : 118,
		"rain" : 0,
		"cloudbase" : 8480.8284,
		"flyability" : 0,
		"reason" : "windSpeed",
		"timestamp" :1555581600
		},
	"2019-04-18T14:00:00+02:00" : {
		"windSpeed" : 5.4,
		"windDir" : 117,
		"rain" : 0,
		"cloudbase" : 7638.3432,
		"flyability" : 0,
		"reason" : "windSpeed",
		"timestamp" :1555592400
		},
	"2019-04-18T17:00:00+02:00" : {
		"windSpeed" : 5.6,
		"windDir" : 117,
		"rain" : 0,
		"cloudbase" : 10529.355,
		"flyability" : 0,
		"reason" : "windSpeed",
		"timestamp" :1555603200
		},
	"2019-04-18T20:00:00+02:00" : {
		"windSpeed" : 4.8,
		"windDir" : 110,
		"rain" : 0,
		"cloudbase" : 5600,
		"flyability" : 0,
		"reason" : "windDir",
		"timestamp" :1555614000
		},
	"2019-04-18T23:00:00+02:00" : {
		"windSpeed" : 5.7,
		"windDir" : 108,
		"rain" : 0,
		"cloudbase" : 10974.1106,
		"flyability" : 0,
		"reason" : "windSpeed, windDir",
		"timestamp" :1555624800
		},
	"2019-04-19T02:00:00+02:00" : {
		"windSpeed" : 4.2,
		"windDir" : 105,
		"rain" : 0,
		"cloudbase" : 9741.1804000002,
		"flyability" : 0,
		"reason" : "windDir",
		"timestamp" :1555635600
		},
	"2019-04-19T05:00:00+02:00" : {
		"windSpeed" : 2.5,
		"windDir" : 91,
		"rain" : 0,
		"cloudbase" : 6100,
		"flyability" : 0,
		"reason" : "windDir",
		"timestamp" :1555646400
		},
	"2019-04-19T08:00:00+02:00" : {
		"windSpeed" : 3,
		"windDir" : 77,
		"rain" : 1,
		"cloudbase" : null,
		"flyability" : 0,
		"reason" : "windDir, rain",
		"timestamp" :1555657200
		},
	"2019-04-19T11:00:00+02:00" : {
		"windSpeed" : 6.3,
		"windDir" : 114,
		"rain" : 0,
		"cloudbase" : 9057.0142,
		"flyability" : 0,
		"reason" : "windSpeed",
		"timestamp" :1555668000
		},
	"2019-04-19T14:00:00+02:00" : {
		"windSpeed" : 7.3,
		"windDir" : 124,
		"rain" : 0,
		"cloudbase" : 9600,
		"flyability" : 0,
		"reason" : "windSpeed",
		"timestamp" :1555678800
		},
	"2019-04-19T17:00:00+02:00" : {
		"windSpeed" : 6.3,
		"windDir" : 119,
		"rain" : 0,
		"cloudbase" : null,
		"flyability" : 0,
		"reason" : "windSpeed",
		"timestamp" :1555689600
		},
	"2019-04-19T20:00:00+02:00" : {
		"windSpeed" : 5.1,
		"windDir" : 107,
		"rain" : 0,
		"cloudbase" : null,
		"flyability" : 0,
		"reason" : "windSpeed, windDir",
		"timestamp" :1555700400
		},
	"2019-04-19T23:00:00+02:00" : {
		"windSpeed" : 4.1,
		"windDir" : 97,
		"rain" : 0,
		"cloudbase" : null,
		"flyability" : 0,
		"reason" : "windDir",
		"timestamp" :1555711200
		},
	"2019-04-20T02:00:00+02:00" : {
		"windSpeed" : 4.1,
		"windDir" : 76,
		"rain" : 0,
		"cloudbase" : null,
		"flyability" : 0,
		"reason" : "windDir",
		"timestamp" :1555722000
		}
	}
}