{
"site" : "Haute-kontz",
"id" : 2874,
"orientations" : "00011000",
"forecasts" : { 
	"2019-04-20T17:00:00+02:00" : {
		"windSpeed" : 3.9,
		"windDir" : 66,
		"rain" : 0,
		"cloudbase" : null,
		"flyability" : 0,
		"reason" : "windDir",
		"timestamp" :1555776000
		},
	"2019-04-20T20:00:00+02:00" : {
		"windSpeed" : 2.4,
		"windDir" : 52,
		"rain" : 0,
		"cloudbase" : null,
		"flyability" : 0,
		"reason" : "windDir",
		"timestamp" :1555786800
		},
	"2019-04-20T23:00:00+02:00" : {
		"windSpeed" : 3.1,
		"windDir" : 50,
		"rain" : 0,
		"cloudbase" : null,
		"flyability" : 0,
		"reason" : "windDir",
		"timestamp" :1555797600
		},
	"2019-04-21T02:00:00+02:00" : {
		"windSpeed" : 2.9,
		"windDir" : 38,
		"rain" : 0,
		"cloudbase" : null,
		"flyability" : 0,
		"reason" : "windDir",
		"timestamp" :1555808400
		},
	"2019-04-21T05:00:00+02:00" : {
		"windSpeed" : 2.4,
		"windDir" : 48,
		"rain" : 0,
		"cloudbase" : null,
		"flyability" : 0,
		"reason" : "windDir",
		"timestamp" :1555819200
		},
	"2019-04-21T08:00:00+02:00" : {
		"windSpeed" : 2.4,
		"windDir" : 32,
		"rain" : 0,
		"cloudbase" : null,
		"flyability" : 0,
		"reason" : "windDir",
		"timestamp" :1555830000
		},
	"2019-04-21T11:00:00+02:00" : {
		"windSpeed" : 3,
		"windDir" : 61,
		"rain" : 0,
		"cloudbase" : null,
		"flyability" : 0,
		"reason" : "windDir",
		"timestamp" :1555840800
		},
	"2019-04-21T14:00:00+02:00" : {
		"windSpeed" : 4.5,
		"windDir" : 94,
		"rain" : 0,
		"cloudbase" : null,
		"flyability" : 0,
		"reason" : "windDir",
		"timestamp" :1555851600
		},
	"2019-04-21T17:00:00+02:00" : {
		"windSpeed" : 3.5,
		"windDir" : 82,
		"rain" : 0,
		"cloudbase" : null,
		"flyability" : 0,
		"reason" : "windDir",
		"timestamp" :1555862400
		},
	"2019-04-21T20:00:00+02:00" : {
		"windSpeed" : 2.1,
		"windDir" : 61,
		"rain" : 0,
		"cloudbase" : null,
		"flyability" : 0,
		"reason" : "windDir",
		"timestamp" :1555873200
		},
	"2019-04-21T23:00:00+02:00" : {
		"windSpeed" : 3.3,
		"windDir" : 63,
		"rain" : 0,
		"cloudbase" : null,
		"flyability" : 0,
		"reason" : "windDir",
		"timestamp" :1555884000
		},
	"2019-04-22T02:00:00+02:00" : {
		"windSpeed" : 2.7,
		"windDir" : 58,
		"rain" : 0,
		"cloudbase" : 9894.89379,
		"flyability" : 0,
		"reason" : "windDir",
		"timestamp" :1555894800
		},
	"2019-04-22T05:00:00+02:00" : {
		"windSpeed" : 2.3,
		"windDir" : 67,
		"rain" : 0,
		"cloudbase" : null,
		"flyability" : 0,
		"reason" : "windDir",
		"timestamp" :1555905600
		},
	"2019-04-22T08:00:00+02:00" : {
		"windSpeed" : 3,
		"windDir" : 64,
		"rain" : 0,
		"cloudbase" : 10000,
		"flyability" : 0,
		"reason" : "windDir",
		"timestamp" :1555916400
		},
	"2019-04-22T11:00:00+02:00" : {
		"windSpeed" : 4.6,
		"windDir" : 82,
		"rain" : 0,
		"cloudbase" : 9364.00621,
		"flyability" : 0,
		"reason" : "windDir",
		"timestamp" :1555927200
		},
	"2019-04-22T14:00:00+02:00" : {
		"windSpeed" : 5.2,
		"windDir" : 94,
		"rain" : 0,
		"cloudbase" : 9125.11621,
		"flyability" : 0,
		"reason" : "windSpeed, windDir",
		"timestamp" :1555938000
		},
	"2019-04-22T17:00:00+02:00" : {
		"windSpeed" : 4.1,
		"windDir" : 90,
		"rain" : 0,
		"cloudbase" : 8508.66758,
		"flyability" : 0,
		"reason" : "windDir",
		"timestamp" :1555948800
		},
	"2019-04-22T20:00:00+02:00" : {
		"windSpeed" : 3.4,
		"windDir" : 65,
		"rain" : 0,
		"cloudbase" : 7977.38621,
		"flyability" : 0,
		"reason" : "windDir",
		"timestamp" :1555959600
		},
	"2019-04-22T23:00:00+02:00" : {
		"windSpeed" : 5.3,
		"windDir" : 83,
		"rain" : 0,
		"cloudbase" : 8600.68621,
		"flyability" : 0,
		"reason" : "windSpeed, windDir",
		"timestamp" :1555970400
		},
	"2019-04-23T02:00:00+02:00" : {
		"windSpeed" : 5.5,
		"windDir" : 84,
		"rain" : 0,
		"cloudbase" : 6217.8,
		"flyability" : 0,
		"reason" : "windSpeed, windDir",
		"timestamp" :1555981200
		},
	"2019-04-23T05:00:00+02:00" : {
		"windSpeed" : 4.2,
		"windDir" : 68,
		"rain" : 0,
		"cloudbase" : null,
		"flyability" : 0,
		"reason" : "windDir",
		"timestamp" :1555992000
		},
	"2019-04-23T08:00:00+02:00" : {
		"windSpeed" : 4.5,
		"windDir" : 62,
		"rain" : 0,
		"cloudbase" : null,
		"flyability" : 0,
		"reason" : "windDir",
		"timestamp" :1556002800
		},
	"2019-04-23T11:00:00+02:00" : {
		"windSpeed" : 5.2,
		"windDir" : 92,
		"rain" : 0,
		"cloudbase" : null,
		"flyability" : 0,
		"reason" : "windSpeed, windDir",
		"timestamp" :1556013600
		},
	"2019-04-23T14:00:00+02:00" : {
		"windSpeed" : 4.7,
		"windDir" : 102,
		"rain" : 0,
		"cloudbase" : null,
		"flyability" : 0,
		"reason" : "windDir",
		"timestamp" :1556024400
		},
	"2019-04-23T17:00:00+02:00" : {
		"windSpeed" : 3.9,
		"windDir" : 119,
		"rain" : 0,
		"cloudbase" : 4850,
		"flyability" : 100,
		"reason" : "",
		"timestamp" :1556035200
		},
	"2019-04-23T20:00:00+02:00" : {
		"windSpeed" : 1.9,
		"windDir" : 122,
		"rain" : 0,
		"cloudbase" : 4910.913105,
		"flyability" : 100,
		"reason" : "",
		"timestamp" :1556046000
		},
	"2019-04-23T23:00:00+02:00" : {
		"windSpeed" : 2,
		"windDir" : 114,
		"rain" : 0,
		"cloudbase" : 6081.14105,
		"flyability" : 100,
		"reason" : "",
		"timestamp" :1556056800
		},
	"2019-04-24T02:00:00+02:00" : {
		"windSpeed" : 2.2,
		"windDir" : 115,
		"rain" : 0,
		"cloudbase" : 7707.31621,
		"flyability" : 100,
		"reason" : "",
		"timestamp" :1556067600
		},
	"2019-04-24T05:00:00+02:00" : {
		"windSpeed" : 2.1,
		"windDir" : 107,
		"rain" : 0,
		"cloudbase" : null,
		"flyability" : 0,
		"reason" : "windDir",
		"timestamp" :1556078400
		},
	"2019-04-24T08:00:00+02:00" : {
		"windSpeed" : 3.8,
		"windDir" : 213,
		"rain" : 1,
		"cloudbase" : null,
		"flyability" : 0,
		"reason" : "windDir, rain",
		"timestamp" :1556089200
		},
	"2019-04-24T11:00:00+02:00" : {
		"windSpeed" : 6.3,
		"windDir" : 193,
		"rain" : 1,
		"cloudbase" : null,
		"flyability" : 0,
		"reason" : "windSpeed, rain",
		"timestamp" :1556100000
		},
	"2019-04-24T14:00:00+02:00" : {
		"windSpeed" : 7.1,
		"windDir" : 201,
		"rain" : 0,
		"cloudbase" : null,
		"flyability" : 0,
		"reason" : "windSpeed",
		"timestamp" :1556110800
		},
	"2019-04-24T17:00:00+02:00" : {
		"windSpeed" : 6.4,
		"windDir" : 178,
		"rain" : 1,
		"cloudbase" : 8927.32621,
		"flyability" : 0,
		"reason" : "windSpeed, rain",
		"timestamp" :1556121600
		},
	"2019-04-24T20:00:00+02:00" : {
		"windSpeed" : 3,
		"windDir" : 146,
		"rain" : 0,
		"cloudbase" : 3472.90621,
		"flyability" : 100,
		"reason" : "",
		"timestamp" :1556132400
		},
	"2019-04-24T23:00:00+02:00" : {
		"windSpeed" : 5.5,
		"windDir" : 204,
		"rain" : 1,
		"cloudbase" : 1901.105,
		"flyability" : 0,
		"reason" : "windSpeed, windDir, rain",
		"timestamp" :1556143200
		},
	"2019-04-25T02:00:00+02:00" : {
		"windSpeed" : 4.6,
		"windDir" : 191,
		"rain" : 1,
		"cloudbase" : 2053.315,
		"flyability" : 0,
		"reason" : "rain",
		"timestamp" :1556154000
		},
	"2019-04-25T05:00:00+02:00" : {
		"windSpeed" : 4.9,
		"windDir" : 157,
		"rain" : 1,
		"cloudbase" : 3223.668105,
		"flyability" : 0,
		"reason" : "rain",
		"timestamp" :1556164800
		},
	"2019-04-25T08:00:00+02:00" : {
		"windSpeed" : 4.5,
		"windDir" : 147,
		"rain" : 1,
		"cloudbase" : null,
		"flyability" : 0,
		"reason" : "rain",
		"timestamp" :1556175600
		},
	"2019-04-25T11:00:00+02:00" : {
		"windSpeed" : 6,
		"windDir" : 166,
		"rain" : 0,
		"cloudbase" : 7277.09379,
		"flyability" : 0,
		"reason" : "windSpeed",
		"timestamp" :1556186400
		},
	"2019-04-25T14:00:00+02:00" : {
		"windSpeed" : 5.2,
		"windDir" : 192,
		"rain" : 1,
		"cloudbase" : 1900.54,
		"flyability" : 0,
		"reason" : "windSpeed, rain",
		"timestamp" :1556197200
		},
	"2019-04-25T17:00:00+02:00" : {
		"windSpeed" : 5.2,
		"windDir" : 198,
		"rain" : 1,
		"cloudbase" : 2654.71242,
		"flyability" : 0,
		"reason" : "windSpeed, rain",
		"timestamp" :1556208000
		},
	"2019-04-25T20:00:00+02:00" : {
		"windSpeed" : 3.9,
		"windDir" : 188,
		"rain" : 1,
		"cloudbase" : 3394.500685,
		"flyability" : 0,
		"reason" : "rain",
		"timestamp" :1556218800
		},
	"2019-04-25T23:00:00+02:00" : {
		"windSpeed" : 4,
		"windDir" : 187,
		"rain" : 1,
		"cloudbase" : 3769.626735,
		"flyability" : 0,
		"reason" : "rain",
		"timestamp" :1556229600
		},
	"2019-04-26T02:00:00+02:00" : {
		"windSpeed" : 4.3,
		"windDir" : 201,
		"rain" : 1,
		"cloudbase" : 4591.861895,
		"flyability" : 0,
		"reason" : "rain",
		"timestamp" :1556240400
		},
	"2019-04-26T05:00:00+02:00" : {
		"windSpeed" : 3,
		"windDir" : 177,
		"rain" : 0,
		"cloudbase" : 5381.41242,
		"flyability" : 100,
		"reason" : "",
		"timestamp" :1556251200
		},
	"2019-04-26T08:00:00+02:00" : {
		"windSpeed" : 3,
		"windDir" : 171,
		"rain" : 0,
		"cloudbase" : 6712.02863,
		"flyability" : 100,
		"reason" : "",
		"timestamp" :1556262000
		},
	"2019-04-26T11:00:00+02:00" : {
		"windSpeed" : 3.6,
		"windDir" : 196,
		"rain" : 0,
		"cloudbase" : 6330.6044300001,
		"flyability" : 100,
		"reason" : "",
		"timestamp" :1556272800
		},
	"2019-04-26T14:00:00+02:00" : {
		"windSpeed" : 5.8,
		"windDir" : 206,
		"rain" : 1,
		"cloudbase" : 6842.91621,
		"flyability" : 0,
		"reason" : "windSpeed, windDir, rain",
		"timestamp" :1556283600
		}
	}
}