{
"site" : "le Grand Bornand",
"id" : 3037,
"orientations" : "02000200",
"forecasts" : { 
	"2019-04-20T17:00:00+02:00" : {
		"windSpeed" : 1.1,
		"windDir" : 81,
		"rain" : 1,
		"cloudbase" : null,
		"flyability" : 0,
		"reason" : "windDir, rain",
		"timestamp" :1555776000
		},
	"2019-04-20T20:00:00+02:00" : {
		"windSpeed" : 1.4,
		"windDir" : 181,
		"rain" : 0,
		"cloudbase" : 8500,
		"flyability" : 0,
		"reason" : "windDir",
		"timestamp" :1555786800
		},
	"2019-04-20T23:00:00+02:00" : {
		"windSpeed" : 1.3,
		"windDir" : 168,
		"rain" : 0,
		"cloudbase" : 8148.0762,
		"flyability" : 0,
		"reason" : "windDir",
		"timestamp" :1555797600
		},
	"2019-04-21T02:00:00+02:00" : {
		"windSpeed" : 1.4,
		"windDir" : 172,
		"rain" : 0,
		"cloudbase" : 6376.1,
		"flyability" : 0,
		"reason" : "windDir",
		"timestamp" :1555808400
		},
	"2019-04-21T05:00:00+02:00" : {
		"windSpeed" : 0.8,
		"windDir" : 164,
		"rain" : 0,
		"cloudbase" : 7648.0762,
		"flyability" : 0,
		"reason" : "windDir",
		"timestamp" :1555819200
		},
	"2019-04-21T08:00:00+02:00" : {
		"windSpeed" : 1.1,
		"windDir" : 170,
		"rain" : 0,
		"cloudbase" : 7093.3286000001,
		"flyability" : 0,
		"reason" : "windDir",
		"timestamp" :1555830000
		},
	"2019-04-21T11:00:00+02:00" : {
		"windSpeed" : 0.4,
		"windDir" : 30,
		"rain" : 0,
		"cloudbase" : 6783.9119,
		"flyability" : 100,
		"reason" : "",
		"timestamp" :1555840800
		},
	"2019-04-21T14:00:00+02:00" : {
		"windSpeed" : 0.5,
		"windDir" : 290,
		"rain" : 0,
		"cloudbase" : 6659.8881000001,
		"flyability" : 0,
		"reason" : "windDir",
		"timestamp" :1555851600
		},
	"2019-04-21T17:00:00+02:00" : {
		"windSpeed" : 0.6,
		"windDir" : 259,
		"rain" : 0,
		"cloudbase" : 3216.09405,
		"flyability" : 0,
		"reason" : "windDir",
		"timestamp" :1555862400
		},
	"2019-04-21T20:00:00+02:00" : {
		"windSpeed" : 0.2,
		"windDir" : 186,
		"rain" : 0,
		"cloudbase" : 2750,
		"flyability" : 0,
		"reason" : "windDir",
		"timestamp" :1555873200
		},
	"2019-04-21T23:00:00+02:00" : {
		"windSpeed" : 1,
		"windDir" : 168,
		"rain" : 0,
		"cloudbase" : 3200,
		"flyability" : 0,
		"reason" : "windDir",
		"timestamp" :1555884000
		},
	"2019-04-22T02:00:00+02:00" : {
		"windSpeed" : 1,
		"windDir" : 155,
		"rain" : 0,
		"cloudbase" : 7938.0881,
		"flyability" : 0,
		"reason" : "windDir",
		"timestamp" :1555894800
		},
	"2019-04-22T05:00:00+02:00" : {
		"windSpeed" : 0.7,
		"windDir" : 163,
		"rain" : 0,
		"cloudbase" : 5920.8881,
		"flyability" : 0,
		"reason" : "windDir",
		"timestamp" :1555905600
		},
	"2019-04-22T08:00:00+02:00" : {
		"windSpeed" : 1,
		"windDir" : 155,
		"rain" : 0,
		"cloudbase" : 5565.1977000002,
		"flyability" : 0,
		"reason" : "windDir",
		"timestamp" :1555916400
		},
	"2019-04-22T11:00:00+02:00" : {
		"windSpeed" : 1.2,
		"windDir" : 102,
		"rain" : 0,
		"cloudbase" : 6425.6762,
		"flyability" : 0,
		"reason" : "windDir",
		"timestamp" :1555927200
		},
	"2019-04-22T14:00:00+02:00" : {
		"windSpeed" : 0.9,
		"windDir" : 116,
		"rain" : 0,
		"cloudbase" : null,
		"flyability" : 0,
		"reason" : "windDir",
		"timestamp" :1555938000
		},
	"2019-04-22T17:00:00+02:00" : {
		"windSpeed" : 0.8,
		"windDir" : 136,
		"rain" : 0,
		"cloudbase" : null,
		"flyability" : 0,
		"reason" : "windDir",
		"timestamp" :1555948800
		},
	"2019-04-22T20:00:00+02:00" : {
		"windSpeed" : 1,
		"windDir" : 172,
		"rain" : 0,
		"cloudbase" : 7900,
		"flyability" : 0,
		"reason" : "windDir",
		"timestamp" :1555959600
		},
	"2019-04-22T23:00:00+02:00" : {
		"windSpeed" : 1.4,
		"windDir" : 160,
		"rain" : 0,
		"cloudbase" : 6858.7,
		"flyability" : 0,
		"reason" : "windDir",
		"timestamp" :1555970400
		},
	"2019-04-23T02:00:00+02:00" : {
		"windSpeed" : 1.7,
		"windDir" : 162,
		"rain" : 0,
		"cloudbase" : 4904.96075,
		"flyability" : 0,
		"reason" : "windDir",
		"timestamp" :1555981200
		},
	"2019-04-23T05:00:00+02:00" : {
		"windSpeed" : 1,
		"windDir" : 149,
		"rain" : 0,
		"cloudbase" : 3282.7381,
		"flyability" : 0,
		"reason" : "windDir",
		"timestamp" :1555992000
		},
	"2019-04-23T08:00:00+02:00" : {
		"windSpeed" : 1.3,
		"windDir" : 160,
		"rain" : 0,
		"cloudbase" : 8012.9238000001,
		"flyability" : 0,
		"reason" : "windDir",
		"timestamp" :1556002800
		},
	"2019-04-23T11:00:00+02:00" : {
		"windSpeed" : 1,
		"windDir" : 132,
		"rain" : 0,
		"cloudbase" : 3708.38215,
		"flyability" : 0,
		"reason" : "windDir",
		"timestamp" :1556013600
		},
	"2019-04-23T14:00:00+02:00" : {
		"windSpeed" : 1.1,
		"windDir" : 121,
		"rain" : 0,
		"cloudbase" : 6100,
		"flyability" : 0,
		"reason" : "windDir",
		"timestamp" :1556024400
		},
	"2019-04-23T17:00:00+02:00" : {
		"windSpeed" : 1.8,
		"windDir" : 145,
		"rain" : 0,
		"cloudbase" : 8612.8476,
		"flyability" : 0,
		"reason" : "windDir",
		"timestamp" :1556035200
		},
	"2019-04-23T20:00:00+02:00" : {
		"windSpeed" : 1,
		"windDir" : 169,
		"rain" : 0,
		"cloudbase" : 8002.4524,
		"flyability" : 0,
		"reason" : "windDir",
		"timestamp" :1556046000
		},
	"2019-04-23T23:00:00+02:00" : {
		"windSpeed" : 1.4,
		"windDir" : 161,
		"rain" : 0,
		"cloudbase" : 7600,
		"flyability" : 0,
		"reason" : "windDir",
		"timestamp" :1556056800
		},
	"2019-04-24T02:00:00+02:00" : {
		"windSpeed" : 1,
		"windDir" : 155,
		"rain" : 0,
		"cloudbase" : 6800,
		"flyability" : 0,
		"reason" : "windDir",
		"timestamp" :1556067600
		},
	"2019-04-24T05:00:00+02:00" : {
		"windSpeed" : 1.2,
		"windDir" : 160,
		"rain" : 0,
		"cloudbase" : null,
		"flyability" : 0,
		"reason" : "windDir",
		"timestamp" :1556078400
		},
	"2019-04-24T08:00:00+02:00" : {
		"windSpeed" : 1.7,
		"windDir" : 159,
		"rain" : 0,
		"cloudbase" : 6330.6762,
		"flyability" : 0,
		"reason" : "windDir",
		"timestamp" :1556089200
		},
	"2019-04-24T11:00:00+02:00" : {
		"windSpeed" : 2.6,
		"windDir" : 154,
		"rain" : 0,
		"cloudbase" : null,
		"flyability" : 0,
		"reason" : "windDir",
		"timestamp" :1556100000
		},
	"2019-04-24T14:00:00+02:00" : {
		"windSpeed" : 2.8,
		"windDir" : 184,
		"rain" : 1,
		"cloudbase" : 2183.87975,
		"flyability" : 0,
		"reason" : "windDir, rain",
		"timestamp" :1556110800
		},
	"2019-04-24T17:00:00+02:00" : {
		"windSpeed" : 1.2,
		"windDir" : 230,
		"rain" : 1,
		"cloudbase" : 4159.4857000001,
		"flyability" : 0,
		"reason" : "rain",
		"timestamp" :1556121600
		},
	"2019-04-24T20:00:00+02:00" : {
		"windSpeed" : 1.1,
		"windDir" : 277,
		"rain" : 1,
		"cloudbase" : 1062.4423099998,
		"flyability" : 0,
		"reason" : "windDir, rain, cloudbase",
		"timestamp" :1556132400
		},
	"2019-04-24T23:00:00+02:00" : {
		"windSpeed" : 1.3,
		"windDir" : 282,
		"rain" : 1,
		"cloudbase" : 76.058455,
		"flyability" : 0,
		"reason" : "windDir, rain, cloudbase",
		"timestamp" :1556143200
		},
	"2019-04-25T02:00:00+02:00" : {
		"windSpeed" : 1.6,
		"windDir" : 141,
		"rain" : 1,
		"cloudbase" : 189.29522000005,
		"flyability" : 0,
		"reason" : "windDir, rain, cloudbase",
		"timestamp" :1556154000
		},
	"2019-04-25T05:00:00+02:00" : {
		"windSpeed" : 1.6,
		"windDir" : 169,
		"rain" : 1,
		"cloudbase" : null,
		"flyability" : 0,
		"reason" : "windDir, rain",
		"timestamp" :1556164800
		},
	"2019-04-25T08:00:00+02:00" : {
		"windSpeed" : 1.6,
		"windDir" : 164,
		"rain" : 0,
		"cloudbase" : null,
		"flyability" : 0,
		"reason" : "windDir",
		"timestamp" :1556175600
		},
	"2019-04-25T11:00:00+02:00" : {
		"windSpeed" : 2,
		"windDir" : 166,
		"rain" : 1,
		"cloudbase" : 7800,
		"flyability" : 0,
		"reason" : "windDir, rain",
		"timestamp" :1556186400
		},
	"2019-04-25T14:00:00+02:00" : {
		"windSpeed" : 4.4,
		"windDir" : 166,
		"rain" : 0,
		"cloudbase" : 7500,
		"flyability" : 0,
		"reason" : "windDir",
		"timestamp" :1556197200
		},
	"2019-04-25T17:00:00+02:00" : {
		"windSpeed" : 3.9,
		"windDir" : 153,
		"rain" : 1,
		"cloudbase" : null,
		"flyability" : 0,
		"reason" : "windDir, rain",
		"timestamp" :1556208000
		},
	"2019-04-25T20:00:00+02:00" : {
		"windSpeed" : 1.8,
		"windDir" : 176,
		"rain" : 0,
		"cloudbase" : null,
		"flyability" : 0,
		"reason" : "windDir",
		"timestamp" :1556218800
		},
	"2019-04-25T23:00:00+02:00" : {
		"windSpeed" : 0.9,
		"windDir" : 278,
		"rain" : 1,
		"cloudbase" : 1591.2814599999,
		"flyability" : 0,
		"reason" : "windDir, rain, cloudbase",
		"timestamp" :1556229600
		},
	"2019-04-26T02:00:00+02:00" : {
		"windSpeed" : 0.6,
		"windDir" : 240,
		"rain" : 1,
		"cloudbase" : 61.046430000001,
		"flyability" : 0,
		"reason" : "rain, cloudbase",
		"timestamp" :1556240400
		},
	"2019-04-26T05:00:00+02:00" : {
		"windSpeed" : 0.8,
		"windDir" : 138,
		"rain" : 0,
		"cloudbase" : 74.518080000019,
		"flyability" : 0,
		"reason" : "windDir, cloudbase",
		"timestamp" :1556251200
		},
	"2019-04-26T08:00:00+02:00" : {
		"windSpeed" : 0.3,
		"windDir" : 158,
		"rain" : 0,
		"cloudbase" : 762.65687000006,
		"flyability" : 0,
		"reason" : "windDir, cloudbase",
		"timestamp" :1556262000
		},
	"2019-04-26T11:00:00+02:00" : {
		"windSpeed" : 0.4,
		"windDir" : 147,
		"rain" : 1,
		"cloudbase" : 1081.4788099999,
		"flyability" : 0,
		"reason" : "windDir, rain, cloudbase",
		"timestamp" :1556272800
		},
	"2019-04-26T14:00:00+02:00" : {
		"windSpeed" : 0.8,
		"windDir" : 247,
		"rain" : 1,
		"cloudbase" : 2376.86315,
		"flyability" : 0,
		"reason" : "rain",
		"timestamp" :1556283600
		}
	}
}