{
"site" : "Ste Anastasie",
"id" : 3075,
"orientations" : "00022000",
"forecasts" : { 
	"2019-04-21T05:00:00+02:00" : {
		"windSpeed" : 4.9,
		"windDir" : 76,
		"rain" : 1,
		"cloudbase" : 3868.4,
		"flyability" : 0,
		"reason" : "windDir, rain",
		"timestamp" :1555819200
		},
	"2019-04-21T08:00:00+02:00" : {
		"windSpeed" : 5.6,
		"windDir" : 80,
		"rain" : 0,
		"cloudbase" : 3977.8,
		"flyability" : 0,
		"reason" : "windSpeed, windDir",
		"timestamp" :1555830000
		},
	"2019-04-21T11:00:00+02:00" : {
		"windSpeed" : 7.5,
		"windDir" : 90,
		"rain" : 1,
		"cloudbase" : 6586.8,
		"flyability" : 0,
		"reason" : "windSpeed, windDir, rain",
		"timestamp" :1555840800
		},
	"2019-04-21T14:00:00+02:00" : {
		"windSpeed" : 8.3,
		"windDir" : 83,
		"rain" : 1,
		"cloudbase" : 3632.6,
		"flyability" : 0,
		"reason" : "windSpeed, windDir, rain",
		"timestamp" :1555851600
		},
	"2019-04-21T17:00:00+02:00" : {
		"windSpeed" : 8.3,
		"windDir" : 88,
		"rain" : 1,
		"cloudbase" : 5966.7999999999,
		"flyability" : 0,
		"reason" : "windSpeed, windDir, rain",
		"timestamp" :1555862400
		},
	"2019-04-21T20:00:00+02:00" : {
		"windSpeed" : 7.3,
		"windDir" : 86,
		"rain" : 1,
		"cloudbase" : 9870.8,
		"flyability" : 0,
		"reason" : "windSpeed, windDir, rain",
		"timestamp" :1555873200
		},
	"2019-04-21T23:00:00+02:00" : {
		"windSpeed" : 5.3,
		"windDir" : 79,
		"rain" : 1,
		"cloudbase" : 7968.8,
		"flyability" : 0,
		"reason" : "windSpeed, windDir, rain",
		"timestamp" :1555884000
		},
	"2019-04-22T02:00:00+02:00" : {
		"windSpeed" : 5.5,
		"windDir" : 77,
		"rain" : 1,
		"cloudbase" : null,
		"flyability" : 0,
		"reason" : "windSpeed, windDir, rain",
		"timestamp" :1555894800
		},
	"2019-04-22T05:00:00+02:00" : {
		"windSpeed" : 7.4,
		"windDir" : 84,
		"rain" : 0,
		"cloudbase" : null,
		"flyability" : 0,
		"reason" : "windSpeed, windDir",
		"timestamp" :1555905600
		},
	"2019-04-22T08:00:00+02:00" : {
		"windSpeed" : 7.6,
		"windDir" : 88,
		"rain" : 0,
		"cloudbase" : 8940,
		"flyability" : 0,
		"reason" : "windSpeed, windDir",
		"timestamp" :1555916400
		},
	"2019-04-22T11:00:00+02:00" : {
		"windSpeed" : 9.1,
		"windDir" : 88,
		"rain" : 0,
		"cloudbase" : null,
		"flyability" : 0,
		"reason" : "windSpeed, windDir",
		"timestamp" :1555927200
		},
	"2019-04-22T14:00:00+02:00" : {
		"windSpeed" : 11,
		"windDir" : 91,
		"rain" : 0,
		"cloudbase" : 8300,
		"flyability" : 0,
		"reason" : "windSpeed, windDir",
		"timestamp" :1555938000
		},
	"2019-04-22T17:00:00+02:00" : {
		"windSpeed" : 11.4,
		"windDir" : 89,
		"rain" : 0,
		"cloudbase" : 5984.8,
		"flyability" : 0,
		"reason" : "windSpeed, windDir",
		"timestamp" :1555948800
		},
	"2019-04-22T20:00:00+02:00" : {
		"windSpeed" : 8.3,
		"windDir" : 89,
		"rain" : 1,
		"cloudbase" : 6616,
		"flyability" : 0,
		"reason" : "windSpeed, windDir, rain",
		"timestamp" :1555959600
		},
	"2019-04-22T23:00:00+02:00" : {
		"windSpeed" : 8.5,
		"windDir" : 87,
		"rain" : 0,
		"cloudbase" : 6162.4,
		"flyability" : 0,
		"reason" : "windSpeed, windDir",
		"timestamp" :1555970400
		},
	"2019-04-23T02:00:00+02:00" : {
		"windSpeed" : 7.1,
		"windDir" : 88,
		"rain" : 0,
		"cloudbase" : 8506.8,
		"flyability" : 0,
		"reason" : "windSpeed, windDir",
		"timestamp" :1555981200
		},
	"2019-04-23T05:00:00+02:00" : {
		"windSpeed" : 6.3,
		"windDir" : 92,
		"rain" : 1,
		"cloudbase" : 4129,
		"flyability" : 0,
		"reason" : "windSpeed, windDir, rain",
		"timestamp" :1555992000
		},
	"2019-04-23T08:00:00+02:00" : {
		"windSpeed" : 7.2,
		"windDir" : 88,
		"rain" : 1,
		"cloudbase" : 1113.24,
		"flyability" : 0,
		"reason" : "windSpeed, windDir, rain",
		"timestamp" :1556002800
		},
	"2019-04-23T11:00:00+02:00" : {
		"windSpeed" : 6,
		"windDir" : 88,
		"rain" : 1,
		"cloudbase" : 780,
		"flyability" : 0,
		"reason" : "windSpeed, windDir, rain",
		"timestamp" :1556013600
		},
	"2019-04-23T14:00:00+02:00" : {
		"windSpeed" : 6.1,
		"windDir" : 90,
		"rain" : 1,
		"cloudbase" : 447.60000000001,
		"flyability" : 0,
		"reason" : "windSpeed, windDir, rain",
		"timestamp" :1556024400
		},
	"2019-04-23T17:00:00+02:00" : {
		"windSpeed" : 7,
		"windDir" : 94,
		"rain" : 1,
		"cloudbase" : 480.20000000001,
		"flyability" : 0,
		"reason" : "windSpeed, windDir, rain",
		"timestamp" :1556035200
		},
	"2019-04-23T20:00:00+02:00" : {
		"windSpeed" : 7.1,
		"windDir" : 98,
		"rain" : 1,
		"cloudbase" : 193.48,
		"flyability" : 0,
		"reason" : "windSpeed, windDir, rain, cloudbase",
		"timestamp" :1556046000
		},
	"2019-04-23T23:00:00+02:00" : {
		"windSpeed" : 5.2,
		"windDir" : 164,
		"rain" : 1,
		"cloudbase" : 124.04000000001,
		"flyability" : 0,
		"reason" : "windSpeed, rain, cloudbase",
		"timestamp" :1556056800
		},
	"2019-04-24T02:00:00+02:00" : {
		"windSpeed" : 3.3,
		"windDir" : 130,
		"rain" : 1,
		"cloudbase" : 164.52000000001,
		"flyability" : 0,
		"reason" : "rain, cloudbase",
		"timestamp" :1556067600
		},
	"2019-04-24T05:00:00+02:00" : {
		"windSpeed" : 5.1,
		"windDir" : 141,
		"rain" : 1,
		"cloudbase" : 50.940000000002,
		"flyability" : 0,
		"reason" : "windSpeed, rain, cloudbase",
		"timestamp" :1556078400
		},
	"2019-04-24T08:00:00+02:00" : {
		"windSpeed" : 4.4,
		"windDir" : 146,
		"rain" : 1,
		"cloudbase" : 386.16000000001,
		"flyability" : 0,
		"reason" : "rain, cloudbase",
		"timestamp" :1556089200
		},
	"2019-04-24T11:00:00+02:00" : {
		"windSpeed" : 4.2,
		"windDir" : 157,
		"rain" : 1,
		"cloudbase" : 1141.8,
		"flyability" : 0,
		"reason" : "rain",
		"timestamp" :1556100000
		},
	"2019-04-24T14:00:00+02:00" : {
		"windSpeed" : 4.6,
		"windDir" : 165,
		"rain" : 1,
		"cloudbase" : 1391.8,
		"flyability" : 0,
		"reason" : "rain",
		"timestamp" :1556110800
		},
	"2019-04-24T17:00:00+02:00" : {
		"windSpeed" : 3.5,
		"windDir" : 170,
		"rain" : 1,
		"cloudbase" : 2021.8,
		"flyability" : 0,
		"reason" : "rain",
		"timestamp" :1556121600
		},
	"2019-04-24T20:00:00+02:00" : {
		"windSpeed" : 2.2,
		"windDir" : 137,
		"rain" : 1,
		"cloudbase" : null,
		"flyability" : 0,
		"reason" : "rain",
		"timestamp" :1556132400
		},
	"2019-04-24T23:00:00+02:00" : {
		"windSpeed" : 2.3,
		"windDir" : 100,
		"rain" : 1,
		"cloudbase" : 55,
		"flyability" : 0,
		"reason" : "windDir, rain, cloudbase",
		"timestamp" :1556143200
		},
	"2019-04-25T02:00:00+02:00" : {
		"windSpeed" : 2.7,
		"windDir" : 108,
		"rain" : 1,
		"cloudbase" : 145.76000000001,
		"flyability" : 0,
		"reason" : "windDir, rain, cloudbase",
		"timestamp" :1556154000
		},
	"2019-04-25T05:00:00+02:00" : {
		"windSpeed" : 3.9,
		"windDir" : 107,
		"rain" : 1,
		"cloudbase" : 95.880000000005,
		"flyability" : 0,
		"reason" : "windDir, rain, cloudbase",
		"timestamp" :1556164800
		},
	"2019-04-25T08:00:00+02:00" : {
		"windSpeed" : 5,
		"windDir" : 117,
		"rain" : 0,
		"cloudbase" : 6742.8,
		"flyability" : 100,
		"reason" : "",
		"timestamp" :1556175600
		},
	"2019-04-25T11:00:00+02:00" : {
		"windSpeed" : 6.3,
		"windDir" : 134,
		"rain" : 1,
		"cloudbase" : 1848.3200000002,
		"flyability" : 0,
		"reason" : "windSpeed, rain",
		"timestamp" :1556186400
		},
	"2019-04-25T14:00:00+02:00" : {
		"windSpeed" : 6.2,
		"windDir" : 138,
		"rain" : 1,
		"cloudbase" : 9700,
		"flyability" : 0,
		"reason" : "windSpeed, rain",
		"timestamp" :1556197200
		},
	"2019-04-25T17:00:00+02:00" : {
		"windSpeed" : 6.2,
		"windDir" : 135,
		"rain" : 1,
		"cloudbase" : 3974.6,
		"flyability" : 0,
		"reason" : "windSpeed, rain",
		"timestamp" :1556208000
		},
	"2019-04-25T20:00:00+02:00" : {
		"windSpeed" : 4.5,
		"windDir" : 117,
		"rain" : 1,
		"cloudbase" : 9100,
		"flyability" : 0,
		"reason" : "rain",
		"timestamp" :1556218800
		},
	"2019-04-25T23:00:00+02:00" : {
		"windSpeed" : 4.2,
		"windDir" : 109,
		"rain" : 1,
		"cloudbase" : 629.64000000003,
		"flyability" : 0,
		"reason" : "windDir, rain",
		"timestamp" :1556229600
		},
	"2019-04-26T02:00:00+02:00" : {
		"windSpeed" : 3.6,
		"windDir" : 112,
		"rain" : 1,
		"cloudbase" : 255.88000000001,
		"flyability" : 0,
		"reason" : "windDir, rain, cloudbase",
		"timestamp" :1556240400
		},
	"2019-04-26T05:00:00+02:00" : {
		"windSpeed" : 3.2,
		"windDir" : 138,
		"rain" : 1,
		"cloudbase" : 204.96000000001,
		"flyability" : 0,
		"reason" : "rain, cloudbase",
		"timestamp" :1556251200
		},
	"2019-04-26T08:00:00+02:00" : {
		"windSpeed" : 1.2,
		"windDir" : 149,
		"rain" : 0,
		"cloudbase" : null,
		"flyability" : 100,
		"reason" : "",
		"timestamp" :1556262000
		},
	"2019-04-26T11:00:00+02:00" : {
		"windSpeed" : 1.1,
		"windDir" : 102,
		"rain" : 0,
		"cloudbase" : 540,
		"flyability" : 0,
		"reason" : "windDir",
		"timestamp" :1556272800
		},
	"2019-04-26T14:00:00+02:00" : {
		"windSpeed" : 2.7,
		"windDir" : 316,
		"rain" : 0,
		"cloudbase" : 4150,
		"flyability" : 0,
		"reason" : "windDir",
		"timestamp" :1556283600
		},
	"2019-04-26T17:00:00+02:00" : {
		"windSpeed" : 6.6,
		"windDir" : 297,
		"rain" : 0,
		"cloudbase" : null,
		"flyability" : 0,
		"reason" : "windSpeed, windDir",
		"timestamp" :1556294400
		},
	"2019-04-26T20:00:00+02:00" : {
		"windSpeed" : 4.9,
		"windDir" : 297,
		"rain" : 1,
		"cloudbase" : null,
		"flyability" : 0,
		"reason" : "windDir, rain",
		"timestamp" :1556305200
		},
	"2019-04-26T23:00:00+02:00" : {
		"windSpeed" : 5.9,
		"windDir" : 297,
		"rain" : 1,
		"cloudbase" : null,
		"flyability" : 0,
		"reason" : "windSpeed, windDir, rain",
		"timestamp" :1556316000
		},
	"2019-04-27T02:00:00+02:00" : {
		"windSpeed" : 5,
		"windDir" : 295,
		"rain" : 0,
		"cloudbase" : 9600,
		"flyability" : 0,
		"reason" : "windDir",
		"timestamp" :1556326800
		}
	}
}