{
"site" : "Petchaburi  -  Khoa Dan",
"id" : 6290,
"orientations" : "01210000",
"forecasts" : { 
	"2019-04-09T10:00:00+07:00" : {
		"windSpeed" : 0.7,
		"windDir" : 298,
		"rain" : 0,
		"cloudbase" : null,
		"flyability" : 0,
		"reason" : "windDir",
		"timestamp" :1554775200
		},
	"2019-04-09T13:00:00+07:00" : {
		"windSpeed" : 2,
		"windDir" : 66,
		"rain" : 0,
		"cloudbase" : null,
		"flyability" : 100,
		"reason" : "",
		"timestamp" :1554786000
		},
	"2019-04-09T16:00:00+07:00" : {
		"windSpeed" : 1.1,
		"windDir" : 218,
		"rain" : 0,
		"cloudbase" : 13000,
		"flyability" : 0,
		"reason" : "windDir",
		"timestamp" :1554796800
		},
	"2019-04-09T19:00:00+07:00" : {
		"windSpeed" : 0.8,
		"windDir" : 180,
		"rain" : 1,
		"cloudbase" : null,
		"flyability" : 0,
		"reason" : "windDir, rain",
		"timestamp" :1554807600
		},
	"2019-04-09T22:00:00+07:00" : {
		"windSpeed" : 1.3,
		"windDir" : 180,
		"rain" : 1,
		"cloudbase" : null,
		"flyability" : 0,
		"reason" : "windDir, rain",
		"timestamp" :1554818400
		},
	"2019-04-10T01:00:00+07:00" : {
		"windSpeed" : 1.6,
		"windDir" : 199,
		"rain" : 0,
		"cloudbase" : 12825.381,
		"flyability" : 0,
		"reason" : "windDir",
		"timestamp" :1554829200
		},
	"2019-04-10T04:00:00+07:00" : {
		"windSpeed" : 1.3,
		"windDir" : 220,
		"rain" : 0,
		"cloudbase" : 12000,
		"flyability" : 0,
		"reason" : "windDir",
		"timestamp" :1554840000
		},
	"2019-04-10T07:00:00+07:00" : {
		"windSpeed" : 1.7,
		"windDir" : 217,
		"rain" : 0,
		"cloudbase" : 12000,
		"flyability" : 0,
		"reason" : "windDir",
		"timestamp" :1554850800
		},
	"2019-04-10T10:00:00+07:00" : {
		"windSpeed" : 0.9,
		"windDir" : 248,
		"rain" : 0,
		"cloudbase" : null,
		"flyability" : 0,
		"reason" : "windDir",
		"timestamp" :1554861600
		},
	"2019-04-10T13:00:00+07:00" : {
		"windSpeed" : 0.7,
		"windDir" : 285,
		"rain" : 1,
		"cloudbase" : null,
		"flyability" : 0,
		"reason" : "windDir, rain",
		"timestamp" :1554872400
		},
	"2019-04-10T16:00:00+07:00" : {
		"windSpeed" : 2.9,
		"windDir" : 137,
		"rain" : 0,
		"cloudbase" : null,
		"flyability" : 100,
		"reason" : "",
		"timestamp" :1554883200
		},
	"2019-04-10T19:00:00+07:00" : {
		"windSpeed" : 3.5,
		"windDir" : 139,
		"rain" : 0,
		"cloudbase" : 12500,
		"flyability" : 100,
		"reason" : "",
		"timestamp" :1554894000
		},
	"2019-04-10T22:00:00+07:00" : {
		"windSpeed" : 2.1,
		"windDir" : 194,
		"rain" : 0,
		"cloudbase" : null,
		"flyability" : 0,
		"reason" : "windDir",
		"timestamp" :1554904800
		},
	"2019-04-11T01:00:00+07:00" : {
		"windSpeed" : 2.2,
		"windDir" : 203,
		"rain" : 0,
		"cloudbase" : 12000,
		"flyability" : 0,
		"reason" : "windDir",
		"timestamp" :1554915600
		},
	"2019-04-11T04:00:00+07:00" : {
		"windSpeed" : 1.4,
		"windDir" : 201,
		"rain" : 0,
		"cloudbase" : 12000,
		"flyability" : 0,
		"reason" : "windDir",
		"timestamp" :1554926400
		},
	"2019-04-11T07:00:00+07:00" : {
		"windSpeed" : 1.8,
		"windDir" : 221,
		"rain" : 0,
		"cloudbase" : 12000,
		"flyability" : 0,
		"reason" : "windDir",
		"timestamp" :1554937200
		},
	"2019-04-11T10:00:00+07:00" : {
		"windSpeed" : 0.8,
		"windDir" : 270,
		"rain" : 0,
		"cloudbase" : 12000,
		"flyability" : 0,
		"reason" : "windDir",
		"timestamp" :1554948000
		},
	"2019-04-11T13:00:00+07:00" : {
		"windSpeed" : 1.3,
		"windDir" : 60,
		"rain" : 0,
		"cloudbase" : 11500,
		"flyability" : 100,
		"reason" : "",
		"timestamp" :1554958800
		},
	"2019-04-11T16:00:00+07:00" : {
		"windSpeed" : 3.9,
		"windDir" : 140,
		"rain" : 0,
		"cloudbase" : null,
		"flyability" : 100,
		"reason" : "",
		"timestamp" :1554969600
		},
	"2019-04-11T19:00:00+07:00" : {
		"windSpeed" : 4,
		"windDir" : 150,
		"rain" : 1,
		"cloudbase" : 16000,
		"flyability" : 0,
		"reason" : "rain",
		"timestamp" :1554980400
		},
	"2019-04-11T22:00:00+07:00" : {
		"windSpeed" : 3,
		"windDir" : 171,
		"rain" : 0,
		"cloudbase" : null,
		"flyability" : 0,
		"reason" : "windDir",
		"timestamp" :1554991200
		},
	"2019-04-12T01:00:00+07:00" : {
		"windSpeed" : 2,
		"windDir" : 222,
		"rain" : 0,
		"cloudbase" : null,
		"flyability" : 0,
		"reason" : "windDir",
		"timestamp" :1555002000
		},
	"2019-04-12T04:00:00+07:00" : {
		"windSpeed" : 1.3,
		"windDir" : 231,
		"rain" : 0,
		"cloudbase" : null,
		"flyability" : 0,
		"reason" : "windDir",
		"timestamp" :1555012800
		},
	"2019-04-12T07:00:00+07:00" : {
		"windSpeed" : 1.6,
		"windDir" : 212,
		"rain" : 0,
		"cloudbase" : null,
		"flyability" : 0,
		"reason" : "windDir",
		"timestamp" :1555023600
		},
	"2019-04-12T10:00:00+07:00" : {
		"windSpeed" : 0.6,
		"windDir" : 122,
		"rain" : 0,
		"cloudbase" : 15994.5,
		"flyability" : 100,
		"reason" : "",
		"timestamp" :1555034400
		},
	"2019-04-12T13:00:00+07:00" : {
		"windSpeed" : 2.7,
		"windDir" : 115,
		"rain" : 0,
		"cloudbase" : 15994.5,
		"flyability" : 100,
		"reason" : "",
		"timestamp" :1555045200
		},
	"2019-04-12T16:00:00+07:00" : {
		"windSpeed" : 3.5,
		"windDir" : 135,
		"rain" : 1,
		"cloudbase" : 15994.5,
		"flyability" : 0,
		"reason" : "rain",
		"timestamp" :1555056000
		},
	"2019-04-12T19:00:00+07:00" : {
		"windSpeed" : 4.1,
		"windDir" : 145,
		"rain" : 0,
		"cloudbase" : 16000,
		"flyability" : 100,
		"reason" : "",
		"timestamp" :1555066800
		},
	"2019-04-12T22:00:00+07:00" : {
		"windSpeed" : 3.4,
		"windDir" : 172,
		"rain" : 0,
		"cloudbase" : null,
		"flyability" : 0,
		"reason" : "windDir",
		"timestamp" :1555077600
		},
	"2019-04-13T01:00:00+07:00" : {
		"windSpeed" : 1.7,
		"windDir" : 192,
		"rain" : 0,
		"cloudbase" : null,
		"flyability" : 0,
		"reason" : "windDir",
		"timestamp" :1555088400
		},
	"2019-04-13T04:00:00+07:00" : {
		"windSpeed" : 1.4,
		"windDir" : 235,
		"rain" : 0,
		"cloudbase" : 15000,
		"flyability" : 0,
		"reason" : "windDir",
		"timestamp" :1555099200
		},
	"2019-04-13T07:00:00+07:00" : {
		"windSpeed" : 1.8,
		"windDir" : 244,
		"rain" : 0,
		"cloudbase" : null,
		"flyability" : 0,
		"reason" : "windDir",
		"timestamp" :1555110000
		},
	"2019-04-13T10:00:00+07:00" : {
		"windSpeed" : 1.3,
		"windDir" : 67,
		"rain" : 0,
		"cloudbase" : null,
		"flyability" : 100,
		"reason" : "",
		"timestamp" :1555120800
		},
	"2019-04-13T13:00:00+07:00" : {
		"windSpeed" : 3.6,
		"windDir" : 106,
		"rain" : 1,
		"cloudbase" : null,
		"flyability" : 0,
		"reason" : "rain",
		"timestamp" :1555131600
		},
	"2019-04-13T16:00:00+07:00" : {
		"windSpeed" : 4.6,
		"windDir" : 136,
		"rain" : 0,
		"cloudbase" : null,
		"flyability" : 100,
		"reason" : "",
		"timestamp" :1555142400
		},
	"2019-04-13T19:00:00+07:00" : {
		"windSpeed" : 4,
		"windDir" : 138,
		"rain" : 0,
		"cloudbase" : null,
		"flyability" : 100,
		"reason" : "",
		"timestamp" :1555153200
		},
	"2019-04-13T22:00:00+07:00" : {
		"windSpeed" : 3.6,
		"windDir" : 164,
		"rain" : 0,
		"cloudbase" : null,
		"flyability" : 0,
		"reason" : "windDir",
		"timestamp" :1555164000
		},
	"2019-04-14T01:00:00+07:00" : {
		"windSpeed" : 1.5,
		"windDir" : 193,
		"rain" : 0,
		"cloudbase" : null,
		"flyability" : 0,
		"reason" : "windDir",
		"timestamp" :1555174800
		},
	"2019-04-14T04:00:00+07:00" : {
		"windSpeed" : 1.2,
		"windDir" : 226,
		"rain" : 0,
		"cloudbase" : null,
		"flyability" : 0,
		"reason" : "windDir",
		"timestamp" :1555185600
		},
	"2019-04-14T07:00:00+07:00" : {
		"windSpeed" : 1.2,
		"windDir" : 254,
		"rain" : 0,
		"cloudbase" : null,
		"flyability" : 0,
		"reason" : "windDir",
		"timestamp" :1555196400
		},
	"2019-04-14T10:00:00+07:00" : {
		"windSpeed" : 0.7,
		"windDir" : 90,
		"rain" : 0,
		"cloudbase" : null,
		"flyability" : 100,
		"reason" : "",
		"timestamp" :1555207200
		},
	"2019-04-14T13:00:00+07:00" : {
		"windSpeed" : 2.5,
		"windDir" : 101,
		"rain" : 0,
		"cloudbase" : 14000,
		"flyability" : 100,
		"reason" : "",
		"timestamp" :1555218000
		},
	"2019-04-14T16:00:00+07:00" : {
		"windSpeed" : 2.8,
		"windDir" : 201,
		"rain" : 0,
		"cloudbase" : 12005.5,
		"flyability" : 0,
		"reason" : "windDir",
		"timestamp" :1555228800
		},
	"2019-04-14T19:00:00+07:00" : {
		"windSpeed" : 2.8,
		"windDir" : 123,
		"rain" : 0,
		"cloudbase" : null,
		"flyability" : 100,
		"reason" : "",
		"timestamp" :1555239600
		},
	"2019-04-14T22:00:00+07:00" : {
		"windSpeed" : 2,
		"windDir" : 190,
		"rain" : 0,
		"cloudbase" : null,
		"flyability" : 0,
		"reason" : "windDir",
		"timestamp" :1555250400
		},
	"2019-04-15T01:00:00+07:00" : {
		"windSpeed" : 1.5,
		"windDir" : 193,
		"rain" : 0,
		"cloudbase" : 13003.619,
		"flyability" : 0,
		"reason" : "windDir",
		"timestamp" :1555261200
		},
	"2019-04-15T04:00:00+07:00" : {
		"windSpeed" : 1.8,
		"windDir" : 221,
		"rain" : 0,
		"cloudbase" : 13000,
		"flyability" : 0,
		"reason" : "windDir",
		"timestamp" :1555272000
		},
	"2019-04-15T07:00:00+07:00" : {
		"windSpeed" : 1.7,
		"windDir" : 259,
		"rain" : 0,
		"cloudbase" : 12500,
		"flyability" : 0,
		"reason" : "windDir",
		"timestamp" :1555282800
		}
	}
}