{
"site" : "Woodside",
"id" : 6735,
"orientations" : "00000220",
"forecasts" : { 
	"2019-04-10T08:00:00-07:00" : {
		"windSpeed" : 2.3,
		"windDir" : 200,
		"rain" : 1,
		"cloudbase" : 528.49999999998,
		"flyability" : 0,
		"reason" : "windDir, rain, cloudbase",
		"timestamp" :1554912000
		},
	"2019-04-10T11:00:00-07:00" : {
		"windSpeed" : 1.4,
		"windDir" : 213,
		"rain" : 1,
		"cloudbase" : 1014.0899999999,
		"flyability" : 0,
		"reason" : "rain",
		"timestamp" :1554922800
		},
	"2019-04-10T14:00:00-07:00" : {
		"windSpeed" : 1.5,
		"windDir" : 281,
		"rain" : 1,
		"cloudbase" : 634.15999999996,
		"flyability" : 0,
		"reason" : "rain",
		"timestamp" :1554933600
		},
	"2019-04-10T17:00:00-07:00" : {
		"windSpeed" : 1.2,
		"windDir" : 218,
		"rain" : 1,
		"cloudbase" : 581.2,
		"flyability" : 0,
		"reason" : "rain, cloudbase",
		"timestamp" :1554944400
		},
	"2019-04-10T20:00:00-07:00" : {
		"windSpeed" : 1.1,
		"windDir" : 194,
		"rain" : 1,
		"cloudbase" : 567.57999999998,
		"flyability" : 0,
		"reason" : "windDir, rain, cloudbase",
		"timestamp" :1554955200
		},
	"2019-04-10T23:00:00-07:00" : {
		"windSpeed" : 0.9,
		"windDir" : 156,
		"rain" : 1,
		"cloudbase" : 885.47999999993,
		"flyability" : 0,
		"reason" : "windDir, rain",
		"timestamp" :1554966000
		},
	"2019-04-11T02:00:00-07:00" : {
		"windSpeed" : 0.3,
		"windDir" : 167,
		"rain" : 1,
		"cloudbase" : 641.73999999996,
		"flyability" : 0,
		"reason" : "windDir, rain",
		"timestamp" :1554976800
		},
	"2019-04-11T05:00:00-07:00" : {
		"windSpeed" : 0.3,
		"windDir" : 170,
		"rain" : 1,
		"cloudbase" : 789.53999999997,
		"flyability" : 0,
		"reason" : "windDir, rain",
		"timestamp" :1554987600
		},
	"2019-04-11T08:00:00-07:00" : {
		"windSpeed" : 0.3,
		"windDir" : 4,
		"rain" : 1,
		"cloudbase" : 647.56,
		"flyability" : 0,
		"reason" : "windDir, rain",
		"timestamp" :1554998400
		},
	"2019-04-11T11:00:00-07:00" : {
		"windSpeed" : 0.5,
		"windDir" : 284,
		"rain" : 1,
		"cloudbase" : 659.79500000004,
		"flyability" : 0,
		"reason" : "rain",
		"timestamp" :1555009200
		},
	"2019-04-11T14:00:00-07:00" : {
		"windSpeed" : 1,
		"windDir" : 229,
		"rain" : 1,
		"cloudbase" : 965.00999999998,
		"flyability" : 0,
		"reason" : "rain",
		"timestamp" :1555020000
		},
	"2019-04-11T17:00:00-07:00" : {
		"windSpeed" : 0,
		"windDir" : 90,
		"rain" : 1,
		"cloudbase" : 878.69999999999,
		"flyability" : 0,
		"reason" : "windDir, rain",
		"timestamp" :1555030800
		},
	"2019-04-11T20:00:00-07:00" : {
		"windSpeed" : 1.2,
		"windDir" : 322,
		"rain" : 1,
		"cloudbase" : 1879.45,
		"flyability" : 0,
		"reason" : "windDir, rain",
		"timestamp" :1555041600
		},
	"2019-04-11T23:00:00-07:00" : {
		"windSpeed" : 0.9,
		"windDir" : 351,
		"rain" : 1,
		"cloudbase" : 1000,
		"flyability" : 0,
		"reason" : "windDir, rain",
		"timestamp" :1555052400
		},
	"2019-04-12T02:00:00-07:00" : {
		"windSpeed" : 0.7,
		"windDir" : 31,
		"rain" : 0,
		"cloudbase" : null,
		"flyability" : 0,
		"reason" : "windDir",
		"timestamp" :1555063200
		},
	"2019-04-12T05:00:00-07:00" : {
		"windSpeed" : 0.7,
		"windDir" : 26,
		"rain" : 0,
		"cloudbase" : 11000,
		"flyability" : 0,
		"reason" : "windDir",
		"timestamp" :1555074000
		},
	"2019-04-12T08:00:00-07:00" : {
		"windSpeed" : 0.5,
		"windDir" : 40,
		"rain" : 0,
		"cloudbase" : null,
		"flyability" : 0,
		"reason" : "windDir",
		"timestamp" :1555084800
		},
	"2019-04-12T11:00:00-07:00" : {
		"windSpeed" : 0.5,
		"windDir" : 312,
		"rain" : 0,
		"cloudbase" : null,
		"flyability" : 0,
		"reason" : "windDir",
		"timestamp" :1555095600
		},
	"2019-04-12T14:00:00-07:00" : {
		"windSpeed" : 2.7,
		"windDir" : 239,
		"rain" : 0,
		"cloudbase" : null,
		"flyability" : 100,
		"reason" : "",
		"timestamp" :1555106400
		},
	"2019-04-12T17:00:00-07:00" : {
		"windSpeed" : 3.4,
		"windDir" : 234,
		"rain" : 1,
		"cloudbase" : null,
		"flyability" : 0,
		"reason" : "rain",
		"timestamp" :1555117200
		},
	"2019-04-12T20:00:00-07:00" : {
		"windSpeed" : 1.5,
		"windDir" : 239,
		"rain" : 0,
		"cloudbase" : null,
		"flyability" : 100,
		"reason" : "",
		"timestamp" :1555128000
		},
	"2019-04-12T23:00:00-07:00" : {
		"windSpeed" : 0.5,
		"windDir" : 163,
		"rain" : 1,
		"cloudbase" : null,
		"flyability" : 0,
		"reason" : "windDir, rain",
		"timestamp" :1555138800
		},
	"2019-04-13T02:00:00-07:00" : {
		"windSpeed" : 0.5,
		"windDir" : 131,
		"rain" : 0,
		"cloudbase" : 3536.9399999997,
		"flyability" : 0,
		"reason" : "windDir",
		"timestamp" :1555149600
		},
	"2019-04-13T05:00:00-07:00" : {
		"windSpeed" : 0.3,
		"windDir" : 170,
		"rain" : 1,
		"cloudbase" : 1058.14,
		"flyability" : 0,
		"reason" : "windDir, rain",
		"timestamp" :1555160400
		},
	"2019-04-13T08:00:00-07:00" : {
		"windSpeed" : 1,
		"windDir" : 227,
		"rain" : 1,
		"cloudbase" : 1986.9000000002,
		"flyability" : 0,
		"reason" : "rain",
		"timestamp" :1555171200
		},
	"2019-04-13T11:00:00-07:00" : {
		"windSpeed" : 1,
		"windDir" : 290,
		"rain" : 1,
		"cloudbase" : 846.38999999994,
		"flyability" : 0,
		"reason" : "rain",
		"timestamp" :1555182000
		},
	"2019-04-13T14:00:00-07:00" : {
		"windSpeed" : 0.9,
		"windDir" : 360,
		"rain" : 1,
		"cloudbase" : 956.44999999999,
		"flyability" : 0,
		"reason" : "windDir, rain",
		"timestamp" :1555192800
		},
	"2019-04-13T17:00:00-07:00" : {
		"windSpeed" : 0.5,
		"windDir" : 214,
		"rain" : 1,
		"cloudbase" : 832.63999999997,
		"flyability" : 0,
		"reason" : "rain",
		"timestamp" :1555203600
		},
	"2019-04-13T20:00:00-07:00" : {
		"windSpeed" : 1.5,
		"windDir" : 211,
		"rain" : 1,
		"cloudbase" : null,
		"flyability" : 0,
		"reason" : "rain",
		"timestamp" :1555214400
		},
	"2019-04-13T23:00:00-07:00" : {
		"windSpeed" : 2,
		"windDir" : 220,
		"rain" : 1,
		"cloudbase" : null,
		"flyability" : 0,
		"reason" : "rain",
		"timestamp" :1555225200
		},
	"2019-04-14T02:00:00-07:00" : {
		"windSpeed" : 1.7,
		"windDir" : 206,
		"rain" : 1,
		"cloudbase" : null,
		"flyability" : 0,
		"reason" : "rain",
		"timestamp" :1555236000
		},
	"2019-04-14T05:00:00-07:00" : {
		"windSpeed" : 0.9,
		"windDir" : 234,
		"rain" : 1,
		"cloudbase" : 1820.4899999998,
		"flyability" : 0,
		"reason" : "rain",
		"timestamp" :1555246800
		},
	"2019-04-14T08:00:00-07:00" : {
		"windSpeed" : 0.9,
		"windDir" : 217,
		"rain" : 1,
		"cloudbase" : 2611.2999999996,
		"flyability" : 0,
		"reason" : "rain",
		"timestamp" :1555257600
		},
	"2019-04-14T11:00:00-07:00" : {
		"windSpeed" : 2.3,
		"windDir" : 203,
		"rain" : 1,
		"cloudbase" : 3248.6499999998,
		"flyability" : 0,
		"reason" : "rain",
		"timestamp" :1555268400
		},
	"2019-04-14T14:00:00-07:00" : {
		"windSpeed" : 3.3,
		"windDir" : 205,
		"rain" : 1,
		"cloudbase" : null,
		"flyability" : 0,
		"reason" : "rain",
		"timestamp" :1555279200
		},
	"2019-04-14T17:00:00-07:00" : {
		"windSpeed" : 2.6,
		"windDir" : 222,
		"rain" : 1,
		"cloudbase" : 4335,
		"flyability" : 0,
		"reason" : "rain",
		"timestamp" :1555290000
		},
	"2019-04-14T20:00:00-07:00" : {
		"windSpeed" : 1.1,
		"windDir" : 247,
		"rain" : 1,
		"cloudbase" : null,
		"flyability" : 0,
		"reason" : "rain",
		"timestamp" :1555300800
		},
	"2019-04-14T23:00:00-07:00" : {
		"windSpeed" : 0.8,
		"windDir" : 303,
		"rain" : 0,
		"cloudbase" : 845.05999999998,
		"flyability" : 0,
		"reason" : "windDir",
		"timestamp" :1555311600
		},
	"2019-04-15T02:00:00-07:00" : {
		"windSpeed" : 0.6,
		"windDir" : 316,
		"rain" : 1,
		"cloudbase" : 1320.1599999999,
		"flyability" : 0,
		"reason" : "windDir, rain",
		"timestamp" :1555322400
		},
	"2019-04-15T05:00:00-07:00" : {
		"windSpeed" : 0.5,
		"windDir" : 339,
		"rain" : 1,
		"cloudbase" : 464.45999999997,
		"flyability" : 0,
		"reason" : "windDir, rain, cloudbase",
		"timestamp" :1555333200
		},
	"2019-04-15T08:00:00-07:00" : {
		"windSpeed" : 0.5,
		"windDir" : 360,
		"rain" : 1,
		"cloudbase" : 586.92999999996,
		"flyability" : 0,
		"reason" : "windDir, rain, cloudbase",
		"timestamp" :1555344000
		},
	"2019-04-15T11:00:00-07:00" : {
		"windSpeed" : 0.5,
		"windDir" : 216,
		"rain" : 0,
		"cloudbase" : null,
		"flyability" : 100,
		"reason" : "",
		"timestamp" :1555354800
		},
	"2019-04-15T14:00:00-07:00" : {
		"windSpeed" : 1.2,
		"windDir" : 222,
		"rain" : 1,
		"cloudbase" : 500,
		"flyability" : 0,
		"reason" : "rain, cloudbase",
		"timestamp" :1555365600
		},
	"2019-04-15T17:00:00-07:00" : {
		"windSpeed" : 2.1,
		"windDir" : 215,
		"rain" : 0,
		"cloudbase" : 7202.9,
		"flyability" : 100,
		"reason" : "",
		"timestamp" :1555376400
		},
	"2019-04-15T20:00:00-07:00" : {
		"windSpeed" : 1.1,
		"windDir" : 163,
		"rain" : 0,
		"cloudbase" : null,
		"flyability" : 0,
		"reason" : "windDir",
		"timestamp" :1555387200
		},
	"2019-04-15T23:00:00-07:00" : {
		"windSpeed" : 0.4,
		"windDir" : 63,
		"rain" : 1,
		"cloudbase" : null,
		"flyability" : 0,
		"reason" : "windDir, rain",
		"timestamp" :1555398000
		},
	"2019-04-16T02:00:00-07:00" : {
		"windSpeed" : 0.1,
		"windDir" : 256,
		"rain" : 0,
		"cloudbase" : null,
		"flyability" : 100,
		"reason" : "",
		"timestamp" :1555408800
		},
	"2019-04-16T05:00:00-07:00" : {
		"windSpeed" : 0.6,
		"windDir" : 39,
		"rain" : 1,
		"cloudbase" : 8100,
		"flyability" : 0,
		"reason" : "windDir, rain",
		"timestamp" :1555419600
		}
	}
}