{
"site" : "Saint Leu 1400",
"id" : 6877,
"orientations" : "00000222",
"forecasts" : { 
	"2019-04-03T07:00:00+04:00" : {
		"windSpeed" : 0.5,
		"windDir" : 137,
		"rain" : 1,
		"cloudbase" : null,
		"flyability" : 0,
		"reason" : "windDir, rain",
		"timestamp" :1554256800
		},
	"2019-04-03T10:00:00+04:00" : {
		"windSpeed" : 1.7,
		"windDir" : 211,
		"rain" : 1,
		"cloudbase" : null,
		"flyability" : 0,
		"reason" : "rain",
		"timestamp" :1554267600
		},
	"2019-04-03T13:00:00+04:00" : {
		"windSpeed" : 2.2,
		"windDir" : 182,
		"rain" : 1,
		"cloudbase" : null,
		"flyability" : 0,
		"reason" : "windDir, rain",
		"timestamp" :1554278400
		},
	"2019-04-03T16:00:00+04:00" : {
		"windSpeed" : 1.9,
		"windDir" : 179,
		"rain" : 1,
		"cloudbase" : null,
		"flyability" : 0,
		"reason" : "windDir, rain",
		"timestamp" :1554289200
		},
	"2019-04-03T19:00:00+04:00" : {
		"windSpeed" : 1.2,
		"windDir" : 130,
		"rain" : 0,
		"cloudbase" : null,
		"flyability" : 0,
		"reason" : "windDir",
		"timestamp" :1554300000
		},
	"2019-04-03T22:00:00+04:00" : {
		"windSpeed" : 0.7,
		"windDir" : 109,
		"rain" : 1,
		"cloudbase" : null,
		"flyability" : 0,
		"reason" : "windDir, rain",
		"timestamp" :1554310800
		},
	"2019-04-04T01:00:00+04:00" : {
		"windSpeed" : 0.9,
		"windDir" : 105,
		"rain" : 0,
		"cloudbase" : null,
		"flyability" : 0,
		"reason" : "windDir",
		"timestamp" :1554321600
		},
	"2019-04-04T04:00:00+04:00" : {
		"windSpeed" : 0.7,
		"windDir" : 81,
		"rain" : 0,
		"cloudbase" : null,
		"flyability" : 0,
		"reason" : "windDir",
		"timestamp" :1554332400
		},
	"2019-04-04T07:00:00+04:00" : {
		"windSpeed" : 0.5,
		"windDir" : 78,
		"rain" : 0,
		"cloudbase" : null,
		"flyability" : 0,
		"reason" : "windDir",
		"timestamp" :1554343200
		},
	"2019-04-04T10:00:00+04:00" : {
		"windSpeed" : 1.4,
		"windDir" : 216,
		"rain" : 1,
		"cloudbase" : null,
		"flyability" : 0,
		"reason" : "rain",
		"timestamp" :1554354000
		},
	"2019-04-04T13:00:00+04:00" : {
		"windSpeed" : 1.3,
		"windDir" : 221,
		"rain" : 1,
		"cloudbase" : null,
		"flyability" : 0,
		"reason" : "rain",
		"timestamp" :1554364800
		},
	"2019-04-04T16:00:00+04:00" : {
		"windSpeed" : 2,
		"windDir" : 215,
		"rain" : 1,
		"cloudbase" : null,
		"flyability" : 0,
		"reason" : "rain",
		"timestamp" :1554375600
		},
	"2019-04-04T19:00:00+04:00" : {
		"windSpeed" : 0.8,
		"windDir" : 211,
		"rain" : 1,
		"cloudbase" : null,
		"flyability" : 0,
		"reason" : "rain",
		"timestamp" :1554386400
		},
	"2019-04-04T22:00:00+04:00" : {
		"windSpeed" : 0.6,
		"windDir" : 154,
		"rain" : 0,
		"cloudbase" : null,
		"flyability" : 0,
		"reason" : "windDir",
		"timestamp" :1554397200
		},
	"2019-04-05T01:00:00+04:00" : {
		"windSpeed" : 0.5,
		"windDir" : 91,
		"rain" : 1,
		"cloudbase" : null,
		"flyability" : 0,
		"reason" : "windDir, rain",
		"timestamp" :1554408000
		},
	"2019-04-05T04:00:00+04:00" : {
		"windSpeed" : 0.5,
		"windDir" : 121,
		"rain" : 1,
		"cloudbase" : null,
		"flyability" : 0,
		"reason" : "windDir, rain",
		"timestamp" :1554418800
		},
	"2019-04-05T07:00:00+04:00" : {
		"windSpeed" : 0.7,
		"windDir" : 118,
		"rain" : 0,
		"cloudbase" : null,
		"flyability" : 0,
		"reason" : "windDir",
		"timestamp" :1554429600
		},
	"2019-04-05T10:00:00+04:00" : {
		"windSpeed" : 1.2,
		"windDir" : 231,
		"rain" : 0,
		"cloudbase" : 10000,
		"flyability" : 100,
		"reason" : "",
		"timestamp" :1554440400
		},
	"2019-04-05T13:00:00+04:00" : {
		"windSpeed" : 1.7,
		"windDir" : 207,
		"rain" : 1,
		"cloudbase" : null,
		"flyability" : 0,
		"reason" : "rain",
		"timestamp" :1554451200
		},
	"2019-04-05T16:00:00+04:00" : {
		"windSpeed" : 2.1,
		"windDir" : 168,
		"rain" : 1,
		"cloudbase" : 12000,
		"flyability" : 0,
		"reason" : "windDir, rain",
		"timestamp" :1554462000
		},
	"2019-04-05T19:00:00+04:00" : {
		"windSpeed" : 0.4,
		"windDir" : 155,
		"rain" : 1,
		"cloudbase" : 240,
		"flyability" : 0,
		"reason" : "windDir, rain, cloudbase",
		"timestamp" :1554472800
		},
	"2019-04-05T22:00:00+04:00" : {
		"windSpeed" : 0.2,
		"windDir" : 323,
		"rain" : 1,
		"cloudbase" : 9257.4450000008,
		"flyability" : 0,
		"reason" : "rain",
		"timestamp" :1554483600
		},
	"2019-04-06T01:00:00+04:00" : {
		"windSpeed" : 0.1,
		"windDir" : 92,
		"rain" : 0,
		"cloudbase" : 11430.35,
		"flyability" : 0,
		"reason" : "windDir",
		"timestamp" :1554494400
		},
	"2019-04-06T04:00:00+04:00" : {
		"windSpeed" : 0.6,
		"windDir" : 108,
		"rain" : 1,
		"cloudbase" : 8320.6950000007,
		"flyability" : 0,
		"reason" : "windDir, rain",
		"timestamp" :1554505200
		},
	"2019-04-06T07:00:00+04:00" : {
		"windSpeed" : 0.7,
		"windDir" : 71,
		"rain" : 1,
		"cloudbase" : 9660.0299999997,
		"flyability" : 0,
		"reason" : "windDir, rain",
		"timestamp" :1554516000
		},
	"2019-04-06T10:00:00+04:00" : {
		"windSpeed" : 1.4,
		"windDir" : 166,
		"rain" : 1,
		"cloudbase" : 13000,
		"flyability" : 0,
		"reason" : "windDir, rain",
		"timestamp" :1554526800
		},
	"2019-04-06T13:00:00+04:00" : {
		"windSpeed" : 2.3,
		"windDir" : 173,
		"rain" : 1,
		"cloudbase" : 4000,
		"flyability" : 0,
		"reason" : "windDir, rain",
		"timestamp" :1554537600
		},
	"2019-04-06T16:00:00+04:00" : {
		"windSpeed" : 2.5,
		"windDir" : 162,
		"rain" : 1,
		"cloudbase" : 1875.6890000003,
		"flyability" : 0,
		"reason" : "windDir, rain",
		"timestamp" :1554548400
		},
	"2019-04-06T19:00:00+04:00" : {
		"windSpeed" : 1.8,
		"windDir" : 134,
		"rain" : 1,
		"cloudbase" : null,
		"flyability" : 0,
		"reason" : "windDir, rain",
		"timestamp" :1554559200
		},
	"2019-04-06T22:00:00+04:00" : {
		"windSpeed" : 0.5,
		"windDir" : 144,
		"rain" : 0,
		"cloudbase" : 8456.2100000007,
		"flyability" : 0,
		"reason" : "windDir",
		"timestamp" :1554570000
		},
	"2019-04-07T01:00:00+04:00" : {
		"windSpeed" : 0.3,
		"windDir" : 22,
		"rain" : 0,
		"cloudbase" : 6650.2410000005,
		"flyability" : 0,
		"reason" : "windDir",
		"timestamp" :1554580800
		},
	"2019-04-07T04:00:00+04:00" : {
		"windSpeed" : 0.3,
		"windDir" : 45,
		"rain" : 0,
		"cloudbase" : null,
		"flyability" : 0,
		"reason" : "windDir",
		"timestamp" :1554591600
		},
	"2019-04-07T07:00:00+04:00" : {
		"windSpeed" : 0.9,
		"windDir" : 58,
		"rain" : 0,
		"cloudbase" : null,
		"flyability" : 0,
		"reason" : "windDir",
		"timestamp" :1554602400
		},
	"2019-04-07T10:00:00+04:00" : {
		"windSpeed" : 1.3,
		"windDir" : 235,
		"rain" : 1,
		"cloudbase" : 720,
		"flyability" : 0,
		"reason" : "rain, cloudbase",
		"timestamp" :1554613200
		},
	"2019-04-07T13:00:00+04:00" : {
		"windSpeed" : 1.4,
		"windDir" : 211,
		"rain" : 1,
		"cloudbase" : null,
		"flyability" : 0,
		"reason" : "rain",
		"timestamp" :1554624000
		},
	"2019-04-07T16:00:00+04:00" : {
		"windSpeed" : 1,
		"windDir" : 199,
		"rain" : 1,
		"cloudbase" : 720,
		"flyability" : 0,
		"reason" : "windDir, rain, cloudbase",
		"timestamp" :1554634800
		},
	"2019-04-07T19:00:00+04:00" : {
		"windSpeed" : 0.4,
		"windDir" : 296,
		"rain" : 1,
		"cloudbase" : null,
		"flyability" : 0,
		"reason" : "rain",
		"timestamp" :1554645600
		},
	"2019-04-07T22:00:00+04:00" : {
		"windSpeed" : 0.1,
		"windDir" : 2,
		"rain" : 1,
		"cloudbase" : null,
		"flyability" : 0,
		"reason" : "windDir, rain",
		"timestamp" :1554656400
		},
	"2019-04-08T01:00:00+04:00" : {
		"windSpeed" : 0.5,
		"windDir" : 91,
		"rain" : 0,
		"cloudbase" : null,
		"flyability" : 0,
		"reason" : "windDir",
		"timestamp" :1554667200
		},
	"2019-04-08T04:00:00+04:00" : {
		"windSpeed" : 0.7,
		"windDir" : 62,
		"rain" : 0,
		"cloudbase" : null,
		"flyability" : 0,
		"reason" : "windDir",
		"timestamp" :1554678000
		},
	"2019-04-08T07:00:00+04:00" : {
		"windSpeed" : 0.7,
		"windDir" : 61,
		"rain" : 0,
		"cloudbase" : null,
		"flyability" : 0,
		"reason" : "windDir",
		"timestamp" :1554688800
		},
	"2019-04-08T10:00:00+04:00" : {
		"windSpeed" : 1.1,
		"windDir" : 179,
		"rain" : 1,
		"cloudbase" : null,
		"flyability" : 0,
		"reason" : "windDir, rain",
		"timestamp" :1554699600
		},
	"2019-04-08T13:00:00+04:00" : {
		"windSpeed" : 1.6,
		"windDir" : 196,
		"rain" : 1,
		"cloudbase" : 3050,
		"flyability" : 0,
		"reason" : "windDir, rain",
		"timestamp" :1554710400
		},
	"2019-04-08T16:00:00+04:00" : {
		"windSpeed" : 2,
		"windDir" : 183,
		"rain" : 1,
		"cloudbase" : null,
		"flyability" : 0,
		"reason" : "windDir, rain",
		"timestamp" :1554721200
		},
	"2019-04-08T19:00:00+04:00" : {
		"windSpeed" : 0,
		"windDir" : 135,
		"rain" : 0,
		"cloudbase" : null,
		"flyability" : 0,
		"reason" : "windDir",
		"timestamp" :1554732000
		},
	"2019-04-08T22:00:00+04:00" : {
		"windSpeed" : 0.8,
		"windDir" : 38,
		"rain" : 0,
		"cloudbase" : null,
		"flyability" : 0,
		"reason" : "windDir",
		"timestamp" :1554742800
		},
	"2019-04-09T01:00:00+04:00" : {
		"windSpeed" : 1.2,
		"windDir" : 25,
		"rain" : 1,
		"cloudbase" : null,
		"flyability" : 0,
		"reason" : "windDir, rain",
		"timestamp" :1554753600
		},
	"2019-04-09T04:00:00+04:00" : {
		"windSpeed" : 0.9,
		"windDir" : 76,
		"rain" : 0,
		"cloudbase" : null,
		"flyability" : 0,
		"reason" : "windDir",
		"timestamp" :1554764400
		}
	}
}