{
"site" : "La Roche Percee",
"id" : 6887,
"orientations" : "00001220",
"forecasts" : { 
	"2019-04-19T14:00:00+11:00" : {
		"windSpeed" : 4.9,
		"windDir" : 129,
		"rain" : 1,
		"cloudbase" : 780,
		"flyability" : 0,
		"reason" : "windDir, rain",
		"timestamp" :1555646400
		},
	"2019-04-19T17:00:00+11:00" : {
		"windSpeed" : 3.9,
		"windDir" : 122,
		"rain" : 1,
		"cloudbase" : null,
		"flyability" : 0,
		"reason" : "windDir, rain",
		"timestamp" :1555657200
		},
	"2019-04-19T20:00:00+11:00" : {
		"windSpeed" : 2.1,
		"windDir" : 98,
		"rain" : 0,
		"cloudbase" : 4850,
		"flyability" : 0,
		"reason" : "windDir",
		"timestamp" :1555668000
		},
	"2019-04-19T23:00:00+11:00" : {
		"windSpeed" : 1.7,
		"windDir" : 109,
		"rain" : 0,
		"cloudbase" : null,
		"flyability" : 0,
		"reason" : "windDir",
		"timestamp" :1555678800
		},
	"2019-04-20T02:00:00+11:00" : {
		"windSpeed" : 2.3,
		"windDir" : 117,
		"rain" : 0,
		"cloudbase" : 860,
		"flyability" : 0,
		"reason" : "windDir",
		"timestamp" :1555689600
		},
	"2019-04-20T05:00:00+11:00" : {
		"windSpeed" : 2.1,
		"windDir" : 92,
		"rain" : 0,
		"cloudbase" : null,
		"flyability" : 0,
		"reason" : "windDir",
		"timestamp" :1555700400
		},
	"2019-04-20T08:00:00+11:00" : {
		"windSpeed" : 3,
		"windDir" : 90,
		"rain" : 0,
		"cloudbase" : null,
		"flyability" : 0,
		"reason" : "windDir",
		"timestamp" :1555711200
		},
	"2019-04-20T11:00:00+11:00" : {
		"windSpeed" : 4.7,
		"windDir" : 116,
		"rain" : 0,
		"cloudbase" : null,
		"flyability" : 0,
		"reason" : "windDir",
		"timestamp" :1555722000
		},
	"2019-04-20T14:00:00+11:00" : {
		"windSpeed" : 5.1,
		"windDir" : 109,
		"rain" : 1,
		"cloudbase" : null,
		"flyability" : 0,
		"reason" : "windSpeed, windDir, rain",
		"timestamp" :1555732800
		},
	"2019-04-20T17:00:00+11:00" : {
		"windSpeed" : 3.9,
		"windDir" : 85,
		"rain" : 1,
		"cloudbase" : null,
		"flyability" : 0,
		"reason" : "windDir, rain",
		"timestamp" :1555743600
		},
	"2019-04-20T20:00:00+11:00" : {
		"windSpeed" : 3.3,
		"windDir" : 91,
		"rain" : 1,
		"cloudbase" : null,
		"flyability" : 0,
		"reason" : "windDir, rain",
		"timestamp" :1555754400
		},
	"2019-04-20T23:00:00+11:00" : {
		"windSpeed" : 3,
		"windDir" : 100,
		"rain" : 0,
		"cloudbase" : null,
		"flyability" : 0,
		"reason" : "windDir",
		"timestamp" :1555765200
		},
	"2019-04-21T02:00:00+11:00" : {
		"windSpeed" : 3.2,
		"windDir" : 109,
		"rain" : 0,
		"cloudbase" : 8818,
		"flyability" : 0,
		"reason" : "windDir",
		"timestamp" :1555776000
		},
	"2019-04-21T05:00:00+11:00" : {
		"windSpeed" : 3.3,
		"windDir" : 122,
		"rain" : 0,
		"cloudbase" : 5979.4399999998,
		"flyability" : 0,
		"reason" : "windDir",
		"timestamp" :1555786800
		},
	"2019-04-21T08:00:00+11:00" : {
		"windSpeed" : 2.6,
		"windDir" : 106,
		"rain" : 1,
		"cloudbase" : null,
		"flyability" : 0,
		"reason" : "windDir, rain",
		"timestamp" :1555797600
		},
	"2019-04-21T11:00:00+11:00" : {
		"windSpeed" : 5.2,
		"windDir" : 91,
		"rain" : 1,
		"cloudbase" : 11000,
		"flyability" : 0,
		"reason" : "windSpeed, windDir, rain",
		"timestamp" :1555808400
		},
	"2019-04-21T14:00:00+11:00" : {
		"windSpeed" : 4.3,
		"windDir" : 97,
		"rain" : 0,
		"cloudbase" : null,
		"flyability" : 0,
		"reason" : "windDir",
		"timestamp" :1555819200
		},
	"2019-04-21T17:00:00+11:00" : {
		"windSpeed" : 4,
		"windDir" : 108,
		"rain" : 0,
		"cloudbase" : 5740.8,
		"flyability" : 0,
		"reason" : "windDir",
		"timestamp" :1555830000
		},
	"2019-04-21T20:00:00+11:00" : {
		"windSpeed" : 3.6,
		"windDir" : 102,
		"rain" : 1,
		"cloudbase" : 5106,
		"flyability" : 0,
		"reason" : "windDir, rain",
		"timestamp" :1555840800
		},
	"2019-04-21T23:00:00+11:00" : {
		"windSpeed" : 3,
		"windDir" : 114,
		"rain" : 1,
		"cloudbase" : 5566.3999999996,
		"flyability" : 0,
		"reason" : "windDir, rain",
		"timestamp" :1555851600
		},
	"2019-04-22T02:00:00+11:00" : {
		"windSpeed" : 3.6,
		"windDir" : 114,
		"rain" : 1,
		"cloudbase" : 5514.72,
		"flyability" : 0,
		"reason" : "windDir, rain",
		"timestamp" :1555862400
		},
	"2019-04-22T05:00:00+11:00" : {
		"windSpeed" : 3.8,
		"windDir" : 113,
		"rain" : 1,
		"cloudbase" : 4174.12,
		"flyability" : 0,
		"reason" : "windDir, rain",
		"timestamp" :1555873200
		},
	"2019-04-22T08:00:00+11:00" : {
		"windSpeed" : 4.2,
		"windDir" : 97,
		"rain" : 1,
		"cloudbase" : 5161.92,
		"flyability" : 0,
		"reason" : "windDir, rain",
		"timestamp" :1555884000
		},
	"2019-04-22T11:00:00+11:00" : {
		"windSpeed" : 1.3,
		"windDir" : 168,
		"rain" : 1,
		"cloudbase" : null,
		"flyability" : 0,
		"reason" : "rain",
		"timestamp" :1555894800
		},
	"2019-04-22T14:00:00+11:00" : {
		"windSpeed" : 3.3,
		"windDir" : 96,
		"rain" : 1,
		"cloudbase" : 5462.7199999999,
		"flyability" : 0,
		"reason" : "windDir, rain",
		"timestamp" :1555905600
		},
	"2019-04-22T17:00:00+11:00" : {
		"windSpeed" : 3.6,
		"windDir" : 116,
		"rain" : 1,
		"cloudbase" : 9403.36,
		"flyability" : 0,
		"reason" : "windDir, rain",
		"timestamp" :1555916400
		},
	"2019-04-22T20:00:00+11:00" : {
		"windSpeed" : 2.5,
		"windDir" : 85,
		"rain" : 1,
		"cloudbase" : null,
		"flyability" : 0,
		"reason" : "windDir, rain",
		"timestamp" :1555927200
		},
	"2019-04-22T23:00:00+11:00" : {
		"windSpeed" : 2,
		"windDir" : 98,
		"rain" : 0,
		"cloudbase" : null,
		"flyability" : 0,
		"reason" : "windDir",
		"timestamp" :1555938000
		},
	"2019-04-23T02:00:00+11:00" : {
		"windSpeed" : 2.1,
		"windDir" : 105,
		"rain" : 0,
		"cloudbase" : null,
		"flyability" : 0,
		"reason" : "windDir",
		"timestamp" :1555948800
		},
	"2019-04-23T05:00:00+11:00" : {
		"windSpeed" : 2,
		"windDir" : 90,
		"rain" : 0,
		"cloudbase" : null,
		"flyability" : 0,
		"reason" : "windDir",
		"timestamp" :1555959600
		},
	"2019-04-23T08:00:00+11:00" : {
		"windSpeed" : 2.4,
		"windDir" : 108,
		"rain" : 1,
		"cloudbase" : null,
		"flyability" : 0,
		"reason" : "windDir, rain",
		"timestamp" :1555970400
		},
	"2019-04-23T11:00:00+11:00" : {
		"windSpeed" : 3.9,
		"windDir" : 148,
		"rain" : 0,
		"cloudbase" : 980,
		"flyability" : 0,
		"reason" : "windDir",
		"timestamp" :1555981200
		},
	"2019-04-23T14:00:00+11:00" : {
		"windSpeed" : 3.7,
		"windDir" : 124,
		"rain" : 1,
		"cloudbase" : 1450,
		"flyability" : 0,
		"reason" : "windDir, rain",
		"timestamp" :1555992000
		},
	"2019-04-23T17:00:00+11:00" : {
		"windSpeed" : 2.3,
		"windDir" : 117,
		"rain" : 0,
		"cloudbase" : null,
		"flyability" : 0,
		"reason" : "windDir",
		"timestamp" :1556002800
		},
	"2019-04-23T20:00:00+11:00" : {
		"windSpeed" : 2.1,
		"windDir" : 57,
		"rain" : 0,
		"cloudbase" : null,
		"flyability" : 0,
		"reason" : "windDir",
		"timestamp" :1556013600
		},
	"2019-04-23T23:00:00+11:00" : {
		"windSpeed" : 1.7,
		"windDir" : 67,
		"rain" : 0,
		"cloudbase" : null,
		"flyability" : 0,
		"reason" : "windDir",
		"timestamp" :1556024400
		},
	"2019-04-24T02:00:00+11:00" : {
		"windSpeed" : 2.1,
		"windDir" : 84,
		"rain" : 0,
		"cloudbase" : null,
		"flyability" : 0,
		"reason" : "windDir",
		"timestamp" :1556035200
		},
	"2019-04-24T05:00:00+11:00" : {
		"windSpeed" : 2.3,
		"windDir" : 80,
		"rain" : 0,
		"cloudbase" : null,
		"flyability" : 0,
		"reason" : "windDir",
		"timestamp" :1556046000
		},
	"2019-04-24T08:00:00+11:00" : {
		"windSpeed" : 1.6,
		"windDir" : 108,
		"rain" : 0,
		"cloudbase" : null,
		"flyability" : 0,
		"reason" : "windDir",
		"timestamp" :1556056800
		},
	"2019-04-24T11:00:00+11:00" : {
		"windSpeed" : 3.7,
		"windDir" : 146,
		"rain" : 0,
		"cloudbase" : 1423.32,
		"flyability" : 0,
		"reason" : "windDir",
		"timestamp" :1556067600
		},
	"2019-04-24T14:00:00+11:00" : {
		"windSpeed" : 4.5,
		"windDir" : 132,
		"rain" : 1,
		"cloudbase" : 1824.28,
		"flyability" : 0,
		"reason" : "windDir, rain",
		"timestamp" :1556078400
		},
	"2019-04-24T17:00:00+11:00" : {
		"windSpeed" : 3.8,
		"windDir" : 137,
		"rain" : 1,
		"cloudbase" : 2150,
		"flyability" : 0,
		"reason" : "windDir, rain",
		"timestamp" :1556089200
		},
	"2019-04-24T20:00:00+11:00" : {
		"windSpeed" : 2.1,
		"windDir" : 94,
		"rain" : 1,
		"cloudbase" : null,
		"flyability" : 0,
		"reason" : "windDir, rain",
		"timestamp" :1556100000
		},
	"2019-04-24T23:00:00+11:00" : {
		"windSpeed" : 1.7,
		"windDir" : 76,
		"rain" : 0,
		"cloudbase" : null,
		"flyability" : 0,
		"reason" : "windDir",
		"timestamp" :1556110800
		},
	"2019-04-25T02:00:00+11:00" : {
		"windSpeed" : 1.8,
		"windDir" : 59,
		"rain" : 0,
		"cloudbase" : null,
		"flyability" : 0,
		"reason" : "windDir",
		"timestamp" :1556121600
		},
	"2019-04-25T05:00:00+11:00" : {
		"windSpeed" : 1.7,
		"windDir" : 65,
		"rain" : 1,
		"cloudbase" : null,
		"flyability" : 0,
		"reason" : "windDir, rain",
		"timestamp" :1556132400
		},
	"2019-04-25T08:00:00+11:00" : {
		"windSpeed" : 1.6,
		"windDir" : 109,
		"rain" : 0,
		"cloudbase" : null,
		"flyability" : 0,
		"reason" : "windDir",
		"timestamp" :1556143200
		},
	"2019-04-25T11:00:00+11:00" : {
		"windSpeed" : 2.9,
		"windDir" : 149,
		"rain" : 0,
		"cloudbase" : null,
		"flyability" : 0,
		"reason" : "windDir",
		"timestamp" :1556154000
		}
	}
}