{
"site" : "Black Cap",
"id" : 7081,
"orientations" : "00001221",
"forecasts" : { 
	"2019-04-18T08:00:00-07:00" : {
		"windSpeed" : 1,
		"windDir" : 53,
		"rain" : 0,
		"cloudbase" : null,
		"flyability" : 0,
		"reason" : "windDir",
		"timestamp" :1555603200
		},
	"2019-04-18T11:00:00-07:00" : {
		"windSpeed" : 1.1,
		"windDir" : 206,
		"rain" : 0,
		"cloudbase" : null,
		"flyability" : 100,
		"reason" : "",
		"timestamp" :1555614000
		},
	"2019-04-18T14:00:00-07:00" : {
		"windSpeed" : 2,
		"windDir" : 205,
		"rain" : 0,
		"cloudbase" : 8028.71,
		"flyability" : 100,
		"reason" : "",
		"timestamp" :1555624800
		},
	"2019-04-18T17:00:00-07:00" : {
		"windSpeed" : 1.7,
		"windDir" : 170,
		"rain" : 0,
		"cloudbase" : null,
		"flyability" : 100,
		"reason" : "",
		"timestamp" :1555635600
		},
	"2019-04-18T20:00:00-07:00" : {
		"windSpeed" : 1,
		"windDir" : 90,
		"rain" : 0,
		"cloudbase" : null,
		"flyability" : 0,
		"reason" : "windDir",
		"timestamp" :1555646400
		},
	"2019-04-18T23:00:00-07:00" : {
		"windSpeed" : 0.9,
		"windDir" : 72,
		"rain" : 0,
		"cloudbase" : null,
		"flyability" : 0,
		"reason" : "windDir",
		"timestamp" :1555657200
		},
	"2019-04-19T02:00:00-07:00" : {
		"windSpeed" : 0.9,
		"windDir" : 72,
		"rain" : 0,
		"cloudbase" : null,
		"flyability" : 0,
		"reason" : "windDir",
		"timestamp" :1555668000
		},
	"2019-04-19T05:00:00-07:00" : {
		"windSpeed" : 0.9,
		"windDir" : 83,
		"rain" : 0,
		"cloudbase" : null,
		"flyability" : 0,
		"reason" : "windDir",
		"timestamp" :1555678800
		},
	"2019-04-19T08:00:00-07:00" : {
		"windSpeed" : 0.8,
		"windDir" : 119,
		"rain" : 0,
		"cloudbase" : null,
		"flyability" : 0,
		"reason" : "windDir",
		"timestamp" :1555689600
		},
	"2019-04-19T11:00:00-07:00" : {
		"windSpeed" : 2,
		"windDir" : 205,
		"rain" : 0,
		"cloudbase" : 8400,
		"flyability" : 100,
		"reason" : "",
		"timestamp" :1555700400
		},
	"2019-04-19T14:00:00-07:00" : {
		"windSpeed" : 4.2,
		"windDir" : 201,
		"rain" : 0,
		"cloudbase" : 6648.82,
		"flyability" : 100,
		"reason" : "",
		"timestamp" :1555711200
		},
	"2019-04-19T17:00:00-07:00" : {
		"windSpeed" : 4.3,
		"windDir" : 229,
		"rain" : 0,
		"cloudbase" : null,
		"flyability" : 100,
		"reason" : "",
		"timestamp" :1555722000
		},
	"2019-04-19T20:00:00-07:00" : {
		"windSpeed" : 2.6,
		"windDir" : 203,
		"rain" : 0,
		"cloudbase" : 6425.7,
		"flyability" : 100,
		"reason" : "",
		"timestamp" :1555732800
		},
	"2019-04-19T23:00:00-07:00" : {
		"windSpeed" : 1.5,
		"windDir" : 205,
		"rain" : 1,
		"cloudbase" : 6279.35,
		"flyability" : 0,
		"reason" : "rain",
		"timestamp" :1555743600
		},
	"2019-04-20T02:00:00-07:00" : {
		"windSpeed" : 1.3,
		"windDir" : 207,
		"rain" : 1,
		"cloudbase" : 5185.7,
		"flyability" : 0,
		"reason" : "rain",
		"timestamp" :1555754400
		},
	"2019-04-20T05:00:00-07:00" : {
		"windSpeed" : 1.7,
		"windDir" : 185,
		"rain" : 1,
		"cloudbase" : 91.441500000001,
		"flyability" : 0,
		"reason" : "rain, cloudbase",
		"timestamp" :1555765200
		},
	"2019-04-20T08:00:00-07:00" : {
		"windSpeed" : 1.4,
		"windDir" : 193,
		"rain" : 1,
		"cloudbase" : 96.032999999998,
		"flyability" : 0,
		"reason" : "rain, cloudbase",
		"timestamp" :1555776000
		},
	"2019-04-20T11:00:00-07:00" : {
		"windSpeed" : 2.6,
		"windDir" : 222,
		"rain" : 1,
		"cloudbase" : 1139.3939999999,
		"flyability" : 0,
		"reason" : "rain, cloudbase",
		"timestamp" :1555786800
		},
	"2019-04-20T14:00:00-07:00" : {
		"windSpeed" : 3.9,
		"windDir" : 360,
		"rain" : 1,
		"cloudbase" : 709.42299999998,
		"flyability" : 0,
		"reason" : "windDir, rain, cloudbase",
		"timestamp" :1555797600
		},
	"2019-04-20T17:00:00-07:00" : {
		"windSpeed" : 3.8,
		"windDir" : 355,
		"rain" : 1,
		"cloudbase" : 702.49900000003,
		"flyability" : 0,
		"reason" : "windDir, rain, cloudbase",
		"timestamp" :1555808400
		},
	"2019-04-20T20:00:00-07:00" : {
		"windSpeed" : 2.7,
		"windDir" : 10,
		"rain" : 1,
		"cloudbase" : 879.398,
		"flyability" : 0,
		"reason" : "windDir, rain, cloudbase",
		"timestamp" :1555819200
		},
	"2019-04-20T23:00:00-07:00" : {
		"windSpeed" : 3.7,
		"windDir" : 8,
		"rain" : 0,
		"cloudbase" : null,
		"flyability" : 0,
		"reason" : "windDir",
		"timestamp" :1555830000
		},
	"2019-04-21T02:00:00-07:00" : {
		"windSpeed" : 2.5,
		"windDir" : 357,
		"rain" : 0,
		"cloudbase" : 365.861,
		"flyability" : 0,
		"reason" : "windDir, cloudbase",
		"timestamp" :1555840800
		},
	"2019-04-21T05:00:00-07:00" : {
		"windSpeed" : 2.2,
		"windDir" : 23,
		"rain" : 0,
		"cloudbase" : null,
		"flyability" : 0,
		"reason" : "windDir",
		"timestamp" :1555851600
		},
	"2019-04-21T08:00:00-07:00" : {
		"windSpeed" : 2.6,
		"windDir" : 11,
		"rain" : 0,
		"cloudbase" : null,
		"flyability" : 0,
		"reason" : "windDir",
		"timestamp" :1555862400
		},
	"2019-04-21T11:00:00-07:00" : {
		"windSpeed" : 4.3,
		"windDir" : 6,
		"rain" : 0,
		"cloudbase" : null,
		"flyability" : 0,
		"reason" : "windDir",
		"timestamp" :1555873200
		},
	"2019-04-21T14:00:00-07:00" : {
		"windSpeed" : 4.3,
		"windDir" : 355,
		"rain" : 0,
		"cloudbase" : null,
		"flyability" : 0,
		"reason" : "windDir",
		"timestamp" :1555884000
		},
	"2019-04-21T17:00:00-07:00" : {
		"windSpeed" : 3.8,
		"windDir" : 352,
		"rain" : 0,
		"cloudbase" : null,
		"flyability" : 0,
		"reason" : "windDir",
		"timestamp" :1555894800
		},
	"2019-04-21T20:00:00-07:00" : {
		"windSpeed" : 1.8,
		"windDir" : 23,
		"rain" : 0,
		"cloudbase" : null,
		"flyability" : 0,
		"reason" : "windDir",
		"timestamp" :1555905600
		},
	"2019-04-21T23:00:00-07:00" : {
		"windSpeed" : 2,
		"windDir" : 41,
		"rain" : 0,
		"cloudbase" : 7281.83,
		"flyability" : 0,
		"reason" : "windDir",
		"timestamp" :1555916400
		},
	"2019-04-22T02:00:00-07:00" : {
		"windSpeed" : 2.1,
		"windDir" : 36,
		"rain" : 0,
		"cloudbase" : null,
		"flyability" : 0,
		"reason" : "windDir",
		"timestamp" :1555927200
		},
	"2019-04-22T05:00:00-07:00" : {
		"windSpeed" : 1.2,
		"windDir" : 46,
		"rain" : 0,
		"cloudbase" : null,
		"flyability" : 0,
		"reason" : "windDir",
		"timestamp" :1555938000
		},
	"2019-04-22T08:00:00-07:00" : {
		"windSpeed" : 1.2,
		"windDir" : 46,
		"rain" : 0,
		"cloudbase" : null,
		"flyability" : 0,
		"reason" : "windDir",
		"timestamp" :1555948800
		},
	"2019-04-22T11:00:00-07:00" : {
		"windSpeed" : 1.5,
		"windDir" : 26,
		"rain" : 0,
		"cloudbase" : null,
		"flyability" : 0,
		"reason" : "windDir",
		"timestamp" :1555959600
		},
	"2019-04-22T14:00:00-07:00" : {
		"windSpeed" : 1.8,
		"windDir" : 21,
		"rain" : 0,
		"cloudbase" : 6725.7,
		"flyability" : 0,
		"reason" : "windDir",
		"timestamp" :1555970400
		},
	"2019-04-22T17:00:00-07:00" : {
		"windSpeed" : 2.1,
		"windDir" : 38,
		"rain" : 0,
		"cloudbase" : 11143.55,
		"flyability" : 0,
		"reason" : "windDir",
		"timestamp" :1555981200
		},
	"2019-04-22T20:00:00-07:00" : {
		"windSpeed" : 1.5,
		"windDir" : 64,
		"rain" : 0,
		"cloudbase" : 8325.7,
		"flyability" : 0,
		"reason" : "windDir",
		"timestamp" :1555992000
		},
	"2019-04-22T23:00:00-07:00" : {
		"windSpeed" : 1.9,
		"windDir" : 65,
		"rain" : 0,
		"cloudbase" : 8181.83,
		"flyability" : 0,
		"reason" : "windDir",
		"timestamp" :1556002800
		},
	"2019-04-23T02:00:00-07:00" : {
		"windSpeed" : 1.9,
		"windDir" : 64,
		"rain" : 0,
		"cloudbase" : null,
		"flyability" : 0,
		"reason" : "windDir",
		"timestamp" :1556013600
		},
	"2019-04-23T05:00:00-07:00" : {
		"windSpeed" : 1.9,
		"windDir" : 64,
		"rain" : 0,
		"cloudbase" : null,
		"flyability" : 0,
		"reason" : "windDir",
		"timestamp" :1556024400
		},
	"2019-04-23T08:00:00-07:00" : {
		"windSpeed" : 1.2,
		"windDir" : 56,
		"rain" : 0,
		"cloudbase" : null,
		"flyability" : 0,
		"reason" : "windDir",
		"timestamp" :1556035200
		},
	"2019-04-23T11:00:00-07:00" : {
		"windSpeed" : 1,
		"windDir" : 89,
		"rain" : 0,
		"cloudbase" : null,
		"flyability" : 0,
		"reason" : "windDir",
		"timestamp" :1556046000
		},
	"2019-04-23T14:00:00-07:00" : {
		"windSpeed" : 1.1,
		"windDir" : 69,
		"rain" : 0,
		"cloudbase" : null,
		"flyability" : 0,
		"reason" : "windDir",
		"timestamp" :1556056800
		},
	"2019-04-23T17:00:00-07:00" : {
		"windSpeed" : 1.7,
		"windDir" : 76,
		"rain" : 0,
		"cloudbase" : 9925.7,
		"flyability" : 0,
		"reason" : "windDir",
		"timestamp" :1556067600
		},
	"2019-04-23T20:00:00-07:00" : {
		"windSpeed" : 1.3,
		"windDir" : 83,
		"rain" : 0,
		"cloudbase" : 8500,
		"flyability" : 0,
		"reason" : "windDir",
		"timestamp" :1556078400
		},
	"2019-04-23T23:00:00-07:00" : {
		"windSpeed" : 1.9,
		"windDir" : 61,
		"rain" : 0,
		"cloudbase" : null,
		"flyability" : 0,
		"reason" : "windDir",
		"timestamp" :1556089200
		},
	"2019-04-24T02:00:00-07:00" : {
		"windSpeed" : 1.6,
		"windDir" : 59,
		"rain" : 0,
		"cloudbase" : null,
		"flyability" : 0,
		"reason" : "windDir",
		"timestamp" :1556100000
		},
	"2019-04-24T05:00:00-07:00" : {
		"windSpeed" : 1.4,
		"windDir" : 57,
		"rain" : 0,
		"cloudbase" : null,
		"flyability" : 0,
		"reason" : "windDir",
		"timestamp" :1556110800
		}
	}
}