{
"site" : "Peterson Butte",
"id" : 7096,
"orientations" : "00002110",
"forecasts" : { 
	"2019-04-11T20:00:00-07:00" : {
		"windSpeed" : 3.6,
		"windDir" : 200,
		"rain" : 1,
		"cloudbase" : 764.32000000002,
		"flyability" : 0,
		"reason" : "rain",
		"timestamp" :1555041600
		},
	"2019-04-11T23:00:00-07:00" : {
		"windSpeed" : 3.3,
		"windDir" : 207,
		"rain" : 1,
		"cloudbase" : 841.63200000001,
		"flyability" : 0,
		"reason" : "rain",
		"timestamp" :1555052400
		},
	"2019-04-12T02:00:00-07:00" : {
		"windSpeed" : 2.5,
		"windDir" : 235,
		"rain" : 1,
		"cloudbase" : 2022.2399999998,
		"flyability" : 0,
		"reason" : "rain",
		"timestamp" :1555063200
		},
	"2019-04-12T05:00:00-07:00" : {
		"windSpeed" : 1.2,
		"windDir" : 237,
		"rain" : 0,
		"cloudbase" : 5182.56,
		"flyability" : 100,
		"reason" : "",
		"timestamp" :1555074000
		},
	"2019-04-12T08:00:00-07:00" : {
		"windSpeed" : 1.4,
		"windDir" : 180,
		"rain" : 1,
		"cloudbase" : null,
		"flyability" : 0,
		"reason" : "rain",
		"timestamp" :1555084800
		},
	"2019-04-12T11:00:00-07:00" : {
		"windSpeed" : 1.5,
		"windDir" : 227,
		"rain" : 1,
		"cloudbase" : 523.52,
		"flyability" : 0,
		"reason" : "rain",
		"timestamp" :1555095600
		},
	"2019-04-12T14:00:00-07:00" : {
		"windSpeed" : 1.4,
		"windDir" : 232,
		"rain" : 1,
		"cloudbase" : 1326.72,
		"flyability" : 0,
		"reason" : "rain",
		"timestamp" :1555106400
		},
	"2019-04-12T17:00:00-07:00" : {
		"windSpeed" : 2.9,
		"windDir" : 260,
		"rain" : 1,
		"cloudbase" : 1601.52,
		"flyability" : 0,
		"reason" : "rain",
		"timestamp" :1555117200
		},
	"2019-04-12T20:00:00-07:00" : {
		"windSpeed" : 2,
		"windDir" : 280,
		"rain" : 0,
		"cloudbase" : 1305.44,
		"flyability" : 100,
		"reason" : "",
		"timestamp" :1555128000
		},
	"2019-04-12T23:00:00-07:00" : {
		"windSpeed" : 1.5,
		"windDir" : 245,
		"rain" : 0,
		"cloudbase" : 1253.52,
		"flyability" : 100,
		"reason" : "",
		"timestamp" :1555138800
		},
	"2019-04-13T02:00:00-07:00" : {
		"windSpeed" : 1.3,
		"windDir" : 205,
		"rain" : 0,
		"cloudbase" : null,
		"flyability" : 100,
		"reason" : "",
		"timestamp" :1555149600
		},
	"2019-04-13T05:00:00-07:00" : {
		"windSpeed" : 1.1,
		"windDir" : 206,
		"rain" : 0,
		"cloudbase" : 140,
		"flyability" : 0,
		"reason" : "cloudbase",
		"timestamp" :1555160400
		},
	"2019-04-13T08:00:00-07:00" : {
		"windSpeed" : 2.9,
		"windDir" : 190,
		"rain" : 0,
		"cloudbase" : 1998.8480000001,
		"flyability" : 100,
		"reason" : "",
		"timestamp" :1555171200
		},
	"2019-04-13T11:00:00-07:00" : {
		"windSpeed" : 4.1,
		"windDir" : 217,
		"rain" : 0,
		"cloudbase" : 533.76,
		"flyability" : 100,
		"reason" : "",
		"timestamp" :1555182000
		},
	"2019-04-13T14:00:00-07:00" : {
		"windSpeed" : 3.1,
		"windDir" : 159,
		"rain" : 1,
		"cloudbase" : 1690.32,
		"flyability" : 0,
		"reason" : "rain",
		"timestamp" :1555192800
		},
	"2019-04-13T17:00:00-07:00" : {
		"windSpeed" : 3.7,
		"windDir" : 202,
		"rain" : 1,
		"cloudbase" : 1204.4,
		"flyability" : 0,
		"reason" : "rain",
		"timestamp" :1555203600
		},
	"2019-04-13T20:00:00-07:00" : {
		"windSpeed" : 4,
		"windDir" : 199,
		"rain" : 0,
		"cloudbase" : 742.016,
		"flyability" : 100,
		"reason" : "",
		"timestamp" :1555214400
		},
	"2019-04-13T23:00:00-07:00" : {
		"windSpeed" : 2.1,
		"windDir" : 291,
		"rain" : 1,
		"cloudbase" : 3884.4160000003,
		"flyability" : 0,
		"reason" : "rain",
		"timestamp" :1555225200
		},
	"2019-04-14T02:00:00-07:00" : {
		"windSpeed" : 0.7,
		"windDir" : 224,
		"rain" : 1,
		"cloudbase" : 2312.8320000001,
		"flyability" : 0,
		"reason" : "rain",
		"timestamp" :1555236000
		},
	"2019-04-14T05:00:00-07:00" : {
		"windSpeed" : 0.6,
		"windDir" : 216,
		"rain" : 1,
		"cloudbase" : 3950,
		"flyability" : 0,
		"reason" : "rain",
		"timestamp" :1555246800
		},
	"2019-04-14T08:00:00-07:00" : {
		"windSpeed" : 1.1,
		"windDir" : 201,
		"rain" : 0,
		"cloudbase" : 7700,
		"flyability" : 100,
		"reason" : "",
		"timestamp" :1555257600
		},
	"2019-04-14T11:00:00-07:00" : {
		"windSpeed" : 0.7,
		"windDir" : 220,
		"rain" : 1,
		"cloudbase" : 4110.56,
		"flyability" : 0,
		"reason" : "rain",
		"timestamp" :1555268400
		},
	"2019-04-14T14:00:00-07:00" : {
		"windSpeed" : 1.7,
		"windDir" : 240,
		"rain" : 1,
		"cloudbase" : 2632.96,
		"flyability" : 0,
		"reason" : "rain",
		"timestamp" :1555279200
		},
	"2019-04-14T17:00:00-07:00" : {
		"windSpeed" : 2.3,
		"windDir" : 244,
		"rain" : 1,
		"cloudbase" : 2239.12,
		"flyability" : 0,
		"reason" : "rain",
		"timestamp" :1555290000
		},
	"2019-04-14T20:00:00-07:00" : {
		"windSpeed" : 2.2,
		"windDir" : 206,
		"rain" : 1,
		"cloudbase" : 2047.9040000001,
		"flyability" : 0,
		"reason" : "rain",
		"timestamp" :1555300800
		},
	"2019-04-14T23:00:00-07:00" : {
		"windSpeed" : 3.4,
		"windDir" : 187,
		"rain" : 1,
		"cloudbase" : 1218.224,
		"flyability" : 0,
		"reason" : "rain",
		"timestamp" :1555311600
		},
	"2019-04-15T02:00:00-07:00" : {
		"windSpeed" : 3.4,
		"windDir" : 178,
		"rain" : 0,
		"cloudbase" : 1989.44,
		"flyability" : 100,
		"reason" : "",
		"timestamp" :1555322400
		},
	"2019-04-15T05:00:00-07:00" : {
		"windSpeed" : 2.7,
		"windDir" : 154,
		"rain" : 0,
		"cloudbase" : 1013.648,
		"flyability" : 0,
		"reason" : "windDir",
		"timestamp" :1555333200
		},
	"2019-04-15T08:00:00-07:00" : {
		"windSpeed" : 2,
		"windDir" : 142,
		"rain" : 0,
		"cloudbase" : 1296.48,
		"flyability" : 0,
		"reason" : "windDir",
		"timestamp" :1555344000
		},
	"2019-04-15T11:00:00-07:00" : {
		"windSpeed" : 3.1,
		"windDir" : 162,
		"rain" : 0,
		"cloudbase" : 1855.76,
		"flyability" : 100,
		"reason" : "",
		"timestamp" :1555354800
		},
	"2019-04-15T14:00:00-07:00" : {
		"windSpeed" : 1.8,
		"windDir" : 231,
		"rain" : 1,
		"cloudbase" : 1213.76,
		"flyability" : 0,
		"reason" : "rain",
		"timestamp" :1555365600
		},
	"2019-04-15T17:00:00-07:00" : {
		"windSpeed" : 1.5,
		"windDir" : 360,
		"rain" : 1,
		"cloudbase" : 1118.176,
		"flyability" : 0,
		"reason" : "windDir, rain",
		"timestamp" :1555376400
		},
	"2019-04-15T20:00:00-07:00" : {
		"windSpeed" : 2.1,
		"windDir" : 26,
		"rain" : 1,
		"cloudbase" : 1272.64,
		"flyability" : 0,
		"reason" : "windDir, rain",
		"timestamp" :1555387200
		},
	"2019-04-15T23:00:00-07:00" : {
		"windSpeed" : 1.3,
		"windDir" : 26,
		"rain" : 1,
		"cloudbase" : 901.05599999999,
		"flyability" : 0,
		"reason" : "windDir, rain",
		"timestamp" :1555398000
		},
	"2019-04-16T02:00:00-07:00" : {
		"windSpeed" : 1.8,
		"windDir" : 204,
		"rain" : 0,
		"cloudbase" : 477.376,
		"flyability" : 100,
		"reason" : "",
		"timestamp" :1555408800
		},
	"2019-04-16T05:00:00-07:00" : {
		"windSpeed" : 3,
		"windDir" : 195,
		"rain" : 0,
		"cloudbase" : 512.57600000001,
		"flyability" : 100,
		"reason" : "",
		"timestamp" :1555419600
		},
	"2019-04-16T08:00:00-07:00" : {
		"windSpeed" : 4.1,
		"windDir" : 198,
		"rain" : 1,
		"cloudbase" : 430,
		"flyability" : 0,
		"reason" : "rain",
		"timestamp" :1555430400
		},
	"2019-04-16T11:00:00-07:00" : {
		"windSpeed" : 4.3,
		"windDir" : 205,
		"rain" : 1,
		"cloudbase" : 1798.8,
		"flyability" : 0,
		"reason" : "rain",
		"timestamp" :1555441200
		},
	"2019-04-16T14:00:00-07:00" : {
		"windSpeed" : 4.6,
		"windDir" : 212,
		"rain" : 1,
		"cloudbase" : 1272.96,
		"flyability" : 0,
		"reason" : "rain",
		"timestamp" :1555452000
		},
	"2019-04-16T17:00:00-07:00" : {
		"windSpeed" : 3.8,
		"windDir" : 230,
		"rain" : 0,
		"cloudbase" : 1314,
		"flyability" : 100,
		"reason" : "",
		"timestamp" :1555462800
		},
	"2019-04-16T20:00:00-07:00" : {
		"windSpeed" : 2.7,
		"windDir" : 225,
		"rain" : 0,
		"cloudbase" : 1759.5200000001,
		"flyability" : 100,
		"reason" : "",
		"timestamp" :1555473600
		},
	"2019-04-16T23:00:00-07:00" : {
		"windSpeed" : 2.9,
		"windDir" : 188,
		"rain" : 0,
		"cloudbase" : 2050,
		"flyability" : 100,
		"reason" : "",
		"timestamp" :1555484400
		},
	"2019-04-17T02:00:00-07:00" : {
		"windSpeed" : 2.8,
		"windDir" : 178,
		"rain" : 0,
		"cloudbase" : 1622.64,
		"flyability" : 100,
		"reason" : "",
		"timestamp" :1555495200
		},
	"2019-04-17T05:00:00-07:00" : {
		"windSpeed" : 2.5,
		"windDir" : 175,
		"rain" : 1,
		"cloudbase" : 1207.92,
		"flyability" : 0,
		"reason" : "rain",
		"timestamp" :1555506000
		},
	"2019-04-17T08:00:00-07:00" : {
		"windSpeed" : 2.2,
		"windDir" : 161,
		"rain" : 1,
		"cloudbase" : 976.352,
		"flyability" : 0,
		"reason" : "rain",
		"timestamp" :1555516800
		},
	"2019-04-17T11:00:00-07:00" : {
		"windSpeed" : 2.5,
		"windDir" : 201,
		"rain" : 1,
		"cloudbase" : 1052.96,
		"flyability" : 0,
		"reason" : "rain",
		"timestamp" :1555527600
		},
	"2019-04-17T14:00:00-07:00" : {
		"windSpeed" : 1.6,
		"windDir" : 287,
		"rain" : 0,
		"cloudbase" : 1300,
		"flyability" : 100,
		"reason" : "",
		"timestamp" :1555538400
		},
	"2019-04-17T17:00:00-07:00" : {
		"windSpeed" : 1.9,
		"windDir" : 324,
		"rain" : 0,
		"cloudbase" : 10408.8,
		"flyability" : 0,
		"reason" : "windDir",
		"timestamp" :1555549200
		}
	}
}