{
"site" : "Rampart Ridge",
"id" : 7106,
"orientations" : "00000121",
"forecasts" : { 
	"2019-04-12T08:00:00-07:00" : {
		"windSpeed" : 1.1,
		"windDir" : 278,
		"rain" : 0,
		"cloudbase" : 50.803799999995,
		"flyability" : 0,
		"reason" : "cloudbase",
		"timestamp" :1555084800
		},
	"2019-04-12T11:00:00-07:00" : {
		"windSpeed" : 1.5,
		"windDir" : 270,
		"rain" : 1,
		"cloudbase" : 484.56239999993,
		"flyability" : 0,
		"reason" : "rain, cloudbase",
		"timestamp" :1555095600
		},
	"2019-04-12T14:00:00-07:00" : {
		"windSpeed" : 2.6,
		"windDir" : 283,
		"rain" : 1,
		"cloudbase" : 504.734,
		"flyability" : 0,
		"reason" : "rain, cloudbase",
		"timestamp" :1555106400
		},
	"2019-04-12T17:00:00-07:00" : {
		"windSpeed" : 2.3,
		"windDir" : 296,
		"rain" : 1,
		"cloudbase" : 570.8576,
		"flyability" : 0,
		"reason" : "rain, cloudbase",
		"timestamp" :1555117200
		},
	"2019-04-12T20:00:00-07:00" : {
		"windSpeed" : 1.5,
		"windDir" : 289,
		"rain" : 1,
		"cloudbase" : 85,
		"flyability" : 0,
		"reason" : "rain, cloudbase",
		"timestamp" :1555128000
		},
	"2019-04-12T23:00:00-07:00" : {
		"windSpeed" : 1.3,
		"windDir" : 318,
		"rain" : 0,
		"cloudbase" : 47.9032,
		"flyability" : 0,
		"reason" : "cloudbase",
		"timestamp" :1555138800
		},
	"2019-04-13T02:00:00-07:00" : {
		"windSpeed" : 1.5,
		"windDir" : 270,
		"rain" : 1,
		"cloudbase" : 30.2502,
		"flyability" : 0,
		"reason" : "rain, cloudbase",
		"timestamp" :1555149600
		},
	"2019-04-13T05:00:00-07:00" : {
		"windSpeed" : 1.4,
		"windDir" : 305,
		"rain" : 0,
		"cloudbase" : 30,
		"flyability" : 0,
		"reason" : "cloudbase",
		"timestamp" :1555160400
		},
	"2019-04-13T08:00:00-07:00" : {
		"windSpeed" : 2.3,
		"windDir" : 284,
		"rain" : 0,
		"cloudbase" : 78.089399999996,
		"flyability" : 0,
		"reason" : "cloudbase",
		"timestamp" :1555171200
		},
	"2019-04-13T11:00:00-07:00" : {
		"windSpeed" : 3.2,
		"windDir" : 279,
		"rain" : 0,
		"cloudbase" : 468.79319999998,
		"flyability" : 0,
		"reason" : "cloudbase",
		"timestamp" :1555182000
		},
	"2019-04-13T14:00:00-07:00" : {
		"windSpeed" : 4,
		"windDir" : 270,
		"rain" : 0,
		"cloudbase" : 282.3052,
		"flyability" : 0,
		"reason" : "cloudbase",
		"timestamp" :1555192800
		},
	"2019-04-13T17:00:00-07:00" : {
		"windSpeed" : 3.2,
		"windDir" : 274,
		"rain" : 0,
		"cloudbase" : 76.378399999992,
		"flyability" : 0,
		"reason" : "cloudbase",
		"timestamp" :1555203600
		},
	"2019-04-13T20:00:00-07:00" : {
		"windSpeed" : 4.8,
		"windDir" : 273,
		"rain" : 0,
		"cloudbase" : 47.634799999997,
		"flyability" : 0,
		"reason" : "cloudbase",
		"timestamp" :1555214400
		},
	"2019-04-13T23:00:00-07:00" : {
		"windSpeed" : 4.5,
		"windDir" : 257,
		"rain" : 0,
		"cloudbase" : 60,
		"flyability" : 0,
		"reason" : "cloudbase",
		"timestamp" :1555225200
		},
	"2019-04-14T02:00:00-07:00" : {
		"windSpeed" : 4.2,
		"windDir" : 265,
		"rain" : 0,
		"cloudbase" : 60.634800000003,
		"flyability" : 0,
		"reason" : "cloudbase",
		"timestamp" :1555236000
		},
	"2019-04-14T05:00:00-07:00" : {
		"windSpeed" : 3.9,
		"windDir" : 269,
		"rain" : 0,
		"cloudbase" : 30,
		"flyability" : 0,
		"reason" : "cloudbase",
		"timestamp" :1555246800
		},
	"2019-04-14T08:00:00-07:00" : {
		"windSpeed" : 3.4,
		"windDir" : 278,
		"rain" : 0,
		"cloudbase" : 30,
		"flyability" : 0,
		"reason" : "cloudbase",
		"timestamp" :1555257600
		},
	"2019-04-14T11:00:00-07:00" : {
		"windSpeed" : 2.4,
		"windDir" : 254,
		"rain" : 0,
		"cloudbase" : 113.8552,
		"flyability" : 0,
		"reason" : "cloudbase",
		"timestamp" :1555268400
		},
	"2019-04-14T14:00:00-07:00" : {
		"windSpeed" : 3.4,
		"windDir" : 265,
		"rain" : 0,
		"cloudbase" : 2160.702,
		"flyability" : 100,
		"reason" : "",
		"timestamp" :1555279200
		},
	"2019-04-14T17:00:00-07:00" : {
		"windSpeed" : 3.4,
		"windDir" : 262,
		"rain" : 0,
		"cloudbase" : 1022.8475999999,
		"flyability" : 0,
		"reason" : "cloudbase",
		"timestamp" :1555290000
		},
	"2019-04-14T20:00:00-07:00" : {
		"windSpeed" : 2.4,
		"windDir" : 260,
		"rain" : 0,
		"cloudbase" : 237.80600000001,
		"flyability" : 0,
		"reason" : "cloudbase",
		"timestamp" :1555300800
		},
	"2019-04-14T23:00:00-07:00" : {
		"windSpeed" : 1.9,
		"windDir" : 257,
		"rain" : 0,
		"cloudbase" : 75.529399999999,
		"flyability" : 0,
		"reason" : "cloudbase",
		"timestamp" :1555311600
		},
	"2019-04-15T02:00:00-07:00" : {
		"windSpeed" : 1.5,
		"windDir" : 264,
		"rain" : 0,
		"cloudbase" : 49.070800000001,
		"flyability" : 0,
		"reason" : "cloudbase",
		"timestamp" :1555322400
		},
	"2019-04-15T05:00:00-07:00" : {
		"windSpeed" : 0.7,
		"windDir" : 312,
		"rain" : 0,
		"cloudbase" : 1674.5460000001,
		"flyability" : 100,
		"reason" : "",
		"timestamp" :1555333200
		},
	"2019-04-15T08:00:00-07:00" : {
		"windSpeed" : 0.7,
		"windDir" : 45,
		"rain" : 0,
		"cloudbase" : 6705.796,
		"flyability" : 0,
		"reason" : "windDir",
		"timestamp" :1555344000
		},
	"2019-04-15T11:00:00-07:00" : {
		"windSpeed" : 2.3,
		"windDir" : 116,
		"rain" : 0,
		"cloudbase" : 5313.9,
		"flyability" : 0,
		"reason" : "windDir",
		"timestamp" :1555354800
		},
	"2019-04-15T14:00:00-07:00" : {
		"windSpeed" : 3.9,
		"windDir" : 115,
		"rain" : 0,
		"cloudbase" : 3059.7740000002,
		"flyability" : 0,
		"reason" : "windDir",
		"timestamp" :1555365600
		},
	"2019-04-15T17:00:00-07:00" : {
		"windSpeed" : 3.5,
		"windDir" : 118,
		"rain" : 0,
		"cloudbase" : 2547.548,
		"flyability" : 0,
		"reason" : "windDir",
		"timestamp" :1555376400
		},
	"2019-04-15T20:00:00-07:00" : {
		"windSpeed" : 2.3,
		"windDir" : 97,
		"rain" : 0,
		"cloudbase" : 3065.398,
		"flyability" : 0,
		"reason" : "windDir",
		"timestamp" :1555387200
		},
	"2019-04-15T23:00:00-07:00" : {
		"windSpeed" : 2.4,
		"windDir" : 102,
		"rain" : 0,
		"cloudbase" : 2117.344,
		"flyability" : 0,
		"reason" : "windDir",
		"timestamp" :1555398000
		},
	"2019-04-16T02:00:00-07:00" : {
		"windSpeed" : 1.4,
		"windDir" : 101,
		"rain" : 0,
		"cloudbase" : 1328.556,
		"flyability" : 0,
		"reason" : "windDir, cloudbase",
		"timestamp" :1555408800
		},
	"2019-04-16T05:00:00-07:00" : {
		"windSpeed" : 0.7,
		"windDir" : 45,
		"rain" : 0,
		"cloudbase" : 710.08000000001,
		"flyability" : 0,
		"reason" : "windDir, cloudbase",
		"timestamp" :1555419600
		},
	"2019-04-16T08:00:00-07:00" : {
		"windSpeed" : 0.5,
		"windDir" : 270,
		"rain" : 0,
		"cloudbase" : 557.4408,
		"flyability" : 0,
		"reason" : "cloudbase",
		"timestamp" :1555430400
		},
	"2019-04-16T11:00:00-07:00" : {
		"windSpeed" : 2.1,
		"windDir" : 251,
		"rain" : 0,
		"cloudbase" : 468.5048,
		"flyability" : 0,
		"reason" : "cloudbase",
		"timestamp" :1555441200
		},
	"2019-04-16T14:00:00-07:00" : {
		"windSpeed" : 2.9,
		"windDir" : 262,
		"rain" : 1,
		"cloudbase" : 555.39720000003,
		"flyability" : 0,
		"reason" : "rain, cloudbase",
		"timestamp" :1555452000
		},
	"2019-04-16T17:00:00-07:00" : {
		"windSpeed" : 2.7,
		"windDir" : 271,
		"rain" : 0,
		"cloudbase" : 172.4544,
		"flyability" : 0,
		"reason" : "cloudbase",
		"timestamp" :1555462800
		},
	"2019-04-16T20:00:00-07:00" : {
		"windSpeed" : 3,
		"windDir" : 270,
		"rain" : 0,
		"cloudbase" : 62.503399999993,
		"flyability" : 0,
		"reason" : "cloudbase",
		"timestamp" :1555473600
		},
	"2019-04-16T23:00:00-07:00" : {
		"windSpeed" : 2.6,
		"windDir" : 281,
		"rain" : 0,
		"cloudbase" : 31.251,
		"flyability" : 0,
		"reason" : "cloudbase",
		"timestamp" :1555484400
		},
	"2019-04-17T02:00:00-07:00" : {
		"windSpeed" : 2.1,
		"windDir" : 284,
		"rain" : 0,
		"cloudbase" : 30.5004,
		"flyability" : 0,
		"reason" : "cloudbase",
		"timestamp" :1555495200
		},
	"2019-04-17T05:00:00-07:00" : {
		"windSpeed" : 1.4,
		"windDir" : 315,
		"rain" : 0,
		"cloudbase" : 39.7856,
		"flyability" : 0,
		"reason" : "cloudbase",
		"timestamp" :1555506000
		},
	"2019-04-17T08:00:00-07:00" : {
		"windSpeed" : 0.5,
		"windDir" : 333,
		"rain" : 1,
		"cloudbase" : 64.723799999998,
		"flyability" : 0,
		"reason" : "rain, cloudbase",
		"timestamp" :1555516800
		},
	"2019-04-17T11:00:00-07:00" : {
		"windSpeed" : 1.9,
		"windDir" : 255,
		"rain" : 1,
		"cloudbase" : 130.802,
		"flyability" : 0,
		"reason" : "rain, cloudbase",
		"timestamp" :1555527600
		},
	"2019-04-17T14:00:00-07:00" : {
		"windSpeed" : 2.7,
		"windDir" : 281,
		"rain" : 0,
		"cloudbase" : 724.64320000001,
		"flyability" : 0,
		"reason" : "cloudbase",
		"timestamp" :1555538400
		},
	"2019-04-17T17:00:00-07:00" : {
		"windSpeed" : 2.1,
		"windDir" : 285,
		"rain" : 1,
		"cloudbase" : 681.4776,
		"flyability" : 0,
		"reason" : "rain, cloudbase",
		"timestamp" :1555549200
		},
	"2019-04-17T20:00:00-07:00" : {
		"windSpeed" : 1.6,
		"windDir" : 337,
		"rain" : 0,
		"cloudbase" : null,
		"flyability" : 100,
		"reason" : "",
		"timestamp" :1555560000
		},
	"2019-04-17T23:00:00-07:00" : {
		"windSpeed" : 1.4,
		"windDir" : 355,
		"rain" : 1,
		"cloudbase" : null,
		"flyability" : 0,
		"reason" : "windDir, rain",
		"timestamp" :1555570800
		},
	"2019-04-18T02:00:00-07:00" : {
		"windSpeed" : 1.3,
		"windDir" : 358,
		"rain" : 1,
		"cloudbase" : null,
		"flyability" : 0,
		"reason" : "windDir, rain",
		"timestamp" :1555581600
		},
	"2019-04-18T05:00:00-07:00" : {
		"windSpeed" : 0.8,
		"windDir" : 36,
		"rain" : 1,
		"cloudbase" : null,
		"flyability" : 0,
		"reason" : "windDir, rain",
		"timestamp" :1555592400
		}
	}
}