{
"site" : "Silver Star",
"id" : 7107,
"orientations" : "10000021",
"forecasts" : { 
	"2019-04-11T20:00:00-07:00" : {
		"windSpeed" : 2.6,
		"windDir" : 203,
		"rain" : 1,
		"cloudbase" : 37.127999999999,
		"flyability" : 0,
		"reason" : "windDir, rain, cloudbase",
		"timestamp" :1555041600
		},
	"2019-04-11T23:00:00-07:00" : {
		"windSpeed" : 2.5,
		"windDir" : 232,
		"rain" : 1,
		"cloudbase" : 50.383999999999,
		"flyability" : 0,
		"reason" : "windDir, rain, cloudbase",
		"timestamp" :1555052400
		},
	"2019-04-12T02:00:00-07:00" : {
		"windSpeed" : 1.8,
		"windDir" : 284,
		"rain" : 1,
		"cloudbase" : 38.839999999999,
		"flyability" : 0,
		"reason" : "rain, cloudbase",
		"timestamp" :1555063200
		},
	"2019-04-12T05:00:00-07:00" : {
		"windSpeed" : 2.3,
		"windDir" : 268,
		"rain" : 1,
		"cloudbase" : 131.46599999999,
		"flyability" : 0,
		"reason" : "rain, cloudbase",
		"timestamp" :1555074000
		},
	"2019-04-12T08:00:00-07:00" : {
		"windSpeed" : 1.9,
		"windDir" : 253,
		"rain" : 1,
		"cloudbase" : 112.90799999999,
		"flyability" : 0,
		"reason" : "rain, cloudbase",
		"timestamp" :1555084800
		},
	"2019-04-12T11:00:00-07:00" : {
		"windSpeed" : 2.6,
		"windDir" : 251,
		"rain" : 1,
		"cloudbase" : 408.21600000001,
		"flyability" : 0,
		"reason" : "rain, cloudbase",
		"timestamp" :1555095600
		},
	"2019-04-12T14:00:00-07:00" : {
		"windSpeed" : 2.8,
		"windDir" : 248,
		"rain" : 1,
		"cloudbase" : 680,
		"flyability" : 0,
		"reason" : "rain, cloudbase",
		"timestamp" :1555106400
		},
	"2019-04-12T17:00:00-07:00" : {
		"windSpeed" : 2.9,
		"windDir" : 251,
		"rain" : 1,
		"cloudbase" : 680,
		"flyability" : 0,
		"reason" : "rain, cloudbase",
		"timestamp" :1555117200
		},
	"2019-04-12T20:00:00-07:00" : {
		"windSpeed" : 1.7,
		"windDir" : 217,
		"rain" : 1,
		"cloudbase" : 560,
		"flyability" : 0,
		"reason" : "windDir, rain, cloudbase",
		"timestamp" :1555128000
		},
	"2019-04-12T23:00:00-07:00" : {
		"windSpeed" : 2,
		"windDir" : 291,
		"rain" : 1,
		"cloudbase" : 251.35999999999,
		"flyability" : 0,
		"reason" : "rain, cloudbase",
		"timestamp" :1555138800
		},
	"2019-04-13T02:00:00-07:00" : {
		"windSpeed" : 1.2,
		"windDir" : 192,
		"rain" : 0,
		"cloudbase" : 182.55999999999,
		"flyability" : 0,
		"reason" : "windDir, cloudbase",
		"timestamp" :1555149600
		},
	"2019-04-13T05:00:00-07:00" : {
		"windSpeed" : 2.4,
		"windDir" : 205,
		"rain" : 0,
		"cloudbase" : 31.836,
		"flyability" : 0,
		"reason" : "windDir, cloudbase",
		"timestamp" :1555160400
		},
	"2019-04-13T08:00:00-07:00" : {
		"windSpeed" : 3.1,
		"windDir" : 210,
		"rain" : 1,
		"cloudbase" : 33.136,
		"flyability" : 0,
		"reason" : "windDir, rain, cloudbase",
		"timestamp" :1555171200
		},
	"2019-04-13T11:00:00-07:00" : {
		"windSpeed" : 3.5,
		"windDir" : 223,
		"rain" : 1,
		"cloudbase" : 407.50000000002,
		"flyability" : 0,
		"reason" : "windDir, rain, cloudbase",
		"timestamp" :1555182000
		},
	"2019-04-13T14:00:00-07:00" : {
		"windSpeed" : 4.8,
		"windDir" : 210,
		"rain" : 1,
		"cloudbase" : 678.03200000001,
		"flyability" : 0,
		"reason" : "windDir, rain, cloudbase",
		"timestamp" :1555192800
		},
	"2019-04-13T17:00:00-07:00" : {
		"windSpeed" : 4.7,
		"windDir" : 212,
		"rain" : 1,
		"cloudbase" : 143.72799999999,
		"flyability" : 0,
		"reason" : "windDir, rain, cloudbase",
		"timestamp" :1555203600
		},
	"2019-04-13T20:00:00-07:00" : {
		"windSpeed" : 5.5,
		"windDir" : 250,
		"rain" : 1,
		"cloudbase" : 39.773999999999,
		"flyability" : 0,
		"reason" : "windSpeed, rain, cloudbase",
		"timestamp" :1555214400
		},
	"2019-04-13T23:00:00-07:00" : {
		"windSpeed" : 3.1,
		"windDir" : 288,
		"rain" : 1,
		"cloudbase" : 30,
		"flyability" : 0,
		"reason" : "rain, cloudbase",
		"timestamp" :1555225200
		},
	"2019-04-14T02:00:00-07:00" : {
		"windSpeed" : 2.2,
		"windDir" : 281,
		"rain" : 0,
		"cloudbase" : 373.33200000002,
		"flyability" : 0,
		"reason" : "cloudbase",
		"timestamp" :1555236000
		},
	"2019-04-14T05:00:00-07:00" : {
		"windSpeed" : 1.9,
		"windDir" : 241,
		"rain" : 0,
		"cloudbase" : 629.38800000001,
		"flyability" : 0,
		"reason" : "windDir, cloudbase",
		"timestamp" :1555246800
		},
	"2019-04-14T08:00:00-07:00" : {
		"windSpeed" : 1.5,
		"windDir" : 236,
		"rain" : 0,
		"cloudbase" : 1074.668,
		"flyability" : 0,
		"reason" : "windDir",
		"timestamp" :1555257600
		},
	"2019-04-14T11:00:00-07:00" : {
		"windSpeed" : 2.1,
		"windDir" : 246,
		"rain" : 1,
		"cloudbase" : 5795.0799999999,
		"flyability" : 0,
		"reason" : "windDir, rain",
		"timestamp" :1555268400
		},
	"2019-04-14T14:00:00-07:00" : {
		"windSpeed" : 2.5,
		"windDir" : 224,
		"rain" : 1,
		"cloudbase" : 1022.56,
		"flyability" : 0,
		"reason" : "windDir, rain, cloudbase",
		"timestamp" :1555279200
		},
	"2019-04-14T17:00:00-07:00" : {
		"windSpeed" : 2.1,
		"windDir" : 249,
		"rain" : 1,
		"cloudbase" : 565.33199999996,
		"flyability" : 0,
		"reason" : "rain, cloudbase",
		"timestamp" :1555290000
		},
	"2019-04-14T20:00:00-07:00" : {
		"windSpeed" : 2.2,
		"windDir" : 228,
		"rain" : 0,
		"cloudbase" : 118.592,
		"flyability" : 0,
		"reason" : "windDir, cloudbase",
		"timestamp" :1555300800
		},
	"2019-04-14T23:00:00-07:00" : {
		"windSpeed" : 3.4,
		"windDir" : 218,
		"rain" : 0,
		"cloudbase" : 43.915999999999,
		"flyability" : 0,
		"reason" : "windDir, cloudbase",
		"timestamp" :1555311600
		},
	"2019-04-15T02:00:00-07:00" : {
		"windSpeed" : 4.1,
		"windDir" : 222,
		"rain" : 0,
		"cloudbase" : 30,
		"flyability" : 0,
		"reason" : "windDir, cloudbase",
		"timestamp" :1555322400
		},
	"2019-04-15T05:00:00-07:00" : {
		"windSpeed" : 3.4,
		"windDir" : 207,
		"rain" : 0,
		"cloudbase" : 45.679999999999,
		"flyability" : 0,
		"reason" : "windDir, cloudbase",
		"timestamp" :1555333200
		},
	"2019-04-15T08:00:00-07:00" : {
		"windSpeed" : 2.1,
		"windDir" : 157,
		"rain" : 0,
		"cloudbase" : 188.99999999998,
		"flyability" : 0,
		"reason" : "windDir, cloudbase",
		"timestamp" :1555344000
		},
	"2019-04-15T11:00:00-07:00" : {
		"windSpeed" : 2.3,
		"windDir" : 176,
		"rain" : 0,
		"cloudbase" : 1397.084,
		"flyability" : 0,
		"reason" : "windDir",
		"timestamp" :1555354800
		},
	"2019-04-15T14:00:00-07:00" : {
		"windSpeed" : 1.8,
		"windDir" : 87,
		"rain" : 0,
		"cloudbase" : 1170.64,
		"flyability" : 0,
		"reason" : "windDir",
		"timestamp" :1555365600
		},
	"2019-04-15T17:00:00-07:00" : {
		"windSpeed" : 2.5,
		"windDir" : 86,
		"rain" : 0,
		"cloudbase" : 2154.24,
		"flyability" : 0,
		"reason" : "windDir",
		"timestamp" :1555376400
		},
	"2019-04-15T20:00:00-07:00" : {
		"windSpeed" : 3.2,
		"windDir" : 81,
		"rain" : 1,
		"cloudbase" : 2053.64,
		"flyability" : 0,
		"reason" : "windDir, rain",
		"timestamp" :1555387200
		},
	"2019-04-15T23:00:00-07:00" : {
		"windSpeed" : 1.7,
		"windDir" : 84,
		"rain" : 1,
		"cloudbase" : 1688.32,
		"flyability" : 0,
		"reason" : "windDir, rain",
		"timestamp" :1555398000
		},
	"2019-04-16T02:00:00-07:00" : {
		"windSpeed" : 1,
		"windDir" : 107,
		"rain" : 0,
		"cloudbase" : 1494.18,
		"flyability" : 0,
		"reason" : "windDir",
		"timestamp" :1555408800
		},
	"2019-04-16T05:00:00-07:00" : {
		"windSpeed" : 1.3,
		"windDir" : 173,
		"rain" : 0,
		"cloudbase" : 365.284,
		"flyability" : 0,
		"reason" : "windDir, cloudbase",
		"timestamp" :1555419600
		},
	"2019-04-16T08:00:00-07:00" : {
		"windSpeed" : 2.8,
		"windDir" : 204,
		"rain" : 0,
		"cloudbase" : 36.272000000001,
		"flyability" : 0,
		"reason" : "windDir, cloudbase",
		"timestamp" :1555430400
		},
	"2019-04-16T11:00:00-07:00" : {
		"windSpeed" : 3.3,
		"windDir" : 202,
		"rain" : 1,
		"cloudbase" : 972.50799999995,
		"flyability" : 0,
		"reason" : "windDir, rain, cloudbase",
		"timestamp" :1555441200
		},
	"2019-04-16T14:00:00-07:00" : {
		"windSpeed" : 4.2,
		"windDir" : 227,
		"rain" : 1,
		"cloudbase" : 1118.172,
		"flyability" : 0,
		"reason" : "windDir, rain",
		"timestamp" :1555452000
		},
	"2019-04-16T17:00:00-07:00" : {
		"windSpeed" : 3.6,
		"windDir" : 225,
		"rain" : 1,
		"cloudbase" : 896.18799999999,
		"flyability" : 0,
		"reason" : "windDir, rain, cloudbase",
		"timestamp" :1555462800
		},
	"2019-04-16T20:00:00-07:00" : {
		"windSpeed" : 3.5,
		"windDir" : 250,
		"rain" : 1,
		"cloudbase" : 1068.348,
		"flyability" : 0,
		"reason" : "rain",
		"timestamp" :1555473600
		},
	"2019-04-16T23:00:00-07:00" : {
		"windSpeed" : 2.1,
		"windDir" : 211,
		"rain" : 0,
		"cloudbase" : 1498.18,
		"flyability" : 0,
		"reason" : "windDir",
		"timestamp" :1555484400
		},
	"2019-04-17T02:00:00-07:00" : {
		"windSpeed" : 2.7,
		"windDir" : 212,
		"rain" : 0,
		"cloudbase" : 351.07999999999,
		"flyability" : 0,
		"reason" : "windDir, cloudbase",
		"timestamp" :1555495200
		},
	"2019-04-17T05:00:00-07:00" : {
		"windSpeed" : 2.8,
		"windDir" : 207,
		"rain" : 1,
		"cloudbase" : 158.59199999999,
		"flyability" : 0,
		"reason" : "windDir, rain, cloudbase",
		"timestamp" :1555506000
		},
	"2019-04-17T08:00:00-07:00" : {
		"windSpeed" : 2.9,
		"windDir" : 222,
		"rain" : 1,
		"cloudbase" : 122.61199999999,
		"flyability" : 0,
		"reason" : "windDir, rain, cloudbase",
		"timestamp" :1555516800
		},
	"2019-04-17T11:00:00-07:00" : {
		"windSpeed" : 3.1,
		"windDir" : 227,
		"rain" : 1,
		"cloudbase" : 170.9,
		"flyability" : 0,
		"reason" : "windDir, rain, cloudbase",
		"timestamp" :1555527600
		},
	"2019-04-17T14:00:00-07:00" : {
		"windSpeed" : 3.2,
		"windDir" : 223,
		"rain" : 1,
		"cloudbase" : 568.07199999999,
		"flyability" : 0,
		"reason" : "windDir, rain, cloudbase",
		"timestamp" :1555538400
		},
	"2019-04-17T17:00:00-07:00" : {
		"windSpeed" : 2.1,
		"windDir" : 249,
		"rain" : 1,
		"cloudbase" : 1049.156,
		"flyability" : 0,
		"reason" : "rain",
		"timestamp" :1555549200
		}
	}
}