{
"site" : "Sobral",
"id" : 7178,
"orientations" : "00002200",
"forecasts" : { 
	"2019-04-04T00:00:00-03:00" : {
		"windSpeed" : 1.5,
		"windDir" : 28,
		"rain" : 1,
		"cloudbase" : 11046.834404999,
		"flyability" : 0,
		"reason" : "windDir, rain",
		"timestamp" :1554346800
		},
	"2019-04-04T03:00:00-03:00" : {
		"windSpeed" : 0.9,
		"windDir" : 28,
		"rain" : 1,
		"cloudbase" : 3848.2444760004,
		"flyability" : 0,
		"reason" : "windDir, rain",
		"timestamp" :1554357600
		},
	"2019-04-04T06:00:00-03:00" : {
		"windSpeed" : 1.3,
		"windDir" : 54,
		"rain" : 1,
		"cloudbase" : 12222.344499999,
		"flyability" : 0,
		"reason" : "windDir, rain",
		"timestamp" :1554368400
		},
	"2019-04-04T09:00:00-03:00" : {
		"windSpeed" : 2.4,
		"windDir" : 30,
		"rain" : 1,
		"cloudbase" : null,
		"flyability" : 0,
		"reason" : "windDir, rain",
		"timestamp" :1554379200
		},
	"2019-04-04T12:00:00-03:00" : {
		"windSpeed" : 4.2,
		"windDir" : 35,
		"rain" : 0,
		"cloudbase" : 11299.72674,
		"flyability" : 0,
		"reason" : "windDir",
		"timestamp" :1554390000
		},
	"2019-04-04T15:00:00-03:00" : {
		"windSpeed" : 2.3,
		"windDir" : 38,
		"rain" : 0,
		"cloudbase" : 4891.6072850004,
		"flyability" : 0,
		"reason" : "windDir",
		"timestamp" :1554400800
		},
	"2019-04-04T18:00:00-03:00" : {
		"windSpeed" : 1.1,
		"windDir" : 50,
		"rain" : 0,
		"cloudbase" : 4695.7888299998,
		"flyability" : 0,
		"reason" : "windDir",
		"timestamp" :1554411600
		},
	"2019-04-04T21:00:00-03:00" : {
		"windSpeed" : 0.9,
		"windDir" : 33,
		"rain" : 1,
		"cloudbase" : 7489.02111,
		"flyability" : 0,
		"reason" : "windDir, rain",
		"timestamp" :1554422400
		},
	"2019-04-05T00:00:00-03:00" : {
		"windSpeed" : 0.8,
		"windDir" : 213,
		"rain" : 0,
		"cloudbase" : 950.26868000039,
		"flyability" : 100,
		"reason" : "",
		"timestamp" :1554433200
		},
	"2019-04-05T03:00:00-03:00" : {
		"windSpeed" : 0.6,
		"windDir" : 197,
		"rain" : 1,
		"cloudbase" : 6138.340531999,
		"flyability" : 0,
		"reason" : "rain",
		"timestamp" :1554444000
		},
	"2019-04-05T06:00:00-03:00" : {
		"windSpeed" : 0.8,
		"windDir" : 157,
		"rain" : 1,
		"cloudbase" : 1255.0157540002,
		"flyability" : 0,
		"reason" : "rain",
		"timestamp" :1554454800
		},
	"2019-04-05T09:00:00-03:00" : {
		"windSpeed" : 1.6,
		"windDir" : 132,
		"rain" : 1,
		"cloudbase" : 2046.445958,
		"flyability" : 0,
		"reason" : "windDir, rain",
		"timestamp" :1554465600
		},
	"2019-04-05T12:00:00-03:00" : {
		"windSpeed" : 0.4,
		"windDir" : 86,
		"rain" : 1,
		"cloudbase" : 10665.593380001,
		"flyability" : 0,
		"reason" : "windDir, rain",
		"timestamp" :1554476400
		},
	"2019-04-05T15:00:00-03:00" : {
		"windSpeed" : 3.3,
		"windDir" : 40,
		"rain" : 0,
		"cloudbase" : 12205.70782,
		"flyability" : 0,
		"reason" : "windDir",
		"timestamp" :1554487200
		},
	"2019-04-05T18:00:00-03:00" : {
		"windSpeed" : 1.5,
		"windDir" : 9,
		"rain" : 0,
		"cloudbase" : 9815.9465899996,
		"flyability" : 0,
		"reason" : "windDir",
		"timestamp" :1554498000
		},
	"2019-04-05T21:00:00-03:00" : {
		"windSpeed" : 0.9,
		"windDir" : 24,
		"rain" : 0,
		"cloudbase" : 570.02233499997,
		"flyability" : 0,
		"reason" : "windDir",
		"timestamp" :1554508800
		},
	"2019-04-06T00:00:00-03:00" : {
		"windSpeed" : 1,
		"windDir" : 204,
		"rain" : 1,
		"cloudbase" : 1653.4229630006,
		"flyability" : 0,
		"reason" : "rain",
		"timestamp" :1554519600
		},
	"2019-04-06T03:00:00-03:00" : {
		"windSpeed" : 2.1,
		"windDir" : 231,
		"rain" : 1,
		"cloudbase" : 6874.0216799998,
		"flyability" : 0,
		"reason" : "rain",
		"timestamp" :1554530400
		},
	"2019-04-06T06:00:00-03:00" : {
		"windSpeed" : 1,
		"windDir" : 228,
		"rain" : 0,
		"cloudbase" : 3538.9047590007,
		"flyability" : 100,
		"reason" : "",
		"timestamp" :1554541200
		},
	"2019-04-06T09:00:00-03:00" : {
		"windSpeed" : 1.8,
		"windDir" : 175,
		"rain" : 0,
		"cloudbase" : 13417.2833,
		"flyability" : 100,
		"reason" : "",
		"timestamp" :1554552000
		},
	"2019-04-06T12:00:00-03:00" : {
		"windSpeed" : 0.4,
		"windDir" : 247,
		"rain" : 1,
		"cloudbase" : 13000,
		"flyability" : 0,
		"reason" : "rain",
		"timestamp" :1554562800
		},
	"2019-04-06T15:00:00-03:00" : {
		"windSpeed" : 3.8,
		"windDir" : 18,
		"rain" : 0,
		"cloudbase" : 6443.8372349998,
		"flyability" : 0,
		"reason" : "windDir",
		"timestamp" :1554573600
		},
	"2019-04-06T18:00:00-03:00" : {
		"windSpeed" : 3.2,
		"windDir" : 38,
		"rain" : 0,
		"cloudbase" : 4519.977698,
		"flyability" : 0,
		"reason" : "windDir",
		"timestamp" :1554584400
		},
	"2019-04-06T21:00:00-03:00" : {
		"windSpeed" : 1.7,
		"windDir" : 6,
		"rain" : 1,
		"cloudbase" : 7950.2333899998,
		"flyability" : 0,
		"reason" : "windDir, rain",
		"timestamp" :1554595200
		},
	"2019-04-07T00:00:00-03:00" : {
		"windSpeed" : 1.1,
		"windDir" : 340,
		"rain" : 1,
		"cloudbase" : 5253.4052629989,
		"flyability" : 0,
		"reason" : "windDir, rain",
		"timestamp" :1554606000
		},
	"2019-04-07T03:00:00-03:00" : {
		"windSpeed" : 1.5,
		"windDir" : 232,
		"rain" : 1,
		"cloudbase" : 8105.6578099999,
		"flyability" : 0,
		"reason" : "rain",
		"timestamp" :1554616800
		},
	"2019-04-07T06:00:00-03:00" : {
		"windSpeed" : 0.4,
		"windDir" : 270,
		"rain" : 0,
		"cloudbase" : null,
		"flyability" : 0,
		"reason" : "windDir",
		"timestamp" :1554627600
		},
	"2019-04-07T09:00:00-03:00" : {
		"windSpeed" : 2.9,
		"windDir" : 144,
		"rain" : 1,
		"cloudbase" : 3649.1975879998,
		"flyability" : 0,
		"reason" : "windDir, rain",
		"timestamp" :1554638400
		},
	"2019-04-07T12:00:00-03:00" : {
		"windSpeed" : 2.2,
		"windDir" : 118,
		"rain" : 1,
		"cloudbase" : 11416.65,
		"flyability" : 0,
		"reason" : "windDir, rain",
		"timestamp" :1554649200
		},
	"2019-04-07T15:00:00-03:00" : {
		"windSpeed" : 2.4,
		"windDir" : 56,
		"rain" : 0,
		"cloudbase" : 11416.65,
		"flyability" : 0,
		"reason" : "windDir",
		"timestamp" :1554660000
		},
	"2019-04-07T18:00:00-03:00" : {
		"windSpeed" : 0.6,
		"windDir" : 323,
		"rain" : 0,
		"cloudbase" : 10077.39556,
		"flyability" : 0,
		"reason" : "windDir",
		"timestamp" :1554670800
		},
	"2019-04-07T21:00:00-03:00" : {
		"windSpeed" : 0.5,
		"windDir" : 315,
		"rain" : 0,
		"cloudbase" : 11972.24445,
		"flyability" : 0,
		"reason" : "windDir",
		"timestamp" :1554681600
		},
	"2019-04-08T00:00:00-03:00" : {
		"windSpeed" : 0.9,
		"windDir" : 175,
		"rain" : 0,
		"cloudbase" : 7307.0383549987,
		"flyability" : 100,
		"reason" : "",
		"timestamp" :1554692400
		},
	"2019-04-08T03:00:00-03:00" : {
		"windSpeed" : 0.9,
		"windDir" : 164,
		"rain" : 1,
		"cloudbase" : 7957.4775154988,
		"flyability" : 0,
		"reason" : "rain",
		"timestamp" :1554703200
		},
	"2019-04-08T06:00:00-03:00" : {
		"windSpeed" : 0.7,
		"windDir" : 208,
		"rain" : 1,
		"cloudbase" : 11916.70005,
		"flyability" : 0,
		"reason" : "rain",
		"timestamp" :1554714000
		},
	"2019-04-08T09:00:00-03:00" : {
		"windSpeed" : 2.8,
		"windDir" : 133,
		"rain" : 1,
		"cloudbase" : 2011.759243,
		"flyability" : 0,
		"reason" : "windDir, rain",
		"timestamp" :1554724800
		},
	"2019-04-08T12:00:00-03:00" : {
		"windSpeed" : 3.5,
		"windDir" : 101,
		"rain" : 1,
		"cloudbase" : 10472.24445,
		"flyability" : 0,
		"reason" : "windDir, rain",
		"timestamp" :1554735600
		},
	"2019-04-08T15:00:00-03:00" : {
		"windSpeed" : 3.7,
		"windDir" : 76,
		"rain" : 1,
		"cloudbase" : 9888.99778,
		"flyability" : 0,
		"reason" : "windDir, rain",
		"timestamp" :1554746400
		},
	"2019-04-08T18:00:00-03:00" : {
		"windSpeed" : 2.4,
		"windDir" : 14,
		"rain" : 1,
		"cloudbase" : 9555.1211300002,
		"flyability" : 0,
		"reason" : "windDir, rain",
		"timestamp" :1554757200
		},
	"2019-04-08T21:00:00-03:00" : {
		"windSpeed" : 1.9,
		"windDir" : 5,
		"rain" : 1,
		"cloudbase" : null,
		"flyability" : 0,
		"reason" : "windDir, rain",
		"timestamp" :1554768000
		},
	"2019-04-09T00:00:00-03:00" : {
		"windSpeed" : 0.7,
		"windDir" : 320,
		"rain" : 1,
		"cloudbase" : 13694.3389,
		"flyability" : 0,
		"reason" : "windDir, rain",
		"timestamp" :1554778800
		},
	"2019-04-09T03:00:00-03:00" : {
		"windSpeed" : 0.5,
		"windDir" : 277,
		"rain" : 1,
		"cloudbase" : 9905.4977299989,
		"flyability" : 0,
		"reason" : "windDir, rain",
		"timestamp" :1554789600
		},
	"2019-04-09T06:00:00-03:00" : {
		"windSpeed" : 0.4,
		"windDir" : 286,
		"rain" : 1,
		"cloudbase" : 10065.613239999,
		"flyability" : 0,
		"reason" : "windDir, rain",
		"timestamp" :1554800400
		},
	"2019-04-09T09:00:00-03:00" : {
		"windSpeed" : 2,
		"windDir" : 70,
		"rain" : 1,
		"cloudbase" : 9988.89778,
		"flyability" : 0,
		"reason" : "windDir, rain",
		"timestamp" :1554811200
		},
	"2019-04-09T12:00:00-03:00" : {
		"windSpeed" : 3.6,
		"windDir" : 88,
		"rain" : 0,
		"cloudbase" : 2600,
		"flyability" : 0,
		"reason" : "windDir",
		"timestamp" :1554822000
		},
	"2019-04-09T15:00:00-03:00" : {
		"windSpeed" : 3,
		"windDir" : 56,
		"rain" : 0,
		"cloudbase" : 10816.81337,
		"flyability" : 0,
		"reason" : "windDir",
		"timestamp" :1554832800
		},
	"2019-04-09T18:00:00-03:00" : {
		"windSpeed" : 2.3,
		"windDir" : 29,
		"rain" : 1,
		"cloudbase" : 5230.9241120014,
		"flyability" : 0,
		"reason" : "windDir, rain",
		"timestamp" :1554843600
		},
	"2019-04-09T21:00:00-03:00" : {
		"windSpeed" : 1.5,
		"windDir" : 23,
		"rain" : 1,
		"cloudbase" : null,
		"flyability" : 0,
		"reason" : "windDir, rain",
		"timestamp" :1554854400
		}
	}
}