{
"site" : "Grenchenberg Nord",
"id" : 7815,
"orientations" : "00000002",
"forecasts" : { 
	"2019-04-12T05:00:00+02:00" : {
		"windSpeed" : 2.4,
		"windDir" : 355,
		"rain" : 0,
		"cloudbase" : 1400,
		"flyability" : 0,
		"reason" : "windDir",
		"timestamp" :1555041600
		},
	"2019-04-12T08:00:00+02:00" : {
		"windSpeed" : 2,
		"windDir" : 23,
		"rain" : 0,
		"cloudbase" : 600,
		"flyability" : 0,
		"reason" : "windDir, cloudbase",
		"timestamp" :1555052400
		},
	"2019-04-12T11:00:00+02:00" : {
		"windSpeed" : 3.3,
		"windDir" : 57,
		"rain" : 0,
		"cloudbase" : null,
		"flyability" : 0,
		"reason" : "windDir",
		"timestamp" :1555063200
		},
	"2019-04-12T14:00:00+02:00" : {
		"windSpeed" : 3.3,
		"windDir" : 40,
		"rain" : 0,
		"cloudbase" : 1284,
		"flyability" : 0,
		"reason" : "windDir, cloudbase",
		"timestamp" :1555074000
		},
	"2019-04-12T17:00:00+02:00" : {
		"windSpeed" : 2.7,
		"windDir" : 7,
		"rain" : 0,
		"cloudbase" : 1449,
		"flyability" : 0,
		"reason" : "windDir",
		"timestamp" :1555084800
		},
	"2019-04-12T20:00:00+02:00" : {
		"windSpeed" : 3.4,
		"windDir" : 1,
		"rain" : 0,
		"cloudbase" : null,
		"flyability" : 0,
		"reason" : "windDir",
		"timestamp" :1555095600
		},
	"2019-04-12T23:00:00+02:00" : {
		"windSpeed" : 2.9,
		"windDir" : 351,
		"rain" : 0,
		"cloudbase" : 1650,
		"flyability" : 0,
		"reason" : "windDir",
		"timestamp" :1555106400
		},
	"2019-04-13T02:00:00+02:00" : {
		"windSpeed" : 2.4,
		"windDir" : 344,
		"rain" : 0,
		"cloudbase" : null,
		"flyability" : 0,
		"reason" : "windDir",
		"timestamp" :1555117200
		},
	"2019-04-13T05:00:00+02:00" : {
		"windSpeed" : 2.2,
		"windDir" : 343,
		"rain" : 0,
		"cloudbase" : 1295,
		"flyability" : 0,
		"reason" : "windDir, cloudbase",
		"timestamp" :1555128000
		},
	"2019-04-13T08:00:00+02:00" : {
		"windSpeed" : 2.4,
		"windDir" : 345,
		"rain" : 0,
		"cloudbase" : 1335,
		"flyability" : 0,
		"reason" : "windDir, cloudbase",
		"timestamp" :1555138800
		},
	"2019-04-13T11:00:00+02:00" : {
		"windSpeed" : 2.2,
		"windDir" : 357,
		"rain" : 0,
		"cloudbase" : null,
		"flyability" : 0,
		"reason" : "windDir",
		"timestamp" :1555149600
		},
	"2019-04-13T14:00:00+02:00" : {
		"windSpeed" : 3.1,
		"windDir" : 355,
		"rain" : 0,
		"cloudbase" : 728.8,
		"flyability" : 0,
		"reason" : "windDir, cloudbase",
		"timestamp" :1555160400
		},
	"2019-04-13T17:00:00+02:00" : {
		"windSpeed" : 3,
		"windDir" : 355,
		"rain" : 1,
		"cloudbase" : 525.6,
		"flyability" : 0,
		"reason" : "windDir, rain, cloudbase",
		"timestamp" :1555171200
		},
	"2019-04-13T20:00:00+02:00" : {
		"windSpeed" : 2.1,
		"windDir" : 347,
		"rain" : 0,
		"cloudbase" : 420.2,
		"flyability" : 0,
		"reason" : "windDir, cloudbase",
		"timestamp" :1555182000
		},
	"2019-04-13T23:00:00+02:00" : {
		"windSpeed" : 2.1,
		"windDir" : 340,
		"rain" : 0,
		"cloudbase" : 344.39999999999,
		"flyability" : 0,
		"reason" : "windDir, cloudbase",
		"timestamp" :1555192800
		},
	"2019-04-14T02:00:00+02:00" : {
		"windSpeed" : 2.1,
		"windDir" : 354,
		"rain" : 0,
		"cloudbase" : 707.99999999998,
		"flyability" : 0,
		"reason" : "windDir, cloudbase",
		"timestamp" :1555203600
		},
	"2019-04-14T05:00:00+02:00" : {
		"windSpeed" : 2.2,
		"windDir" : 356,
		"rain" : 0,
		"cloudbase" : 218.59999999999,
		"flyability" : 0,
		"reason" : "windDir, cloudbase",
		"timestamp" :1555214400
		},
	"2019-04-14T08:00:00+02:00" : {
		"windSpeed" : 3.2,
		"windDir" : 360,
		"rain" : 0,
		"cloudbase" : 189.39999999999,
		"flyability" : 0,
		"reason" : "windDir, cloudbase",
		"timestamp" :1555225200
		},
	"2019-04-14T11:00:00+02:00" : {
		"windSpeed" : 3.7,
		"windDir" : 359,
		"rain" : 0,
		"cloudbase" : 406.8,
		"flyability" : 0,
		"reason" : "windDir, cloudbase",
		"timestamp" :1555236000
		},
	"2019-04-14T14:00:00+02:00" : {
		"windSpeed" : 4,
		"windDir" : 357,
		"rain" : 0,
		"cloudbase" : 478.19999999999,
		"flyability" : 0,
		"reason" : "windDir, cloudbase",
		"timestamp" :1555246800
		},
	"2019-04-14T17:00:00+02:00" : {
		"windSpeed" : 3.6,
		"windDir" : 16,
		"rain" : 1,
		"cloudbase" : 456.59999999999,
		"flyability" : 0,
		"reason" : "windDir, rain, cloudbase",
		"timestamp" :1555257600
		},
	"2019-04-14T20:00:00+02:00" : {
		"windSpeed" : 1.9,
		"windDir" : 360,
		"rain" : 1,
		"cloudbase" : 1261,
		"flyability" : 0,
		"reason" : "windDir, rain, cloudbase",
		"timestamp" :1555268400
		},
	"2019-04-14T23:00:00+02:00" : {
		"windSpeed" : 2.4,
		"windDir" : 357,
		"rain" : 0,
		"cloudbase" : 1268,
		"flyability" : 0,
		"reason" : "windDir, cloudbase",
		"timestamp" :1555279200
		},
	"2019-04-15T02:00:00+02:00" : {
		"windSpeed" : 2.4,
		"windDir" : 1,
		"rain" : 0,
		"cloudbase" : 661.6,
		"flyability" : 0,
		"reason" : "windDir, cloudbase",
		"timestamp" :1555290000
		},
	"2019-04-15T05:00:00+02:00" : {
		"windSpeed" : 2.4,
		"windDir" : 39,
		"rain" : 0,
		"cloudbase" : 393,
		"flyability" : 0,
		"reason" : "windDir, cloudbase",
		"timestamp" :1555300800
		},
	"2019-04-15T08:00:00+02:00" : {
		"windSpeed" : 2.6,
		"windDir" : 44,
		"rain" : 0,
		"cloudbase" : 186.8,
		"flyability" : 0,
		"reason" : "windDir, cloudbase",
		"timestamp" :1555311600
		},
	"2019-04-15T11:00:00+02:00" : {
		"windSpeed" : 3.3,
		"windDir" : 73,
		"rain" : 0,
		"cloudbase" : 343.2,
		"flyability" : 0,
		"reason" : "windDir, cloudbase",
		"timestamp" :1555322400
		},
	"2019-04-15T14:00:00+02:00" : {
		"windSpeed" : 3.6,
		"windDir" : 69,
		"rain" : 0,
		"cloudbase" : 896.39999999999,
		"flyability" : 0,
		"reason" : "windDir, cloudbase",
		"timestamp" :1555333200
		},
	"2019-04-15T17:00:00+02:00" : {
		"windSpeed" : 3.1,
		"windDir" : 64,
		"rain" : 0,
		"cloudbase" : null,
		"flyability" : 0,
		"reason" : "windDir",
		"timestamp" :1555344000
		},
	"2019-04-15T20:00:00+02:00" : {
		"windSpeed" : 2.2,
		"windDir" : 55,
		"rain" : 0,
		"cloudbase" : null,
		"flyability" : 0,
		"reason" : "windDir",
		"timestamp" :1555354800
		},
	"2019-04-15T23:00:00+02:00" : {
		"windSpeed" : 1.6,
		"windDir" : 35,
		"rain" : 0,
		"cloudbase" : null,
		"flyability" : 0,
		"reason" : "windDir",
		"timestamp" :1555365600
		},
	"2019-04-16T02:00:00+02:00" : {
		"windSpeed" : 1.1,
		"windDir" : 98,
		"rain" : 0,
		"cloudbase" : null,
		"flyability" : 0,
		"reason" : "windDir",
		"timestamp" :1555376400
		},
	"2019-04-16T05:00:00+02:00" : {
		"windSpeed" : 0.8,
		"windDir" : 88,
		"rain" : 0,
		"cloudbase" : null,
		"flyability" : 0,
		"reason" : "windDir",
		"timestamp" :1555387200
		},
	"2019-04-16T08:00:00+02:00" : {
		"windSpeed" : 0.8,
		"windDir" : 102,
		"rain" : 0,
		"cloudbase" : null,
		"flyability" : 0,
		"reason" : "windDir",
		"timestamp" :1555398000
		},
	"2019-04-16T11:00:00+02:00" : {
		"windSpeed" : 1.2,
		"windDir" : 180,
		"rain" : 0,
		"cloudbase" : 3842.9999999999,
		"flyability" : 0,
		"reason" : "windDir",
		"timestamp" :1555408800
		},
	"2019-04-16T14:00:00+02:00" : {
		"windSpeed" : 1.6,
		"windDir" : 240,
		"rain" : 1,
		"cloudbase" : 5364,
		"flyability" : 0,
		"reason" : "windDir, rain",
		"timestamp" :1555419600
		},
	"2019-04-16T17:00:00+02:00" : {
		"windSpeed" : 1.1,
		"windDir" : 264,
		"rain" : 1,
		"cloudbase" : 2949,
		"flyability" : 0,
		"reason" : "windDir, rain",
		"timestamp" :1555430400
		},
	"2019-04-16T20:00:00+02:00" : {
		"windSpeed" : 1,
		"windDir" : 227,
		"rain" : 1,
		"cloudbase" : 2548,
		"flyability" : 0,
		"reason" : "windDir, rain",
		"timestamp" :1555441200
		},
	"2019-04-16T23:00:00+02:00" : {
		"windSpeed" : 1,
		"windDir" : 248,
		"rain" : 1,
		"cloudbase" : 1753,
		"flyability" : 0,
		"reason" : "windDir, rain",
		"timestamp" :1555452000
		},
	"2019-04-17T02:00:00+02:00" : {
		"windSpeed" : 1.3,
		"windDir" : 160,
		"rain" : 1,
		"cloudbase" : 1043,
		"flyability" : 0,
		"reason" : "windDir, rain, cloudbase",
		"timestamp" :1555462800
		},
	"2019-04-17T05:00:00+02:00" : {
		"windSpeed" : 1,
		"windDir" : 178,
		"rain" : 1,
		"cloudbase" : 2887,
		"flyability" : 0,
		"reason" : "windDir, rain",
		"timestamp" :1555473600
		},
	"2019-04-17T08:00:00+02:00" : {
		"windSpeed" : 0.5,
		"windDir" : 162,
		"rain" : 0,
		"cloudbase" : 2400,
		"flyability" : 0,
		"reason" : "windDir",
		"timestamp" :1555484400
		},
	"2019-04-17T11:00:00+02:00" : {
		"windSpeed" : 0.4,
		"windDir" : 169,
		"rain" : 0,
		"cloudbase" : 1098.8,
		"flyability" : 0,
		"reason" : "windDir, cloudbase",
		"timestamp" :1555495200
		},
	"2019-04-17T14:00:00+02:00" : {
		"windSpeed" : 0.7,
		"windDir" : 90,
		"rain" : 0,
		"cloudbase" : null,
		"flyability" : 0,
		"reason" : "windDir",
		"timestamp" :1555506000
		},
	"2019-04-17T17:00:00+02:00" : {
		"windSpeed" : 1.7,
		"windDir" : 110,
		"rain" : 1,
		"cloudbase" : null,
		"flyability" : 0,
		"reason" : "windDir, rain",
		"timestamp" :1555516800
		},
	"2019-04-17T20:00:00+02:00" : {
		"windSpeed" : 1.6,
		"windDir" : 67,
		"rain" : 0,
		"cloudbase" : null,
		"flyability" : 0,
		"reason" : "windDir",
		"timestamp" :1555527600
		},
	"2019-04-17T23:00:00+02:00" : {
		"windSpeed" : 2,
		"windDir" : 59,
		"rain" : 0,
		"cloudbase" : null,
		"flyability" : 0,
		"reason" : "windDir",
		"timestamp" :1555538400
		},
	"2019-04-18T02:00:00+02:00" : {
		"windSpeed" : 1.5,
		"windDir" : 64,
		"rain" : 1,
		"cloudbase" : 10810,
		"flyability" : 0,
		"reason" : "windDir, rain",
		"timestamp" :1555549200
		}
	}
}