{
"site" : "Les Merlas",
"id" : 7937,
"orientations" : "00000002",
"forecasts" : { 
	"2019-04-16T05:00:00+02:00" : {
		"windSpeed" : 1.4,
		"windDir" : 130,
		"rain" : 0,
		"cloudbase" : 7246.66696,
		"flyability" : 0,
		"reason" : "windDir",
		"timestamp" :1555387200
		},
	"2019-04-16T08:00:00+02:00" : {
		"windSpeed" : 1.1,
		"windDir" : 137,
		"rain" : 0,
		"cloudbase" : 3207.97348,
		"flyability" : 0,
		"reason" : "windDir",
		"timestamp" :1555398000
		},
	"2019-04-16T11:00:00+02:00" : {
		"windSpeed" : 1.7,
		"windDir" : 258,
		"rain" : 0,
		"cloudbase" : 1852.3533279999,
		"flyability" : 0,
		"reason" : "windDir",
		"timestamp" :1555408800
		},
	"2019-04-16T14:00:00+02:00" : {
		"windSpeed" : 2,
		"windDir" : 253,
		"rain" : 1,
		"cloudbase" : 2084.60956,
		"flyability" : 0,
		"reason" : "windDir, rain",
		"timestamp" :1555419600
		},
	"2019-04-16T17:00:00+02:00" : {
		"windSpeed" : 1.6,
		"windDir" : 262,
		"rain" : 1,
		"cloudbase" : 1885.10282,
		"flyability" : 0,
		"reason" : "windDir, rain",
		"timestamp" :1555430400
		},
	"2019-04-16T20:00:00+02:00" : {
		"windSpeed" : 0.6,
		"windDir" : 258,
		"rain" : 1,
		"cloudbase" : 863.036532,
		"flyability" : 0,
		"reason" : "windDir, rain, cloudbase",
		"timestamp" :1555441200
		},
	"2019-04-16T23:00:00+02:00" : {
		"windSpeed" : 0.8,
		"windDir" : 147,
		"rain" : 0,
		"cloudbase" : 3326.7388120004,
		"flyability" : 0,
		"reason" : "windDir",
		"timestamp" :1555452000
		},
	"2019-04-17T02:00:00+02:00" : {
		"windSpeed" : 0.4,
		"windDir" : 141,
		"rain" : 0,
		"cloudbase" : null,
		"flyability" : 0,
		"reason" : "windDir",
		"timestamp" :1555462800
		},
	"2019-04-17T05:00:00+02:00" : {
		"windSpeed" : 0.6,
		"windDir" : 119,
		"rain" : 0,
		"cloudbase" : 640,
		"flyability" : 0,
		"reason" : "windDir, cloudbase",
		"timestamp" :1555473600
		},
	"2019-04-17T08:00:00+02:00" : {
		"windSpeed" : 0.6,
		"windDir" : 121,
		"rain" : 0,
		"cloudbase" : null,
		"flyability" : 0,
		"reason" : "windDir",
		"timestamp" :1555484400
		},
	"2019-04-17T11:00:00+02:00" : {
		"windSpeed" : 0.9,
		"windDir" : 346,
		"rain" : 0,
		"cloudbase" : 1200,
		"flyability" : 0,
		"reason" : "windDir, cloudbase",
		"timestamp" :1555495200
		},
	"2019-04-17T14:00:00+02:00" : {
		"windSpeed" : 2.3,
		"windDir" : 324,
		"rain" : 1,
		"cloudbase" : 2000,
		"flyability" : 0,
		"reason" : "rain",
		"timestamp" :1555506000
		},
	"2019-04-17T17:00:00+02:00" : {
		"windSpeed" : 2.3,
		"windDir" : 340,
		"rain" : 1,
		"cloudbase" : 1277.51956,
		"flyability" : 0,
		"reason" : "windDir, rain, cloudbase",
		"timestamp" :1555516800
		},
	"2019-04-17T20:00:00+02:00" : {
		"windSpeed" : 1.3,
		"windDir" : 73,
		"rain" : 0,
		"cloudbase" : null,
		"flyability" : 0,
		"reason" : "windDir",
		"timestamp" :1555527600
		},
	"2019-04-17T23:00:00+02:00" : {
		"windSpeed" : 0.8,
		"windDir" : 138,
		"rain" : 0,
		"cloudbase" : null,
		"flyability" : 0,
		"reason" : "windDir",
		"timestamp" :1555538400
		},
	"2019-04-18T02:00:00+02:00" : {
		"windSpeed" : 0.7,
		"windDir" : 125,
		"rain" : 0,
		"cloudbase" : null,
		"flyability" : 0,
		"reason" : "windDir",
		"timestamp" :1555549200
		},
	"2019-04-18T05:00:00+02:00" : {
		"windSpeed" : 0.9,
		"windDir" : 135,
		"rain" : 0,
		"cloudbase" : null,
		"flyability" : 0,
		"reason" : "windDir",
		"timestamp" :1555560000
		},
	"2019-04-18T08:00:00+02:00" : {
		"windSpeed" : 1.3,
		"windDir" : 128,
		"rain" : 0,
		"cloudbase" : null,
		"flyability" : 0,
		"reason" : "windDir",
		"timestamp" :1555570800
		},
	"2019-04-18T11:00:00+02:00" : {
		"windSpeed" : 0.5,
		"windDir" : 320,
		"rain" : 0,
		"cloudbase" : null,
		"flyability" : 100,
		"reason" : "",
		"timestamp" :1555581600
		},
	"2019-04-18T14:00:00+02:00" : {
		"windSpeed" : 1.7,
		"windDir" : 316,
		"rain" : 0,
		"cloudbase" : 1700,
		"flyability" : 0,
		"reason" : "cloudbase",
		"timestamp" :1555592400
		},
	"2019-04-18T17:00:00+02:00" : {
		"windSpeed" : 1.9,
		"windDir" : 11,
		"rain" : 1,
		"cloudbase" : 9400,
		"flyability" : 0,
		"reason" : "windDir, rain",
		"timestamp" :1555603200
		},
	"2019-04-18T20:00:00+02:00" : {
		"windSpeed" : 1,
		"windDir" : 76,
		"rain" : 0,
		"cloudbase" : 9047.77348,
		"flyability" : 0,
		"reason" : "windDir",
		"timestamp" :1555614000
		},
	"2019-04-18T23:00:00+02:00" : {
		"windSpeed" : 2.7,
		"windDir" : 132,
		"rain" : 0,
		"cloudbase" : 6001.76696,
		"flyability" : 0,
		"reason" : "windDir",
		"timestamp" :1555624800
		},
	"2019-04-19T02:00:00+02:00" : {
		"windSpeed" : 2.6,
		"windDir" : 133,
		"rain" : 0,
		"cloudbase" : 5569.28,
		"flyability" : 0,
		"reason" : "windDir",
		"timestamp" :1555635600
		},
	"2019-04-19T05:00:00+02:00" : {
		"windSpeed" : 2.4,
		"windDir" : 125,
		"rain" : 0,
		"cloudbase" : 5006.04348,
		"flyability" : 0,
		"reason" : "windDir",
		"timestamp" :1555646400
		},
	"2019-04-19T08:00:00+02:00" : {
		"windSpeed" : 2,
		"windDir" : 123,
		"rain" : 0,
		"cloudbase" : null,
		"flyability" : 0,
		"reason" : "windDir",
		"timestamp" :1555657200
		},
	"2019-04-19T11:00:00+02:00" : {
		"windSpeed" : 0.5,
		"windDir" : 12,
		"rain" : 0,
		"cloudbase" : null,
		"flyability" : 0,
		"reason" : "windDir",
		"timestamp" :1555668000
		},
	"2019-04-19T14:00:00+02:00" : {
		"windSpeed" : 1.3,
		"windDir" : 303,
		"rain" : 1,
		"cloudbase" : 4500,
		"flyability" : 0,
		"reason" : "rain",
		"timestamp" :1555678800
		},
	"2019-04-19T17:00:00+02:00" : {
		"windSpeed" : 1.6,
		"windDir" : 38,
		"rain" : 1,
		"cloudbase" : 4400,
		"flyability" : 0,
		"reason" : "windDir, rain",
		"timestamp" :1555689600
		},
	"2019-04-19T20:00:00+02:00" : {
		"windSpeed" : 1,
		"windDir" : 58,
		"rain" : 1,
		"cloudbase" : null,
		"flyability" : 0,
		"reason" : "windDir, rain",
		"timestamp" :1555700400
		},
	"2019-04-19T23:00:00+02:00" : {
		"windSpeed" : 1.3,
		"windDir" : 131,
		"rain" : 0,
		"cloudbase" : null,
		"flyability" : 0,
		"reason" : "windDir",
		"timestamp" :1555711200
		},
	"2019-04-20T02:00:00+02:00" : {
		"windSpeed" : 1,
		"windDir" : 137,
		"rain" : 0,
		"cloudbase" : null,
		"flyability" : 0,
		"reason" : "windDir",
		"timestamp" :1555722000
		},
	"2019-04-20T05:00:00+02:00" : {
		"windSpeed" : 0.6,
		"windDir" : 139,
		"rain" : 1,
		"cloudbase" : 5959.08,
		"flyability" : 0,
		"reason" : "windDir, rain",
		"timestamp" :1555732800
		},
	"2019-04-20T08:00:00+02:00" : {
		"windSpeed" : 0.7,
		"windDir" : 133,
		"rain" : 1,
		"cloudbase" : 5500,
		"flyability" : 0,
		"reason" : "windDir, rain",
		"timestamp" :1555743600
		},
	"2019-04-20T11:00:00+02:00" : {
		"windSpeed" : 1.2,
		"windDir" : 5,
		"rain" : 0,
		"cloudbase" : null,
		"flyability" : 0,
		"reason" : "windDir",
		"timestamp" :1555754400
		},
	"2019-04-20T14:00:00+02:00" : {
		"windSpeed" : 1.7,
		"windDir" : 2,
		"rain" : 0,
		"cloudbase" : 1300,
		"flyability" : 0,
		"reason" : "windDir, cloudbase",
		"timestamp" :1555765200
		},
	"2019-04-20T17:00:00+02:00" : {
		"windSpeed" : 1.4,
		"windDir" : 326,
		"rain" : 0,
		"cloudbase" : null,
		"flyability" : 100,
		"reason" : "",
		"timestamp" :1555776000
		},
	"2019-04-20T20:00:00+02:00" : {
		"windSpeed" : 1.3,
		"windDir" : 65,
		"rain" : 0,
		"cloudbase" : null,
		"flyability" : 0,
		"reason" : "windDir",
		"timestamp" :1555786800
		},
	"2019-04-20T23:00:00+02:00" : {
		"windSpeed" : 0.8,
		"windDir" : 138,
		"rain" : 0,
		"cloudbase" : null,
		"flyability" : 0,
		"reason" : "windDir",
		"timestamp" :1555797600
		},
	"2019-04-21T02:00:00+02:00" : {
		"windSpeed" : 0.9,
		"windDir" : 135,
		"rain" : 0,
		"cloudbase" : null,
		"flyability" : 0,
		"reason" : "windDir",
		"timestamp" :1555808400
		},
	"2019-04-21T05:00:00+02:00" : {
		"windSpeed" : 0.9,
		"windDir" : 139,
		"rain" : 0,
		"cloudbase" : null,
		"flyability" : 0,
		"reason" : "windDir",
		"timestamp" :1555819200
		},
	"2019-04-21T08:00:00+02:00" : {
		"windSpeed" : 1,
		"windDir" : 126,
		"rain" : 0,
		"cloudbase" : null,
		"flyability" : 0,
		"reason" : "windDir",
		"timestamp" :1555830000
		},
	"2019-04-21T11:00:00+02:00" : {
		"windSpeed" : 0.9,
		"windDir" : 4,
		"rain" : 0,
		"cloudbase" : null,
		"flyability" : 0,
		"reason" : "windDir",
		"timestamp" :1555840800
		},
	"2019-04-21T14:00:00+02:00" : {
		"windSpeed" : 1.9,
		"windDir" : 338,
		"rain" : 0,
		"cloudbase" : null,
		"flyability" : 0,
		"reason" : "windDir",
		"timestamp" :1555851600
		},
	"2019-04-21T17:00:00+02:00" : {
		"windSpeed" : 1.9,
		"windDir" : 355,
		"rain" : 0,
		"cloudbase" : null,
		"flyability" : 0,
		"reason" : "windDir",
		"timestamp" :1555862400
		},
	"2019-04-21T20:00:00+02:00" : {
		"windSpeed" : 0.8,
		"windDir" : 44,
		"rain" : 0,
		"cloudbase" : 8003.98,
		"flyability" : 0,
		"reason" : "windDir",
		"timestamp" :1555873200
		},
	"2019-04-21T23:00:00+02:00" : {
		"windSpeed" : 2,
		"windDir" : 132,
		"rain" : 0,
		"cloudbase" : 7114.18,
		"flyability" : 0,
		"reason" : "windDir",
		"timestamp" :1555884000
		},
	"2019-04-22T02:00:00+02:00" : {
		"windSpeed" : 2.1,
		"windDir" : 132,
		"rain" : 0,
		"cloudbase" : null,
		"flyability" : 0,
		"reason" : "windDir",
		"timestamp" :1555894800
		}
	}
}