{
"site" : "Tete de Ran",
"id" : 8199,
"orientations" : "00022000",
"forecasts" : { 
	"2019-04-12T05:00:00+02:00" : {
		"windSpeed" : 2.9,
		"windDir" : 29,
		"rain" : 0,
		"cloudbase" : 1100,
		"flyability" : 0,
		"reason" : "windDir, cloudbase",
		"timestamp" :1555041600
		},
	"2019-04-12T08:00:00+02:00" : {
		"windSpeed" : 2.5,
		"windDir" : 64,
		"rain" : 0,
		"cloudbase" : null,
		"flyability" : 0,
		"reason" : "windDir",
		"timestamp" :1555052400
		},
	"2019-04-12T11:00:00+02:00" : {
		"windSpeed" : 3.5,
		"windDir" : 73,
		"rain" : 0,
		"cloudbase" : null,
		"flyability" : 0,
		"reason" : "windDir",
		"timestamp" :1555063200
		},
	"2019-04-12T14:00:00+02:00" : {
		"windSpeed" : 2.5,
		"windDir" : 68,
		"rain" : 0,
		"cloudbase" : 1750,
		"flyability" : 0,
		"reason" : "windDir",
		"timestamp" :1555074000
		},
	"2019-04-12T17:00:00+02:00" : {
		"windSpeed" : 3,
		"windDir" : 39,
		"rain" : 0,
		"cloudbase" : 1800,
		"flyability" : 0,
		"reason" : "windDir",
		"timestamp" :1555084800
		},
	"2019-04-12T20:00:00+02:00" : {
		"windSpeed" : 3.2,
		"windDir" : 5,
		"rain" : 0,
		"cloudbase" : null,
		"flyability" : 0,
		"reason" : "windDir",
		"timestamp" :1555095600
		},
	"2019-04-12T23:00:00+02:00" : {
		"windSpeed" : 2.3,
		"windDir" : 27,
		"rain" : 0,
		"cloudbase" : null,
		"flyability" : 0,
		"reason" : "windDir",
		"timestamp" :1555106400
		},
	"2019-04-13T02:00:00+02:00" : {
		"windSpeed" : 1.7,
		"windDir" : 6,
		"rain" : 0,
		"cloudbase" : null,
		"flyability" : 0,
		"reason" : "windDir",
		"timestamp" :1555117200
		},
	"2019-04-13T05:00:00+02:00" : {
		"windSpeed" : 1.2,
		"windDir" : 19,
		"rain" : 0,
		"cloudbase" : 1100,
		"flyability" : 0,
		"reason" : "windDir, cloudbase",
		"timestamp" :1555128000
		},
	"2019-04-13T08:00:00+02:00" : {
		"windSpeed" : 0.9,
		"windDir" : 15,
		"rain" : 0,
		"cloudbase" : null,
		"flyability" : 0,
		"reason" : "windDir",
		"timestamp" :1555138800
		},
	"2019-04-13T11:00:00+02:00" : {
		"windSpeed" : 1,
		"windDir" : 57,
		"rain" : 0,
		"cloudbase" : 715.82038000001,
		"flyability" : 0,
		"reason" : "windDir, cloudbase",
		"timestamp" :1555149600
		},
	"2019-04-13T14:00:00+02:00" : {
		"windSpeed" : 2.9,
		"windDir" : 342,
		"rain" : 0,
		"cloudbase" : 737.8129,
		"flyability" : 0,
		"reason" : "windDir, cloudbase",
		"timestamp" :1555160400
		},
	"2019-04-13T17:00:00+02:00" : {
		"windSpeed" : 4,
		"windDir" : 326,
		"rain" : 0,
		"cloudbase" : 316.47645,
		"flyability" : 0,
		"reason" : "windDir, cloudbase",
		"timestamp" :1555171200
		},
	"2019-04-13T20:00:00+02:00" : {
		"windSpeed" : 2.9,
		"windDir" : 336,
		"rain" : 0,
		"cloudbase" : 548.80645,
		"flyability" : 0,
		"reason" : "windDir, cloudbase",
		"timestamp" :1555182000
		},
	"2019-04-13T23:00:00+02:00" : {
		"windSpeed" : 3.1,
		"windDir" : 338,
		"rain" : 0,
		"cloudbase" : 888.46114000001,
		"flyability" : 0,
		"reason" : "windDir, cloudbase",
		"timestamp" :1555192800
		},
	"2019-04-14T02:00:00+02:00" : {
		"windSpeed" : 2.2,
		"windDir" : 336,
		"rain" : 0,
		"cloudbase" : 1270.27531,
		"flyability" : 0,
		"reason" : "windDir, cloudbase",
		"timestamp" :1555203600
		},
	"2019-04-14T05:00:00+02:00" : {
		"windSpeed" : 1.8,
		"windDir" : 331,
		"rain" : 0,
		"cloudbase" : 632.25374000001,
		"flyability" : 0,
		"reason" : "windDir, cloudbase",
		"timestamp" :1555214400
		},
	"2019-04-14T08:00:00+02:00" : {
		"windSpeed" : 3,
		"windDir" : 7,
		"rain" : 0,
		"cloudbase" : 264.99186999999,
		"flyability" : 0,
		"reason" : "windDir, cloudbase",
		"timestamp" :1555225200
		},
	"2019-04-14T11:00:00+02:00" : {
		"windSpeed" : 3.5,
		"windDir" : 14,
		"rain" : 0,
		"cloudbase" : 633.49626,
		"flyability" : 0,
		"reason" : "windDir, cloudbase",
		"timestamp" :1555236000
		},
	"2019-04-14T14:00:00+02:00" : {
		"windSpeed" : 3.9,
		"windDir" : 9,
		"rain" : 0,
		"cloudbase" : 550.77019,
		"flyability" : 0,
		"reason" : "windDir, cloudbase",
		"timestamp" :1555246800
		},
	"2019-04-14T17:00:00+02:00" : {
		"windSpeed" : 3.9,
		"windDir" : 25,
		"rain" : 0,
		"cloudbase" : 473.4429,
		"flyability" : 0,
		"reason" : "windDir, cloudbase",
		"timestamp" :1555257600
		},
	"2019-04-14T20:00:00+02:00" : {
		"windSpeed" : 3.2,
		"windDir" : 34,
		"rain" : 0,
		"cloudbase" : 718.95972999999,
		"flyability" : 0,
		"reason" : "windDir, cloudbase",
		"timestamp" :1555268400
		},
	"2019-04-14T23:00:00+02:00" : {
		"windSpeed" : 3.5,
		"windDir" : 27,
		"rain" : 0,
		"cloudbase" : 1009.84477,
		"flyability" : 0,
		"reason" : "windDir, cloudbase",
		"timestamp" :1555279200
		},
	"2019-04-15T02:00:00+02:00" : {
		"windSpeed" : 2.7,
		"windDir" : 41,
		"rain" : 0,
		"cloudbase" : 781.64748,
		"flyability" : 0,
		"reason" : "windDir, cloudbase",
		"timestamp" :1555290000
		},
	"2019-04-15T05:00:00+02:00" : {
		"windSpeed" : 3.2,
		"windDir" : 77,
		"rain" : 0,
		"cloudbase" : 279.03851,
		"flyability" : 0,
		"reason" : "windDir, cloudbase",
		"timestamp" :1555300800
		},
	"2019-04-15T08:00:00+02:00" : {
		"windSpeed" : 3.5,
		"windDir" : 80,
		"rain" : 0,
		"cloudbase" : 151.061125,
		"flyability" : 0,
		"reason" : "windDir, cloudbase",
		"timestamp" :1555311600
		},
	"2019-04-15T11:00:00+02:00" : {
		"windSpeed" : 4,
		"windDir" : 92,
		"rain" : 0,
		"cloudbase" : 300,
		"flyability" : 0,
		"reason" : "windDir, cloudbase",
		"timestamp" :1555322400
		},
	"2019-04-15T14:00:00+02:00" : {
		"windSpeed" : 2.8,
		"windDir" : 100,
		"rain" : 0,
		"cloudbase" : 1000,
		"flyability" : 0,
		"reason" : "windDir, cloudbase",
		"timestamp" :1555333200
		},
	"2019-04-15T17:00:00+02:00" : {
		"windSpeed" : 2.8,
		"windDir" : 100,
		"rain" : 0,
		"cloudbase" : null,
		"flyability" : 0,
		"reason" : "windDir",
		"timestamp" :1555344000
		},
	"2019-04-15T20:00:00+02:00" : {
		"windSpeed" : 1.6,
		"windDir" : 82,
		"rain" : 0,
		"cloudbase" : null,
		"flyability" : 0,
		"reason" : "windDir",
		"timestamp" :1555354800
		},
	"2019-04-15T23:00:00+02:00" : {
		"windSpeed" : 2.1,
		"windDir" : 91,
		"rain" : 0,
		"cloudbase" : null,
		"flyability" : 0,
		"reason" : "windDir",
		"timestamp" :1555365600
		},
	"2019-04-16T02:00:00+02:00" : {
		"windSpeed" : 1.2,
		"windDir" : 149,
		"rain" : 0,
		"cloudbase" : null,
		"flyability" : 100,
		"reason" : "",
		"timestamp" :1555376400
		},
	"2019-04-16T05:00:00+02:00" : {
		"windSpeed" : 0.4,
		"windDir" : 138,
		"rain" : 0,
		"cloudbase" : 9127.2187,
		"flyability" : 100,
		"reason" : "",
		"timestamp" :1555387200
		},
	"2019-04-16T08:00:00+02:00" : {
		"windSpeed" : 1,
		"windDir" : 114,
		"rain" : 0,
		"cloudbase" : 8693.6458,
		"flyability" : 100,
		"reason" : "",
		"timestamp" :1555398000
		},
	"2019-04-16T11:00:00+02:00" : {
		"windSpeed" : 1.3,
		"windDir" : 186,
		"rain" : 0,
		"cloudbase" : 2447.38415,
		"flyability" : 100,
		"reason" : "",
		"timestamp" :1555408800
		},
	"2019-04-16T14:00:00+02:00" : {
		"windSpeed" : 3.2,
		"windDir" : 222,
		"rain" : 1,
		"cloudbase" : 3248.2458,
		"flyability" : 0,
		"reason" : "windDir, rain",
		"timestamp" :1555419600
		},
	"2019-04-16T17:00:00+02:00" : {
		"windSpeed" : 2,
		"windDir" : 183,
		"rain" : 1,
		"cloudbase" : 2264.78645,
		"flyability" : 0,
		"reason" : "rain",
		"timestamp" :1555430400
		},
	"2019-04-16T20:00:00+02:00" : {
		"windSpeed" : 1.5,
		"windDir" : 170,
		"rain" : 1,
		"cloudbase" : 1550.4229,
		"flyability" : 0,
		"reason" : "rain",
		"timestamp" :1555441200
		},
	"2019-04-16T23:00:00+02:00" : {
		"windSpeed" : 2.2,
		"windDir" : 164,
		"rain" : 1,
		"cloudbase" : 846.53664,
		"flyability" : 0,
		"reason" : "rain, cloudbase",
		"timestamp" :1555452000
		},
	"2019-04-17T02:00:00+02:00" : {
		"windSpeed" : 1.5,
		"windDir" : 161,
		"rain" : 1,
		"cloudbase" : 440.15824,
		"flyability" : 0,
		"reason" : "rain, cloudbase",
		"timestamp" :1555462800
		},
	"2019-04-17T05:00:00+02:00" : {
		"windSpeed" : 1.5,
		"windDir" : 171,
		"rain" : 1,
		"cloudbase" : 30,
		"flyability" : 0,
		"reason" : "rain, cloudbase",
		"timestamp" :1555473600
		},
	"2019-04-17T08:00:00+02:00" : {
		"windSpeed" : 1.1,
		"windDir" : 206,
		"rain" : 0,
		"cloudbase" : 40,
		"flyability" : 0,
		"reason" : "windDir, cloudbase",
		"timestamp" :1555484400
		},
	"2019-04-17T11:00:00+02:00" : {
		"windSpeed" : 0.8,
		"windDir" : 143,
		"rain" : 0,
		"cloudbase" : 780,
		"flyability" : 0,
		"reason" : "cloudbase",
		"timestamp" :1555495200
		},
	"2019-04-17T14:00:00+02:00" : {
		"windSpeed" : 1.6,
		"windDir" : 130,
		"rain" : 1,
		"cloudbase" : null,
		"flyability" : 0,
		"reason" : "rain",
		"timestamp" :1555506000
		},
	"2019-04-17T17:00:00+02:00" : {
		"windSpeed" : 2,
		"windDir" : 136,
		"rain" : 1,
		"cloudbase" : null,
		"flyability" : 0,
		"reason" : "rain",
		"timestamp" :1555516800
		},
	"2019-04-17T20:00:00+02:00" : {
		"windSpeed" : 1.5,
		"windDir" : 101,
		"rain" : 0,
		"cloudbase" : null,
		"flyability" : 0,
		"reason" : "windDir",
		"timestamp" :1555527600
		},
	"2019-04-17T23:00:00+02:00" : {
		"windSpeed" : 1.8,
		"windDir" : 80,
		"rain" : 0,
		"cloudbase" : null,
		"flyability" : 0,
		"reason" : "windDir",
		"timestamp" :1555538400
		},
	"2019-04-18T02:00:00+02:00" : {
		"windSpeed" : 2.1,
		"windDir" : 108,
		"rain" : 0,
		"cloudbase" : 9476.4729,
		"flyability" : 0,
		"reason" : "windDir",
		"timestamp" :1555549200
		}
	}
}