{
"site" : "Sea Grapes",
"id" : 8266,
"orientations" : "00000000",
"forecasts" : { 
	"2019-04-16T23:00:00-04:00" : {
		"windSpeed" : 3.8,
		"windDir" : 65,
		"rain" : 0,
		"cloudbase" : null,
		"flyability" : -50,
		"reason" : "orientationsUnknown",
		"timestamp" :1555473600
		},
	"2019-04-17T02:00:00-04:00" : {
		"windSpeed" : 3.4,
		"windDir" : 91,
		"rain" : 0,
		"cloudbase" : 1250,
		"flyability" : -50,
		"reason" : "orientationsUnknown",
		"timestamp" :1555484400
		},
	"2019-04-17T05:00:00-04:00" : {
		"windSpeed" : 3.9,
		"windDir" : 94,
		"rain" : 0,
		"cloudbase" : 5010.7716000001,
		"flyability" : -50,
		"reason" : "orientationsUnknown",
		"timestamp" :1555495200
		},
	"2019-04-17T08:00:00-04:00" : {
		"windSpeed" : 3.5,
		"windDir" : 98,
		"rain" : 0,
		"cloudbase" : 3166.6679999998,
		"flyability" : -50,
		"reason" : "orientationsUnknown",
		"timestamp" :1555506000
		},
	"2019-04-17T11:00:00-04:00" : {
		"windSpeed" : 4.4,
		"windDir" : 112,
		"rain" : 0,
		"cloudbase" : 5229.8893999998,
		"flyability" : -50,
		"reason" : "orientationsUnknown",
		"timestamp" :1555516800
		},
	"2019-04-17T14:00:00-04:00" : {
		"windSpeed" : 5.4,
		"windDir" : 103,
		"rain" : 0,
		"cloudbase" : 1346.8079,
		"flyability" : -0,
		"reason" : "windSpeed, orientationsUnknown",
		"timestamp" :1555527600
		},
	"2019-04-17T17:00:00-04:00" : {
		"windSpeed" : 5.1,
		"windDir" : 110,
		"rain" : 0,
		"cloudbase" : 4750,
		"flyability" : -0,
		"reason" : "windSpeed, orientationsUnknown",
		"timestamp" :1555538400
		},
	"2019-04-17T20:00:00-04:00" : {
		"windSpeed" : 2.8,
		"windDir" : 129,
		"rain" : 0,
		"cloudbase" : 4800,
		"flyability" : -50,
		"reason" : "orientationsUnknown",
		"timestamp" :1555549200
		},
	"2019-04-17T23:00:00-04:00" : {
		"windSpeed" : 4.4,
		"windDir" : 128,
		"rain" : 0,
		"cloudbase" : 11000,
		"flyability" : -50,
		"reason" : "orientationsUnknown",
		"timestamp" :1555560000
		},
	"2019-04-18T02:00:00-04:00" : {
		"windSpeed" : 4.2,
		"windDir" : 125,
		"rain" : 0,
		"cloudbase" : null,
		"flyability" : -50,
		"reason" : "orientationsUnknown",
		"timestamp" :1555570800
		},
	"2019-04-18T05:00:00-04:00" : {
		"windSpeed" : 2.9,
		"windDir" : 156,
		"rain" : 0,
		"cloudbase" : 10500,
		"flyability" : -50,
		"reason" : "orientationsUnknown",
		"timestamp" :1555581600
		},
	"2019-04-18T08:00:00-04:00" : {
		"windSpeed" : 3.1,
		"windDir" : 174,
		"rain" : 0,
		"cloudbase" : null,
		"flyability" : -50,
		"reason" : "orientationsUnknown",
		"timestamp" :1555592400
		},
	"2019-04-18T11:00:00-04:00" : {
		"windSpeed" : 6.7,
		"windDir" : 143,
		"rain" : 1,
		"cloudbase" : 1200,
		"flyability" : -0,
		"reason" : "windSpeed, orientationsUnknown, rain",
		"timestamp" :1555603200
		},
	"2019-04-18T14:00:00-04:00" : {
		"windSpeed" : 5.8,
		"windDir" : 135,
		"rain" : 1,
		"cloudbase" : 660,
		"flyability" : -0,
		"reason" : "windSpeed, orientationsUnknown, rain",
		"timestamp" :1555614000
		},
	"2019-04-18T17:00:00-04:00" : {
		"windSpeed" : 6.5,
		"windDir" : 138,
		"rain" : 1,
		"cloudbase" : null,
		"flyability" : -0,
		"reason" : "windSpeed, orientationsUnknown, rain",
		"timestamp" :1555624800
		},
	"2019-04-18T20:00:00-04:00" : {
		"windSpeed" : 7.2,
		"windDir" : 143,
		"rain" : 0,
		"cloudbase" : null,
		"flyability" : -0,
		"reason" : "windSpeed, orientationsUnknown",
		"timestamp" :1555635600
		},
	"2019-04-18T23:00:00-04:00" : {
		"windSpeed" : 6.7,
		"windDir" : 166,
		"rain" : 0,
		"cloudbase" : null,
		"flyability" : -0,
		"reason" : "windSpeed, orientationsUnknown",
		"timestamp" :1555646400
		},
	"2019-04-19T02:00:00-04:00" : {
		"windSpeed" : 5.5,
		"windDir" : 177,
		"rain" : 0,
		"cloudbase" : null,
		"flyability" : -0,
		"reason" : "windSpeed, orientationsUnknown",
		"timestamp" :1555657200
		},
	"2019-04-19T05:00:00-04:00" : {
		"windSpeed" : 5.9,
		"windDir" : 181,
		"rain" : 0,
		"cloudbase" : null,
		"flyability" : -0,
		"reason" : "windSpeed, orientationsUnknown",
		"timestamp" :1555668000
		},
	"2019-04-19T08:00:00-04:00" : {
		"windSpeed" : 6,
		"windDir" : 175,
		"rain" : 0,
		"cloudbase" : null,
		"flyability" : -0,
		"reason" : "windSpeed, orientationsUnknown",
		"timestamp" :1555678800
		},
	"2019-04-19T11:00:00-04:00" : {
		"windSpeed" : 9.3,
		"windDir" : 182,
		"rain" : 0,
		"cloudbase" : null,
		"flyability" : -0,
		"reason" : "windSpeed, orientationsUnknown",
		"timestamp" :1555689600
		},
	"2019-04-19T14:00:00-04:00" : {
		"windSpeed" : 9.6,
		"windDir" : 180,
		"rain" : 0,
		"cloudbase" : 10306.7478,
		"flyability" : -0,
		"reason" : "windSpeed, orientationsUnknown",
		"timestamp" :1555700400
		},
	"2019-04-19T17:00:00-04:00" : {
		"windSpeed" : 6.6,
		"windDir" : 203,
		"rain" : 0,
		"cloudbase" : 6177.8369999998,
		"flyability" : -0,
		"reason" : "windSpeed, orientationsUnknown",
		"timestamp" :1555711200
		},
	"2019-04-19T20:00:00-04:00" : {
		"windSpeed" : 7,
		"windDir" : 230,
		"rain" : 0,
		"cloudbase" : 1225.9763,
		"flyability" : -0,
		"reason" : "windSpeed, orientationsUnknown",
		"timestamp" :1555722000
		},
	"2019-04-19T23:00:00-04:00" : {
		"windSpeed" : 5.6,
		"windDir" : 247,
		"rain" : 0,
		"cloudbase" : 584.51264,
		"flyability" : -0,
		"reason" : "windSpeed, orientationsUnknown",
		"timestamp" :1555732800
		},
	"2019-04-20T02:00:00-04:00" : {
		"windSpeed" : 6.2,
		"windDir" : 270,
		"rain" : 0,
		"cloudbase" : null,
		"flyability" : -0,
		"reason" : "windSpeed, orientationsUnknown",
		"timestamp" :1555743600
		},
	"2019-04-20T05:00:00-04:00" : {
		"windSpeed" : 5,
		"windDir" : 264,
		"rain" : 0,
		"cloudbase" : null,
		"flyability" : -50,
		"reason" : "orientationsUnknown",
		"timestamp" :1555754400
		},
	"2019-04-20T08:00:00-04:00" : {
		"windSpeed" : 4.5,
		"windDir" : 221,
		"rain" : 0,
		"cloudbase" : null,
		"flyability" : -50,
		"reason" : "orientationsUnknown",
		"timestamp" :1555765200
		},
	"2019-04-20T11:00:00-04:00" : {
		"windSpeed" : 7.1,
		"windDir" : 266,
		"rain" : 0,
		"cloudbase" : null,
		"flyability" : -0,
		"reason" : "windSpeed, orientationsUnknown",
		"timestamp" :1555776000
		},
	"2019-04-20T14:00:00-04:00" : {
		"windSpeed" : 9.2,
		"windDir" : 264,
		"rain" : 0,
		"cloudbase" : null,
		"flyability" : -0,
		"reason" : "windSpeed, orientationsUnknown",
		"timestamp" :1555786800
		},
	"2019-04-20T17:00:00-04:00" : {
		"windSpeed" : 8.7,
		"windDir" : 273,
		"rain" : 0,
		"cloudbase" : null,
		"flyability" : -0,
		"reason" : "windSpeed, orientationsUnknown",
		"timestamp" :1555797600
		},
	"2019-04-20T20:00:00-04:00" : {
		"windSpeed" : 6.4,
		"windDir" : 282,
		"rain" : 0,
		"cloudbase" : null,
		"flyability" : -0,
		"reason" : "windSpeed, orientationsUnknown",
		"timestamp" :1555808400
		},
	"2019-04-20T23:00:00-04:00" : {
		"windSpeed" : 4.9,
		"windDir" : 283,
		"rain" : 0,
		"cloudbase" : null,
		"flyability" : -50,
		"reason" : "orientationsUnknown",
		"timestamp" :1555819200
		},
	"2019-04-21T02:00:00-04:00" : {
		"windSpeed" : 3.4,
		"windDir" : 286,
		"rain" : 1,
		"cloudbase" : null,
		"flyability" : -0,
		"reason" : "orientationsUnknown, rain",
		"timestamp" :1555830000
		},
	"2019-04-21T05:00:00-04:00" : {
		"windSpeed" : 2.6,
		"windDir" : 261,
		"rain" : 1,
		"cloudbase" : null,
		"flyability" : -0,
		"reason" : "orientationsUnknown, rain",
		"timestamp" :1555840800
		},
	"2019-04-21T08:00:00-04:00" : {
		"windSpeed" : 2.4,
		"windDir" : 276,
		"rain" : 0,
		"cloudbase" : null,
		"flyability" : -50,
		"reason" : "orientationsUnknown",
		"timestamp" :1555851600
		},
	"2019-04-21T11:00:00-04:00" : {
		"windSpeed" : 3,
		"windDir" : 18,
		"rain" : 1,
		"cloudbase" : null,
		"flyability" : -0,
		"reason" : "orientationsUnknown, rain",
		"timestamp" :1555862400
		},
	"2019-04-21T14:00:00-04:00" : {
		"windSpeed" : 3.3,
		"windDir" : 63,
		"rain" : 0,
		"cloudbase" : null,
		"flyability" : -50,
		"reason" : "orientationsUnknown",
		"timestamp" :1555873200
		},
	"2019-04-21T17:00:00-04:00" : {
		"windSpeed" : 3.3,
		"windDir" : 66,
		"rain" : 0,
		"cloudbase" : null,
		"flyability" : -50,
		"reason" : "orientationsUnknown",
		"timestamp" :1555884000
		},
	"2019-04-21T20:00:00-04:00" : {
		"windSpeed" : 3.2,
		"windDir" : 55,
		"rain" : 1,
		"cloudbase" : null,
		"flyability" : -0,
		"reason" : "orientationsUnknown, rain",
		"timestamp" :1555894800
		},
	"2019-04-21T23:00:00-04:00" : {
		"windSpeed" : 3.4,
		"windDir" : 71,
		"rain" : 0,
		"cloudbase" : null,
		"flyability" : -50,
		"reason" : "orientationsUnknown",
		"timestamp" :1555905600
		},
	"2019-04-22T02:00:00-04:00" : {
		"windSpeed" : 3.7,
		"windDir" : 82,
		"rain" : 0,
		"cloudbase" : null,
		"flyability" : -50,
		"reason" : "orientationsUnknown",
		"timestamp" :1555916400
		},
	"2019-04-22T05:00:00-04:00" : {
		"windSpeed" : 3.7,
		"windDir" : 90,
		"rain" : 0,
		"cloudbase" : null,
		"flyability" : -50,
		"reason" : "orientationsUnknown",
		"timestamp" :1555927200
		},
	"2019-04-22T08:00:00-04:00" : {
		"windSpeed" : 3.9,
		"windDir" : 87,
		"rain" : 0,
		"cloudbase" : null,
		"flyability" : -50,
		"reason" : "orientationsUnknown",
		"timestamp" :1555938000
		},
	"2019-04-22T11:00:00-04:00" : {
		"windSpeed" : 4.6,
		"windDir" : 93,
		"rain" : 0,
		"cloudbase" : null,
		"flyability" : -50,
		"reason" : "orientationsUnknown",
		"timestamp" :1555948800
		},
	"2019-04-22T14:00:00-04:00" : {
		"windSpeed" : 4.6,
		"windDir" : 96,
		"rain" : 0,
		"cloudbase" : null,
		"flyability" : -50,
		"reason" : "orientationsUnknown",
		"timestamp" :1555959600
		},
	"2019-04-22T17:00:00-04:00" : {
		"windSpeed" : 4.6,
		"windDir" : 93,
		"rain" : 0,
		"cloudbase" : null,
		"flyability" : -50,
		"reason" : "orientationsUnknown",
		"timestamp" :1555970400
		},
	"2019-04-22T20:00:00-04:00" : {
		"windSpeed" : 3.7,
		"windDir" : 94,
		"rain" : 0,
		"cloudbase" : null,
		"flyability" : -50,
		"reason" : "orientationsUnknown",
		"timestamp" :1555981200
		}
	}
}