{
"site" : "Garth Hill",
"id" : 86,
"orientations" : "00112000",
"forecasts" : { 
	"2019-04-22T04:00:00+01:00" : {
		"windSpeed" : 1.9,
		"windDir" : 64,
		"rain" : 0,
		"cloudbase" : null,
		"flyability" : 0,
		"reason" : "windDir",
		"timestamp" :1555898400
		},
	"2019-04-22T07:00:00+01:00" : {
		"windSpeed" : 3,
		"windDir" : 54,
		"rain" : 0,
		"cloudbase" : null,
		"flyability" : 0,
		"reason" : "windDir",
		"timestamp" :1555909200
		},
	"2019-04-22T10:00:00+01:00" : {
		"windSpeed" : 3.8,
		"windDir" : 77,
		"rain" : 0,
		"cloudbase" : null,
		"flyability" : 100,
		"reason" : "",
		"timestamp" :1555920000
		},
	"2019-04-22T13:00:00+01:00" : {
		"windSpeed" : 4,
		"windDir" : 88,
		"rain" : 0,
		"cloudbase" : 4577.85,
		"flyability" : 100,
		"reason" : "",
		"timestamp" :1555930800
		},
	"2019-04-22T16:00:00+01:00" : {
		"windSpeed" : 4.3,
		"windDir" : 122,
		"rain" : 0,
		"cloudbase" : null,
		"flyability" : 100,
		"reason" : "",
		"timestamp" :1555941600
		},
	"2019-04-22T19:00:00+01:00" : {
		"windSpeed" : 3.1,
		"windDir" : 163,
		"rain" : 1,
		"cloudbase" : 8922.26707,
		"flyability" : 0,
		"reason" : "rain",
		"timestamp" :1555952400
		},
	"2019-04-22T22:00:00+01:00" : {
		"windSpeed" : 2.7,
		"windDir" : 126,
		"rain" : 0,
		"cloudbase" : 2961.016465,
		"flyability" : 100,
		"reason" : "",
		"timestamp" :1555963200
		},
	"2019-04-23T01:00:00+01:00" : {
		"windSpeed" : 2.1,
		"windDir" : 41,
		"rain" : 1,
		"cloudbase" : 3082.288535,
		"flyability" : 0,
		"reason" : "windDir, rain",
		"timestamp" :1555974000
		},
	"2019-04-23T04:00:00+01:00" : {
		"windSpeed" : 4.3,
		"windDir" : 44,
		"rain" : 0,
		"cloudbase" : 2650,
		"flyability" : 0,
		"reason" : "windDir",
		"timestamp" :1555984800
		},
	"2019-04-23T07:00:00+01:00" : {
		"windSpeed" : 5.1,
		"windDir" : 46,
		"rain" : 0,
		"cloudbase" : 3250,
		"flyability" : 0,
		"reason" : "windSpeed, windDir",
		"timestamp" :1555995600
		},
	"2019-04-23T10:00:00+01:00" : {
		"windSpeed" : 4.9,
		"windDir" : 74,
		"rain" : 1,
		"cloudbase" : null,
		"flyability" : 0,
		"reason" : "rain",
		"timestamp" :1556006400
		},
	"2019-04-23T13:00:00+01:00" : {
		"windSpeed" : 4.8,
		"windDir" : 86,
		"rain" : 0,
		"cloudbase" : 9644.83293,
		"flyability" : 100,
		"reason" : "",
		"timestamp" :1556017200
		},
	"2019-04-23T16:00:00+01:00" : {
		"windSpeed" : 3.6,
		"windDir" : 119,
		"rain" : 0,
		"cloudbase" : 9252.94293,
		"flyability" : 100,
		"reason" : "",
		"timestamp" :1556028000
		},
	"2019-04-23T19:00:00+01:00" : {
		"windSpeed" : 1.9,
		"windDir" : 120,
		"rain" : 0,
		"cloudbase" : 6774.67707,
		"flyability" : 100,
		"reason" : "",
		"timestamp" :1556038800
		},
	"2019-04-23T22:00:00+01:00" : {
		"windSpeed" : 1.8,
		"windDir" : 124,
		"rain" : 0,
		"cloudbase" : 5410.86707,
		"flyability" : 100,
		"reason" : "",
		"timestamp" :1556049600
		},
	"2019-04-24T01:00:00+01:00" : {
		"windSpeed" : 2,
		"windDir" : 90,
		"rain" : 0,
		"cloudbase" : 7231.4839499998,
		"flyability" : 100,
		"reason" : "",
		"timestamp" :1556060400
		},
	"2019-04-24T04:00:00+01:00" : {
		"windSpeed" : 2.5,
		"windDir" : 64,
		"rain" : 1,
		"cloudbase" : 2414.076465,
		"flyability" : 0,
		"reason" : "windDir, rain",
		"timestamp" :1556071200
		},
	"2019-04-24T07:00:00+01:00" : {
		"windSpeed" : 3.7,
		"windDir" : 68,
		"rain" : 1,
		"cloudbase" : 1753.3007649999,
		"flyability" : 0,
		"reason" : "rain",
		"timestamp" :1556082000
		},
	"2019-04-24T10:00:00+01:00" : {
		"windSpeed" : 4,
		"windDir" : 91,
		"rain" : 1,
		"cloudbase" : 328.36270700001,
		"flyability" : 0,
		"reason" : "rain",
		"timestamp" :1556092800
		},
	"2019-04-24T13:00:00+01:00" : {
		"windSpeed" : 4.4,
		"windDir" : 263,
		"rain" : 1,
		"cloudbase" : 1035.545051,
		"flyability" : 0,
		"reason" : "windDir, rain",
		"timestamp" :1556103600
		},
	"2019-04-24T16:00:00+01:00" : {
		"windSpeed" : 5.1,
		"windDir" : 180,
		"rain" : 1,
		"cloudbase" : null,
		"flyability" : 0,
		"reason" : "windSpeed, rain",
		"timestamp" :1556114400
		},
	"2019-04-24T19:00:00+01:00" : {
		"windSpeed" : 4.7,
		"windDir" : 149,
		"rain" : 0,
		"cloudbase" : 6018.67,
		"flyability" : 100,
		"reason" : "",
		"timestamp" :1556125200
		},
	"2019-04-24T22:00:00+01:00" : {
		"windSpeed" : 4.8,
		"windDir" : 117,
		"rain" : 1,
		"cloudbase" : 572.960293,
		"flyability" : 0,
		"reason" : "rain",
		"timestamp" :1556136000
		},
	"2019-04-25T01:00:00+01:00" : {
		"windSpeed" : 5.8,
		"windDir" : 124,
		"rain" : 1,
		"cloudbase" : 6222.26707,
		"flyability" : 0,
		"reason" : "windSpeed, rain",
		"timestamp" :1556146800
		},
	"2019-04-25T04:00:00+01:00" : {
		"windSpeed" : 5.6,
		"windDir" : 117,
		"rain" : 1,
		"cloudbase" : 1134.156363,
		"flyability" : 0,
		"reason" : "windSpeed, rain",
		"timestamp" :1556157600
		},
	"2019-04-25T07:00:00+01:00" : {
		"windSpeed" : 6.9,
		"windDir" : 137,
		"rain" : 1,
		"cloudbase" : 459.93758600003,
		"flyability" : 0,
		"reason" : "windSpeed, rain",
		"timestamp" :1556168400
		},
	"2019-04-25T10:00:00+01:00" : {
		"windSpeed" : 5.1,
		"windDir" : 143,
		"rain" : 1,
		"cloudbase" : 1016.7744719999,
		"flyability" : 0,
		"reason" : "windSpeed, rain",
		"timestamp" :1556179200
		},
	"2019-04-25T13:00:00+01:00" : {
		"windSpeed" : 5.9,
		"windDir" : 169,
		"rain" : 1,
		"cloudbase" : null,
		"flyability" : 0,
		"reason" : "windSpeed, rain",
		"timestamp" :1556190000
		},
	"2019-04-25T16:00:00+01:00" : {
		"windSpeed" : 6.6,
		"windDir" : 172,
		"rain" : 1,
		"cloudbase" : null,
		"flyability" : 0,
		"reason" : "windSpeed, rain",
		"timestamp" :1556200800
		},
	"2019-04-25T19:00:00+01:00" : {
		"windSpeed" : 5.1,
		"windDir" : 178,
		"rain" : 1,
		"cloudbase" : null,
		"flyability" : 0,
		"reason" : "windSpeed, rain",
		"timestamp" :1556211600
		},
	"2019-04-25T22:00:00+01:00" : {
		"windSpeed" : 3.4,
		"windDir" : 155,
		"rain" : 0,
		"cloudbase" : null,
		"flyability" : 100,
		"reason" : "",
		"timestamp" :1556222400
		},
	"2019-04-26T01:00:00+01:00" : {
		"windSpeed" : 2.8,
		"windDir" : 148,
		"rain" : 0,
		"cloudbase" : null,
		"flyability" : 100,
		"reason" : "",
		"timestamp" :1556233200
		},
	"2019-04-26T04:00:00+01:00" : {
		"windSpeed" : 2.9,
		"windDir" : 137,
		"rain" : 0,
		"cloudbase" : 6383.85293,
		"flyability" : 100,
		"reason" : "",
		"timestamp" :1556244000
		},
	"2019-04-26T07:00:00+01:00" : {
		"windSpeed" : 3.8,
		"windDir" : 133,
		"rain" : 0,
		"cloudbase" : null,
		"flyability" : 100,
		"reason" : "",
		"timestamp" :1556254800
		},
	"2019-04-26T10:00:00+01:00" : {
		"windSpeed" : 5.2,
		"windDir" : 171,
		"rain" : 0,
		"cloudbase" : 1237.808841,
		"flyability" : 0,
		"reason" : "windSpeed",
		"timestamp" :1556265600
		},
	"2019-04-26T13:00:00+01:00" : {
		"windSpeed" : 6.4,
		"windDir" : 230,
		"rain" : 1,
		"cloudbase" : null,
		"flyability" : 0,
		"reason" : "windSpeed, windDir, rain",
		"timestamp" :1556276400
		},
	"2019-04-26T16:00:00+01:00" : {
		"windSpeed" : 7.7,
		"windDir" : 251,
		"rain" : 1,
		"cloudbase" : null,
		"flyability" : 0,
		"reason" : "windSpeed, windDir, rain",
		"timestamp" :1556287200
		},
	"2019-04-26T19:00:00+01:00" : {
		"windSpeed" : 7,
		"windDir" : 256,
		"rain" : 0,
		"cloudbase" : null,
		"flyability" : 0,
		"reason" : "windSpeed, windDir",
		"timestamp" :1556298000
		},
	"2019-04-26T22:00:00+01:00" : {
		"windSpeed" : 5.9,
		"windDir" : 250,
		"rain" : 0,
		"cloudbase" : 6595.25293,
		"flyability" : 0,
		"reason" : "windSpeed, windDir",
		"timestamp" :1556308800
		},
	"2019-04-27T01:00:00+01:00" : {
		"windSpeed" : 3.6,
		"windDir" : 156,
		"rain" : 1,
		"cloudbase" : 836.081172,
		"flyability" : 0,
		"reason" : "rain",
		"timestamp" :1556319600
		},
	"2019-04-27T04:00:00+01:00" : {
		"windSpeed" : 3.2,
		"windDir" : 136,
		"rain" : 1,
		"cloudbase" : 288.027656,
		"flyability" : 0,
		"reason" : "rain",
		"timestamp" :1556330400
		},
	"2019-04-27T07:00:00+01:00" : {
		"windSpeed" : 8.1,
		"windDir" : 338,
		"rain" : 1,
		"cloudbase" : null,
		"flyability" : 0,
		"reason" : "windSpeed, windDir, rain",
		"timestamp" :1556341200
		},
	"2019-04-27T10:00:00+01:00" : {
		"windSpeed" : 8.5,
		"windDir" : 310,
		"rain" : 1,
		"cloudbase" : 780,
		"flyability" : 0,
		"reason" : "windSpeed, windDir, rain",
		"timestamp" :1556352000
		},
	"2019-04-27T13:00:00+01:00" : {
		"windSpeed" : 8.9,
		"windDir" : 308,
		"rain" : 0,
		"cloudbase" : null,
		"flyability" : 0,
		"reason" : "windSpeed, windDir",
		"timestamp" :1556362800
		},
	"2019-04-27T16:00:00+01:00" : {
		"windSpeed" : 7.7,
		"windDir" : 299,
		"rain" : 1,
		"cloudbase" : null,
		"flyability" : 0,
		"reason" : "windSpeed, windDir, rain",
		"timestamp" :1556373600
		},
	"2019-04-27T19:00:00+01:00" : {
		"windSpeed" : 5.3,
		"windDir" : 298,
		"rain" : 1,
		"cloudbase" : 8183.85293,
		"flyability" : 0,
		"reason" : "windSpeed, windDir, rain",
		"timestamp" :1556384400
		},
	"2019-04-27T22:00:00+01:00" : {
		"windSpeed" : 3.3,
		"windDir" : 268,
		"rain" : 0,
		"cloudbase" : 6234.9907000001,
		"flyability" : 0,
		"reason" : "windDir",
		"timestamp" :1556395200
		},
	"2019-04-28T01:00:00+01:00" : {
		"windSpeed" : 2.9,
		"windDir" : 280,
		"rain" : 0,
		"cloudbase" : 6477.2729300001,
		"flyability" : 0,
		"reason" : "windDir",
		"timestamp" :1556406000
		}
	}
}