{
"site" : "Mals\/ Malles",
"id" : 9231,
"orientations" : "00000000",
"forecasts" : { 
	"2019-04-22T05:00:00+02:00" : {
		"windSpeed" : 0.7,
		"windDir" : 64,
		"rain" : 0,
		"cloudbase" : null,
		"flyability" : -50,
		"reason" : "orientationsUnknown",
		"timestamp" :1555905600
		},
	"2019-04-22T08:00:00+02:00" : {
		"windSpeed" : 0.8,
		"windDir" : 65,
		"rain" : 0,
		"cloudbase" : 6300,
		"flyability" : -50,
		"reason" : "orientationsUnknown",
		"timestamp" :1555916400
		},
	"2019-04-22T11:00:00+02:00" : {
		"windSpeed" : 1,
		"windDir" : 69,
		"rain" : 0,
		"cloudbase" : 6888.2,
		"flyability" : -50,
		"reason" : "orientationsUnknown",
		"timestamp" :1555927200
		},
	"2019-04-22T14:00:00+02:00" : {
		"windSpeed" : 1.4,
		"windDir" : 96,
		"rain" : 0,
		"cloudbase" : 5684.3591,
		"flyability" : -50,
		"reason" : "orientationsUnknown",
		"timestamp" :1555938000
		},
	"2019-04-22T17:00:00+02:00" : {
		"windSpeed" : 1.4,
		"windDir" : 96,
		"rain" : 0,
		"cloudbase" : null,
		"flyability" : -50,
		"reason" : "orientationsUnknown",
		"timestamp" :1555948800
		},
	"2019-04-22T20:00:00+02:00" : {
		"windSpeed" : 1.8,
		"windDir" : 95,
		"rain" : 0,
		"cloudbase" : 6881.0197,
		"flyability" : -50,
		"reason" : "orientationsUnknown",
		"timestamp" :1555959600
		},
	"2019-04-22T23:00:00+02:00" : {
		"windSpeed" : 1.9,
		"windDir" : 114,
		"rain" : 0,
		"cloudbase" : 5946.8985,
		"flyability" : -50,
		"reason" : "orientationsUnknown",
		"timestamp" :1555970400
		},
	"2019-04-23T02:00:00+02:00" : {
		"windSpeed" : 1.9,
		"windDir" : 98,
		"rain" : 0,
		"cloudbase" : 441.98393999999,
		"flyability" : -0,
		"reason" : "orientationsUnknown, cloudbase",
		"timestamp" :1555981200
		},
	"2019-04-23T05:00:00+02:00" : {
		"windSpeed" : 1,
		"windDir" : 119,
		"rain" : 0,
		"cloudbase" : 466.69621000001,
		"flyability" : -0,
		"reason" : "orientationsUnknown, cloudbase",
		"timestamp" :1555992000
		},
	"2019-04-23T08:00:00+02:00" : {
		"windSpeed" : 0.9,
		"windDir" : 91,
		"rain" : 0,
		"cloudbase" : 394.95394000001,
		"flyability" : -0,
		"reason" : "orientationsUnknown, cloudbase",
		"timestamp" :1556002800
		},
	"2019-04-23T11:00:00+02:00" : {
		"windSpeed" : 1.5,
		"windDir" : 95,
		"rain" : 1,
		"cloudbase" : 432.16984999999,
		"flyability" : -0,
		"reason" : "orientationsUnknown, rain, cloudbase",
		"timestamp" :1556013600
		},
	"2019-04-23T14:00:00+02:00" : {
		"windSpeed" : 1.9,
		"windDir" : 105,
		"rain" : 1,
		"cloudbase" : 513.63211999998,
		"flyability" : -0,
		"reason" : "orientationsUnknown, rain, cloudbase",
		"timestamp" :1556024400
		},
	"2019-04-23T17:00:00+02:00" : {
		"windSpeed" : 1.5,
		"windDir" : 91,
		"rain" : 1,
		"cloudbase" : 547.03308999993,
		"flyability" : -0,
		"reason" : "orientationsUnknown, rain, cloudbase",
		"timestamp" :1556035200
		},
	"2019-04-23T20:00:00+02:00" : {
		"windSpeed" : 1.1,
		"windDir" : 117,
		"rain" : 1,
		"cloudbase" : 691.6752499999,
		"flyability" : -0,
		"reason" : "orientationsUnknown, rain, cloudbase",
		"timestamp" :1556046000
		},
	"2019-04-23T23:00:00+02:00" : {
		"windSpeed" : 1.4,
		"windDir" : 96,
		"rain" : 1,
		"cloudbase" : 407.40969999996,
		"flyability" : -0,
		"reason" : "orientationsUnknown, rain, cloudbase",
		"timestamp" :1556056800
		},
	"2019-04-24T02:00:00+02:00" : {
		"windSpeed" : 1.3,
		"windDir" : 96,
		"rain" : 1,
		"cloudbase" : 362.38286999997,
		"flyability" : -0,
		"reason" : "orientationsUnknown, rain, cloudbase",
		"timestamp" :1556067600
		},
	"2019-04-24T05:00:00+02:00" : {
		"windSpeed" : 1.3,
		"windDir" : 96,
		"rain" : 1,
		"cloudbase" : 1678.0772999993,
		"flyability" : -0,
		"reason" : "orientationsUnknown, rain",
		"timestamp" :1556078400
		},
	"2019-04-24T08:00:00+02:00" : {
		"windSpeed" : 0.9,
		"windDir" : 99,
		"rain" : 1,
		"cloudbase" : 1472.1212999998,
		"flyability" : -0,
		"reason" : "orientationsUnknown, rain, cloudbase",
		"timestamp" :1556089200
		},
	"2019-04-24T11:00:00+02:00" : {
		"windSpeed" : 1.4,
		"windDir" : 96,
		"rain" : 0,
		"cloudbase" : 1848.3599499999,
		"flyability" : -50,
		"reason" : "orientationsUnknown",
		"timestamp" :1556100000
		},
	"2019-04-24T14:00:00+02:00" : {
		"windSpeed" : 1.4,
		"windDir" : 142,
		"rain" : 1,
		"cloudbase" : 6632.3788,
		"flyability" : -0,
		"reason" : "orientationsUnknown, rain",
		"timestamp" :1556110800
		},
	"2019-04-24T17:00:00+02:00" : {
		"windSpeed" : 1.5,
		"windDir" : 121,
		"rain" : 0,
		"cloudbase" : 6851.6129500001,
		"flyability" : -50,
		"reason" : "orientationsUnknown",
		"timestamp" :1556121600
		},
	"2019-04-24T20:00:00+02:00" : {
		"windSpeed" : 1.5,
		"windDir" : 114,
		"rain" : 1,
		"cloudbase" : 1853.2196699995,
		"flyability" : -0,
		"reason" : "orientationsUnknown, rain",
		"timestamp" :1556132400
		},
	"2019-04-24T23:00:00+02:00" : {
		"windSpeed" : 1.5,
		"windDir" : 99,
		"rain" : 1,
		"cloudbase" : 169.85917499995,
		"flyability" : -0,
		"reason" : "orientationsUnknown, rain, cloudbase",
		"timestamp" :1556143200
		},
	"2019-04-25T02:00:00+02:00" : {
		"windSpeed" : 1.4,
		"windDir" : 92,
		"rain" : 1,
		"cloudbase" : 582.21352999982,
		"flyability" : -0,
		"reason" : "orientationsUnknown, rain, cloudbase",
		"timestamp" :1556154000
		},
	"2019-04-25T05:00:00+02:00" : {
		"windSpeed" : 0.9,
		"windDir" : 74,
		"rain" : 1,
		"cloudbase" : 178.31879999995,
		"flyability" : -0,
		"reason" : "orientationsUnknown, rain, cloudbase",
		"timestamp" :1556164800
		},
	"2019-04-25T08:00:00+02:00" : {
		"windSpeed" : 0.9,
		"windDir" : 99,
		"rain" : 0,
		"cloudbase" : 75,
		"flyability" : -0,
		"reason" : "orientationsUnknown, cloudbase",
		"timestamp" :1556175600
		},
	"2019-04-25T11:00:00+02:00" : {
		"windSpeed" : 0.9,
		"windDir" : 105,
		"rain" : 1,
		"cloudbase" : null,
		"flyability" : -0,
		"reason" : "orientationsUnknown, rain",
		"timestamp" :1556186400
		},
	"2019-04-25T14:00:00+02:00" : {
		"windSpeed" : 1.7,
		"windDir" : 132,
		"rain" : 0,
		"cloudbase" : 8215.8,
		"flyability" : -50,
		"reason" : "orientationsUnknown",
		"timestamp" :1556197200
		},
	"2019-04-25T17:00:00+02:00" : {
		"windSpeed" : 2.3,
		"windDir" : 148,
		"rain" : 0,
		"cloudbase" : 860,
		"flyability" : -0,
		"reason" : "orientationsUnknown, cloudbase",
		"timestamp" :1556208000
		},
	"2019-04-25T20:00:00+02:00" : {
		"windSpeed" : 1.4,
		"windDir" : 100,
		"rain" : 1,
		"cloudbase" : 869.53576000001,
		"flyability" : -0,
		"reason" : "orientationsUnknown, rain, cloudbase",
		"timestamp" :1556218800
		},
	"2019-04-25T23:00:00+02:00" : {
		"windSpeed" : 1.8,
		"windDir" : 110,
		"rain" : 1,
		"cloudbase" : 201.92091999994,
		"flyability" : -0,
		"reason" : "orientationsUnknown, rain, cloudbase",
		"timestamp" :1556229600
		},
	"2019-04-26T02:00:00+02:00" : {
		"windSpeed" : 1.4,
		"windDir" : 96,
		"rain" : 1,
		"cloudbase" : 90,
		"flyability" : -0,
		"reason" : "orientationsUnknown, rain, cloudbase",
		"timestamp" :1556240400
		},
	"2019-04-26T05:00:00+02:00" : {
		"windSpeed" : 1.4,
		"windDir" : 117,
		"rain" : 0,
		"cloudbase" : 75,
		"flyability" : -0,
		"reason" : "orientationsUnknown, cloudbase",
		"timestamp" :1556251200
		},
	"2019-04-26T08:00:00+02:00" : {
		"windSpeed" : 1,
		"windDir" : 120,
		"rain" : 1,
		"cloudbase" : 75,
		"flyability" : -0,
		"reason" : "orientationsUnknown, rain, cloudbase",
		"timestamp" :1556262000
		},
	"2019-04-26T11:00:00+02:00" : {
		"windSpeed" : 2.2,
		"windDir" : 94,
		"rain" : 1,
		"cloudbase" : null,
		"flyability" : -0,
		"reason" : "orientationsUnknown, rain",
		"timestamp" :1556272800
		},
	"2019-04-26T14:00:00+02:00" : {
		"windSpeed" : 0.1,
		"windDir" : 197,
		"rain" : 0,
		"cloudbase" : 451.69044999982,
		"flyability" : -0,
		"reason" : "orientationsUnknown, cloudbase",
		"timestamp" :1556283600
		},
	"2019-04-26T17:00:00+02:00" : {
		"windSpeed" : 1.1,
		"windDir" : 328,
		"rain" : 0,
		"cloudbase" : 2847.2122300001,
		"flyability" : -50,
		"reason" : "orientationsUnknown",
		"timestamp" :1556294400
		},
	"2019-04-26T20:00:00+02:00" : {
		"windSpeed" : 0.9,
		"windDir" : 280,
		"rain" : 0,
		"cloudbase" : 1041.30576,
		"flyability" : -0,
		"reason" : "orientationsUnknown, cloudbase",
		"timestamp" :1556305200
		},
	"2019-04-26T23:00:00+02:00" : {
		"windSpeed" : 1.6,
		"windDir" : 302,
		"rain" : 0,
		"cloudbase" : null,
		"flyability" : -50,
		"reason" : "orientationsUnknown",
		"timestamp" :1556316000
		},
	"2019-04-27T02:00:00+02:00" : {
		"windSpeed" : 1.2,
		"windDir" : 287,
		"rain" : 0,
		"cloudbase" : null,
		"flyability" : -50,
		"reason" : "orientationsUnknown",
		"timestamp" :1556326800
		},
	"2019-04-27T05:00:00+02:00" : {
		"windSpeed" : 1.2,
		"windDir" : 280,
		"rain" : 0,
		"cloudbase" : 840,
		"flyability" : -0,
		"reason" : "orientationsUnknown, cloudbase",
		"timestamp" :1556337600
		},
	"2019-04-27T08:00:00+02:00" : {
		"windSpeed" : 0.6,
		"windDir" : 258,
		"rain" : 0,
		"cloudbase" : null,
		"flyability" : -50,
		"reason" : "orientationsUnknown",
		"timestamp" :1556348400
		},
	"2019-04-27T11:00:00+02:00" : {
		"windSpeed" : 0.8,
		"windDir" : 308,
		"rain" : 0,
		"cloudbase" : 1309.7189499999,
		"flyability" : -0,
		"reason" : "orientationsUnknown, cloudbase",
		"timestamp" :1556359200
		},
	"2019-04-27T14:00:00+02:00" : {
		"windSpeed" : 1.1,
		"windDir" : 296,
		"rain" : 0,
		"cloudbase" : 1600,
		"flyability" : -0,
		"reason" : "orientationsUnknown, cloudbase",
		"timestamp" :1556370000
		},
	"2019-04-27T17:00:00+02:00" : {
		"windSpeed" : 1.3,
		"windDir" : 310,
		"rain" : 0,
		"cloudbase" : null,
		"flyability" : -50,
		"reason" : "orientationsUnknown",
		"timestamp" :1556380800
		},
	"2019-04-27T20:00:00+02:00" : {
		"windSpeed" : 1.1,
		"windDir" : 326,
		"rain" : 1,
		"cloudbase" : 6013.2394,
		"flyability" : -0,
		"reason" : "orientationsUnknown, rain",
		"timestamp" :1556391600
		},
	"2019-04-27T23:00:00+02:00" : {
		"windSpeed" : 1,
		"windDir" : 323,
		"rain" : 0,
		"cloudbase" : null,
		"flyability" : -50,
		"reason" : "orientationsUnknown",
		"timestamp" :1556402400
		},
	"2019-04-28T02:00:00+02:00" : {
		"windSpeed" : 0.4,
		"windDir" : 320,
		"rain" : 0,
		"cloudbase" : null,
		"flyability" : -50,
		"reason" : "orientationsUnknown",
		"timestamp" :1556413200
		}
	}
}