{
"site" : "Panorama",
"id" : 9318,
"orientations" : "12210000",
"forecasts" : { 
	"2019-04-18T10:00:00-05:00" : {
		"windSpeed" : 3.5,
		"windDir" : 327,
		"rain" : 1,
		"cloudbase" : 211.29904000001,
		"flyability" : 0,
		"reason" : "windDir, rain, cloudbase",
		"timestamp" :1555596000
		},
	"2019-04-18T13:00:00-05:00" : {
		"windSpeed" : 4.7,
		"windDir" : 342,
		"rain" : 1,
		"cloudbase" : 4810.3600000004,
		"flyability" : 0,
		"reason" : "rain",
		"timestamp" :1555606800
		},
	"2019-04-18T16:00:00-05:00" : {
		"windSpeed" : 5.6,
		"windDir" : 350,
		"rain" : 0,
		"cloudbase" : 4141.9264,
		"flyability" : 0,
		"reason" : "windSpeed",
		"timestamp" :1555617600
		},
	"2019-04-18T19:00:00-05:00" : {
		"windSpeed" : 4.1,
		"windDir" : 346,
		"rain" : 1,
		"cloudbase" : null,
		"flyability" : 0,
		"reason" : "rain",
		"timestamp" :1555628400
		},
	"2019-04-18T22:00:00-05:00" : {
		"windSpeed" : 1.8,
		"windDir" : 326,
		"rain" : 0,
		"cloudbase" : null,
		"flyability" : 0,
		"reason" : "windDir",
		"timestamp" :1555639200
		},
	"2019-04-19T01:00:00-05:00" : {
		"windSpeed" : 2.5,
		"windDir" : 324,
		"rain" : 1,
		"cloudbase" : null,
		"flyability" : 0,
		"reason" : "windDir, rain",
		"timestamp" :1555650000
		},
	"2019-04-19T04:00:00-05:00" : {
		"windSpeed" : 3.2,
		"windDir" : 322,
		"rain" : 0,
		"cloudbase" : null,
		"flyability" : 0,
		"reason" : "windDir",
		"timestamp" :1555660800
		},
	"2019-04-19T07:00:00-05:00" : {
		"windSpeed" : 4,
		"windDir" : 331,
		"rain" : 0,
		"cloudbase" : null,
		"flyability" : 0,
		"reason" : "windDir",
		"timestamp" :1555671600
		},
	"2019-04-19T10:00:00-05:00" : {
		"windSpeed" : 6.1,
		"windDir" : 351,
		"rain" : 1,
		"cloudbase" : null,
		"flyability" : 0,
		"reason" : "windSpeed, rain",
		"timestamp" :1555682400
		},
	"2019-04-19T13:00:00-05:00" : {
		"windSpeed" : 6.3,
		"windDir" : 341,
		"rain" : 0,
		"cloudbase" : 1846.6736,
		"flyability" : 0,
		"reason" : "windSpeed",
		"timestamp" :1555693200
		},
	"2019-04-19T16:00:00-05:00" : {
		"windSpeed" : 6.9,
		"windDir" : 331,
		"rain" : 0,
		"cloudbase" : 2200,
		"flyability" : 0,
		"reason" : "windSpeed, windDir",
		"timestamp" :1555704000
		},
	"2019-04-19T19:00:00-05:00" : {
		"windSpeed" : 3.3,
		"windDir" : 333,
		"rain" : 0,
		"cloudbase" : null,
		"flyability" : 0,
		"reason" : "windDir",
		"timestamp" :1555714800
		},
	"2019-04-19T22:00:00-05:00" : {
		"windSpeed" : 3.2,
		"windDir" : 321,
		"rain" : 0,
		"cloudbase" : null,
		"flyability" : 0,
		"reason" : "windDir",
		"timestamp" :1555725600
		},
	"2019-04-20T01:00:00-05:00" : {
		"windSpeed" : 2.5,
		"windDir" : 324,
		"rain" : 0,
		"cloudbase" : null,
		"flyability" : 0,
		"reason" : "windDir",
		"timestamp" :1555736400
		},
	"2019-04-20T04:00:00-05:00" : {
		"windSpeed" : 0.7,
		"windDir" : 225,
		"rain" : 0,
		"cloudbase" : null,
		"flyability" : 0,
		"reason" : "windDir",
		"timestamp" :1555747200
		},
	"2019-04-20T07:00:00-05:00" : {
		"windSpeed" : 0.7,
		"windDir" : 223,
		"rain" : 0,
		"cloudbase" : null,
		"flyability" : 0,
		"reason" : "windDir",
		"timestamp" :1555758000
		},
	"2019-04-20T10:00:00-05:00" : {
		"windSpeed" : 0.5,
		"windDir" : 180,
		"rain" : 0,
		"cloudbase" : null,
		"flyability" : 0,
		"reason" : "windDir",
		"timestamp" :1555768800
		},
	"2019-04-20T13:00:00-05:00" : {
		"windSpeed" : 1.1,
		"windDir" : 245,
		"rain" : 0,
		"cloudbase" : null,
		"flyability" : 0,
		"reason" : "windDir",
		"timestamp" :1555779600
		},
	"2019-04-20T16:00:00-05:00" : {
		"windSpeed" : 1.8,
		"windDir" : 237,
		"rain" : 0,
		"cloudbase" : null,
		"flyability" : 0,
		"reason" : "windDir",
		"timestamp" :1555790400
		},
	"2019-04-20T19:00:00-05:00" : {
		"windSpeed" : 2.6,
		"windDir" : 190,
		"rain" : 0,
		"cloudbase" : null,
		"flyability" : 0,
		"reason" : "windDir",
		"timestamp" :1555801200
		},
	"2019-04-20T22:00:00-05:00" : {
		"windSpeed" : 3.5,
		"windDir" : 179,
		"rain" : 0,
		"cloudbase" : null,
		"flyability" : 0,
		"reason" : "windDir",
		"timestamp" :1555812000
		},
	"2019-04-21T01:00:00-05:00" : {
		"windSpeed" : 4,
		"windDir" : 179,
		"rain" : 0,
		"cloudbase" : null,
		"flyability" : 0,
		"reason" : "windDir",
		"timestamp" :1555822800
		},
	"2019-04-21T04:00:00-05:00" : {
		"windSpeed" : 4.9,
		"windDir" : 180,
		"rain" : 0,
		"cloudbase" : null,
		"flyability" : 0,
		"reason" : "windDir",
		"timestamp" :1555833600
		},
	"2019-04-21T07:00:00-05:00" : {
		"windSpeed" : 5,
		"windDir" : 180,
		"rain" : 0,
		"cloudbase" : 7178.1472,
		"flyability" : 0,
		"reason" : "windDir",
		"timestamp" :1555844400
		},
	"2019-04-21T10:00:00-05:00" : {
		"windSpeed" : 5,
		"windDir" : 186,
		"rain" : 0,
		"cloudbase" : null,
		"flyability" : 0,
		"reason" : "windDir",
		"timestamp" :1555855200
		},
	"2019-04-21T13:00:00-05:00" : {
		"windSpeed" : 5.6,
		"windDir" : 185,
		"rain" : 0,
		"cloudbase" : null,
		"flyability" : 0,
		"reason" : "windSpeed, windDir",
		"timestamp" :1555866000
		},
	"2019-04-21T16:00:00-05:00" : {
		"windSpeed" : 6,
		"windDir" : 180,
		"rain" : 0,
		"cloudbase" : null,
		"flyability" : 0,
		"reason" : "windSpeed, windDir",
		"timestamp" :1555876800
		},
	"2019-04-21T19:00:00-05:00" : {
		"windSpeed" : 4.6,
		"windDir" : 168,
		"rain" : 0,
		"cloudbase" : 6971.2,
		"flyability" : 0,
		"reason" : "windDir",
		"timestamp" :1555887600
		},
	"2019-04-21T22:00:00-05:00" : {
		"windSpeed" : 5.1,
		"windDir" : 174,
		"rain" : 0,
		"cloudbase" : null,
		"flyability" : 0,
		"reason" : "windSpeed, windDir",
		"timestamp" :1555898400
		},
	"2019-04-22T01:00:00-05:00" : {
		"windSpeed" : 5.5,
		"windDir" : 184,
		"rain" : 0,
		"cloudbase" : null,
		"flyability" : 0,
		"reason" : "windSpeed, windDir",
		"timestamp" :1555909200
		},
	"2019-04-22T04:00:00-05:00" : {
		"windSpeed" : 4,
		"windDir" : 179,
		"rain" : 1,
		"cloudbase" : null,
		"flyability" : 0,
		"reason" : "windDir, rain",
		"timestamp" :1555920000
		},
	"2019-04-22T07:00:00-05:00" : {
		"windSpeed" : 3.6,
		"windDir" : 171,
		"rain" : 0,
		"cloudbase" : null,
		"flyability" : 0,
		"reason" : "windDir",
		"timestamp" :1555930800
		},
	"2019-04-22T10:00:00-05:00" : {
		"windSpeed" : 5.5,
		"windDir" : 185,
		"rain" : 0,
		"cloudbase" : null,
		"flyability" : 0,
		"reason" : "windSpeed, windDir",
		"timestamp" :1555941600
		},
	"2019-04-22T13:00:00-05:00" : {
		"windSpeed" : 4.1,
		"windDir" : 187,
		"rain" : 0,
		"cloudbase" : null,
		"flyability" : 0,
		"reason" : "windDir",
		"timestamp" :1555952400
		},
	"2019-04-22T16:00:00-05:00" : {
		"windSpeed" : 3.6,
		"windDir" : 188,
		"rain" : 0,
		"cloudbase" : null,
		"flyability" : 0,
		"reason" : "windDir",
		"timestamp" :1555963200
		},
	"2019-04-22T19:00:00-05:00" : {
		"windSpeed" : 3.2,
		"windDir" : 163,
		"rain" : 0,
		"cloudbase" : null,
		"flyability" : 0,
		"reason" : "windDir",
		"timestamp" :1555974000
		},
	"2019-04-22T22:00:00-05:00" : {
		"windSpeed" : 2.9,
		"windDir" : 149,
		"rain" : 0,
		"cloudbase" : null,
		"flyability" : 100,
		"reason" : "",
		"timestamp" :1555984800
		},
	"2019-04-23T01:00:00-05:00" : {
		"windSpeed" : 2.7,
		"windDir" : 157,
		"rain" : 0,
		"cloudbase" : null,
		"flyability" : 0,
		"reason" : "windDir",
		"timestamp" :1555995600
		},
	"2019-04-23T04:00:00-05:00" : {
		"windSpeed" : 2.5,
		"windDir" : 178,
		"rain" : 0,
		"cloudbase" : 10237.5096,
		"flyability" : 0,
		"reason" : "windDir",
		"timestamp" :1556006400
		},
	"2019-04-23T07:00:00-05:00" : {
		"windSpeed" : 2.5,
		"windDir" : 168,
		"rain" : 0,
		"cloudbase" : null,
		"flyability" : 0,
		"reason" : "windDir",
		"timestamp" :1556017200
		},
	"2019-04-23T10:00:00-05:00" : {
		"windSpeed" : 3.1,
		"windDir" : 188,
		"rain" : 0,
		"cloudbase" : 900,
		"flyability" : 0,
		"reason" : "windDir",
		"timestamp" :1556028000
		},
	"2019-04-23T13:00:00-05:00" : {
		"windSpeed" : 3.1,
		"windDir" : 170,
		"rain" : 1,
		"cloudbase" : 1250,
		"flyability" : 0,
		"reason" : "windDir, rain",
		"timestamp" :1556038800
		},
	"2019-04-23T16:00:00-05:00" : {
		"windSpeed" : 3.1,
		"windDir" : 189,
		"rain" : 0,
		"cloudbase" : 1800,
		"flyability" : 0,
		"reason" : "windDir",
		"timestamp" :1556049600
		},
	"2019-04-23T19:00:00-05:00" : {
		"windSpeed" : 3,
		"windDir" : 180,
		"rain" : 0,
		"cloudbase" : null,
		"flyability" : 0,
		"reason" : "windDir",
		"timestamp" :1556060400
		},
	"2019-04-23T22:00:00-05:00" : {
		"windSpeed" : 3,
		"windDir" : 171,
		"rain" : 0,
		"cloudbase" : 5799.4528,
		"flyability" : 0,
		"reason" : "windDir",
		"timestamp" :1556071200
		},
	"2019-04-24T01:00:00-05:00" : {
		"windSpeed" : 3.1,
		"windDir" : 162,
		"rain" : 0,
		"cloudbase" : null,
		"flyability" : 0,
		"reason" : "windDir",
		"timestamp" :1556082000
		},
	"2019-04-24T04:00:00-05:00" : {
		"windSpeed" : 2.1,
		"windDir" : 193,
		"rain" : 0,
		"cloudbase" : 9640.2439999999,
		"flyability" : 0,
		"reason" : "windDir",
		"timestamp" :1556092800
		},
	"2019-04-24T07:00:00-05:00" : {
		"windSpeed" : 2,
		"windDir" : 179,
		"rain" : 1,
		"cloudbase" : 10277.6832,
		"flyability" : 0,
		"reason" : "windDir, rain",
		"timestamp" :1556103600
		}
	}
}