{
"site" : "Maioro",
"id" : 9323,
"orientations" : "00000210",
"forecasts" : { 
	"2019-04-06T16:00:00+13:00" : {
		"windSpeed" : 0.6,
		"windDir" : 214,
		"rain" : 1,
		"cloudbase" : 5734.8099999987,
		"flyability" : 0,
		"reason" : "rain",
		"timestamp" :1554516000
		},
	"2019-04-06T19:00:00+13:00" : {
		"windSpeed" : 4.5,
		"windDir" : 180,
		"rain" : 1,
		"cloudbase" : 5460.2820000011,
		"flyability" : 0,
		"reason" : "windDir, rain",
		"timestamp" :1554526800
		},
	"2019-04-06T22:00:00+13:00" : {
		"windSpeed" : 2.8,
		"windDir" : 142,
		"rain" : 1,
		"cloudbase" : 9500,
		"flyability" : 0,
		"reason" : "windDir, rain",
		"timestamp" :1554537600
		},
	"2019-04-07T01:00:00+13:00" : {
		"windSpeed" : 2.5,
		"windDir" : 135,
		"rain" : 0,
		"cloudbase" : null,
		"flyability" : 0,
		"reason" : "windDir",
		"timestamp" :1554548400
		},
	"2019-04-07T04:00:00+13:00" : {
		"windSpeed" : 3.5,
		"windDir" : 140,
		"rain" : 1,
		"cloudbase" : null,
		"flyability" : 0,
		"reason" : "windDir, rain",
		"timestamp" :1554559200
		},
	"2019-04-07T07:00:00+13:00" : {
		"windSpeed" : 2.9,
		"windDir" : 155,
		"rain" : 0,
		"cloudbase" : null,
		"flyability" : 0,
		"reason" : "windDir",
		"timestamp" :1554570000
		},
	"2019-04-07T10:00:00+13:00" : {
		"windSpeed" : 4.5,
		"windDir" : 179,
		"rain" : 0,
		"cloudbase" : null,
		"flyability" : 0,
		"reason" : "windDir",
		"timestamp" :1554580800
		},
	"2019-04-07T13:00:00+13:00" : {
		"windSpeed" : 5.7,
		"windDir" : 189,
		"rain" : 0,
		"cloudbase" : null,
		"flyability" : 0,
		"reason" : "windSpeed, windDir",
		"timestamp" :1554591600
		},
	"2019-04-07T16:00:00+13:00" : {
		"windSpeed" : 5.8,
		"windDir" : 207,
		"rain" : 0,
		"cloudbase" : null,
		"flyability" : 0,
		"reason" : "windSpeed",
		"timestamp" :1554602400
		},
	"2019-04-07T19:00:00+13:00" : {
		"windSpeed" : 4,
		"windDir" : 222,
		"rain" : 0,
		"cloudbase" : null,
		"flyability" : 100,
		"reason" : "",
		"timestamp" :1554613200
		},
	"2019-04-07T22:00:00+13:00" : {
		"windSpeed" : 3.1,
		"windDir" : 239,
		"rain" : 1,
		"cloudbase" : null,
		"flyability" : 0,
		"reason" : "rain",
		"timestamp" :1554624000
		},
	"2019-04-08T01:00:00+13:00" : {
		"windSpeed" : 1.9,
		"windDir" : 267,
		"rain" : 1,
		"cloudbase" : null,
		"flyability" : 0,
		"reason" : "rain",
		"timestamp" :1554634800
		},
	"2019-04-08T04:00:00+13:00" : {
		"windSpeed" : 1.2,
		"windDir" : 174,
		"rain" : 1,
		"cloudbase" : null,
		"flyability" : 0,
		"reason" : "windDir, rain",
		"timestamp" :1554645600
		},
	"2019-04-08T07:00:00+13:00" : {
		"windSpeed" : 1.3,
		"windDir" : 102,
		"rain" : 1,
		"cloudbase" : null,
		"flyability" : 0,
		"reason" : "windDir, rain",
		"timestamp" :1554656400
		},
	"2019-04-08T10:00:00+13:00" : {
		"windSpeed" : 0.5,
		"windDir" : 192,
		"rain" : 0,
		"cloudbase" : null,
		"flyability" : 0,
		"reason" : "windDir",
		"timestamp" :1554667200
		},
	"2019-04-08T13:00:00+13:00" : {
		"windSpeed" : 6.1,
		"windDir" : 215,
		"rain" : 1,
		"cloudbase" : null,
		"flyability" : 0,
		"reason" : "windSpeed, rain",
		"timestamp" :1554678000
		},
	"2019-04-08T16:00:00+13:00" : {
		"windSpeed" : 7.6,
		"windDir" : 203,
		"rain" : 1,
		"cloudbase" : null,
		"flyability" : 0,
		"reason" : "windSpeed, rain",
		"timestamp" :1554688800
		},
	"2019-04-08T19:00:00+13:00" : {
		"windSpeed" : 8,
		"windDir" : 195,
		"rain" : 0,
		"cloudbase" : 1450,
		"flyability" : 0,
		"reason" : "windSpeed, windDir",
		"timestamp" :1554699600
		},
	"2019-04-08T22:00:00+13:00" : {
		"windSpeed" : 6.4,
		"windDir" : 189,
		"rain" : 1,
		"cloudbase" : null,
		"flyability" : 0,
		"reason" : "windSpeed, windDir, rain",
		"timestamp" :1554710400
		},
	"2019-04-09T01:00:00+13:00" : {
		"windSpeed" : 6.4,
		"windDir" : 188,
		"rain" : 0,
		"cloudbase" : null,
		"flyability" : 0,
		"reason" : "windSpeed, windDir",
		"timestamp" :1554721200
		},
	"2019-04-09T04:00:00+13:00" : {
		"windSpeed" : 5.9,
		"windDir" : 180,
		"rain" : 0,
		"cloudbase" : null,
		"flyability" : 0,
		"reason" : "windSpeed, windDir",
		"timestamp" :1554732000
		},
	"2019-04-09T07:00:00+13:00" : {
		"windSpeed" : 4.1,
		"windDir" : 179,
		"rain" : 0,
		"cloudbase" : null,
		"flyability" : 0,
		"reason" : "windDir",
		"timestamp" :1554742800
		},
	"2019-04-09T10:00:00+13:00" : {
		"windSpeed" : 5.3,
		"windDir" : 192,
		"rain" : 0,
		"cloudbase" : null,
		"flyability" : 0,
		"reason" : "windSpeed, windDir",
		"timestamp" :1554753600
		},
	"2019-04-09T13:00:00+13:00" : {
		"windSpeed" : 5.3,
		"windDir" : 216,
		"rain" : 0,
		"cloudbase" : 1600,
		"flyability" : 0,
		"reason" : "windSpeed",
		"timestamp" :1554764400
		},
	"2019-04-09T16:00:00+13:00" : {
		"windSpeed" : 5.7,
		"windDir" : 224,
		"rain" : 0,
		"cloudbase" : null,
		"flyability" : 0,
		"reason" : "windSpeed",
		"timestamp" :1554775200
		},
	"2019-04-09T19:00:00+13:00" : {
		"windSpeed" : 4.1,
		"windDir" : 235,
		"rain" : 0,
		"cloudbase" : 3440.6299999994,
		"flyability" : 100,
		"reason" : "",
		"timestamp" :1554786000
		},
	"2019-04-09T22:00:00+13:00" : {
		"windSpeed" : 2.9,
		"windDir" : 236,
		"rain" : 0,
		"cloudbase" : 1600,
		"flyability" : 100,
		"reason" : "",
		"timestamp" :1554796800
		},
	"2019-04-10T01:00:00+13:00" : {
		"windSpeed" : 3.6,
		"windDir" : 258,
		"rain" : 0,
		"cloudbase" : 1750,
		"flyability" : 100,
		"reason" : "",
		"timestamp" :1554807600
		},
	"2019-04-10T04:00:00+13:00" : {
		"windSpeed" : 3.5,
		"windDir" : 263,
		"rain" : 1,
		"cloudbase" : null,
		"flyability" : 0,
		"reason" : "rain",
		"timestamp" :1554818400
		},
	"2019-04-10T07:00:00+13:00" : {
		"windSpeed" : 3.5,
		"windDir" : 286,
		"rain" : 0,
		"cloudbase" : 1600,
		"flyability" : 100,
		"reason" : "",
		"timestamp" :1554829200
		},
	"2019-04-10T10:00:00+13:00" : {
		"windSpeed" : 3.6,
		"windDir" : 285,
		"rain" : 0,
		"cloudbase" : 1737,
		"flyability" : 100,
		"reason" : "",
		"timestamp" :1554840000
		},
	"2019-04-10T13:00:00+13:00" : {
		"windSpeed" : 5.2,
		"windDir" : 297,
		"rain" : 0,
		"cloudbase" : 1600,
		"flyability" : 0,
		"reason" : "windSpeed, windDir",
		"timestamp" :1554850800
		},
	"2019-04-10T16:00:00+13:00" : {
		"windSpeed" : 5.1,
		"windDir" : 298,
		"rain" : 0,
		"cloudbase" : 1600,
		"flyability" : 0,
		"reason" : "windSpeed, windDir",
		"timestamp" :1554861600
		},
	"2019-04-10T19:00:00+13:00" : {
		"windSpeed" : 4.5,
		"windDir" : 311,
		"rain" : 0,
		"cloudbase" : null,
		"flyability" : 0,
		"reason" : "windDir",
		"timestamp" :1554872400
		},
	"2019-04-10T22:00:00+13:00" : {
		"windSpeed" : 3.2,
		"windDir" : 324,
		"rain" : 1,
		"cloudbase" : null,
		"flyability" : 0,
		"reason" : "windDir, rain",
		"timestamp" :1554883200
		},
	"2019-04-11T01:00:00+13:00" : {
		"windSpeed" : 3.6,
		"windDir" : 1,
		"rain" : 1,
		"cloudbase" : 10529.9,
		"flyability" : 0,
		"reason" : "windDir, rain",
		"timestamp" :1554894000
		},
	"2019-04-11T04:00:00+13:00" : {
		"windSpeed" : 4.3,
		"windDir" : 5,
		"rain" : 0,
		"cloudbase" : 7923,
		"flyability" : 0,
		"reason" : "windDir",
		"timestamp" :1554904800
		},
	"2019-04-11T07:00:00+13:00" : {
		"windSpeed" : 4.8,
		"windDir" : 11,
		"rain" : 0,
		"cloudbase" : 7591.02,
		"flyability" : 0,
		"reason" : "windDir",
		"timestamp" :1554915600
		},
	"2019-04-11T10:00:00+13:00" : {
		"windSpeed" : 5.6,
		"windDir" : 8,
		"rain" : 0,
		"cloudbase" : 8252,
		"flyability" : 0,
		"reason" : "windSpeed, windDir",
		"timestamp" :1554926400
		},
	"2019-04-11T13:00:00+13:00" : {
		"windSpeed" : 7.8,
		"windDir" : 333,
		"rain" : 1,
		"cloudbase" : 2719.6699999998,
		"flyability" : 0,
		"reason" : "windSpeed, windDir, rain",
		"timestamp" :1554937200
		},
	"2019-04-11T16:00:00+13:00" : {
		"windSpeed" : 7.1,
		"windDir" : 337,
		"rain" : 1,
		"cloudbase" : 2136.46,
		"flyability" : 0,
		"reason" : "windSpeed, windDir, rain",
		"timestamp" :1554948000
		},
	"2019-04-11T19:00:00+13:00" : {
		"windSpeed" : 5.6,
		"windDir" : 249,
		"rain" : 1,
		"cloudbase" : null,
		"flyability" : 0,
		"reason" : "windSpeed, rain",
		"timestamp" :1554958800
		},
	"2019-04-11T22:00:00+13:00" : {
		"windSpeed" : 6.2,
		"windDir" : 255,
		"rain" : 1,
		"cloudbase" : null,
		"flyability" : 0,
		"reason" : "windSpeed, rain",
		"timestamp" :1554969600
		},
	"2019-04-12T01:00:00+13:00" : {
		"windSpeed" : 5.7,
		"windDir" : 265,
		"rain" : 1,
		"cloudbase" : null,
		"flyability" : 0,
		"reason" : "windSpeed, rain",
		"timestamp" :1554980400
		},
	"2019-04-12T04:00:00+13:00" : {
		"windSpeed" : 7.3,
		"windDir" : 271,
		"rain" : 0,
		"cloudbase" : null,
		"flyability" : 0,
		"reason" : "windSpeed",
		"timestamp" :1554991200
		},
	"2019-04-12T07:00:00+13:00" : {
		"windSpeed" : 7.3,
		"windDir" : 261,
		"rain" : 1,
		"cloudbase" : null,
		"flyability" : 0,
		"reason" : "windSpeed, rain",
		"timestamp" :1555002000
		},
	"2019-04-12T10:00:00+13:00" : {
		"windSpeed" : 7.2,
		"windDir" : 257,
		"rain" : 1,
		"cloudbase" : null,
		"flyability" : 0,
		"reason" : "windSpeed, rain",
		"timestamp" :1555012800
		},
	"2019-04-12T13:00:00+13:00" : {
		"windSpeed" : 5.6,
		"windDir" : 270,
		"rain" : 0,
		"cloudbase" : null,
		"flyability" : 0,
		"reason" : "windSpeed",
		"timestamp" :1555023600
		}
	}
}