{
"site" : "Kameoka -Birds -Air Park Kyoto",
"id" : 9750,
"orientations" : "00000200",
"forecasts" : { 
	"2019-04-04T12:00:00+09:00" : {
		"windSpeed" : 3.4,
		"windDir" : 251,
		"rain" : 0,
		"cloudbase" : null,
		"flyability" : 0,
		"reason" : "windDir",
		"timestamp" :1554346800
		},
	"2019-04-04T15:00:00+09:00" : {
		"windSpeed" : 3,
		"windDir" : 256,
		"rain" : 0,
		"cloudbase" : null,
		"flyability" : 0,
		"reason" : "windDir",
		"timestamp" :1554357600
		},
	"2019-04-04T18:00:00+09:00" : {
		"windSpeed" : 1.9,
		"windDir" : 221,
		"rain" : 0,
		"cloudbase" : null,
		"flyability" : 100,
		"reason" : "",
		"timestamp" :1554368400
		},
	"2019-04-04T21:00:00+09:00" : {
		"windSpeed" : 1.5,
		"windDir" : 195,
		"rain" : 0,
		"cloudbase" : null,
		"flyability" : 0,
		"reason" : "windDir",
		"timestamp" :1554379200
		},
	"2019-04-05T00:00:00+09:00" : {
		"windSpeed" : 1.6,
		"windDir" : 187,
		"rain" : 0,
		"cloudbase" : 9700,
		"flyability" : 0,
		"reason" : "windDir",
		"timestamp" :1554390000
		},
	"2019-04-05T03:00:00+09:00" : {
		"windSpeed" : 1.3,
		"windDir" : 193,
		"rain" : 0,
		"cloudbase" : null,
		"flyability" : 0,
		"reason" : "windDir",
		"timestamp" :1554400800
		},
	"2019-04-05T06:00:00+09:00" : {
		"windSpeed" : 2.1,
		"windDir" : 214,
		"rain" : 0,
		"cloudbase" : 7962.8279999998,
		"flyability" : 100,
		"reason" : "",
		"timestamp" :1554411600
		},
	"2019-04-05T09:00:00+09:00" : {
		"windSpeed" : 2.9,
		"windDir" : 222,
		"rain" : 0,
		"cloudbase" : 6800,
		"flyability" : 100,
		"reason" : "",
		"timestamp" :1554422400
		},
	"2019-04-05T12:00:00+09:00" : {
		"windSpeed" : 4.9,
		"windDir" : 229,
		"rain" : 0,
		"cloudbase" : 6500,
		"flyability" : 100,
		"reason" : "",
		"timestamp" :1554433200
		},
	"2019-04-05T15:00:00+09:00" : {
		"windSpeed" : 5.8,
		"windDir" : 234,
		"rain" : 0,
		"cloudbase" : null,
		"flyability" : 0,
		"reason" : "windSpeed",
		"timestamp" :1554444000
		},
	"2019-04-05T18:00:00+09:00" : {
		"windSpeed" : 3.9,
		"windDir" : 235,
		"rain" : 0,
		"cloudbase" : 9300,
		"flyability" : 100,
		"reason" : "",
		"timestamp" :1554454800
		},
	"2019-04-05T21:00:00+09:00" : {
		"windSpeed" : 1.6,
		"windDir" : 274,
		"rain" : 0,
		"cloudbase" : null,
		"flyability" : 0,
		"reason" : "windDir",
		"timestamp" :1554465600
		},
	"2019-04-06T00:00:00+09:00" : {
		"windSpeed" : 1.3,
		"windDir" : 301,
		"rain" : 0,
		"cloudbase" : null,
		"flyability" : 0,
		"reason" : "windDir",
		"timestamp" :1554476400
		},
	"2019-04-06T03:00:00+09:00" : {
		"windSpeed" : 2.2,
		"windDir" : 337,
		"rain" : 0,
		"cloudbase" : 270,
		"flyability" : 0,
		"reason" : "windDir, cloudbase",
		"timestamp" :1554487200
		},
	"2019-04-06T06:00:00+09:00" : {
		"windSpeed" : 1.6,
		"windDir" : 322,
		"rain" : 0,
		"cloudbase" : 1150,
		"flyability" : 0,
		"reason" : "windDir",
		"timestamp" :1554498000
		},
	"2019-04-06T09:00:00+09:00" : {
		"windSpeed" : 2.8,
		"windDir" : 317,
		"rain" : 0,
		"cloudbase" : null,
		"flyability" : 0,
		"reason" : "windDir",
		"timestamp" :1554508800
		},
	"2019-04-06T12:00:00+09:00" : {
		"windSpeed" : 3.4,
		"windDir" : 318,
		"rain" : 0,
		"cloudbase" : null,
		"flyability" : 0,
		"reason" : "windDir",
		"timestamp" :1554519600
		},
	"2019-04-06T15:00:00+09:00" : {
		"windSpeed" : 3.5,
		"windDir" : 327,
		"rain" : 0,
		"cloudbase" : null,
		"flyability" : 0,
		"reason" : "windDir",
		"timestamp" :1554530400
		},
	"2019-04-06T18:00:00+09:00" : {
		"windSpeed" : 2.2,
		"windDir" : 1,
		"rain" : 0,
		"cloudbase" : null,
		"flyability" : 0,
		"reason" : "windDir",
		"timestamp" :1554541200
		},
	"2019-04-06T21:00:00+09:00" : {
		"windSpeed" : 0.8,
		"windDir" : 31,
		"rain" : 0,
		"cloudbase" : null,
		"flyability" : 0,
		"reason" : "windDir",
		"timestamp" :1554552000
		},
	"2019-04-07T00:00:00+09:00" : {
		"windSpeed" : 1.2,
		"windDir" : 92,
		"rain" : 0,
		"cloudbase" : null,
		"flyability" : 0,
		"reason" : "windDir",
		"timestamp" :1554562800
		},
	"2019-04-07T03:00:00+09:00" : {
		"windSpeed" : 1,
		"windDir" : 141,
		"rain" : 0,
		"cloudbase" : null,
		"flyability" : 0,
		"reason" : "windDir",
		"timestamp" :1554573600
		},
	"2019-04-07T06:00:00+09:00" : {
		"windSpeed" : 0.8,
		"windDir" : 172,
		"rain" : 0,
		"cloudbase" : null,
		"flyability" : 0,
		"reason" : "windDir",
		"timestamp" :1554584400
		},
	"2019-04-07T09:00:00+09:00" : {
		"windSpeed" : 2,
		"windDir" : 214,
		"rain" : 0,
		"cloudbase" : null,
		"flyability" : 100,
		"reason" : "",
		"timestamp" :1554595200
		},
	"2019-04-07T12:00:00+09:00" : {
		"windSpeed" : 3.4,
		"windDir" : 240,
		"rain" : 0,
		"cloudbase" : 5900,
		"flyability" : 100,
		"reason" : "",
		"timestamp" :1554606000
		},
	"2019-04-07T15:00:00+09:00" : {
		"windSpeed" : 3.1,
		"windDir" : 247,
		"rain" : 0,
		"cloudbase" : 1900,
		"flyability" : 100,
		"reason" : "",
		"timestamp" :1554616800
		},
	"2019-04-07T18:00:00+09:00" : {
		"windSpeed" : 3.7,
		"windDir" : 336,
		"rain" : 1,
		"cloudbase" : 1996.9509999997,
		"flyability" : 0,
		"reason" : "windDir, rain",
		"timestamp" :1554627600
		},
	"2019-04-07T21:00:00+09:00" : {
		"windSpeed" : 1.6,
		"windDir" : 313,
		"rain" : 1,
		"cloudbase" : 1729.633,
		"flyability" : 0,
		"reason" : "windDir, rain",
		"timestamp" :1554638400
		},
	"2019-04-08T00:00:00+09:00" : {
		"windSpeed" : 3.1,
		"windDir" : 313,
		"rain" : 1,
		"cloudbase" : 640,
		"flyability" : 0,
		"reason" : "windDir, rain",
		"timestamp" :1554649200
		},
	"2019-04-08T03:00:00+09:00" : {
		"windSpeed" : 3.1,
		"windDir" : 319,
		"rain" : 0,
		"cloudbase" : 130,
		"flyability" : 0,
		"reason" : "windDir, cloudbase",
		"timestamp" :1554660000
		},
	"2019-04-08T06:00:00+09:00" : {
		"windSpeed" : 2.8,
		"windDir" : 313,
		"rain" : 0,
		"cloudbase" : 83.319799999982,
		"flyability" : 0,
		"reason" : "windDir, cloudbase",
		"timestamp" :1554670800
		},
	"2019-04-08T09:00:00+09:00" : {
		"windSpeed" : 3.4,
		"windDir" : 306,
		"rain" : 0,
		"cloudbase" : null,
		"flyability" : 0,
		"reason" : "windDir",
		"timestamp" :1554681600
		},
	"2019-04-08T12:00:00+09:00" : {
		"windSpeed" : 4.5,
		"windDir" : 317,
		"rain" : 0,
		"cloudbase" : 1600,
		"flyability" : 0,
		"reason" : "windDir",
		"timestamp" :1554692400
		},
	"2019-04-08T15:00:00+09:00" : {
		"windSpeed" : 6.7,
		"windDir" : 308,
		"rain" : 1,
		"cloudbase" : null,
		"flyability" : 0,
		"reason" : "windSpeed, windDir, rain",
		"timestamp" :1554703200
		},
	"2019-04-08T18:00:00+09:00" : {
		"windSpeed" : 7,
		"windDir" : 311,
		"rain" : 1,
		"cloudbase" : null,
		"flyability" : 0,
		"reason" : "windSpeed, windDir, rain",
		"timestamp" :1554714000
		},
	"2019-04-08T21:00:00+09:00" : {
		"windSpeed" : 4.7,
		"windDir" : 317,
		"rain" : 0,
		"cloudbase" : null,
		"flyability" : 0,
		"reason" : "windDir",
		"timestamp" :1554724800
		},
	"2019-04-09T00:00:00+09:00" : {
		"windSpeed" : 3.4,
		"windDir" : 315,
		"rain" : 0,
		"cloudbase" : null,
		"flyability" : 0,
		"reason" : "windDir",
		"timestamp" :1554735600
		},
	"2019-04-09T03:00:00+09:00" : {
		"windSpeed" : 2.7,
		"windDir" : 290,
		"rain" : 0,
		"cloudbase" : null,
		"flyability" : 0,
		"reason" : "windDir",
		"timestamp" :1554746400
		},
	"2019-04-09T06:00:00+09:00" : {
		"windSpeed" : 2.3,
		"windDir" : 296,
		"rain" : 0,
		"cloudbase" : 1050,
		"flyability" : 0,
		"reason" : "windDir",
		"timestamp" :1554757200
		},
	"2019-04-09T09:00:00+09:00" : {
		"windSpeed" : 5.5,
		"windDir" : 329,
		"rain" : 0,
		"cloudbase" : 1400,
		"flyability" : 0,
		"reason" : "windSpeed, windDir",
		"timestamp" :1554768000
		},
	"2019-04-09T12:00:00+09:00" : {
		"windSpeed" : 6.4,
		"windDir" : 337,
		"rain" : 0,
		"cloudbase" : 2012.566,
		"flyability" : 0,
		"reason" : "windSpeed, windDir",
		"timestamp" :1554778800
		},
	"2019-04-09T15:00:00+09:00" : {
		"windSpeed" : 5.5,
		"windDir" : 344,
		"rain" : 0,
		"cloudbase" : 2382.4140000007,
		"flyability" : 0,
		"reason" : "windSpeed, windDir",
		"timestamp" :1554789600
		},
	"2019-04-09T18:00:00+09:00" : {
		"windSpeed" : 2.5,
		"windDir" : 354,
		"rain" : 0,
		"cloudbase" : 8064.698,
		"flyability" : 0,
		"reason" : "windDir",
		"timestamp" :1554800400
		},
	"2019-04-09T21:00:00+09:00" : {
		"windSpeed" : 1,
		"windDir" : 355,
		"rain" : 0,
		"cloudbase" : 7100,
		"flyability" : 0,
		"reason" : "windDir",
		"timestamp" :1554811200
		},
	"2019-04-10T00:00:00+09:00" : {
		"windSpeed" : 0.4,
		"windDir" : 343,
		"rain" : 0,
		"cloudbase" : 5921.566,
		"flyability" : 0,
		"reason" : "windDir",
		"timestamp" :1554822000
		},
	"2019-04-10T03:00:00+09:00" : {
		"windSpeed" : 1,
		"windDir" : 354,
		"rain" : 0,
		"cloudbase" : 4647.4,
		"flyability" : 0,
		"reason" : "windDir",
		"timestamp" :1554832800
		},
	"2019-04-10T06:00:00+09:00" : {
		"windSpeed" : 0.9,
		"windDir" : 65,
		"rain" : 0,
		"cloudbase" : 4219.8250000002,
		"flyability" : 0,
		"reason" : "windDir",
		"timestamp" :1554843600
		},
	"2019-04-10T09:00:00+09:00" : {
		"windSpeed" : 2,
		"windDir" : 51,
		"rain" : 1,
		"cloudbase" : 2184.716,
		"flyability" : 0,
		"reason" : "windDir, rain",
		"timestamp" :1554854400
		}
	}
}