{
"site" : "Davos - Weissfluhjoch -2650",
"id" : 9759,
"orientations" : "00020000",
"forecasts" : { 
	"2019-04-21T05:00:00+02:00" : {
		"windSpeed" : 1.4,
		"windDir" : 136,
		"rain" : 0,
		"cloudbase" : 6422,
		"flyability" : 100,
		"reason" : "",
		"timestamp" :1555819200
		},
	"2019-04-21T08:00:00+02:00" : {
		"windSpeed" : 1.4,
		"windDir" : 135,
		"rain" : 0,
		"cloudbase" : null,
		"flyability" : 100,
		"reason" : "",
		"timestamp" :1555830000
		},
	"2019-04-21T11:00:00+02:00" : {
		"windSpeed" : 1.1,
		"windDir" : 216,
		"rain" : 0,
		"cloudbase" : null,
		"flyability" : 0,
		"reason" : "windDir",
		"timestamp" :1555840800
		},
	"2019-04-21T14:00:00+02:00" : {
		"windSpeed" : 1.1,
		"windDir" : 216,
		"rain" : 0,
		"cloudbase" : null,
		"flyability" : 0,
		"reason" : "windDir",
		"timestamp" :1555851600
		},
	"2019-04-21T17:00:00+02:00" : {
		"windSpeed" : 1.5,
		"windDir" : 190,
		"rain" : 0,
		"cloudbase" : null,
		"flyability" : 0,
		"reason" : "windDir",
		"timestamp" :1555862400
		},
	"2019-04-21T20:00:00+02:00" : {
		"windSpeed" : 1.4,
		"windDir" : 136,
		"rain" : 0,
		"cloudbase" : null,
		"flyability" : 100,
		"reason" : "",
		"timestamp" :1555873200
		},
	"2019-04-21T23:00:00+02:00" : {
		"windSpeed" : 1.4,
		"windDir" : 136,
		"rain" : 0,
		"cloudbase" : 8752,
		"flyability" : 100,
		"reason" : "",
		"timestamp" :1555884000
		},
	"2019-04-22T02:00:00+02:00" : {
		"windSpeed" : 1.9,
		"windDir" : 136,
		"rain" : 0,
		"cloudbase" : 8216,
		"flyability" : 100,
		"reason" : "",
		"timestamp" :1555894800
		},
	"2019-04-22T05:00:00+02:00" : {
		"windSpeed" : 2,
		"windDir" : 133,
		"rain" : 0,
		"cloudbase" : 7752,
		"flyability" : 100,
		"reason" : "",
		"timestamp" :1555905600
		},
	"2019-04-22T08:00:00+02:00" : {
		"windSpeed" : 1.7,
		"windDir" : 144,
		"rain" : 0,
		"cloudbase" : null,
		"flyability" : 100,
		"reason" : "",
		"timestamp" :1555916400
		},
	"2019-04-22T11:00:00+02:00" : {
		"windSpeed" : 1.4,
		"windDir" : 184,
		"rain" : 0,
		"cloudbase" : 5484,
		"flyability" : 0,
		"reason" : "windDir",
		"timestamp" :1555927200
		},
	"2019-04-22T14:00:00+02:00" : {
		"windSpeed" : 1.9,
		"windDir" : 168,
		"rain" : 0,
		"cloudbase" : 4683.88,
		"flyability" : 0,
		"reason" : "windDir",
		"timestamp" :1555938000
		},
	"2019-04-22T17:00:00+02:00" : {
		"windSpeed" : 1.9,
		"windDir" : 152,
		"rain" : 0,
		"cloudbase" : 4932.08,
		"flyability" : 100,
		"reason" : "",
		"timestamp" :1555948800
		},
	"2019-04-22T20:00:00+02:00" : {
		"windSpeed" : 1.8,
		"windDir" : 146,
		"rain" : 0,
		"cloudbase" : null,
		"flyability" : 100,
		"reason" : "",
		"timestamp" :1555959600
		},
	"2019-04-22T23:00:00+02:00" : {
		"windSpeed" : 2,
		"windDir" : 139,
		"rain" : 0,
		"cloudbase" : 9000,
		"flyability" : 100,
		"reason" : "",
		"timestamp" :1555970400
		},
	"2019-04-23T02:00:00+02:00" : {
		"windSpeed" : 2.1,
		"windDir" : 151,
		"rain" : 0,
		"cloudbase" : 6121.1600000001,
		"flyability" : 100,
		"reason" : "",
		"timestamp" :1555981200
		},
	"2019-04-23T05:00:00+02:00" : {
		"windSpeed" : 2,
		"windDir" : 155,
		"rain" : 0,
		"cloudbase" : 4800,
		"flyability" : 100,
		"reason" : "",
		"timestamp" :1555992000
		},
	"2019-04-23T08:00:00+02:00" : {
		"windSpeed" : 2.3,
		"windDir" : 144,
		"rain" : 0,
		"cloudbase" : 4169,
		"flyability" : 100,
		"reason" : "",
		"timestamp" :1556002800
		},
	"2019-04-23T11:00:00+02:00" : {
		"windSpeed" : 2.5,
		"windDir" : 163,
		"rain" : 0,
		"cloudbase" : 960,
		"flyability" : 0,
		"reason" : "windDir, cloudbase",
		"timestamp" :1556013600
		},
	"2019-04-23T14:00:00+02:00" : {
		"windSpeed" : 2.5,
		"windDir" : 160,
		"rain" : 0,
		"cloudbase" : 840,
		"flyability" : 0,
		"reason" : "windDir, cloudbase",
		"timestamp" :1556024400
		},
	"2019-04-23T17:00:00+02:00" : {
		"windSpeed" : 2.1,
		"windDir" : 151,
		"rain" : 0,
		"cloudbase" : 860,
		"flyability" : 0,
		"reason" : "cloudbase",
		"timestamp" :1556035200
		},
	"2019-04-23T20:00:00+02:00" : {
		"windSpeed" : 2.1,
		"windDir" : 135,
		"rain" : 0,
		"cloudbase" : 3544.2560000003,
		"flyability" : 100,
		"reason" : "",
		"timestamp" :1556046000
		},
	"2019-04-23T23:00:00+02:00" : {
		"windSpeed" : 2.3,
		"windDir" : 144,
		"rain" : 1,
		"cloudbase" : 5574.0800000001,
		"flyability" : 0,
		"reason" : "rain",
		"timestamp" :1556056800
		},
	"2019-04-24T02:00:00+02:00" : {
		"windSpeed" : 2.3,
		"windDir" : 144,
		"rain" : 1,
		"cloudbase" : 5949.76,
		"flyability" : 0,
		"reason" : "rain",
		"timestamp" :1556067600
		},
	"2019-04-24T05:00:00+02:00" : {
		"windSpeed" : 2.3,
		"windDir" : 144,
		"rain" : 1,
		"cloudbase" : 5179.76,
		"flyability" : 0,
		"reason" : "rain",
		"timestamp" :1556078400
		},
	"2019-04-24T08:00:00+02:00" : {
		"windSpeed" : 2.3,
		"windDir" : 144,
		"rain" : 1,
		"cloudbase" : 6427.36,
		"flyability" : 0,
		"reason" : "rain",
		"timestamp" :1556089200
		},
	"2019-04-24T11:00:00+02:00" : {
		"windSpeed" : 2.9,
		"windDir" : 173,
		"rain" : 1,
		"cloudbase" : 4324.2000000003,
		"flyability" : 0,
		"reason" : "windDir, rain",
		"timestamp" :1556100000
		},
	"2019-04-24T14:00:00+02:00" : {
		"windSpeed" : 4,
		"windDir" : 175,
		"rain" : 1,
		"cloudbase" : 4152.0800000003,
		"flyability" : 0,
		"reason" : "windDir, rain",
		"timestamp" :1556110800
		},
	"2019-04-24T17:00:00+02:00" : {
		"windSpeed" : 2.9,
		"windDir" : 159,
		"rain" : 1,
		"cloudbase" : 4109.8400000003,
		"flyability" : 0,
		"reason" : "windDir, rain",
		"timestamp" :1556121600
		},
	"2019-04-24T20:00:00+02:00" : {
		"windSpeed" : 3.5,
		"windDir" : 147,
		"rain" : 1,
		"cloudbase" : 620,
		"flyability" : 0,
		"reason" : "rain, cloudbase",
		"timestamp" :1556132400
		},
	"2019-04-24T23:00:00+02:00" : {
		"windSpeed" : 2.8,
		"windDir" : 155,
		"rain" : 1,
		"cloudbase" : 3387.2000000002,
		"flyability" : 0,
		"reason" : "rain",
		"timestamp" :1556143200
		},
	"2019-04-25T02:00:00+02:00" : {
		"windSpeed" : 2.7,
		"windDir" : 151,
		"rain" : 1,
		"cloudbase" : 602.82400000003,
		"flyability" : 0,
		"reason" : "rain, cloudbase",
		"timestamp" :1556154000
		},
	"2019-04-25T05:00:00+02:00" : {
		"windSpeed" : 2.9,
		"windDir" : 159,
		"rain" : 0,
		"cloudbase" : 90,
		"flyability" : 0,
		"reason" : "windDir, cloudbase",
		"timestamp" :1556164800
		},
	"2019-04-25T08:00:00+02:00" : {
		"windSpeed" : 2.6,
		"windDir" : 149,
		"rain" : 0,
		"cloudbase" : null,
		"flyability" : 100,
		"reason" : "",
		"timestamp" :1556175600
		},
	"2019-04-25T11:00:00+02:00" : {
		"windSpeed" : 3,
		"windDir" : 163,
		"rain" : 1,
		"cloudbase" : null,
		"flyability" : 0,
		"reason" : "windDir, rain",
		"timestamp" :1556186400
		},
	"2019-04-25T14:00:00+02:00" : {
		"windSpeed" : 4.6,
		"windDir" : 169,
		"rain" : 0,
		"cloudbase" : 7762,
		"flyability" : 0,
		"reason" : "windDir",
		"timestamp" :1556197200
		},
	"2019-04-25T17:00:00+02:00" : {
		"windSpeed" : 4,
		"windDir" : 170,
		"rain" : 0,
		"cloudbase" : 960,
		"flyability" : 0,
		"reason" : "windDir, cloudbase",
		"timestamp" :1556208000
		},
	"2019-04-25T20:00:00+02:00" : {
		"windSpeed" : 2.4,
		"windDir" : 171,
		"rain" : 0,
		"cloudbase" : 7600,
		"flyability" : 0,
		"reason" : "windDir",
		"timestamp" :1556218800
		},
	"2019-04-25T23:00:00+02:00" : {
		"windSpeed" : 2.7,
		"windDir" : 161,
		"rain" : 0,
		"cloudbase" : 460,
		"flyability" : 0,
		"reason" : "windDir, cloudbase",
		"timestamp" :1556229600
		},
	"2019-04-26T02:00:00+02:00" : {
		"windSpeed" : 2.6,
		"windDir" : 157,
		"rain" : 1,
		"cloudbase" : 300,
		"flyability" : 0,
		"reason" : "windDir, rain, cloudbase",
		"timestamp" :1556240400
		},
	"2019-04-26T05:00:00+02:00" : {
		"windSpeed" : 2.4,
		"windDir" : 156,
		"rain" : 0,
		"cloudbase" : 40,
		"flyability" : 0,
		"reason" : "windDir, cloudbase",
		"timestamp" :1556251200
		},
	"2019-04-26T08:00:00+02:00" : {
		"windSpeed" : 1.9,
		"windDir" : 169,
		"rain" : 0,
		"cloudbase" : 480,
		"flyability" : 0,
		"reason" : "windDir, cloudbase",
		"timestamp" :1556262000
		},
	"2019-04-26T11:00:00+02:00" : {
		"windSpeed" : 2.9,
		"windDir" : 183,
		"rain" : 1,
		"cloudbase" : null,
		"flyability" : 0,
		"reason" : "windDir, rain",
		"timestamp" :1556272800
		},
	"2019-04-26T14:00:00+02:00" : {
		"windSpeed" : 1.2,
		"windDir" : 282,
		"rain" : 0,
		"cloudbase" : 680.19199999996,
		"flyability" : 0,
		"reason" : "windDir, cloudbase",
		"timestamp" :1556283600
		},
	"2019-04-26T17:00:00+02:00" : {
		"windSpeed" : 1.4,
		"windDir" : 345,
		"rain" : 0,
		"cloudbase" : 389.66400000002,
		"flyability" : 0,
		"reason" : "windDir, cloudbase",
		"timestamp" :1556294400
		},
	"2019-04-26T20:00:00+02:00" : {
		"windSpeed" : 0.8,
		"windDir" : 334,
		"rain" : 0,
		"cloudbase" : 1447.52,
		"flyability" : 0,
		"reason" : "windDir, cloudbase",
		"timestamp" :1556305200
		},
	"2019-04-26T23:00:00+02:00" : {
		"windSpeed" : 0.9,
		"windDir" : 34,
		"rain" : 0,
		"cloudbase" : 480,
		"flyability" : 0,
		"reason" : "windDir, cloudbase",
		"timestamp" :1556316000
		},
	"2019-04-27T02:00:00+02:00" : {
		"windSpeed" : 1.3,
		"windDir" : 343,
		"rain" : 0,
		"cloudbase" : 276.16800000001,
		"flyability" : 0,
		"reason" : "windDir, cloudbase",
		"timestamp" :1556326800
		}
	}
}