{
"site" : "Sirkot",
"id" : 9896,
"orientations" : "00012100",
"forecasts" : { 
	"2019-04-06T20:45:00+05:45" : {
		"windSpeed" : 1.5,
		"windDir" : 334,
		"rain" : 0,
		"cloudbase" : 7840.335,
		"flyability" : 0,
		"reason" : "windDir",
		"timestamp" :1554566400
		},
	"2019-04-06T23:45:00+05:45" : {
		"windSpeed" : 0.9,
		"windDir" : 46,
		"rain" : 0,
		"cloudbase" : 3017.0285000001,
		"flyability" : 0,
		"reason" : "windDir",
		"timestamp" :1554577200
		},
	"2019-04-07T02:45:00+05:45" : {
		"windSpeed" : 0.3,
		"windDir" : 69,
		"rain" : 1,
		"cloudbase" : 1087.9285,
		"flyability" : 0,
		"reason" : "windDir, rain, cloudbase",
		"timestamp" :1554588000
		},
	"2019-04-07T05:45:00+05:45" : {
		"windSpeed" : 0.6,
		"windDir" : 353,
		"rain" : 1,
		"cloudbase" : 700,
		"flyability" : 0,
		"reason" : "windDir, rain, cloudbase",
		"timestamp" :1554598800
		},
	"2019-04-07T08:45:00+05:45" : {
		"windSpeed" : 0.6,
		"windDir" : 77,
		"rain" : 1,
		"cloudbase" : null,
		"flyability" : 0,
		"reason" : "windDir, rain",
		"timestamp" :1554609600
		},
	"2019-04-07T11:45:00+05:45" : {
		"windSpeed" : 0.7,
		"windDir" : 58,
		"rain" : 0,
		"cloudbase" : 7498.43,
		"flyability" : 0,
		"reason" : "windDir",
		"timestamp" :1554620400
		},
	"2019-04-07T14:45:00+05:45" : {
		"windSpeed" : 0.7,
		"windDir" : 63,
		"rain" : 0,
		"cloudbase" : null,
		"flyability" : 0,
		"reason" : "windDir",
		"timestamp" :1554631200
		},
	"2019-04-07T17:45:00+05:45" : {
		"windSpeed" : 0.2,
		"windDir" : 55,
		"rain" : 0,
		"cloudbase" : 7905.0875000002,
		"flyability" : 0,
		"reason" : "windDir",
		"timestamp" :1554642000
		},
	"2019-04-07T20:45:00+05:45" : {
		"windSpeed" : 0.8,
		"windDir" : 41,
		"rain" : 1,
		"cloudbase" : 1615.1325,
		"flyability" : 0,
		"reason" : "windDir, rain",
		"timestamp" :1554652800
		},
	"2019-04-07T23:45:00+05:45" : {
		"windSpeed" : 1.4,
		"windDir" : 349,
		"rain" : 1,
		"cloudbase" : null,
		"flyability" : 0,
		"reason" : "windDir, rain",
		"timestamp" :1554663600
		},
	"2019-04-08T02:45:00+05:45" : {
		"windSpeed" : 1.1,
		"windDir" : 333,
		"rain" : 0,
		"cloudbase" : null,
		"flyability" : 0,
		"reason" : "windDir",
		"timestamp" :1554674400
		},
	"2019-04-08T05:45:00+05:45" : {
		"windSpeed" : 0.9,
		"windDir" : 336,
		"rain" : 0,
		"cloudbase" : 9654.8,
		"flyability" : 0,
		"reason" : "windDir",
		"timestamp" :1554685200
		},
	"2019-04-08T08:45:00+05:45" : {
		"windSpeed" : 0.6,
		"windDir" : 116,
		"rain" : 0,
		"cloudbase" : null,
		"flyability" : 100,
		"reason" : "",
		"timestamp" :1554696000
		},
	"2019-04-08T11:45:00+05:45" : {
		"windSpeed" : 0.7,
		"windDir" : 230,
		"rain" : 0,
		"cloudbase" : null,
		"flyability" : 100,
		"reason" : "",
		"timestamp" :1554706800
		},
	"2019-04-08T14:45:00+05:45" : {
		"windSpeed" : 1.2,
		"windDir" : 212,
		"rain" : 0,
		"cloudbase" : 11000,
		"flyability" : 100,
		"reason" : "",
		"timestamp" :1554717600
		},
	"2019-04-08T17:45:00+05:45" : {
		"windSpeed" : 0.8,
		"windDir" : 188,
		"rain" : 1,
		"cloudbase" : 9700,
		"flyability" : 0,
		"reason" : "rain",
		"timestamp" :1554728400
		},
	"2019-04-08T20:45:00+05:45" : {
		"windSpeed" : 0.9,
		"windDir" : 319,
		"rain" : 0,
		"cloudbase" : 9730.265,
		"flyability" : 0,
		"reason" : "windDir",
		"timestamp" :1554739200
		},
	"2019-04-08T23:45:00+05:45" : {
		"windSpeed" : 1,
		"windDir" : 316,
		"rain" : 1,
		"cloudbase" : null,
		"flyability" : 0,
		"reason" : "windDir, rain",
		"timestamp" :1554750000
		},
	"2019-04-09T02:45:00+05:45" : {
		"windSpeed" : 0.7,
		"windDir" : 339,
		"rain" : 1,
		"cloudbase" : null,
		"flyability" : 0,
		"reason" : "windDir, rain",
		"timestamp" :1554760800
		},
	"2019-04-09T05:45:00+05:45" : {
		"windSpeed" : 0.9,
		"windDir" : 335,
		"rain" : 0,
		"cloudbase" : null,
		"flyability" : 0,
		"reason" : "windDir",
		"timestamp" :1554771600
		},
	"2019-04-09T08:45:00+05:45" : {
		"windSpeed" : 0.3,
		"windDir" : 155,
		"rain" : 1,
		"cloudbase" : null,
		"flyability" : 0,
		"reason" : "rain",
		"timestamp" :1554782400
		},
	"2019-04-09T11:45:00+05:45" : {
		"windSpeed" : 0.6,
		"windDir" : 11,
		"rain" : 0,
		"cloudbase" : null,
		"flyability" : 0,
		"reason" : "windDir",
		"timestamp" :1554793200
		},
	"2019-04-09T14:45:00+05:45" : {
		"windSpeed" : 1.1,
		"windDir" : 247,
		"rain" : 0,
		"cloudbase" : 1050,
		"flyability" : 0,
		"reason" : "cloudbase",
		"timestamp" :1554804000
		},
	"2019-04-09T17:45:00+05:45" : {
		"windSpeed" : 1.4,
		"windDir" : 66,
		"rain" : 0,
		"cloudbase" : null,
		"flyability" : 0,
		"reason" : "windDir",
		"timestamp" :1554814800
		},
	"2019-04-09T20:45:00+05:45" : {
		"windSpeed" : 0.4,
		"windDir" : 360,
		"rain" : 0,
		"cloudbase" : 1050,
		"flyability" : 0,
		"reason" : "windDir, cloudbase",
		"timestamp" :1554825600
		},
	"2019-04-09T23:45:00+05:45" : {
		"windSpeed" : 0.5,
		"windDir" : 12,
		"rain" : 0,
		"cloudbase" : null,
		"flyability" : 0,
		"reason" : "windDir",
		"timestamp" :1554836400
		},
	"2019-04-10T02:45:00+05:45" : {
		"windSpeed" : 0.6,
		"windDir" : 37,
		"rain" : 1,
		"cloudbase" : 1050,
		"flyability" : 0,
		"reason" : "windDir, rain, cloudbase",
		"timestamp" :1554847200
		},
	"2019-04-10T05:45:00+05:45" : {
		"windSpeed" : 0.8,
		"windDir" : 360,
		"rain" : 1,
		"cloudbase" : 831.65349999996,
		"flyability" : 0,
		"reason" : "windDir, rain, cloudbase",
		"timestamp" :1554858000
		},
	"2019-04-10T08:45:00+05:45" : {
		"windSpeed" : 0.2,
		"windDir" : 180,
		"rain" : 1,
		"cloudbase" : null,
		"flyability" : 0,
		"reason" : "rain",
		"timestamp" :1554868800
		},
	"2019-04-10T11:45:00+05:45" : {
		"windSpeed" : 0.8,
		"windDir" : 171,
		"rain" : 0,
		"cloudbase" : 1300,
		"flyability" : 0,
		"reason" : "cloudbase",
		"timestamp" :1554879600
		},
	"2019-04-10T14:45:00+05:45" : {
		"windSpeed" : 2.5,
		"windDir" : 190,
		"rain" : 1,
		"cloudbase" : 1650,
		"flyability" : 0,
		"reason" : "rain",
		"timestamp" :1554890400
		},
	"2019-04-10T17:45:00+05:45" : {
		"windSpeed" : 1,
		"windDir" : 186,
		"rain" : 0,
		"cloudbase" : null,
		"flyability" : 100,
		"reason" : "",
		"timestamp" :1554901200
		},
	"2019-04-10T20:45:00+05:45" : {
		"windSpeed" : 0.6,
		"windDir" : 39,
		"rain" : 1,
		"cloudbase" : null,
		"flyability" : 0,
		"reason" : "windDir, rain",
		"timestamp" :1554912000
		},
	"2019-04-10T23:45:00+05:45" : {
		"windSpeed" : 0.5,
		"windDir" : 360,
		"rain" : 0,
		"cloudbase" : null,
		"flyability" : 0,
		"reason" : "windDir",
		"timestamp" :1554922800
		},
	"2019-04-11T02:45:00+05:45" : {
		"windSpeed" : 1.2,
		"windDir" : 335,
		"rain" : 0,
		"cloudbase" : null,
		"flyability" : 0,
		"reason" : "windDir",
		"timestamp" :1554933600
		},
	"2019-04-11T05:45:00+05:45" : {
		"windSpeed" : 0.6,
		"windDir" : 334,
		"rain" : 0,
		"cloudbase" : null,
		"flyability" : 0,
		"reason" : "windDir",
		"timestamp" :1554944400
		},
	"2019-04-11T08:45:00+05:45" : {
		"windSpeed" : 0.6,
		"windDir" : 192,
		"rain" : 1,
		"cloudbase" : null,
		"flyability" : 0,
		"reason" : "rain",
		"timestamp" :1554955200
		},
	"2019-04-11T11:45:00+05:45" : {
		"windSpeed" : 1.4,
		"windDir" : 242,
		"rain" : 1,
		"cloudbase" : 1054.48,
		"flyability" : 0,
		"reason" : "rain, cloudbase",
		"timestamp" :1554966000
		},
	"2019-04-11T14:45:00+05:45" : {
		"windSpeed" : 1.9,
		"windDir" : 243,
		"rain" : 0,
		"cloudbase" : 3400,
		"flyability" : 100,
		"reason" : "",
		"timestamp" :1554976800
		},
	"2019-04-11T17:45:00+05:45" : {
		"windSpeed" : 0.6,
		"windDir" : 177,
		"rain" : 1,
		"cloudbase" : 8924.7125000012,
		"flyability" : 0,
		"reason" : "rain",
		"timestamp" :1554987600
		},
	"2019-04-11T20:45:00+05:45" : {
		"windSpeed" : 1,
		"windDir" : 24,
		"rain" : 0,
		"cloudbase" : null,
		"flyability" : 0,
		"reason" : "windDir",
		"timestamp" :1554998400
		},
	"2019-04-11T23:45:00+05:45" : {
		"windSpeed" : 1.1,
		"windDir" : 343,
		"rain" : 1,
		"cloudbase" : 10500,
		"flyability" : 0,
		"reason" : "windDir, rain",
		"timestamp" :1555009200
		},
	"2019-04-12T02:45:00+05:45" : {
		"windSpeed" : 1,
		"windDir" : 338,
		"rain" : 1,
		"cloudbase" : 10387,
		"flyability" : 0,
		"reason" : "windDir, rain",
		"timestamp" :1555020000
		},
	"2019-04-12T05:45:00+05:45" : {
		"windSpeed" : 0.6,
		"windDir" : 360,
		"rain" : 0,
		"cloudbase" : null,
		"flyability" : 0,
		"reason" : "windDir",
		"timestamp" :1555030800
		},
	"2019-04-12T08:45:00+05:45" : {
		"windSpeed" : 0.6,
		"windDir" : 180,
		"rain" : 1,
		"cloudbase" : null,
		"flyability" : 0,
		"reason" : "rain",
		"timestamp" :1555041600
		},
	"2019-04-12T11:45:00+05:45" : {
		"windSpeed" : 1.2,
		"windDir" : 196,
		"rain" : 1,
		"cloudbase" : null,
		"flyability" : 0,
		"reason" : "rain",
		"timestamp" :1555052400
		},
	"2019-04-12T14:45:00+05:45" : {
		"windSpeed" : 1.4,
		"windDir" : 286,
		"rain" : 0,
		"cloudbase" : null,
		"flyability" : 0,
		"reason" : "windDir",
		"timestamp" :1555063200
		},
	"2019-04-12T17:45:00+05:45" : {
		"windSpeed" : 0.8,
		"windDir" : 299,
		"rain" : 0,
		"cloudbase" : 9863.8200000001,
		"flyability" : 0,
		"reason" : "windDir",
		"timestamp" :1555074000
		}
	}
}