{
"site" : "Edgewater",
"id" : 9908,
"orientations" : "22000000",
"forecasts" : { 
	"2019-04-13T23:00:00-04:00" : {
		"windSpeed" : 1.8,
		"windDir" : 319,
		"rain" : 0,
		"cloudbase" : 8346.8632,
		"flyability" : 0,
		"reason" : "windDir",
		"timestamp" :1555214400
		},
	"2019-04-14T02:00:00-04:00" : {
		"windSpeed" : 5.8,
		"windDir" : 28,
		"rain" : 0,
		"cloudbase" : 3030.95,
		"flyability" : 0,
		"reason" : "windSpeed",
		"timestamp" :1555225200
		},
	"2019-04-14T05:00:00-04:00" : {
		"windSpeed" : 5.7,
		"windDir" : 46,
		"rain" : 1,
		"cloudbase" : 4369.3421,
		"flyability" : 0,
		"reason" : "windSpeed, rain",
		"timestamp" :1555236000
		},
	"2019-04-14T08:00:00-04:00" : {
		"windSpeed" : 7.6,
		"windDir" : 48,
		"rain" : 1,
		"cloudbase" : 1980.95,
		"flyability" : 0,
		"reason" : "windSpeed, rain",
		"timestamp" :1555246800
		},
	"2019-04-14T11:00:00-04:00" : {
		"windSpeed" : 5.7,
		"windDir" : 77,
		"rain" : 1,
		"cloudbase" : 3430.54735,
		"flyability" : 0,
		"reason" : "windSpeed, windDir, rain",
		"timestamp" :1555257600
		},
	"2019-04-14T14:00:00-04:00" : {
		"windSpeed" : 5.1,
		"windDir" : 34,
		"rain" : 1,
		"cloudbase" : null,
		"flyability" : 0,
		"reason" : "windSpeed, rain",
		"timestamp" :1555268400
		},
	"2019-04-14T17:00:00-04:00" : {
		"windSpeed" : 8.1,
		"windDir" : 183,
		"rain" : 1,
		"cloudbase" : null,
		"flyability" : 0,
		"reason" : "windSpeed, windDir, rain",
		"timestamp" :1555279200
		},
	"2019-04-14T20:00:00-04:00" : {
		"windSpeed" : 2,
		"windDir" : 248,
		"rain" : 1,
		"cloudbase" : 1794.06579,
		"flyability" : 0,
		"reason" : "windDir, rain",
		"timestamp" :1555290000
		},
	"2019-04-14T23:00:00-04:00" : {
		"windSpeed" : 6,
		"windDir" : 284,
		"rain" : 1,
		"cloudbase" : 113.59158,
		"flyability" : 0,
		"reason" : "windSpeed, windDir, rain, cloudbase",
		"timestamp" :1555300800
		},
	"2019-04-15T02:00:00-04:00" : {
		"windSpeed" : 8.5,
		"windDir" : 273,
		"rain" : 0,
		"cloudbase" : 285.27,
		"flyability" : 0,
		"reason" : "windSpeed, windDir",
		"timestamp" :1555311600
		},
	"2019-04-15T05:00:00-04:00" : {
		"windSpeed" : 9.1,
		"windDir" : 278,
		"rain" : 1,
		"cloudbase" : 447.24103999999,
		"flyability" : 0,
		"reason" : "windSpeed, windDir, rain",
		"timestamp" :1555322400
		},
	"2019-04-15T08:00:00-04:00" : {
		"windSpeed" : 11.3,
		"windDir" : 294,
		"rain" : 1,
		"cloudbase" : 618.57684,
		"flyability" : 0,
		"reason" : "windSpeed, windDir, rain",
		"timestamp" :1555333200
		},
	"2019-04-15T11:00:00-04:00" : {
		"windSpeed" : 10.7,
		"windDir" : 303,
		"rain" : 0,
		"cloudbase" : 642.44526,
		"flyability" : 0,
		"reason" : "windSpeed, windDir",
		"timestamp" :1555344000
		},
	"2019-04-15T14:00:00-04:00" : {
		"windSpeed" : 9.7,
		"windDir" : 283,
		"rain" : 0,
		"cloudbase" : 1300,
		"flyability" : 0,
		"reason" : "windSpeed, windDir",
		"timestamp" :1555354800
		},
	"2019-04-15T17:00:00-04:00" : {
		"windSpeed" : 8.4,
		"windDir" : 277,
		"rain" : 0,
		"cloudbase" : null,
		"flyability" : 0,
		"reason" : "windSpeed, windDir",
		"timestamp" :1555365600
		},
	"2019-04-15T20:00:00-04:00" : {
		"windSpeed" : 4.9,
		"windDir" : 268,
		"rain" : 0,
		"cloudbase" : null,
		"flyability" : 0,
		"reason" : "windDir",
		"timestamp" :1555376400
		},
	"2019-04-15T23:00:00-04:00" : {
		"windSpeed" : 4.9,
		"windDir" : 256,
		"rain" : 1,
		"cloudbase" : null,
		"flyability" : 0,
		"reason" : "windDir, rain",
		"timestamp" :1555387200
		},
	"2019-04-16T02:00:00-04:00" : {
		"windSpeed" : 3.8,
		"windDir" : 243,
		"rain" : 1,
		"cloudbase" : null,
		"flyability" : 0,
		"reason" : "windDir, rain",
		"timestamp" :1555398000
		},
	"2019-04-16T05:00:00-04:00" : {
		"windSpeed" : 2.9,
		"windDir" : 222,
		"rain" : 1,
		"cloudbase" : 5374.6,
		"flyability" : 0,
		"reason" : "windDir, rain",
		"timestamp" :1555408800
		},
	"2019-04-16T08:00:00-04:00" : {
		"windSpeed" : 2.9,
		"windDir" : 200,
		"rain" : 0,
		"cloudbase" : 3560.15,
		"flyability" : 0,
		"reason" : "windDir",
		"timestamp" :1555419600
		},
	"2019-04-16T11:00:00-04:00" : {
		"windSpeed" : 3,
		"windDir" : 189,
		"rain" : 1,
		"cloudbase" : 2724.6632,
		"flyability" : 0,
		"reason" : "windDir, rain",
		"timestamp" :1555430400
		},
	"2019-04-16T14:00:00-04:00" : {
		"windSpeed" : 3.1,
		"windDir" : 178,
		"rain" : 1,
		"cloudbase" : null,
		"flyability" : 0,
		"reason" : "windDir, rain",
		"timestamp" :1555441200
		},
	"2019-04-16T17:00:00-04:00" : {
		"windSpeed" : 1.8,
		"windDir" : 308,
		"rain" : 0,
		"cloudbase" : 2450,
		"flyability" : 0,
		"reason" : "windDir",
		"timestamp" :1555452000
		},
	"2019-04-16T20:00:00-04:00" : {
		"windSpeed" : 3.6,
		"windDir" : 86,
		"rain" : 0,
		"cloudbase" : 1750,
		"flyability" : 0,
		"reason" : "windDir",
		"timestamp" :1555462800
		},
	"2019-04-16T23:00:00-04:00" : {
		"windSpeed" : 1.9,
		"windDir" : 74,
		"rain" : 1,
		"cloudbase" : 1737.9368,
		"flyability" : 0,
		"reason" : "windDir, rain",
		"timestamp" :1555473600
		},
	"2019-04-17T02:00:00-04:00" : {
		"windSpeed" : 2.1,
		"windDir" : 129,
		"rain" : 0,
		"cloudbase" : 2100,
		"flyability" : 0,
		"reason" : "windDir",
		"timestamp" :1555484400
		},
	"2019-04-17T05:00:00-04:00" : {
		"windSpeed" : 1.9,
		"windDir" : 118,
		"rain" : 1,
		"cloudbase" : 1910.58685,
		"flyability" : 0,
		"reason" : "windDir, rain",
		"timestamp" :1555495200
		},
	"2019-04-17T08:00:00-04:00" : {
		"windSpeed" : 3.1,
		"windDir" : 153,
		"rain" : 1,
		"cloudbase" : 4576.5656499999,
		"flyability" : 0,
		"reason" : "windDir, rain",
		"timestamp" :1555506000
		},
	"2019-04-17T11:00:00-04:00" : {
		"windSpeed" : 2.3,
		"windDir" : 193,
		"rain" : 0,
		"cloudbase" : 8362.4842,
		"flyability" : 0,
		"reason" : "windDir",
		"timestamp" :1555516800
		},
	"2019-04-17T14:00:00-04:00" : {
		"windSpeed" : 2.1,
		"windDir" : 21,
		"rain" : 1,
		"cloudbase" : 2825.4129999999,
		"flyability" : 0,
		"reason" : "rain",
		"timestamp" :1555527600
		},
	"2019-04-17T17:00:00-04:00" : {
		"windSpeed" : 1.2,
		"windDir" : 1,
		"rain" : 1,
		"cloudbase" : 5200,
		"flyability" : 0,
		"reason" : "rain",
		"timestamp" :1555538400
		},
	"2019-04-17T20:00:00-04:00" : {
		"windSpeed" : 2.6,
		"windDir" : 141,
		"rain" : 0,
		"cloudbase" : 7500,
		"flyability" : 0,
		"reason" : "windDir",
		"timestamp" :1555549200
		},
	"2019-04-17T23:00:00-04:00" : {
		"windSpeed" : 4.8,
		"windDir" : 168,
		"rain" : 0,
		"cloudbase" : null,
		"flyability" : 0,
		"reason" : "windDir",
		"timestamp" :1555560000
		},
	"2019-04-18T02:00:00-04:00" : {
		"windSpeed" : 4.5,
		"windDir" : 170,
		"rain" : 0,
		"cloudbase" : 11466.7895,
		"flyability" : 0,
		"reason" : "windDir",
		"timestamp" :1555570800
		},
	"2019-04-18T05:00:00-04:00" : {
		"windSpeed" : 5.8,
		"windDir" : 163,
		"rain" : 0,
		"cloudbase" : 10000,
		"flyability" : 0,
		"reason" : "windSpeed, windDir",
		"timestamp" :1555581600
		},
	"2019-04-18T08:00:00-04:00" : {
		"windSpeed" : 6.4,
		"windDir" : 171,
		"rain" : 1,
		"cloudbase" : 5664.9397500001,
		"flyability" : 0,
		"reason" : "windSpeed, windDir, rain",
		"timestamp" :1555592400
		},
	"2019-04-18T11:00:00-04:00" : {
		"windSpeed" : 7.1,
		"windDir" : 178,
		"rain" : 0,
		"cloudbase" : 7287.3,
		"flyability" : 0,
		"reason" : "windSpeed, windDir",
		"timestamp" :1555603200
		},
	"2019-04-18T14:00:00-04:00" : {
		"windSpeed" : 5.9,
		"windDir" : 150,
		"rain" : 1,
		"cloudbase" : null,
		"flyability" : 0,
		"reason" : "windSpeed, windDir, rain",
		"timestamp" :1555614000
		},
	"2019-04-18T17:00:00-04:00" : {
		"windSpeed" : 9,
		"windDir" : 159,
		"rain" : 0,
		"cloudbase" : 7600,
		"flyability" : 0,
		"reason" : "windSpeed, windDir",
		"timestamp" :1555624800
		},
	"2019-04-18T20:00:00-04:00" : {
		"windSpeed" : 7.4,
		"windDir" : 164,
		"rain" : 1,
		"cloudbase" : 10500,
		"flyability" : 0,
		"reason" : "windSpeed, windDir, rain",
		"timestamp" :1555635600
		},
	"2019-04-18T23:00:00-04:00" : {
		"windSpeed" : 8,
		"windDir" : 170,
		"rain" : 1,
		"cloudbase" : 8858.9264,
		"flyability" : 0,
		"reason" : "windSpeed, windDir, rain",
		"timestamp" :1555646400
		},
	"2019-04-19T02:00:00-04:00" : {
		"windSpeed" : 8.4,
		"windDir" : 175,
		"rain" : 0,
		"cloudbase" : 3349.7079,
		"flyability" : 0,
		"reason" : "windSpeed, windDir",
		"timestamp" :1555657200
		},
	"2019-04-19T05:00:00-04:00" : {
		"windSpeed" : 8.2,
		"windDir" : 166,
		"rain" : 1,
		"cloudbase" : 4919.3421,
		"flyability" : 0,
		"reason" : "windSpeed, windDir, rain",
		"timestamp" :1555668000
		},
	"2019-04-19T08:00:00-04:00" : {
		"windSpeed" : 5.1,
		"windDir" : 193,
		"rain" : 1,
		"cloudbase" : 1241.9,
		"flyability" : 0,
		"reason" : "windSpeed, windDir, rain",
		"timestamp" :1555678800
		},
	"2019-04-19T11:00:00-04:00" : {
		"windSpeed" : 4.9,
		"windDir" : 197,
		"rain" : 0,
		"cloudbase" : 2446.67895,
		"flyability" : 0,
		"reason" : "windDir",
		"timestamp" :1555689600
		},
	"2019-04-19T14:00:00-04:00" : {
		"windSpeed" : 5.9,
		"windDir" : 159,
		"rain" : 1,
		"cloudbase" : 6774.0158,
		"flyability" : 0,
		"reason" : "windSpeed, windDir, rain",
		"timestamp" :1555700400
		},
	"2019-04-19T17:00:00-04:00" : {
		"windSpeed" : 6.1,
		"windDir" : 201,
		"rain" : 0,
		"cloudbase" : 8280.6579,
		"flyability" : 0,
		"reason" : "windSpeed, windDir",
		"timestamp" :1555711200
		},
	"2019-04-19T20:00:00-04:00" : {
		"windSpeed" : 4,
		"windDir" : 240,
		"rain" : 0,
		"cloudbase" : null,
		"flyability" : 0,
		"reason" : "windDir",
		"timestamp" :1555722000
		}
	}
}