{
"site" : "Rio Sabor - Estevais",
"id" : 9991,
"orientations" : "00022211",
"forecasts" : { 
	"2019-04-09T04:00:00+01:00" : {
		"windSpeed" : 2.1,
		"windDir" : 191,
		"rain" : 1,
		"cloudbase" : 2319.4860299999,
		"flyability" : 0,
		"reason" : "rain",
		"timestamp" :1554775200
		},
	"2019-04-09T07:00:00+01:00" : {
		"windSpeed" : 1.8,
		"windDir" : 164,
		"rain" : 1,
		"cloudbase" : 696.61238,
		"flyability" : 0,
		"reason" : "rain",
		"timestamp" :1554786000
		},
	"2019-04-09T10:00:00+01:00" : {
		"windSpeed" : 2.9,
		"windDir" : 239,
		"rain" : 1,
		"cloudbase" : 940,
		"flyability" : 0,
		"reason" : "rain",
		"timestamp" :1554796800
		},
	"2019-04-09T13:00:00+01:00" : {
		"windSpeed" : 5.1,
		"windDir" : 277,
		"rain" : 1,
		"cloudbase" : null,
		"flyability" : 0,
		"reason" : "windSpeed, rain",
		"timestamp" :1554807600
		},
	"2019-04-09T16:00:00+01:00" : {
		"windSpeed" : 5.6,
		"windDir" : 266,
		"rain" : 1,
		"cloudbase" : null,
		"flyability" : 0,
		"reason" : "windSpeed, rain",
		"timestamp" :1554818400
		},
	"2019-04-09T19:00:00+01:00" : {
		"windSpeed" : 3.6,
		"windDir" : 256,
		"rain" : 1,
		"cloudbase" : null,
		"flyability" : 0,
		"reason" : "rain",
		"timestamp" :1554829200
		},
	"2019-04-09T22:00:00+01:00" : {
		"windSpeed" : 2.2,
		"windDir" : 244,
		"rain" : 0,
		"cloudbase" : null,
		"flyability" : 100,
		"reason" : "",
		"timestamp" :1554840000
		},
	"2019-04-10T01:00:00+01:00" : {
		"windSpeed" : 1.6,
		"windDir" : 248,
		"rain" : 1,
		"cloudbase" : null,
		"flyability" : 0,
		"reason" : "rain",
		"timestamp" :1554850800
		},
	"2019-04-10T04:00:00+01:00" : {
		"windSpeed" : 1.6,
		"windDir" : 245,
		"rain" : 1,
		"cloudbase" : null,
		"flyability" : 0,
		"reason" : "rain",
		"timestamp" :1554861600
		},
	"2019-04-10T07:00:00+01:00" : {
		"windSpeed" : 1.5,
		"windDir" : 243,
		"rain" : 0,
		"cloudbase" : null,
		"flyability" : 100,
		"reason" : "",
		"timestamp" :1554872400
		},
	"2019-04-10T10:00:00+01:00" : {
		"windSpeed" : 3.7,
		"windDir" : 303,
		"rain" : 0,
		"cloudbase" : 1271.6,
		"flyability" : 100,
		"reason" : "",
		"timestamp" :1554883200
		},
	"2019-04-10T13:00:00+01:00" : {
		"windSpeed" : 3.9,
		"windDir" : 326,
		"rain" : 1,
		"cloudbase" : 1450,
		"flyability" : 0,
		"reason" : "rain",
		"timestamp" :1554894000
		},
	"2019-04-10T16:00:00+01:00" : {
		"windSpeed" : 4.4,
		"windDir" : 317,
		"rain" : 1,
		"cloudbase" : null,
		"flyability" : 0,
		"reason" : "rain",
		"timestamp" :1554904800
		},
	"2019-04-10T19:00:00+01:00" : {
		"windSpeed" : 3.5,
		"windDir" : 332,
		"rain" : 0,
		"cloudbase" : null,
		"flyability" : 100,
		"reason" : "",
		"timestamp" :1554915600
		},
	"2019-04-10T22:00:00+01:00" : {
		"windSpeed" : 2.4,
		"windDir" : 321,
		"rain" : 0,
		"cloudbase" : null,
		"flyability" : 100,
		"reason" : "",
		"timestamp" :1554926400
		},
	"2019-04-11T01:00:00+01:00" : {
		"windSpeed" : 1.8,
		"windDir" : 333,
		"rain" : 0,
		"cloudbase" : null,
		"flyability" : 100,
		"reason" : "",
		"timestamp" :1554937200
		},
	"2019-04-11T04:00:00+01:00" : {
		"windSpeed" : 1.3,
		"windDir" : 7,
		"rain" : 0,
		"cloudbase" : null,
		"flyability" : 0,
		"reason" : "windDir",
		"timestamp" :1554948000
		},
	"2019-04-11T07:00:00+01:00" : {
		"windSpeed" : 1.2,
		"windDir" : 31,
		"rain" : 0,
		"cloudbase" : null,
		"flyability" : 0,
		"reason" : "windDir",
		"timestamp" :1554958800
		},
	"2019-04-11T10:00:00+01:00" : {
		"windSpeed" : 0.5,
		"windDir" : 5,
		"rain" : 0,
		"cloudbase" : null,
		"flyability" : 0,
		"reason" : "windDir",
		"timestamp" :1554969600
		},
	"2019-04-11T13:00:00+01:00" : {
		"windSpeed" : 1.6,
		"windDir" : 18,
		"rain" : 0,
		"cloudbase" : 1849.46905,
		"flyability" : 0,
		"reason" : "windDir",
		"timestamp" :1554980400
		},
	"2019-04-11T16:00:00+01:00" : {
		"windSpeed" : 3.5,
		"windDir" : 334,
		"rain" : 1,
		"cloudbase" : 2200,
		"flyability" : 0,
		"reason" : "rain",
		"timestamp" :1554991200
		},
	"2019-04-11T19:00:00+01:00" : {
		"windSpeed" : 0.6,
		"windDir" : 360,
		"rain" : 0,
		"cloudbase" : 8638.6,
		"flyability" : 0,
		"reason" : "windDir",
		"timestamp" :1555002000
		},
	"2019-04-11T22:00:00+01:00" : {
		"windSpeed" : 2.2,
		"windDir" : 298,
		"rain" : 1,
		"cloudbase" : 8600,
		"flyability" : 0,
		"reason" : "rain",
		"timestamp" :1555012800
		},
	"2019-04-12T01:00:00+01:00" : {
		"windSpeed" : 1.5,
		"windDir" : 346,
		"rain" : 0,
		"cloudbase" : 9001.0746,
		"flyability" : 0,
		"reason" : "windDir",
		"timestamp" :1555023600
		},
	"2019-04-12T04:00:00+01:00" : {
		"windSpeed" : 1.4,
		"windDir" : 16,
		"rain" : 0,
		"cloudbase" : 8900,
		"flyability" : 0,
		"reason" : "windDir",
		"timestamp" :1555034400
		},
	"2019-04-12T07:00:00+01:00" : {
		"windSpeed" : 1.5,
		"windDir" : 28,
		"rain" : 0,
		"cloudbase" : 8300,
		"flyability" : 0,
		"reason" : "windDir",
		"timestamp" :1555045200
		},
	"2019-04-12T10:00:00+01:00" : {
		"windSpeed" : 0.8,
		"windDir" : 61,
		"rain" : 0,
		"cloudbase" : 8400,
		"flyability" : 0,
		"reason" : "windDir",
		"timestamp" :1555056000
		},
	"2019-04-12T13:00:00+01:00" : {
		"windSpeed" : 0.9,
		"windDir" : 324,
		"rain" : 0,
		"cloudbase" : null,
		"flyability" : 100,
		"reason" : "",
		"timestamp" :1555066800
		},
	"2019-04-12T16:00:00+01:00" : {
		"windSpeed" : 1.8,
		"windDir" : 341,
		"rain" : 0,
		"cloudbase" : null,
		"flyability" : 0,
		"reason" : "windDir",
		"timestamp" :1555077600
		},
	"2019-04-12T19:00:00+01:00" : {
		"windSpeed" : 0.9,
		"windDir" : 13,
		"rain" : 0,
		"cloudbase" : null,
		"flyability" : 0,
		"reason" : "windDir",
		"timestamp" :1555088400
		},
	"2019-04-12T22:00:00+01:00" : {
		"windSpeed" : 1.6,
		"windDir" : 274,
		"rain" : 0,
		"cloudbase" : null,
		"flyability" : 100,
		"reason" : "",
		"timestamp" :1555099200
		},
	"2019-04-13T01:00:00+01:00" : {
		"windSpeed" : 1,
		"windDir" : 294,
		"rain" : 0,
		"cloudbase" : 8105.4872999999,
		"flyability" : 100,
		"reason" : "",
		"timestamp" :1555110000
		},
	"2019-04-13T04:00:00+01:00" : {
		"windSpeed" : 0.7,
		"windDir" : 322,
		"rain" : 0,
		"cloudbase" : 7900,
		"flyability" : 100,
		"reason" : "",
		"timestamp" :1555120800
		},
	"2019-04-13T07:00:00+01:00" : {
		"windSpeed" : 1,
		"windDir" : 30,
		"rain" : 0,
		"cloudbase" : null,
		"flyability" : 0,
		"reason" : "windDir",
		"timestamp" :1555131600
		},
	"2019-04-13T10:00:00+01:00" : {
		"windSpeed" : 0.1,
		"windDir" : 90,
		"rain" : 0,
		"cloudbase" : null,
		"flyability" : 0,
		"reason" : "windDir",
		"timestamp" :1555142400
		},
	"2019-04-13T13:00:00+01:00" : {
		"windSpeed" : 0.8,
		"windDir" : 246,
		"rain" : 0,
		"cloudbase" : null,
		"flyability" : 100,
		"reason" : "",
		"timestamp" :1555153200
		},
	"2019-04-13T16:00:00+01:00" : {
		"windSpeed" : 2,
		"windDir" : 279,
		"rain" : 0,
		"cloudbase" : null,
		"flyability" : 100,
		"reason" : "",
		"timestamp" :1555164000
		},
	"2019-04-13T19:00:00+01:00" : {
		"windSpeed" : 2.2,
		"windDir" : 280,
		"rain" : 0,
		"cloudbase" : 3150,
		"flyability" : 100,
		"reason" : "",
		"timestamp" :1555174800
		},
	"2019-04-13T22:00:00+01:00" : {
		"windSpeed" : 2,
		"windDir" : 283,
		"rain" : 0,
		"cloudbase" : null,
		"flyability" : 100,
		"reason" : "",
		"timestamp" :1555185600
		},
	"2019-04-14T01:00:00+01:00" : {
		"windSpeed" : 1.1,
		"windDir" : 237,
		"rain" : 0,
		"cloudbase" : 10500,
		"flyability" : 100,
		"reason" : "",
		"timestamp" :1555196400
		},
	"2019-04-14T04:00:00+01:00" : {
		"windSpeed" : 0.4,
		"windDir" : 229,
		"rain" : 0,
		"cloudbase" : 8904.6254,
		"flyability" : 100,
		"reason" : "",
		"timestamp" :1555207200
		},
	"2019-04-14T07:00:00+01:00" : {
		"windSpeed" : 0.7,
		"windDir" : 172,
		"rain" : 0,
		"cloudbase" : null,
		"flyability" : 100,
		"reason" : "",
		"timestamp" :1555218000
		},
	"2019-04-14T10:00:00+01:00" : {
		"windSpeed" : 0.7,
		"windDir" : 212,
		"rain" : 0,
		"cloudbase" : 11500,
		"flyability" : 100,
		"reason" : "",
		"timestamp" :1555228800
		},
	"2019-04-14T13:00:00+01:00" : {
		"windSpeed" : 1.8,
		"windDir" : 268,
		"rain" : 0,
		"cloudbase" : 8514.6873,
		"flyability" : 100,
		"reason" : "",
		"timestamp" :1555239600
		},
	"2019-04-14T16:00:00+01:00" : {
		"windSpeed" : 3.6,
		"windDir" : 260,
		"rain" : 0,
		"cloudbase" : 1705.0627499998,
		"flyability" : 100,
		"reason" : "",
		"timestamp" :1555250400
		},
	"2019-04-14T19:00:00+01:00" : {
		"windSpeed" : 3,
		"windDir" : 274,
		"rain" : 0,
		"cloudbase" : 3045.7436500002,
		"flyability" : 100,
		"reason" : "",
		"timestamp" :1555261200
		},
	"2019-04-14T22:00:00+01:00" : {
		"windSpeed" : 1.2,
		"windDir" : 246,
		"rain" : 0,
		"cloudbase" : null,
		"flyability" : 100,
		"reason" : "",
		"timestamp" :1555272000
		},
	"2019-04-15T01:00:00+01:00" : {
		"windSpeed" : 1.3,
		"windDir" : 177,
		"rain" : 0,
		"cloudbase" : 900,
		"flyability" : 100,
		"reason" : "",
		"timestamp" :1555282800
		}
	}
}